<?xml version="1.0" encoding="utf-8"?>
<!-- Generator: Adobe Illustrator 23.0.3, SVG Export Plug-In . SVG Version: 6.00 Build 0)  -->
<svg version="1.1" baseProfile="basic" id="Calque_1"
	 xmlns="http://www.w3.org/2000/svg" xmlns:xlink="http://www.w3.org/1999/xlink" x="0px" y="0px" viewBox="0 0 300 300"
	 xml:space="preserve">
<g>
	<g>
		<g>
			<path fill="#92C98D" d="M296.1,134.5c8-15.6,2.9-34.6-11.8-44.1c-9.2-5.9-15-15.9-15.5-26.9c-0.9-17.5-14.8-31.4-32.3-32.3l0,0
				c-10.9-0.5-20.9-6.3-26.9-15.5v0C200.1,1,181-4.1,165.4,3.9c-9.7,5-21.3,5-31,0c-15.6-8-34.6-2.9-44.1,11.8v0
				c-5.9,9.2-16,15-26.9,15.5C45.9,32.1,32,46,31.1,63.5c-0.5,10.9-6.3,20.9-15.5,26.9C0.9,99.9-4.2,118.9,3.7,134.5
				c5,9.7,5,21.3,0,31c-8,15.6-2.9,34.6,11.8,44.1c9.2,5.9,15,16,15.5,26.9C32,254,45.9,268,63.4,268.9c10.9,0.5,20.9,6.3,26.9,15.5
				v0c9.5,14.7,28.6,19.8,44.1,11.8c9.7-5,21.3-5,31,0c15.6,8,34.6,2.9,44.1-11.8v0c5.9-9.2,16-15,26.9-15.5l0,0
				c17.5-0.9,31.4-14.8,32.3-32.3c0.5-10.9,6.3-20.9,15.5-26.9c14.7-9.5,19.8-28.6,11.8-44.1C291.1,155.8,291.1,144.2,296.1,134.5z
				 M149.9,277.9c-70.2,0-127.3-57.1-127.3-127.3c0-70.2,57.1-127.3,127.3-127.3s127.3,57.1,127.3,127.3
				C277.3,220.8,220.1,277.9,149.9,277.9z"/>
			<path fill="#92C98D" d="M149.9,29.6c-66.7,0-121,54.3-121,121c0,66.7,54.3,121,121,121s121-54.3,121-121
				C270.9,83.8,216.6,29.6,149.9,29.6z"/>
		</g>
	</g>
	<g>
		<g>
			<path fill="#677515" d="M138.1,180.8c0,4-0.8,7.8-2.2,11.3c-1.4,3.6-5.3,13.7-7.8,16.5c-5.6,6.1-11.9,3-20.8,3
				c-17,0-35.8-12.3-35.8-29.3c0-8.2,8.3-17.1,13.5-22.6c5.6-5.9,13.5-9.6,22.3-9.6C124.3,150.1,138.1,163.9,138.1,180.8z"/>
			<path fill="#565E0D" d="M145.2,168.8l-18.6,5.1l5.6,20.1l18.6-5.1c5.6-1.6,9-7.4,7.5-12.9C156.7,170.5,150.9,167.2,145.2,168.8z"
				/>
			<path fill="#565E0D" d="M133.3,191c0,17.8-14.5,32.3-32.3,32.3c-17.8,0-32.3-14.5-32.3-32.3c0-17.8,14.5-32.3,32.3-32.3
				C118.9,158.7,133.3,173.2,133.3,191z"/>
			<path fill="#2B1405" d="M129.4,191c0,15.7-12.7,28.4-28.4,28.4c-15.7,0-28.4-12.7-28.4-28.4c0-15.7,12.7-28.4,28.4-28.4
				C116.7,162.6,129.4,175.3,129.4,191z"/>
			<g>
				<g>
					<path fill="#565E0D" d="M102.9,166.2c0-0.9-0.7-1.6-1.6-1.6h-0.4c-0.9,0-1.6,0.7-1.6,1.6v3.9c0,0.9,0.7,1.6,1.6,1.6h0.4
						c0.9,0,1.6-0.7,1.6-1.6V166.2z"/>
					<path fill="#565E0D" d="M102.9,211.9c0-0.9-0.7-1.6-1.6-1.6h-0.4c-0.9,0-1.6,0.7-1.6,1.6v3.9c0,0.9,0.7,1.6,1.6,1.6h0.4
						c0.9,0,1.6-0.7,1.6-1.6V211.9z"/>
				</g>
				<g>
					<path fill="#565E0D" d="M76.3,189.2c-0.9,0-1.6,0.7-1.6,1.6v0.4c0,0.9,0.7,1.6,1.6,1.6h3.9c0.9,0,1.6-0.7,1.6-1.6v-0.4
						c0-0.9-0.7-1.6-1.6-1.6H76.3z"/>
					<path fill="#565E0D" d="M121.9,189.2c-0.9,0-1.6,0.7-1.6,1.6v0.4c0,0.9,0.7,1.6,1.6,1.6h3.9c0.9,0,1.6-0.7,1.6-1.6v-0.4
						c0-0.9-0.7-1.6-1.6-1.6H121.9z"/>
				</g>
				<g>
					<path fill="#565E0D" d="M84.8,172.2c-0.6-0.6-1.7-0.6-2.3,0l-0.3,0.3c-0.6,0.6-0.6,1.7,0,2.3l2.7,2.7c0.6,0.6,1.7,0.6,2.3,0
						l0.3-0.3c0.6-0.6,0.6-1.7,0-2.3L84.8,172.2z"/>
					<path fill="#565E0D" d="M117.1,204.5c-0.6-0.6-1.7-0.6-2.3,0l-0.3,0.3c-0.6,0.6-0.6,1.7,0,2.3l2.7,2.7c0.6,0.6,1.7,0.6,2.3,0
						l0.3-0.3c0.6-0.6,0.6-1.7,0-2.3L117.1,204.5z"/>
				</g>
				<g>
					<path fill="#565E0D" d="M82.2,207.2c-0.6,0.6-0.6,1.7,0,2.3l0.3,0.3c0.6,0.6,1.7,0.6,2.3,0l2.7-2.7c0.6-0.6,0.6-1.7,0-2.3
						l-0.3-0.3c-0.6-0.6-1.7-0.6-2.3,0L82.2,207.2z"/>
					<path fill="#565E0D" d="M114.5,174.9c-0.6,0.6-0.6,1.7,0,2.3l0.3,0.3c0.6,0.6,1.7,0.6,2.3,0l2.7-2.7c0.6-0.6,0.6-1.7,0-2.3
						l-0.3-0.3c-0.6-0.6-1.7-0.6-2.3,0L114.5,174.9z"/>
				</g>
				<g>
					<path fill="#565E0D" d="M89.9,213.2c-0.3,0.8,0.1,1.8,0.9,2.1l0.4,0.2c0.8,0.3,1.8-0.1,2.1-0.9l1.5-3.6
						c0.3-0.8-0.1-1.8-0.9-2.1l-0.4-0.2c-0.8-0.3-1.8,0.1-2.1,0.9L89.9,213.2z"/>
					<path fill="#565E0D" d="M107.3,171c-0.3,0.8,0.1,1.8,0.9,2.1l0.4,0.2c0.8,0.3,1.8-0.1,2.1-0.9l1.5-3.6c0.3-0.8-0.1-1.8-0.9-2.1
						l-0.4-0.2c-0.8-0.3-1.8,0.1-2.1,0.9L107.3,171z"/>
				</g>
				<g>
					<path fill="#565E0D" d="M77.4,198.8c-0.8,0.3-1.2,1.3-0.9,2.1l0.2,0.4c0.3,0.8,1.3,1.2,2.1,0.9l3.6-1.5
						c0.8-0.3,1.2-1.3,0.9-2.1l-0.2-0.4c-0.3-0.8-1.3-1.2-2.1-0.9L77.4,198.8z"/>
					<path fill="#565E0D" d="M119.6,181.3c-0.8,0.3-1.2,1.3-0.9,2.1l0.2,0.4c0.3,0.8,1.3,1.2,2.1,0.9l3.6-1.5
						c0.8-0.3,1.2-1.3,0.9-2.1l-0.2-0.4c-0.3-0.8-1.3-1.2-2.1-0.9L119.6,181.3z"/>
				</g>
				<g>
					<path fill="#565E0D" d="M78.8,179.8c-0.8-0.3-1.8,0.1-2.1,0.9l-0.2,0.4c-0.3,0.8,0.1,1.8,0.9,2.1l3.6,1.5
						c0.8,0.3,1.8-0.1,2.1-0.9l0.2-0.4c0.3-0.8-0.1-1.8-0.9-2.1L78.8,179.8z"/>
					<path fill="#565E0D" d="M121,197.3c-0.8-0.3-1.8,0.1-2.1,0.9l-0.2,0.4c-0.3,0.8,0.1,1.8,0.9,2.1l3.6,1.5
						c0.8,0.3,1.8-0.1,2.1-0.9l0.2-0.4c0.3-0.8-0.1-1.8-0.9-2.1L121,197.3z"/>
				</g>
				<g>
					<path fill="#565E0D" d="M93.2,167.4c-0.3-0.8-1.3-1.2-2.1-0.9l-0.4,0.2c-0.8,0.3-1.2,1.3-0.9,2.1l1.5,3.6
						c0.3,0.8,1.3,1.2,2.1,0.9l0.4-0.2c0.8-0.3,1.2-1.3,0.9-2.1L93.2,167.4z"/>
					<path fill="#565E0D" d="M110.7,209.6c-0.3-0.8-1.3-1.2-2.1-0.9l-0.4,0.2c-0.8,0.3-1.2,1.3-0.9,2.1l1.5,3.6
						c0.3,0.8,1.3,1.2,2.1,0.9l0.4-0.2c0.8-0.3,1.2-1.3,0.9-2.1L110.7,209.6z"/>
				</g>
			</g>
			<path fill="#677515" d="M101,162.6c-15.7,0-28.4,12.7-28.4,28.4c0,15.7,12.7,28.4,28.4,28.4c15.7,0,28.4-12.7,28.4-28.4
				C129.4,175.3,116.7,162.6,101,162.6z M101,213.5c-12.4,0-22.5-10.1-22.5-22.5c0-12.4,10.1-22.5,22.5-22.5
				c12.4,0,22.5,10.1,22.5,22.5C123.5,203.4,113.5,213.5,101,213.5z"/>
			<path fill="#828C1C" d="M101,166.6c-13.5,0-24.5,11-24.5,24.5c0,13.5,11,24.5,24.5,24.5c13.5,0,24.5-11,24.5-24.5
				C125.5,177.5,114.5,166.6,101,166.6z M101,213.5c-12.4,0-22.5-10.1-22.5-22.5c0-12.4,10.1-22.5,22.5-22.5
				c12.4,0,22.5,10.1,22.5,22.5C123.5,203.4,113.5,213.5,101,213.5z"/>
			<path fill="#0F0601" d="M118.6,191c0,9.7-7.9,17.6-17.6,17.6c-9.7,0-17.6-7.9-17.6-17.6s7.9-17.6,17.6-17.6
				C110.8,173.4,118.6,181.3,118.6,191z"/>
			<path fill="#677515" d="M158.3,180.8c0,4,0.8,7.8,2.2,11.3c1.4,3.6,5.3,13.7,7.8,16.5c5.6,6.1,11.9,3,20.8,3
				c17,0,35.8-12.3,35.8-29.3c0-8.2-8.3-17.1-13.5-22.6c-5.6-5.9-13.5-9.6-22.3-9.6C172.1,150.1,158.3,163.9,158.3,180.8z"/>
			<path fill="#565E0D" d="M151.2,168.8l18.6,5.1l-5.6,20.1l-18.6-5.1c-5.6-1.6-9-7.4-7.5-12.9C139.7,170.5,145.5,167.2,151.2,168.8
				z"/>
			<path fill="#565E0D" d="M163.1,191c0,17.8,14.5,32.3,32.3,32.3c17.8,0,32.3-14.5,32.3-32.3c0-17.8-14.5-32.3-32.3-32.3
				C177.6,158.7,163.1,173.2,163.1,191z"/>
			<path fill="#2B1405" d="M167,191c0,15.7,12.7,28.4,28.4,28.4c15.7,0,28.4-12.7,28.4-28.4c0-15.7-12.7-28.4-28.4-28.4
				C179.7,162.6,167,175.3,167,191z"/>
			<g>
				<g>
					<path fill="#565E0D" d="M193.6,166.2c0-0.9,0.7-1.6,1.6-1.6h0.4c0.9,0,1.6,0.7,1.6,1.6v3.9c0,0.9-0.7,1.6-1.6,1.6h-0.4
						c-0.9,0-1.6-0.7-1.6-1.6V166.2z"/>
					<path fill="#565E0D" d="M193.6,211.9c0-0.9,0.7-1.6,1.6-1.6h0.4c0.9,0,1.6,0.7,1.6,1.6v3.9c0,0.9-0.7,1.6-1.6,1.6h-0.4
						c-0.9,0-1.6-0.7-1.6-1.6V211.9z"/>
				</g>
				<g>
					<path fill="#565E0D" d="M220.2,189.2c0.9,0,1.6,0.7,1.6,1.6v0.4c0,0.9-0.7,1.6-1.6,1.6h-3.9c-0.9,0-1.6-0.7-1.6-1.6v-0.4
						c0-0.9,0.7-1.6,1.6-1.6H220.2z"/>
					<path fill="#565E0D" d="M174.5,189.2c0.9,0,1.6,0.7,1.6,1.6v0.4c0,0.9-0.7,1.6-1.6,1.6h-3.9c-0.9,0-1.6-0.7-1.6-1.6v-0.4
						c0-0.9,0.7-1.6,1.6-1.6H174.5z"/>
				</g>
				<g>
					<path fill="#565E0D" d="M211.6,172.2c0.6-0.6,1.7-0.6,2.3,0l0.3,0.3c0.6,0.6,0.6,1.7,0,2.3l-2.7,2.7c-0.6,0.6-1.7,0.6-2.3,0
						l-0.3-0.3c-0.6-0.6-0.6-1.7,0-2.3L211.6,172.2z"/>
					<path fill="#565E0D" d="M179.3,204.5c0.6-0.6,1.7-0.6,2.3,0l0.3,0.3c0.6,0.6,0.6,1.7,0,2.3l-2.7,2.7c-0.6,0.6-1.7,0.6-2.3,0
						l-0.3-0.3c-0.6-0.6-0.6-1.7,0-2.3L179.3,204.5z"/>
				</g>
				<g>
					<path fill="#565E0D" d="M214.2,207.2c0.6,0.6,0.6,1.7,0,2.3l-0.3,0.3c-0.6,0.6-1.7,0.6-2.3,0l-2.7-2.7c-0.6-0.6-0.6-1.7,0-2.3
						l0.3-0.3c0.6-0.6,1.7-0.6,2.3,0L214.2,207.2z"/>
					<path fill="#565E0D" d="M181.9,174.9c0.6,0.6,0.6,1.7,0,2.3l-0.3,0.3c-0.6,0.6-1.7,0.6-2.3,0l-2.7-2.7c-0.6-0.6-0.6-1.7,0-2.3
						l0.3-0.3c0.6-0.6,1.7-0.6,2.3,0L181.9,174.9z"/>
				</g>
				<g>
					<path fill="#565E0D" d="M206.6,213.2c0.3,0.8-0.1,1.8-0.9,2.1l-0.4,0.2c-0.8,0.3-1.8-0.1-2.1-0.9l-1.5-3.6
						c-0.3-0.8,0.1-1.8,0.9-2.1l0.4-0.2c0.8-0.3,1.8,0.1,2.1,0.9L206.6,213.2z"/>
					<path fill="#565E0D" d="M189.1,171c0.3,0.8-0.1,1.8-0.9,2.1l-0.4,0.2c-0.8,0.3-1.8-0.1-2.1-0.9l-1.5-3.6
						c-0.3-0.8,0.1-1.8,0.9-2.1l0.4-0.2c0.8-0.3,1.8,0.1,2.1,0.9L189.1,171z"/>
				</g>
				<g>
					<path fill="#565E0D" d="M219,198.8c0.8,0.3,1.2,1.3,0.9,2.1l-0.2,0.4c-0.3,0.8-1.3,1.2-2.1,0.9l-3.6-1.5
						c-0.8-0.3-1.2-1.3-0.9-2.1l0.2-0.4c0.3-0.8,1.3-1.2,2.1-0.9L219,198.8z"/>
					<path fill="#565E0D" d="M176.8,181.3c0.8,0.3,1.2,1.3,0.9,2.1l-0.2,0.4c-0.3,0.8-1.3,1.2-2.1,0.9l-3.6-1.5
						c-0.8-0.3-1.2-1.3-0.9-2.1l0.2-0.4c0.3-0.8,1.3-1.2,2.1-0.9L176.8,181.3z"/>
				</g>
				<g>
					<path fill="#565E0D" d="M217.6,179.8c0.8-0.3,1.8,0.1,2.1,0.9l0.2,0.4c0.3,0.8-0.1,1.8-0.9,2.1l-3.6,1.5
						c-0.8,0.3-1.8-0.1-2.1-0.9l-0.2-0.4c-0.3-0.8,0.1-1.8,0.9-2.1L217.6,179.8z"/>
					<path fill="#565E0D" d="M175.4,197.3c0.8-0.3,1.8,0.1,2.1,0.9l0.2,0.4c0.3,0.8-0.1,1.8-0.9,2.1l-3.6,1.5
						c-0.8,0.3-1.8-0.1-2.1-0.9l-0.2-0.4c-0.3-0.8,0.1-1.8,0.9-2.1L175.4,197.3z"/>
				</g>
				<g>
					<path fill="#565E0D" d="M203.2,167.4c0.3-0.8,1.3-1.2,2.1-0.9l0.4,0.2c0.8,0.3,1.2,1.3,0.9,2.1l-1.5,3.6
						c-0.3,0.8-1.3,1.2-2.1,0.9l-0.4-0.2c-0.8-0.3-1.2-1.3-0.9-2.1L203.2,167.4z"/>
					<path fill="#565E0D" d="M185.7,209.6c0.3-0.8,1.3-1.2,2.1-0.9l0.4,0.2c0.8,0.3,1.2,1.3,0.9,2.1l-1.5,3.6
						c-0.3,0.8-1.3,1.2-2.1,0.9l-0.4-0.2c-0.8-0.3-1.2-1.3-0.9-2.1L185.7,209.6z"/>
				</g>
			</g>
			<path fill="#677515" d="M167,191c0,15.7,12.7,28.4,28.4,28.4c15.7,0,28.4-12.7,28.4-28.4c0-15.7-12.7-28.4-28.4-28.4
				C179.7,162.6,167,175.3,167,191z M172.9,191c0-12.4,10.1-22.5,22.5-22.5c12.4,0,22.5,10.1,22.5,22.5c0,12.4-10.1,22.5-22.5,22.5
				C183,213.5,172.9,203.4,172.9,191z"/>
			<path fill="#828C1C" d="M170.9,191c0,13.5,11,24.5,24.5,24.5c13.5,0,24.5-11,24.5-24.5c0-13.5-11-24.5-24.5-24.5
				C181.9,166.6,170.9,177.5,170.9,191z M172.9,191c0-12.4,10.1-22.5,22.5-22.5c12.4,0,22.5,10.1,22.5,22.5
				c0,12.4-10.1,22.5-22.5,22.5C183,213.5,172.9,203.4,172.9,191z"/>
			<path fill="#0F0601" d="M177.8,191c0,9.7,7.9,17.6,17.6,17.6c9.7,0,17.6-7.9,17.6-17.6s-7.9-17.6-17.6-17.6
				C185.7,173.4,177.8,181.3,177.8,191z"/>
			<path fill="#677515" d="M159.7,179.1c0,6.4-5.2,11.5-11.5,11.5c-6.4,0-11.5-5.2-11.5-11.5c0-6.4,5.2-11.5,11.5-11.5
				C154.6,167.6,159.7,172.8,159.7,179.1z"/>
			<path fill="#828C1C" d="M155.6,179.1c0,4.1-3.3,7.4-7.4,7.4c-4.1,0-7.4-3.3-7.4-7.4c0-4.1,3.3-7.4,7.4-7.4
				C152.3,171.7,155.6,175,155.6,179.1z"/>
			<path opacity="0.2" fill="#FFFFFF" d="M92.3,211.7l29.5-29.5c-1.1-2.5-2.6-4.7-4.4-6.7l-31.8,31.8
				C87.5,209.2,89.8,210.7,92.3,211.7z"/>
			<path opacity="0.2" fill="#FFFFFF" d="M83.3,204.9l31.6-31.6c-3.7-2.9-8.4-4.7-13.5-4.8l-22.8,22.8
				C78.6,196.5,80.4,201.1,83.3,204.9z"/>
			<path opacity="0.2" fill="#FFFFFF" d="M175.6,201.8l30.5-30.5c-2.7-1.5-5.8-2.4-9-2.6L173,192.8C173.2,196,174.1,199,175.6,201.8
				z"/>
			<path opacity="0.2" fill="#FFFFFF" d="M217.9,191c0-6.7-2.9-12.6-7.5-16.7L178.6,206c4.1,4.6,10.1,7.5,16.8,7.5
				c1.4,0,2.7-0.1,4-0.4l18.1-18.1C217.7,193.7,217.9,192.4,217.9,191z"/>
		</g>
		<g>
			<path fill="#D8BA8F" d="M68.8,155.5c0,0-9.1-70.8,81.1-72c90.2-1.3,80.6,72,80.6,72H68.8z"/>
			<path fill="#875F1F" d="M149.9,86.3c0.8,0.6,37.3,16.9,59,47.6C232.2,166.6,188.6,104.9,149.9,86.3z"/>
			<path fill="#875F1F" d="M143,86.2c0,0-32.6,12-55.1,44.4C64.5,164.2,113,98.3,143,86.2z"/>
			<path fill="#875F1F" d="M68.8,143.4c0,0,15.9,1.6,78.6,1.6s82.9-2.6,82.9-2.6l0.4,7.6H68.6L68.8,143.4z"/>
			<path fill="#D8BA8F" d="M254.1,161.2c0,4.5-43.5,2.5-104.2,2.5s-104.2,2-104.2-2.5c0-1.8,2.6-9.2,16.5-10.6
				c20.1-2,51.7-0.6,87.5-0.6c33.9,0,64.4-1.5,84.5,0.3C250.2,151.7,254.1,159.2,254.1,161.2z"/>
			<path fill="#875F1F" d="M147.5,86.3c0,0-2.8,57.6,0,58.7C151.5,146.7,155.6,114.5,147.5,86.3z"/>
			<path opacity="0.29" fill="#875F1F" d="M95,97.9c0,0-14.8,31.1,23.2,36.5s103.4,8.8,103.4,8.8l-153,6.8
				C68.6,150,66.9,116.9,95,97.9z"/>
		</g>
	</g>
</g>
</svg>
