<?xml version="1.0" encoding="utf-8"?>
<!-- Generator: Adobe Illustrator 23.0.3, SVG Export Plug-In . SVG Version: 6.00 Build 0)  -->
<svg version="1.1" baseProfile="basic" id="Calque_1"
	 xmlns="http://www.w3.org/2000/svg" xmlns:xlink="http://www.w3.org/1999/xlink" x="0px" y="0px" viewBox="0 0 300 300"
	 xml:space="preserve">
<g>
	<g>
		<g>
			<path fill="#A01717" d="M296.6,134.4c8-15.6,2.9-34.7-11.8-44.2c-9.2-6-15-16-15.5-26.9c-0.9-17.5-14.9-31.5-32.3-32.3l0,0
				c-11-0.5-21-6.3-26.9-15.5v0c-9.5-14.7-28.6-19.8-44.2-11.8c-9.8,5-21.3,5-31.1,0c-15.6-8-34.7-2.9-44.2,11.8v0
				c-6,9.2-16,15-26.9,15.5C46,31.8,32,45.8,31.1,63.2c-0.5,11-6.3,21-15.5,26.9C0.9,99.7-4.2,118.8,3.8,134.4c5,9.8,5,21.3,0,31.1
				c-8,15.6-2.9,34.7,11.8,44.2c9.2,6,15,16,15.5,26.9C32,254.1,46,268,63.5,268.9c11,0.6,21,6.3,26.9,15.5v0
				c9.5,14.7,28.6,19.8,44.2,11.8c9.8-5,21.3-5,31.1,0c15.6,8,34.7,2.9,44.2-11.8v0c6-9.2,16-15,26.9-15.5l0,0
				c17.5-0.9,31.5-14.9,32.3-32.3c0.6-11,6.3-21,15.5-26.9c14.7-9.5,19.8-28.6,11.8-44.2C291.6,155.7,291.6,144.1,296.6,134.4z
				 M150.2,278c-70.3,0-127.5-57.2-127.5-127.5c0-70.3,57.2-127.5,127.5-127.5s127.5,57.2,127.5,127.5
				C277.7,220.8,220.5,278,150.2,278z"/>
			<path fill="#A01717" d="M150.2,29.2C83.3,29.2,29,83.6,29,150.5c0,66.8,54.4,121.2,121.2,121.2s121.2-54.4,121.2-121.2
				C271.4,83.6,217,29.2,150.2,29.2z"/>
		</g>
	</g>
	<g>
		<g>
			<path fill="#FF97A4" d="M197.3,100.3c-6.9-4.7-31-17.1-61.4,12.3c-30.4-29.4-54.5-17-61.5-12.3c-20.1,13.7-26.3,43.8-13.9,68.5
				c22.3,44.5,71,61.2,73,61.9c1.5,0.5,3.1,0.5,4.6,0c2.1-0.7,50.8-17.4,73-61.9C223.6,144.1,217.4,114,197.3,100.3z"/>
			<path fill="#FF7D8D" d="M82.8,167.3c-12.4-24.7-6.2-54.7,13.9-68.5c1.7-1.2,4.6-2.9,8.5-4.3c-15.2-3.2-26.3,2.7-30.7,5.7
				c-20.1,13.7-26.3,43.8-13.9,68.5c22.3,44.5,71,61.2,73,61.9c1.5,0.5,3.1,0.5,4.6,0c0.5-0.2,4.5-1.5,10.4-4.3
				C133.9,219.9,100.2,202.2,82.8,167.3z"/>
		</g>
		<g>
			<path fill="#FE5578" d="M239.2,109.1c-8.4-5.7-21.7-6.9-35.4,5c-13.8-11.9-27.1-10.7-35.4-5c-12.4,8.5-16.2,26.8-8.7,41.7
				c12.7,25.6,40.7,35.1,41.9,35.5c1.5,0.5,3.1,0.5,4.6,0c1.2-0.4,29-9.9,41.9-35.5C255.4,135.7,251.6,117.4,239.2,109.1z"/>
			<path fill="#FE3F67" d="M216,180.2c-1.2-0.4-29-9.9-41.9-35.5c-7-13.9-4.1-30.9,6.4-39.9c-4.6,0.3-8.8,1.8-12.2,4.1
				c-12.4,8.5-16.2,26.8-8.7,41.7c12.7,25.6,40.7,35.1,41.9,35.5c1.5,0.5,3.1,0.5,4.6,0c0.5-0.2,5.5-1.8,12-5.6
				C217.3,180.6,216.7,180.5,216,180.2z"/>
		</g>
	</g>
</g>
</svg>
