<?xml version="1.0" encoding="utf-8"?>
<!-- Generator: Adobe Illustrator 23.0.3, SVG Export Plug-In . SVG Version: 6.00 Build 0)  -->
<svg version="1.1" baseProfile="basic" id="Calque_1"
	 xmlns="http://www.w3.org/2000/svg" xmlns:xlink="http://www.w3.org/1999/xlink" x="0px" y="0px" viewBox="0 0 300 300"
	 xml:space="preserve">
<g>
	<g>
		<g>
			<path fill="#63B4BA" d="M296.7,134.6c8-15.6,2.9-34.7-11.8-44.2c-9.2-6-15-16-15.6-26.9c-0.9-17.5-14.9-31.5-32.4-32.4l0,0
				c-11-0.6-21-6.3-26.9-15.6v0c-9.5-14.7-28.6-19.8-44.2-11.8c-9.8,5-21.3,5-31.1,0c-15.6-8-34.7-2.9-44.2,11.8v0
				c-6,9.2-16,15-26.9,15.6C46,31.9,32,45.9,31.2,63.4c-0.5,11-6.3,21-15.6,26.9C0.9,99.9-4.2,119,3.8,134.6c5,9.8,5,21.3,0,31.1
				c-8,15.6-2.9,34.7,11.8,44.2c9.2,6,15,16,15.6,26.9c0.9,17.5,14.9,31.5,32.4,32.4c11,0.6,21,6.3,26.9,15.6v0
				c9.5,14.7,28.6,19.8,44.2,11.8c9.8-5,21.3-5,31.1,0c15.6,8,34.7,2.9,44.2-11.8v0c6-9.2,16-15,26.9-15.6l0,0
				c17.5-0.9,31.5-14.9,32.4-32.4c0.6-11,6.3-21,15.6-26.9c14.7-9.5,19.8-28.6,11.8-44.2C291.7,155.9,291.7,144.3,296.7,134.6z
				 M150.2,278.3c-70.4,0-127.6-57.2-127.6-127.6c0-70.4,57.2-127.6,127.6-127.6s127.6,57.2,127.6,127.6
				C277.8,221,220.6,278.3,150.2,278.3z"/>
			<path fill="#63B4BA" d="M150.2,29.4C83.4,29.4,29,83.8,29,150.7c0,66.9,54.4,121.3,121.3,121.3s121.3-54.4,121.3-121.3
				C271.5,83.8,217.1,29.4,150.2,29.4z"/>
		</g>
	</g>
	<g>
		<g>
			<path fill="#E0E0E0" d="M137.4,148.5l10.8-12.2l-11.4-11.1c-9.2-9.2-17-18.9-23-30.6l-0.3,0.3c0,5.9-3,11.9-8.4,15.4
				c-3,2.2-6.5,3.2-10.3,3.2l-0.3,0.3c11.6,5.9,21.4,13.8,30.6,23L137.4,148.5z"/>
			<path fill="#E0E0E0" d="M182.9,171.2l-19.5-19.5l-10.8,12.2l18.9,18.9c7.3,7.3,16.2,20.3,23,30.6l0.3-0.3c0-5.9,3-11.9,8.4-15.7
				c3-2.2,6.8-3,10.3-3.2l0.3-0.3C203.2,187.4,190.2,178.5,182.9,171.2"/>
		</g>
		<g>
			<path fill="#C3C7CB" d="M92.8,75.7l8.4,14.6l-0.6,1.3c-2.2,4.6-7,7.3-11.9,7h-1.3L79,84.3c-5.4,8.1-3.8,19.8,4.9,26
				c6.2,4.6,14.9,4.6,21.4,0.3c10.3-7,11.1-20.8,3-29.2C103.9,77,98.5,75.1,92.8,75.7"/>
			<path fill="#C3C7CB" d="M215.4,232l-8.4-14.6l0.6-1.3c2.2-4.6,7-7.3,11.9-7h1.3l8.1,14.3c5.4-8.1,3.8-19.7-4.9-26
				c-6.2-4.6-14.9-4.6-21.4-0.3c-10.3,7-11.1,20.8-3,29.2C204.3,230.7,209.9,232.6,215.4,232"/>
		</g>
		<path fill="#7F7C79" d="M161.8,120.9c6.2-6.2,7-16,0.6-22.5c-12.7-12.7-20-11.3-34.4-11.3c21.6-9.5,37.3-11.6,53-4.3
			c6.8,3,9.5,5.7,14.9,11.1l9.7,9.7c2.4,2.4,4,5.7,4.6,8.9c0.8,5.1-0.6,6.2,3,10c1.1,1.1,2.7,1.1,3.8,0c1.1-1.1,2.7-1.1,3.8,0
			l9.5,9.5c2.2,2.2,2.2,5.4,0,7.6l-19.2,19.2c-2.2,2.2-5.4,2.2-7.6,0l-8.9-9.2c-1.1-1.1-1.1-2.7,0-3.8c1.1-1.1,1.1-3,0-4
			c-3.8-3.8-4.9-2.4-10-3c-3.5-0.6-6.5-2.2-8.9-4.6L161.8,120.9"/>
		<path fill="#565656" d="M161.8,120.9l-83.9,93.9c-3.2,3.2-3.5,8.6-0.3,11.6l3.8,3.8c3.2,3.2,8.4,3,11.6-0.3l84.1-94.1L161.8,120.9
			z"/>
		<g>
			<path fill="#7F7C79" d="M87.4,205.5l5.7,5.7c0.6,0.6,1.3,0.8,1.9,0.8c0.8,0,1.3-0.3,1.9-0.8c1.1-1.1,1.1-2.7,0-3.8l-5.7-5.6
				c-0.3-0.3-0.6-0.6-0.8-0.6l-3.2,3.8C87.1,205,87.1,205.3,87.4,205.5"/>
			<path fill="#7F7C79" d="M79.8,213.1l5.7,5.7c0.6,0.6,1.3,0.8,1.9,0.8c0.8,0,1.3-0.3,1.9-0.8c1.1-1.1,1.1-2.7,0-3.8l-5.7-5.7
				l-0.3-0.3L79.8,213.1C79.5,213.1,79.5,213.1,79.8,213.1"/>
		</g>
		<g>
			<path fill="#C3C7CB" d="M181,184.5l-4,4c1.1,1.3,2.2,2.7,3.2,4.3c0,0,0.3,0,0.3-0.3l4.3-4.3c1.1-1.1,1.1-2.7,0-3.8
				C183.7,183.4,182.1,183.4,181,184.5"/>
			<path fill="#C3C7CB" d="M188.6,192.3l-5.1,5.1c1.1,1.3,2.2,3,3.2,4.3l0.3-0.3l5.4-5.4c1.1-1.1,1.1-2.7,0-3.8
				S189.6,191.2,188.6,192.3"/>
		</g>
	</g>
</g>
</svg>
