<?xml version="1.0" encoding="utf-8"?>
<!-- Generator: Adobe Illustrator 23.0.3, SVG Export Plug-In . SVG Version: 6.00 Build 0)  -->
<svg version="1.1" baseProfile="basic" id="Calque_1"
	 xmlns="http://www.w3.org/2000/svg" xmlns:xlink="http://www.w3.org/1999/xlink" x="0px" y="0px" viewBox="0 0 300 300"
	 xml:space="preserve">
<g>
	<g>
		<g>
			<path fill="#8189D3" d="M296.7,134.4c8-15.6,2.9-34.7-11.8-44.2c-9.2-6-15-16-15.5-26.9c-0.9-17.5-14.9-31.5-32.3-32.3l0,0
				c-11-0.5-21-6.3-26.9-15.5v0c-9.5-14.7-28.6-19.8-44.2-11.8c-9.8,5-21.3,5-31.1,0c-15.6-8-34.7-2.9-44.2,11.8v0
				c-6,9.2-16,15-26.9,15.5c-17.5,0.9-31.5,14.9-32.3,32.3c-0.5,11-6.3,21-15.5,26.9C1.2,99.7-3.9,118.8,4.1,134.4
				c5,9.8,5,21.3,0,31.1c-8,15.6-2.9,34.7,11.8,44.2c9.2,6,15,16,15.5,26.9c0.9,17.5,14.9,31.5,32.3,32.3c11,0.5,21,6.3,26.9,15.5v0
				c9.5,14.7,28.6,19.8,44.2,11.8c9.8-5,21.3-5,31.1,0c15.6,8,34.7,2.9,44.2-11.8v0c6-9.2,16-15,26.9-15.5l0,0
				c17.5-0.9,31.5-14.9,32.3-32.3c0.5-11,6.3-21,15.5-26.9c14.7-9.5,19.8-28.6,11.8-44.2C291.7,155.7,291.7,144.1,296.7,134.4z
				 M150.4,277.9c-70.3,0-127.5-57.2-127.5-127.5C22.9,80.2,80.1,23,150.4,23s127.5,57.2,127.5,127.5
				C277.9,220.7,220.7,277.9,150.4,277.9z"/>
			<path fill="#8189D3" d="M150.4,29.3c-66.8,0-121.1,54.3-121.1,121.2c0,66.8,54.3,121.1,121.1,121.1s121.1-54.3,121.1-121.1
				C271.6,83.6,217.2,29.3,150.4,29.3z"/>
		</g>
	</g>
	<g>
		<g>
			<polygon opacity="0.21" fill="#502E20" points="159.8,230.2 230.2,193.7 160.4,169.8 92.8,196.1 			"/>
			<path fill="#502E20" d="M93.9,83.8c0,0,13-11.6,25.5-3.4c-0.4,2.9-5.1,2.2-5.1,2.2s-11.9-3.7-14.9,1.1
				C96.4,88.5,93.9,83.8,93.9,83.8z"/>
			<polygon fill="#502E20" points="114.4,82.6 119.5,87.1 131,86.2 127.7,85.3 119.5,80.4 			"/>
			<polygon fill="#502E20" points="89.3,90.3 94,83.8 99.7,81.6 98.7,89 92.3,91.9 			"/>
			<g>
				<defs>
					<filter id="Adobe_OpacityMaskFilter" filterUnits="userSpaceOnUse" x="89.3" y="81.6" width="10.3" height="10.3">
						<feFlood  style="flood-color:white;flood-opacity:1" result="back"/>
						<feBlend  in="SourceGraphic" in2="back" mode="normal"/>
					</filter>
				</defs>
				<mask maskUnits="userSpaceOnUse" x="89.3" y="81.6" width="10.3" height="10.3" id="SVGID_1_">
					<g filter="url(#Adobe_OpacityMaskFilter)">
						<defs>
							<filter id="Adobe_OpacityMaskFilter_1_" filterUnits="userSpaceOnUse" x="89.3" y="81.6" width="10.3" height="10.3">
								<feFlood  style="flood-color:white;flood-opacity:1" result="back"/>
								<feBlend  in="SourceGraphic" in2="back" mode="normal"/>
							</filter>
						</defs>
						<mask maskUnits="userSpaceOnUse" x="89.3" y="81.6" width="10.3" height="10.3" id="SVGID_1_">
							<g filter="url(#Adobe_OpacityMaskFilter_1_)">
							</g>
						</mask>
						<linearGradient id="SVGID_2_" gradientUnits="userSpaceOnUse" x1="82.6851" y1="86.7318" x2="101.22" y2="86.7318">
							<stop  offset="0" style="stop-color:#000000"/>
							<stop  offset="1" style="stop-color:#F5F5F5"/>
						</linearGradient>
						<polygon mask="url(#SVGID_1_)" fill="url(#SVGID_2_)" points="99.7,81.6 94,83.8 89.3,90.3 92.3,91.9 92.4,91.8 99.6,81.7 
													"/>
					</g>
				</mask>
				<polygon fill="#EEDDAA" points="99.7,81.6 94,83.8 89.3,90.3 92.3,91.9 92.4,91.8 99.6,81.7 				"/>
			</g>
			<linearGradient id="SVGID_3_" gradientUnits="userSpaceOnUse" x1="110.5097" y1="195.731" x2="125.5274" y2="73.3143">
				<stop  offset="0" style="stop-color:#6C2D1A"/>
				<stop  offset="1" style="stop-color:#F29049"/>
			</linearGradient>
			<polygon fill="url(#SVGID_3_)" points="86.4,185.5 94.8,189 170.9,160.3 175.8,157.5 151.7,82.5 71.1,91.4 62.1,96.2 			"/>
			<linearGradient id="SVGID_4_" gradientUnits="userSpaceOnUse" x1="100.571" y1="81.0291" x2="145.861" y2="189.9943">
				<stop  offset="0" style="stop-color:#5F2019"/>
				<stop  offset="1" style="stop-color:#803D20"/>
			</linearGradient>
			<polygon fill="url(#SVGID_4_)" points="72.5,93.2 94.5,184.7 173.4,157.4 151,84 			"/>
			<polygon opacity="0.3" fill="#502E20" points="151,84 146.3,106 83.3,120.4 75.7,93.5 			"/>
			<linearGradient id="SVGID_5_" gradientUnits="userSpaceOnUse" x1="94.6435" y1="192.6578" x2="234.9947" y2="192.6578">
				<stop  offset="0" style="stop-color:#6C2D1A"/>
				<stop  offset="1" style="stop-color:#F29049"/>
			</linearGradient>
			<polygon fill="url(#SVGID_5_)" points="94.6,184.4 95.2,196.1 159.9,227.1 229.5,192.7 235,178.9 171.6,158.2 			"/>
			<polygon fill="#3E687A" points="100,185.8 171.6,160.3 230.7,179.9 161.3,211.9 			"/>
			<g>
				<path opacity="0.5" fill="#502E20" d="M107.9,189.4l53.4,22.5l61.7-28.4c-17.8-5.2-51.1-16.8-51.1-16.8L107.9,189.4z"/>
				<polygon opacity="0.3" fill="#502E20" points="201.4,178 186.2,165.3 171.6,160.3 100,185.8 135.5,201.5 				"/>
			</g>
			<polygon fill="none" points="100,186.1 171.6,160.6 230.7,180.3 161.3,212.3 			"/>
			<polygon fill="#502E20" points="105.6,178 106.8,180.7 118.4,176.5 117.2,174.1 			"/>
			<polygon fill="#502E20" points="149.8,164.1 151,165.4 160.6,162 159.1,160.5 			"/>
			<defs>
				<filter id="Adobe_OpacityMaskFilter_2_" filterUnits="userSpaceOnUse" x="82.2" y="117.6" width="16.4" height="65.2">
					<feFlood  style="flood-color:white;flood-opacity:1" result="back"/>
					<feBlend  in="SourceGraphic" in2="back" mode="normal"/>
				</filter>
			</defs>
			<mask maskUnits="userSpaceOnUse" x="82.2" y="117.6" width="16.4" height="65.2" id="SVGID_6_">
				<g filter="url(#Adobe_OpacityMaskFilter_2_)">
					<defs>
						<filter id="Adobe_OpacityMaskFilter_3_" filterUnits="userSpaceOnUse" x="82.2" y="117.6" width="16.4" height="65.2">
							<feFlood  style="flood-color:white;flood-opacity:1" result="back"/>
							<feBlend  in="SourceGraphic" in2="back" mode="normal"/>
						</filter>
					</defs>
					<mask maskUnits="userSpaceOnUse" x="82.2" y="117.6" width="16.4" height="65.2" id="SVGID_6_">
						<g filter="url(#Adobe_OpacityMaskFilter_3_)">
						</g>
					</mask>
					<linearGradient id="SVGID_7_" gradientUnits="userSpaceOnUse" x1="82.2367" y1="150.1829" x2="98.6792" y2="150.1829">
						<stop  offset="0" style="stop-color:#000000"/>
						<stop  offset="1" style="stop-color:#F5F5F5"/>
					</linearGradient>
					<polygon mask="url(#SVGID_6_)" fill="url(#SVGID_7_)" points="95.8,182.8 98.7,182 82.2,117.6 					"/>
				</g>
			</mask>
			<polygon opacity="0.7" fill="#ECCD9C" points="95.8,182.8 98.7,182 82.2,117.6 			"/>
			<defs>
				<filter id="Adobe_OpacityMaskFilter_4_" filterUnits="userSpaceOnUse" x="159.9" y="205.9" width="22.9" height="21.2">
					<feFlood  style="flood-color:white;flood-opacity:1" result="back"/>
					<feBlend  in="SourceGraphic" in2="back" mode="normal"/>
				</filter>
			</defs>
			<mask maskUnits="userSpaceOnUse" x="159.9" y="205.9" width="22.9" height="21.2" id="SVGID_8_">
				<g filter="url(#Adobe_OpacityMaskFilter_4_)">
					<defs>
						<filter id="Adobe_OpacityMaskFilter_5_" filterUnits="userSpaceOnUse" x="159.9" y="205.9" width="22.9" height="21.2">
							<feFlood  style="flood-color:white;flood-opacity:1" result="back"/>
							<feBlend  in="SourceGraphic" in2="back" mode="normal"/>
						</filter>
					</defs>
					<mask maskUnits="userSpaceOnUse" x="159.9" y="205.9" width="22.9" height="21.2" id="SVGID_8_">
						<g filter="url(#Adobe_OpacityMaskFilter_5_)">
						</g>
					</mask>
					<linearGradient id="SVGID_9_" gradientUnits="userSpaceOnUse" x1="171.8891" y1="216.5968" x2="158.7879" y2="214.4531">
						<stop  offset="0" style="stop-color:#000000"/>
						<stop  offset="1" style="stop-color:#9B9B9B"/>
						<stop  offset="1" style="stop-color:#F5F5F5"/>
					</linearGradient>
					<polygon mask="url(#SVGID_8_)" fill="url(#SVGID_9_)" points="161.3,215.5 159.9,227.1 172.7,220.9 182.8,205.9 					"/>
				</g>
			</mask>
			<linearGradient id="SVGID_10_" gradientUnits="userSpaceOnUse" x1="171.8891" y1="216.5968" x2="158.7879" y2="214.4531">
				<stop  offset="0" style="stop-color:#56260F"/>
				<stop  offset="1" style="stop-color:#562712"/>
				<stop  offset="1" style="stop-color:#552818"/>
			</linearGradient>
			<polygon opacity="0.3" fill="url(#SVGID_10_)" points="161.3,215.5 159.9,227.1 172.7,220.9 182.8,205.9 			"/>
			<polygon fill="#E9C632" points="158.8,159.9 161.5,164.1 164.4,163.3 161.4,159.3 			"/>
			<polygon fill="#E9C632" points="116,175 118.7,179.1 121.6,178.3 118.6,174.3 			"/>
			<polygon opacity="0.2" fill="#E7CEA1" points="83.4,120.4 98.4,178.4 161.5,157.5 146.4,106 			"/>
		</g>
		<g>
			<g>
				<g>
					<path fill="#DDD3B5" d="M216.8,148.9c-0.9-0.3-1.9-0.7-3.1-1.1c-5.7-2.2-14.3-5.6-19.9-1.2c-1.5-0.5-2.8-0.7-4-1.6h0
						c-8.2-3.6-8.3-8.7-8.3-8.7s9.6-13.4,8.9-17.7c2.5-1.4,6.8,3.6,6.8,6.2c3.9,1.3,9.6,3.4,10.2,6.4c0.5,3,0.2,5.2,0.2,5.2
						S216.3,140,216.8,148.9z"/>
					<path fill="#A0978A" d="M213.7,147.8c-5.7-2.2-14.3-5.6-19.9-1.2c-1.5-0.5-2.8-0.7-4-1.6h0l-6.2-5.6l1.2-2.7
						c0,0,6.4-12.6,7.2-11.8c0.8,0.8,0.5,5.1,0.5,5.1s6.8,0.8,8.3,2.5c1.5,1.7,2.1,7.6,2.1,7.6S211.5,143.7,213.7,147.8z"/>
					<path fill="#B2A08C" d="M166.5,140.2c0.5,0,7.3-8.2,14.4-7c7.1,1.2,15.2,5.2,16.6,9.8c1.4,4.6,0,9.3,0,9.3L166.5,140.2z"/>
					<path fill="#DDD3B5" d="M193.1,144.7c0,0-12.6-10.7-31.4-5.8c-18.8,5-33.8,25.1-34.8,42.2c-0.1,8.9,0.6,11.3,0.6,11.3
						s-8.5,6.3-6.7,10.5c2.5,5.6,76.9,3.9,80.8,1.3c4-2.6-0.7-10.5-0.7-10.5S212.8,160.7,193.1,144.7z"/>
					<path fill="#A0978A" d="M182.3,143.8c-0.6-0.5-1.4,0.3-0.9,0.9c5,6.2,7.9,12.9,9.4,20.7c1.6,8.3,0.1,16.4-2.7,24.3
						c-1.1,3.2,4.2,5.3,5.6,2.2C201.6,175.3,196.3,155.1,182.3,143.8z"/>
					<path fill="#A0978A" d="M191.2,197.4c-9.1,1.6-18.1,1.8-27.3,2.2c-4.5,0.2-8.9,0.2-13.4,0.1c-4.4-0.1-9.7,0.3-13.9-1.2
						c-2.6-1-3.2,4.1-0.4,3.7c4.6-0.7,9.7,0.7,14.3,0.9c4.6,0.2,9.3,0.3,13.9,0.2c9.2-0.3,18.3-2.1,27.3-3.7
						C193.1,199.2,192.5,197.2,191.2,197.4z"/>
					<g>
						<path fill="#3F3B49" d="M169.1,179.4c1.5-0.1,2.7-0.2,3.8-0.5l-0.3,9c-1.4,0.3-2.9,0.5-4.5,0.5c-1.6,0-3.4-0.1-5.5-0.3
							c-3.2-0.4-5.7-1.1-7.5-2.1c-1.9-1-3.2-2.4-4-4.3c-0.8-1.8-1.2-4.3-1.2-7.3l-3.4-0.4l0.9-4.3l2.8,0.3l0.1-1l0.1-1.1l-2.6-0.3
							l0.9-4.3l2.5,0.3c0.7-2.9,1.7-5.2,3.1-6.8c1.3-1.6,3.1-2.6,5.3-3.1c2.2-0.5,5-0.6,8.3-0.2c1.5,0.2,3.1,0.5,4.9,1
							c1.7,0.5,3,1,3.7,1.4l-2.3,8.2c-1-0.4-2.1-0.8-3.4-1.1c-1.3-0.3-2.3-0.6-3.2-0.7c-1.8-0.2-3.1-0.1-3.9,0.2
							c-0.8,0.4-1.3,1.2-1.5,2.4l8.8,1l-0.9,4.3l-8.4-1l-0.2,2.1l8.2,1l-0.9,4.3l-7.9-0.9l-0.3,2.5c1.6,0.5,2.9,0.8,4.1,0.9
							C166.2,179.4,167.7,179.5,169.1,179.4z"/>
					</g>
				</g>
				<g>
					<g>
						<path fill="#FABA0D" d="M136.7,205l0.7,3.1c0,0,1.7,1.9,8.5,1.7c7.1-0.2,7.5-2.2,7.5-2.2l0.2-2.9L136.7,205z"/>
						<path fill="#FFE406" d="M153.1,204.1c-1.6-1.3-6.8-1.6-7.5-1.6c-5.3-0.1-8.3,0.5-8.8,2c-0.6,1.9,3.9,2.6,5,2.8
							c3,0.5,6.2,0.3,9.1-0.3c0.8-0.2,1.6-0.4,2.1-1C153.8,205.2,153.7,204.6,153.1,204.1z"/>
						<path fill="#FFD201" d="M138.7,205c-0.7-0.7,1-1.7,5.6-1.8c4.6-0.1,7.2,0.8,7.5,1.7C152.2,206,140.5,206.9,138.7,205z"/>
					</g>
					<g>
						<path fill="#FABA0D" d="M133.8,200.7l0.7,3.1c0,0,1.7,1.9,8.5,1.7c7.1-0.2,7.5-2.2,7.5-2.2l0.2-2.9L133.8,200.7z"/>
						<path fill="#FFE406" d="M150.2,199.8c-1.6-1.3-6.8-1.6-7.5-1.6c-5.3-0.1-8.3,0.5-8.8,2c-0.6,1.9,3.9,2.6,5,2.8
							c3,0.5,6.2,0.3,9.1-0.3c0.8-0.2,1.6-0.4,2.1-1C150.9,200.9,150.8,200.3,150.2,199.8z"/>
						<path fill="#FFD201" d="M135.8,200.7c-0.7-0.7,1-1.7,5.6-1.8s7.2,0.8,7.5,1.7C149.3,201.7,137.6,202.6,135.8,200.7z"/>
					</g>
					<g>
						<path fill="#FABA0D" d="M137.8,196.4l0.7,3.1c0,0,1.7,1.9,8.5,1.7c7.1-0.2,7.5-2.2,7.5-2.2l0.2-2.9L137.8,196.4z"/>
						<path fill="#FFE406" d="M154.2,195.5c-1.6-1.3-6.8-1.6-7.5-1.6c-5.3-0.1-8.3,0.5-8.8,2c-0.6,1.9,3.9,2.6,5,2.8
							c3,0.5,6.2,0.3,9.1-0.3c0.8-0.2,1.6-0.4,2.1-1C154.9,196.6,154.8,196,154.2,195.5z"/>
						<path fill="#FFD201" d="M139.8,196.4c-0.7-0.7,1-1.7,5.6-1.8c4.6-0.1,7.2,0.8,7.5,1.7C153.3,197.4,141.6,198.3,139.8,196.4z"
							/>
					</g>
					<g>
						<path fill="#FABA0D" d="M132.9,193.6l0.7,3.1c0,0,1.7,1.9,8.5,1.7c7.1-0.2,7.5-2.2,7.5-2.2l0.2-2.9L132.9,193.6z"/>
						<path fill="#FFE406" d="M149.3,192.7c-1.6-1.3-6.8-1.6-7.5-1.6c-5.3-0.1-8.3,0.5-8.8,2c-0.6,1.9,3.9,2.6,5,2.8
							c3,0.5,6.2,0.3,9.1-0.3c0.8-0.2,1.6-0.4,2.1-1C150,193.8,149.9,193.2,149.3,192.7z"/>
						<path fill="#FFD201" d="M134.9,193.6c-0.7-0.7,1-1.7,5.6-1.8c4.6-0.1,7.2,0.8,7.5,1.7C148.4,194.6,136.7,195.5,134.9,193.6z"
							/>
					</g>
					<g>
						<path fill="#FABA0D" d="M133.1,189.5l0.7,3.1c0,0,1.7,1.9,8.5,1.7c7.1-0.2,7.5-2.2,7.5-2.2l0.2-2.9L133.1,189.5z"/>
						<path fill="#FFE406" d="M149.5,188.6c-1.6-1.3-6.8-1.6-7.5-1.6c-5.3-0.1-8.3,0.5-8.8,2c-0.6,1.9,3.9,2.6,5,2.8
							c3,0.5,6.2,0.3,9.1-0.3c0.8-0.2,1.6-0.4,2.1-1C150.2,189.7,150.1,189.1,149.5,188.6z"/>
						<path fill="#FFD201" d="M135.1,189.5c-0.7-0.7,1-1.7,5.6-1.8c4.6-0.1,7.2,0.8,7.5,1.7C148.6,190.6,136.9,191.5,135.1,189.5z"
							/>
					</g>
					<g>
						<path fill="#FABA0D" d="M133.4,185.9l0.7,3.1c0,0,1.7,1.9,8.5,1.7c7.1-0.2,7.5-2.2,7.5-2.2l0.2-2.9L133.4,185.9z"/>
						<path fill="#FFE406" d="M149.8,185c-1.6-1.3-6.8-1.6-7.5-1.6c-5.3-0.1-8.3,0.5-8.8,2c-0.6,1.9,3.9,2.6,5,2.8
							c3,0.5,6.2,0.3,9.1-0.3c0.8-0.2,1.6-0.4,2.1-1C150.5,186.2,150.4,185.5,149.8,185z"/>
						<path fill="#FFD201" d="M135.4,186c-0.7-0.7,1-1.7,5.6-1.8c4.6-0.1,7.2,0.8,7.5,1.7C148.9,187,137.2,187.9,135.4,186z"/>
					</g>
					<g>
						<path fill="#FABA0D" d="M136.3,181.4l0.7,3.1c0,0,1.7,1.9,8.5,1.7c7.1-0.2,7.5-2.2,7.5-2.2l0.2-2.9L136.3,181.4z"/>
						<path fill="#FFE406" d="M152.7,180.5c-1.6-1.3-6.8-1.6-7.5-1.6c-5.3-0.1-8.3,0.5-8.8,2c-0.6,1.9,3.9,2.6,5,2.8
							c3,0.5,6.2,0.3,9.1-0.3c0.8-0.2,1.6-0.4,2.1-1C153.4,181.6,153.3,180.9,152.7,180.5z"/>
						<path fill="#FFD201" d="M138.3,181.4c-0.7-0.7,1-1.7,5.6-1.8c4.6-0.1,7.2,0.8,7.5,1.7C151.8,182.4,140.1,183.3,138.3,181.4z"
							/>
					</g>
				</g>
				<g>
					<g>
						<path fill="#FABA0D" d="M121.2,202.8l0.7,3.1c0,0,1.7,1.9,8.5,1.7c7.1-0.2,7.5-2.2,7.5-2.2l0.2-2.9L121.2,202.8z"/>
						<path fill="#FFE406" d="M137.6,201.9c-1.6-1.3-6.8-1.6-7.5-1.6c-5.3-0.1-8.3,0.5-8.8,2c-0.6,1.9,3.9,2.6,5,2.8
							c3,0.5,6.2,0.3,9.1-0.3c0.8-0.2,1.6-0.4,2.1-1C138.2,203,138.1,202.4,137.6,201.9z"/>
						<path fill="#FFD201" d="M123.2,202.8c-0.7-0.7,1-1.7,5.6-1.8c4.6-0.1,7.2,0.8,7.5,1.7C136.6,203.9,125,204.8,123.2,202.8z"/>
					</g>
					<g>
						<path fill="#FABA0D" d="M118.3,198.6l0.7,3.1c0,0,1.7,1.9,8.5,1.7c7.1-0.2,7.5-2.2,7.5-2.2l0.2-2.9L118.3,198.6z"/>
						<path fill="#FFE406" d="M134.7,197.6c-1.6-1.3-6.8-1.6-7.5-1.6c-5.3-0.1-8.3,0.5-8.8,2c-0.6,1.9,3.9,2.6,5,2.8
							c3,0.5,6.2,0.3,9.1-0.3c0.8-0.2,1.6-0.4,2.1-1C135.4,198.8,135.3,198.1,134.7,197.6z"/>
						<path fill="#FFD201" d="M120.3,198.6c-0.7-0.7,1-1.7,5.6-1.8c4.6-0.1,7.2,0.8,7.5,1.7C133.8,199.6,122.1,200.5,120.3,198.6z"
							/>
					</g>
					<g>
						<path fill="#FABA0D" d="M122.3,194.3l0.7,3.1c0,0,1.7,1.9,8.5,1.7c7.1-0.2,7.5-2.2,7.5-2.2l0.2-2.9L122.3,194.3z"/>
						<path fill="#FFE406" d="M138.7,193.4c-1.6-1.3-6.8-1.6-7.5-1.6c-5.3-0.1-8.3,0.5-8.8,2c-0.6,1.9,3.9,2.6,5,2.8
							c3,0.5,6.2,0.3,9.1-0.3c0.8-0.2,1.6-0.4,2.1-1C139.3,194.5,139.2,193.8,138.7,193.4z"/>
						<path fill="#FFD201" d="M124.3,194.3c-0.7-0.7,1-1.7,5.6-1.8c4.6-0.1,7.2,0.8,7.5,1.7C137.7,195.3,126.1,196.2,124.3,194.3z"
							/>
					</g>
					<g>
						<path fill="#FABA0D" d="M117.4,191.5l0.7,3.1c0,0,1.7,1.9,8.5,1.7c7.1-0.2,7.5-2.2,7.5-2.2l0.2-2.9L117.4,191.5z"/>
						<path fill="#FFE406" d="M133.8,190.6c-1.6-1.3-6.8-1.6-7.5-1.6c-5.3-0.1-8.3,0.5-8.8,2c-0.6,1.9,3.9,2.6,5,2.8
							c3,0.5,6.2,0.3,9.1-0.3c0.8-0.2,1.6-0.4,2.1-1C134.5,191.7,134.4,191.1,133.8,190.6z"/>
						<path fill="#FFD201" d="M119.4,191.5c-0.7-0.7,1-1.7,5.6-1.8c4.6-0.1,7.2,0.8,7.5,1.7C132.9,192.5,121.2,193.4,119.4,191.5z"
							/>
					</g>
					<g>
						<path fill="#FABA0D" d="M117.6,187.4l0.7,3.1c0,0,1.7,1.9,8.5,1.7c7.1-0.2,7.5-2.2,7.5-2.2l0.2-2.9L117.6,187.4z"/>
						<path fill="#FFE406" d="M134,186.5c-1.6-1.3-6.8-1.6-7.5-1.6c-5.3-0.1-8.3,0.5-8.8,2c-0.6,1.9,3.9,2.6,5,2.8
							c3,0.5,6.2,0.3,9.1-0.3c0.8-0.2,1.6-0.4,2.1-1C134.7,187.6,134.6,187,134,186.5z"/>
						<path fill="#FFD201" d="M119.6,187.4c-0.7-0.7,1-1.7,5.6-1.8c4.6-0.1,7.2,0.8,7.5,1.7C133.1,188.4,121.4,189.3,119.6,187.4z"
							/>
					</g>
					<g>
						<path fill="#FABA0D" d="M117.9,183.8l0.7,3.1c0,0,1.7,1.9,8.5,1.7c7.1-0.2,7.5-2.2,7.5-2.2l0.2-2.9L117.9,183.8z"/>
						<path fill="#FFE406" d="M134.3,182.9c-1.6-1.3-6.8-1.6-7.5-1.6c-5.3-0.1-8.3,0.5-8.8,2c-0.6,1.9,3.9,2.6,5,2.8
							c3,0.5,6.2,0.3,9.1-0.3c0.8-0.2,1.6-0.4,2.1-1C135,184,134.9,183.4,134.3,182.9z"/>
						<path fill="#FFD201" d="M119.9,183.8c-0.7-0.7,1-1.7,5.6-1.8c4.6-0.1,7.2,0.8,7.5,1.7C133.4,184.8,121.7,185.7,119.9,183.8z"
							/>
					</g>
					<g>
						<path fill="#FABA0D" d="M120.8,179.2l0.7,3.1c0,0,1.7,1.9,8.5,1.7c7.1-0.2,7.5-2.2,7.5-2.2l0.2-2.9L120.8,179.2z"/>
						<path fill="#FFE406" d="M137.2,178.3c-1.6-1.3-6.8-1.6-7.5-1.6c-5.3-0.1-8.3,0.5-8.8,2c-0.6,1.9,3.9,2.6,5,2.8
							c3,0.5,6.2,0.3,9.1-0.3c0.8-0.2,1.6-0.4,2.1-1C137.9,179.4,137.7,178.8,137.2,178.3z"/>
						<path fill="#FFD201" d="M122.8,179.2c-0.7-0.7,1-1.7,5.6-1.8c4.6-0.1,7.2,0.8,7.5,1.7C136.2,180.2,124.6,181.1,122.8,179.2z"
							/>
					</g>
				</g>
			</g>
		</g>
		<linearGradient id="SVGID_11_" gradientUnits="userSpaceOnUse" x1="159.9303" y1="203.0187" x2="234.9947" y2="203.0187">
			<stop  offset="0" style="stop-color:#6C2D1A"/>
			<stop  offset="1" style="stop-color:#F29049"/>
		</linearGradient>
		<polygon fill="url(#SVGID_11_)" points="161.3,215.6 159.9,227.1 229.5,192.7 235,178.9 		"/>
		<linearGradient id="SVGID_12_" gradientUnits="userSpaceOnUse" x1="161.2987" y1="197.2137" x2="234.9873" y2="197.2137">
			<stop  offset="0" style="stop-color:#6C2D1A"/>
			<stop  offset="1" style="stop-color:#F29049"/>
		</linearGradient>
		<polygon fill="url(#SVGID_12_)" points="230.7,179.9 235,178.9 161.3,215.5 161.3,211.9 		"/>
		<polygon opacity="0.2" fill="#502E20" points="161.3,215.5 235,178.9 232.9,184 		"/>
		<defs>
			<filter id="Adobe_OpacityMaskFilter_6_" filterUnits="userSpaceOnUse" x="169.2" y="205.3" width="13.4" height="17.3">
				<feFlood  style="flood-color:white;flood-opacity:1" result="back"/>
				<feBlend  in="SourceGraphic" in2="back" mode="normal"/>
			</filter>
		</defs>
		<mask maskUnits="userSpaceOnUse" x="169.2" y="205.3" width="13.4" height="17.3" id="SVGID_13_">
			<g filter="url(#Adobe_OpacityMaskFilter_6_)">
				<defs>
					<filter id="Adobe_OpacityMaskFilter_7_" filterUnits="userSpaceOnUse" x="169.2" y="205.3" width="13.4" height="17.3">
						<feFlood  style="flood-color:white;flood-opacity:1" result="back"/>
						<feBlend  in="SourceGraphic" in2="back" mode="normal"/>
					</filter>
				</defs>
				<mask maskUnits="userSpaceOnUse" x="169.2" y="205.3" width="13.4" height="17.3" id="SVGID_13_">
					<g filter="url(#Adobe_OpacityMaskFilter_7_)">
					</g>
				</mask>
				<linearGradient id="SVGID_14_" gradientUnits="userSpaceOnUse" x1="176.7566" y1="229.1656" x2="175.5611" y2="209.1363">
					<stop  offset="0" style="stop-color:#000000"/>
					<stop  offset="1" style="stop-color:#9B9B9B"/>
					<stop  offset="1" style="stop-color:#F5F5F5"/>
				</linearGradient>
				<polygon mask="url(#SVGID_13_)" fill="url(#SVGID_14_)" points="170.4,211.1 169.2,222.5 180.7,216.6 182.5,205.3 				"/>
			</g>
		</mask>
		<linearGradient id="SVGID_15_" gradientUnits="userSpaceOnUse" x1="176.7566" y1="229.1656" x2="175.5611" y2="209.1363">
			<stop  offset="0" style="stop-color:#56260F"/>
			<stop  offset="1" style="stop-color:#562712"/>
			<stop  offset="1" style="stop-color:#552818"/>
		</linearGradient>
		<polygon opacity="0.3" fill="url(#SVGID_15_)" points="170.4,211.1 169.2,222.5 180.7,216.6 182.5,205.3 		"/>
		<defs>
			<filter id="Adobe_OpacityMaskFilter_8_" filterUnits="userSpaceOnUse" x="215.6" y="183.6" width="10.5" height="16">
				<feFlood  style="flood-color:white;flood-opacity:1" result="back"/>
				<feBlend  in="SourceGraphic" in2="back" mode="normal"/>
			</filter>
		</defs>
		<mask maskUnits="userSpaceOnUse" x="215.6" y="183.6" width="10.5" height="16" id="SVGID_16_">
			<g filter="url(#Adobe_OpacityMaskFilter_8_)">
				<defs>
					<filter id="Adobe_OpacityMaskFilter_9_" filterUnits="userSpaceOnUse" x="215.6" y="183.6" width="10.5" height="16">
						<feFlood  style="flood-color:white;flood-opacity:1" result="back"/>
						<feBlend  in="SourceGraphic" in2="back" mode="normal"/>
					</filter>
				</defs>
				<mask maskUnits="userSpaceOnUse" x="215.6" y="183.6" width="10.5" height="16" id="SVGID_16_">
					<g filter="url(#Adobe_OpacityMaskFilter_9_)">
					</g>
				</mask>
				<linearGradient id="SVGID_17_" gradientUnits="userSpaceOnUse" x1="221.6867" y1="205.8362" x2="220.5712" y2="187.1459">
					<stop  offset="0" style="stop-color:#000000"/>
					<stop  offset="1" style="stop-color:#9B9B9B"/>
					<stop  offset="1" style="stop-color:#F5F5F5"/>
				</linearGradient>
				<polygon mask="url(#SVGID_16_)" fill="url(#SVGID_17_)" points="216.8,188.1 215.6,199.6 224.5,195 226.1,183.6 				"/>
			</g>
		</mask>
		<linearGradient id="SVGID_18_" gradientUnits="userSpaceOnUse" x1="221.6867" y1="205.8362" x2="220.5712" y2="187.1459">
			<stop  offset="0" style="stop-color:#56260F"/>
			<stop  offset="1" style="stop-color:#562712"/>
			<stop  offset="1" style="stop-color:#552818"/>
		</linearGradient>
		<polygon opacity="0.3" fill="url(#SVGID_18_)" points="216.8,188.1 215.6,199.6 224.5,195 226.1,183.6 		"/>
		<polygon fill="#D2B32D" points="171.5,210.9 170.7,215.4 176.1,215.7 180.3,211.6 180.9,206.5 		"/>
		<polygon fill="#D2B32D" points="217.5,187.5 217.2,191.2 222.2,191.1 225.4,187.4 225.3,184.1 		"/>
		<defs>
			<filter id="Adobe_OpacityMaskFilter_10_" filterUnits="userSpaceOnUse" x="171.5" y="206.5" width="9.4" height="4.4">
				<feFlood  style="flood-color:white;flood-opacity:1" result="back"/>
				<feBlend  in="SourceGraphic" in2="back" mode="normal"/>
			</filter>
		</defs>
		<mask maskUnits="userSpaceOnUse" x="171.5" y="206.5" width="9.4" height="4.4" id="SVGID_19_">
			<g filter="url(#Adobe_OpacityMaskFilter_10_)">
				<defs>
					<filter id="Adobe_OpacityMaskFilter_11_" filterUnits="userSpaceOnUse" x="171.5" y="206.5" width="9.4" height="4.4">
						<feFlood  style="flood-color:white;flood-opacity:1" result="back"/>
						<feBlend  in="SourceGraphic" in2="back" mode="normal"/>
					</filter>
				</defs>
				<mask maskUnits="userSpaceOnUse" x="171.5" y="206.5" width="9.4" height="4.4" id="SVGID_19_">
					<g filter="url(#Adobe_OpacityMaskFilter_11_)">
					</g>
				</mask>
				<linearGradient id="SVGID_20_" gradientUnits="userSpaceOnUse" x1="163.9962" y1="199.732" x2="176.5528" y2="208.9997">
					<stop  offset="0" style="stop-color:#000000"/>
					<stop  offset="1" style="stop-color:#F5F5F5"/>
				</linearGradient>
				<polygon mask="url(#SVGID_19_)" fill="url(#SVGID_20_)" points="171.5,210.9 177.2,210.9 180.9,206.5 				"/>
			</g>
		</mask>
		<linearGradient id="SVGID_21_" gradientUnits="userSpaceOnUse" x1="163.9962" y1="199.732" x2="176.5528" y2="208.9997">
			<stop  offset="0" style="stop-color:#FFEC5F"/>
			<stop  offset="1" style="stop-color:#FFF4C7"/>
		</linearGradient>
		<polygon fill="url(#SVGID_21_)" points="171.5,210.9 177.2,210.9 180.9,206.5 		"/>
		<defs>
			<filter id="Adobe_OpacityMaskFilter_12_" filterUnits="userSpaceOnUse" x="217.5" y="184.3" width="7.6" height="3.6">
				<feFlood  style="flood-color:white;flood-opacity:1" result="back"/>
				<feBlend  in="SourceGraphic" in2="back" mode="normal"/>
			</filter>
		</defs>
		<mask maskUnits="userSpaceOnUse" x="217.5" y="184.3" width="7.6" height="3.6" id="SVGID_22_">
			<g filter="url(#Adobe_OpacityMaskFilter_12_)">
				<defs>
					<filter id="Adobe_OpacityMaskFilter_13_" filterUnits="userSpaceOnUse" x="217.5" y="184.3" width="7.6" height="3.6">
						<feFlood  style="flood-color:white;flood-opacity:1" result="back"/>
						<feBlend  in="SourceGraphic" in2="back" mode="normal"/>
					</filter>
				</defs>
				<mask maskUnits="userSpaceOnUse" x="217.5" y="184.3" width="7.6" height="3.6" id="SVGID_22_">
					<g filter="url(#Adobe_OpacityMaskFilter_13_)">
					</g>
				</mask>
				<linearGradient id="SVGID_23_" gradientUnits="userSpaceOnUse" x1="211.1531" y1="178.5514" x2="221.6671" y2="186.3115">
					<stop  offset="0" style="stop-color:#000000"/>
					<stop  offset="1" style="stop-color:#F5F5F5"/>
				</linearGradient>
				<polygon mask="url(#SVGID_22_)" fill="url(#SVGID_23_)" points="217.5,187.9 223.2,187.1 225.1,184.3 				"/>
			</g>
		</mask>
		<linearGradient id="SVGID_24_" gradientUnits="userSpaceOnUse" x1="211.1531" y1="178.5514" x2="221.6671" y2="186.3115">
			<stop  offset="0" style="stop-color:#FFEC5F"/>
			<stop  offset="1" style="stop-color:#FFF4C7"/>
		</linearGradient>
		<polygon fill="url(#SVGID_24_)" points="217.5,187.9 223.2,187.1 225.1,184.3 		"/>
		<polygon fill="#6C2D1A" points="94.5,184.7 95.2,196.1 159.9,227.1 161.3,215.5 		"/>
		<polygon fill="#AF6734" points="161.3,215.5 161.3,211.9 96.8,183.9 94.5,184.7 		"/>
	</g>
</g>
</svg>
