<?xml version="1.0" encoding="utf-8"?>
<!-- Generator: Adobe Illustrator 23.0.3, SVG Export Plug-In . SVG Version: 6.00 Build 0)  -->
<svg version="1.1" baseProfile="basic" id="Calque_1"
	 xmlns="http://www.w3.org/2000/svg" xmlns:xlink="http://www.w3.org/1999/xlink" x="0px" y="0px" viewBox="0 0 300 300"
	 xml:space="preserve">
<g>
	<g>
		<g>
			<path fill="#444484" d="M295.9,134.4c8-15.6,2.9-34.7-11.8-44.2c-9.2-6-15-16-15.5-26.9c-0.9-17.5-14.9-31.5-32.3-32.3l0,0
				c-10.9-0.5-21-6.3-26.9-15.5v0c-9.5-14.7-28.6-19.8-44.2-11.8c-9.8,5-21.3,5-31.1,0c-15.6-8-34.7-2.9-44.2,11.8v0
				c-6,9.2-16,15-26.9,15.5c-17.5,0.9-31.5,14.9-32.3,32.3c-0.5,10.9-6.3,21-15.5,26.9C0.4,99.7-4.7,118.8,3.3,134.4
				c5,9.8,5,21.3,0,31.1c-8,15.6-2.9,34.7,11.8,44.2c9.2,6,15,16,15.5,26.9C31.5,254,45.5,268,63,268.9c10.9,0.5,21,6.3,26.9,15.5v0
				c9.5,14.7,28.6,19.8,44.2,11.8c9.8-5,21.3-5,31.1,0c15.6,8,34.7,2.9,44.2-11.8v0c6-9.2,16-15,26.9-15.5l0,0
				c17.5-0.9,31.5-14.9,32.3-32.3c0.5-10.9,6.3-21,15.5-26.9c14.7-9.5,19.8-28.6,11.8-44.2C290.9,155.7,290.9,144.1,295.9,134.4z
				 M149.6,277.9c-70.3,0-127.5-57.2-127.5-127.5C22.1,80.2,79.3,23,149.6,23s127.5,57.2,127.5,127.5
				C277.1,220.8,219.9,277.9,149.6,277.9z"/>
			<path fill="#444484" d="M149.6,29.3c-66.8,0-121.1,54.3-121.1,121.1c0,66.8,54.3,121.1,121.1,121.1s121.1-54.3,121.1-121.1
				C270.7,83.7,216.4,29.3,149.6,29.3z"/>
		</g>
	</g>
	<g>
		<g>
			<path fill="#591F2A" d="M108.7,202.9l3.1-8.5l0.7-1.8C86.8,185.2,75,207.9,72.3,214c3.1-4.7,8.7-11.5,15.9-14.4
				C94,197.2,101,197.3,108.7,202.9z"/>
			<path fill="#591F2A" d="M119.3,209.7l6.4-6.4l1.4-1.4c17.6,20.1,2.1,40.5-2.3,45.5c2.9-4.8,6.7-12.7,6.3-20.5
				C130.7,220.5,127.7,214.3,119.3,209.7z"/>
			<g>
				<path fill="#EB4764" d="M121,169.6L121,169.6c2.3-6.2-1.2-11.2-7.7-11.4c0,0-13.3-0.2-27,10.1C97.7,162.9,116.4,156.6,121,169.6
					z"/>
				<path fill="#BE2843" d="M121,169.6c-4.5-12.9-23.2-6.7-34.7-1.3c-9.1,6.8-18.5,18.4-24.2,37.7c-1.7,5.8-3.2,12.3-4.1,19.6
					c3.4,2.2,8.6-0.8,11.4-6.6c0,0,1-2.1,2.9-4.9c2.7-6.1,14.6-28.8,40.2-21.4l0.5-1.5L121,169.6z"/>
				<path fill="#EB4764" d="M160.1,215.9c3.8-17.1-2.2-29.3-2.2-29.3c-2.7-5.5-8.2-6.7-12.7-3C157.3,184.4,159.8,203.7,160.1,215.9z
					"/>
				<path fill="#BE2843" d="M145.2,183.6c-0.3,0.2-0.6,0.5-0.9,0.8l-16.2,16.4l-1.1,1.1c17.6,20.1,2.1,40.5-2.3,45.5
					c-1.8,2.9-3.2,4.7-3.2,4.7c-4.1,5.1-4.6,11-1.2,13.2c6.2-4,11.5-8.1,16-12.1c14.8-13.2,21.3-26.3,23.7-37.3
					C159.8,203.7,157.3,184.4,145.2,183.6z"/>
			</g>
		</g>
		<g>
			
				<linearGradient id="SVGID_1_" gradientUnits="userSpaceOnUse" x1="-22.6712" y1="147.4657" x2="-22.6712" y2="204.3616" gradientTransform="matrix(0.8442 0.536 -0.536 0.8442 211.7352 95.3622)">
				<stop  offset="0" style="stop-color:#420A0A"/>
				<stop  offset="3.022841e-02" style="stop-color:#5F0E0E"/>
				<stop  offset="9.013309e-02" style="stop-color:#911616"/>
				<stop  offset="0.1465" style="stop-color:#B91D1C"/>
				<stop  offset="0.1978" style="stop-color:#D62120"/>
				<stop  offset="0.2422" style="stop-color:#E82423"/>
				<stop  offset="0.2747" style="stop-color:#EE2524"/>
				<stop  offset="0.3499" style="stop-color:#F13E31"/>
				<stop  offset="0.5087" style="stop-color:#F87E52"/>
				<stop  offset="0.6617" style="stop-color:#FFC175"/>
				<stop  offset="0.6771" style="stop-color:#FFC77C"/>
				<stop  offset="0.7532" style="stop-color:#FFE29A"/>
				<stop  offset="0.8184" style="stop-color:#FFF3AC"/>
				<stop  offset="0.8647" style="stop-color:#FFF9B3"/>
			</linearGradient>
			<path fill="url(#SVGID_1_)" d="M120.5,218.4l-8.4-8.5l-11.2-4l-29.9,36.7c0,0,9.2,8.6,12.7,10.8c3.8,2.4,16.3,7.5,16.3,7.5
				L120.5,218.4z"/>
			
				<linearGradient id="SVGID_2_" gradientUnits="userSpaceOnUse" x1="-22.6683" y1="152.4945" x2="-22.6683" y2="203.4159" gradientTransform="matrix(0.8442 0.536 -0.536 0.8442 211.7352 95.3622)">
				<stop  offset="0.297" style="stop-color:#FF6633"/>
				<stop  offset="0.5212" style="stop-color:#FFFF99"/>
				<stop  offset="1" style="stop-color:#FFFFE6"/>
			</linearGradient>
			<polygon fill="url(#SVGID_2_)" points="80.4,249.8 106.5,211.2 113.4,215.6 89.4,255.7 			"/>
		</g>
		<path fill="#F8EBC4" d="M171,162.3c14.9-20.4,24.6-36.9,30.8-50.1c-2.7-7.7-7.9-14.6-15.3-19.3c-7.4-4.7-15.9-6.5-24-5.7
			c-9.4,11.2-20.1,27-32.2,49.2c-1.4,2.6-2.8,5.2-4.3,8l39.6,25.1C167.5,167.1,169.3,164.7,171,162.3z"/>
		<g>
			<path fill="#8C1E31" d="M165.6,169.6L126,144.4c-1.3,2.4-2.5,4.9-3.8,7.5l38.3,24.3C162.2,174,164,171.7,165.6,169.6z"/>
			<path fill="#541823" d="M122.1,151.9c-0.3,0.6-0.6,1.2-0.9,1.8c5.8,9.6,17.8,19.3,37.7,24.5c0.5-0.7,1-1.3,1.6-2L122.1,151.9z"/>
		</g>
		<path fill="#FFB261" d="M121.2,153.7c-3.1,6.2-6.3,12.7-9.6,19.8l33.4,21.9c5-6,9.6-11.7,13.9-17.1L121.2,153.7z"/>
		<path fill="#F8EBC4" d="M111.7,173.4c-5,10.7-10.2,22.4-15.5,35.2c-0.3,0.8-0.6,1.5-1,2.3l11.6,7.4l11.6,7.4
			c0.5-0.6,1.1-1.2,1.6-1.8c9.2-10.1,17.5-19.7,25-28.6C133.9,178.8,120,174.4,111.7,173.4z"/>
		<g>
			<path fill="#BE2843" d="M207.3,98.7c2-5.9,3.2-10.9,3.8-15.1c-2.9-4.5-6.7-8.4-11.5-11.4c-4.8-3-9.9-4.8-15.2-5.5
				c-3.6,2.4-7.6,5.6-12.1,9.9c-3.1,3-6.4,6.6-9.9,10.7c8.1-0.8,16.5,1,24,5.7c7.4,4.7,12.6,11.6,15.3,19.3
				C204.1,107.3,205.9,102.8,207.3,98.7z"/>
			<path fill="#FFB261" d="M206.5,61.4c0,0-7.6-4.1-22.1,5.3c5.2,0.7,10.4,2.5,15.2,5.5c4.8,3,8.6,6.9,11.5,11.4
				C213.5,66.5,206.5,61.4,206.5,61.4z"/>
		</g>
		<path opacity="0.25" fill="#FFFCA0" d="M203.9,62.5c-2.8-1.8-14.2,1.7-27.4,13.6c-26.2,23.5-47,63-61.2,93.6
			c-3.5,7.5-17.3,39.4-17.3,39.4l7.7,4.9C105.6,214,212.6,68,203.9,62.5z"/>
		<path fill="#BE2843" d="M93.9,242.9c-1.4,2.2-2.7,3.8-4.5,2.7l0,0c-1.5-0.9-0.8-3,0.6-5.2l39.3-70.7c1.4-2.2,6.3-1.6,8.4-0.2l0,0
			c2.2,1.4,4.8,5.5,3.4,7.7L93.9,242.9z"/>
		<g>
			<path fill="#541823" d="M160.7,148.7c-2.3,3.6-7.1,4.7-10.7,2.4c-3.6-2.3-4.7-7.1-2.4-10.7c2.3-3.6,7.1-4.7,10.7-2.4
				C161.9,140.4,162.9,145.1,160.7,148.7z"/>
			<path fill="#BE2843" d="M160.7,148c-2.3,3.6-7.1,4.7-10.7,2.4c-3.6-2.3-4.7-7.1-2.4-10.7c2.3-3.6,7.1-4.7,10.7-2.4
				C161.9,139.6,163,144.4,160.7,148z"/>
			<path fill="#A1E0FF" d="M158.9,146.8c-1.6,2.6-5.1,3.4-7.7,1.7c-2.6-1.6-3.4-5.1-1.7-7.7c1.7-2.6,5.1-3.4,7.7-1.7
				C159.7,140.8,160.5,144.2,158.9,146.8z"/>
			<g opacity="0.65">
				<path fill="#66CCFF" d="M159.6,142.9c-0.3-1.5-1.1-2.9-2.5-3.8c-2.6-1.6-6-0.9-7.7,1.7c-0.3,0.5-0.5,1-0.6,1.5
					C150.4,141.1,154.3,138.9,159.6,142.9z"/>
			</g>
			<path fill="#FFFFFF" d="M152.5,143.2c-0.3,0.4-0.8,0.5-1.2,0.3c-0.4-0.3-0.5-0.8-0.3-1.2c0.3-0.4,0.8-0.5,1.2-0.3
				C152.7,142.2,152.8,142.8,152.5,143.2z"/>
		</g>
		<g>
			<path fill="#541823" d="M186.7,126.5c-5.1,8.1-15.8,10.4-23.8,5.3c-8.1-5.1-10.4-15.8-5.3-23.8c5.1-8.1,15.8-10.4,23.8-5.3
				C189.4,107.8,191.8,118.4,186.7,126.5z"/>
			<path fill="#BE2843" d="M186.7,124.8c-5.1,8.1-15.8,10.4-23.8,5.3c-8.1-5.1-10.4-15.8-5.3-23.8c5.1-8.1,15.8-10.4,23.8-5.3
				C189.4,106,191.8,116.7,186.7,124.8z"/>
			<path fill="#A1E0FF" d="M182.6,122.2c-3.7,5.8-11.4,7.5-17.2,3.8c-5.8-3.7-7.5-11.4-3.8-17.2c3.7-5.8,11.4-7.5,17.2-3.8
				C184.6,108.7,186.3,116.4,182.6,122.2z"/>
			<g opacity="0.65">
				<path fill="#66CCFF" d="M184.4,113.5c-0.6-3.4-2.5-6.5-5.6-8.5c-5.8-3.7-13.5-2-17.2,3.8c-0.7,1.1-1.1,2.2-1.5,3.4
					C163.8,109.3,172.5,104.6,184.4,113.5z"/>
			</g>
			<path fill="#FFFFFF" d="M173.4,111.1c-0.7,1.1-2.2,1.4-3.3,0.7c-1.1-0.7-1.4-2.2-0.7-3.3c0.7-1.1,2.2-1.4,3.3-0.7
				C173.8,108.6,174.2,110,173.4,111.1z"/>
			<path fill="#FFFFFF" d="M167.3,114c-0.4,0.7-1.3,0.9-2,0.4c-0.7-0.4-0.9-1.3-0.5-2c0.4-0.7,1.3-0.9,2-0.5
				C167.5,112.4,167.7,113.3,167.3,114z"/>
		</g>
		<g>
			<path fill="#CC8B96" d="M189.1,90.9c-0.3,0.5-1,0.7-1.5,0.3c-0.5-0.3-0.7-1-0.3-1.5c0.3-0.5,1-0.7,1.5-0.3
				C189.2,89.7,189.4,90.3,189.1,90.9z"/>
			<path fill="#FFB261" d="M188.9,90.7c-0.3,0.4-0.8,0.5-1.2,0.3c-0.4-0.3-0.5-0.8-0.3-1.2c0.3-0.4,0.8-0.5,1.2-0.3
				C189,89.8,189.1,90.3,188.9,90.7z"/>
		</g>
		<g>
			<path fill="#CC8B96" d="M194.1,94.8c-0.3,0.5-1,0.7-1.5,0.3c-0.5-0.3-0.7-1-0.3-1.5c0.3-0.5,1-0.7,1.5-0.3
				C194.2,93.6,194.4,94.3,194.1,94.8z"/>
			<path fill="#FFB261" d="M193.9,94.7c-0.3,0.4-0.8,0.5-1.2,0.3c-0.4-0.3-0.5-0.8-0.3-1.2c0.3-0.4,0.8-0.5,1.2-0.3
				C194,93.7,194.1,94.3,193.9,94.7z"/>
		</g>
		<g>
			<path fill="#CC8B96" d="M198.5,99.2c-0.3,0.5-1,0.7-1.5,0.3c-0.5-0.3-0.7-1-0.3-1.5c0.3-0.5,1-0.7,1.5-0.3
				C198.6,98,198.8,98.7,198.5,99.2z"/>
			<path fill="#FFB261" d="M198.3,99c-0.3,0.4-0.8,0.5-1.2,0.3c-0.4-0.3-0.5-0.8-0.3-1.2s0.8-0.5,1.2-0.3
				C198.4,98.1,198.5,98.6,198.3,99z"/>
		</g>
		<g>
			<path fill="#CC8B96" d="M201.9,104.2c-0.3,0.5-1,0.7-1.5,0.3c-0.5-0.3-0.7-1-0.3-1.5c0.3-0.5,1-0.7,1.5-0.3
				C202.1,103,202.2,103.7,201.9,104.2z"/>
			<path fill="#FFB261" d="M201.7,104.1c-0.3,0.4-0.8,0.5-1.2,0.3c-0.4-0.3-0.5-0.8-0.3-1.2c0.3-0.4,0.8-0.5,1.2-0.3
				C201.9,103.1,202,103.7,201.7,104.1z"/>
		</g>
		<g>
			<path fill="#CC8B96" d="M181.3,86.7c-0.3,0.5-0.2,1.2,0.3,1.5c0.5,0.3,1.2,0.2,1.5-0.3c0.3-0.5,0.2-1.2-0.3-1.5
				C182.3,86,181.6,86.2,181.3,86.7z"/>
			<path fill="#FFB261" d="M181.5,86.8c-0.3,0.4-0.1,0.9,0.3,1.2c0.4,0.3,0.9,0.1,1.2-0.3s0.1-0.9-0.3-1.2
				C182.3,86.3,181.7,86.4,181.5,86.8z"/>
		</g>
		<g>
			<path fill="#CC8B96" d="M175.5,84.6c-0.3,0.5-0.2,1.2,0.3,1.5c0.5,0.3,1.2,0.2,1.5-0.3c0.3-0.5,0.2-1.2-0.3-1.5
				C176.5,83.9,175.8,84.1,175.5,84.6z"/>
			<path fill="#FFB261" d="M175.6,84.7c-0.3,0.4-0.1,0.9,0.3,1.2c0.4,0.3,0.9,0.1,1.2-0.3s0.1-0.9-0.3-1.2
				C176.4,84.2,175.9,84.3,175.6,84.7z"/>
		</g>
		<g>
			<path fill="#CC8B96" d="M169.4,83.6c-0.3,0.5-0.2,1.2,0.3,1.5c0.5,0.3,1.2,0.2,1.5-0.3c0.3-0.5,0.2-1.2-0.3-1.5
				C170.4,82.9,169.8,83.1,169.4,83.6z"/>
			<path fill="#FFB261" d="M169.6,83.7c-0.3,0.4-0.1,0.9,0.3,1.2c0.4,0.3,0.9,0.1,1.2-0.3c0.3-0.4,0.1-0.9-0.3-1.2
				C170.4,83.2,169.9,83.3,169.6,83.7z"/>
		</g>
		<g>
			<path fill="#CC8B96" d="M128.7,148.6c-0.3,0.5-1,0.7-1.5,0.3c-0.5-0.3-0.7-1-0.3-1.5c0.3-0.5,1-0.7,1.5-0.3
				C128.8,147.4,129,148.1,128.7,148.6z"/>
			<path fill="#FFB261" d="M128.5,148.5c-0.3,0.4-0.8,0.5-1.2,0.3c-0.4-0.3-0.5-0.8-0.3-1.2c0.3-0.4,0.8-0.5,1.2-0.3
				C128.6,147.5,128.8,148.1,128.5,148.5z"/>
		</g>
		<g>
			<path fill="#CC8B96" d="M132.4,151c-0.3,0.5-1,0.7-1.5,0.3c-0.5-0.3-0.7-1-0.3-1.5c0.3-0.5,1-0.7,1.5-0.3
				C132.6,149.8,132.7,150.5,132.4,151z"/>
			<path fill="#FFB261" d="M132.2,150.8c-0.3,0.4-0.8,0.5-1.2,0.3c-0.4-0.3-0.5-0.8-0.3-1.2c0.3-0.4,0.8-0.5,1.2-0.3
				C132.4,149.9,132.5,150.4,132.2,150.8z"/>
		</g>
		<g>
			<path fill="#CC8B96" d="M136.2,153.3c-0.3,0.5-1,0.7-1.5,0.3c-0.5-0.3-0.7-1-0.3-1.5c0.3-0.5,1-0.7,1.5-0.3
				C136.3,152.2,136.5,152.8,136.2,153.3z"/>
			<path fill="#FFB261" d="M136,153.2c-0.3,0.4-0.8,0.5-1.2,0.3c-0.4-0.3-0.5-0.8-0.3-1.2c0.3-0.4,0.8-0.5,1.2-0.3
				C136.1,152.3,136.3,152.8,136,153.2z"/>
		</g>
		<g>
			<path fill="#CC8B96" d="M139.9,155.7c-0.3,0.5-1,0.7-1.5,0.3c-0.5-0.3-0.7-1-0.3-1.5c0.3-0.5,1-0.7,1.5-0.3
				C140.1,154.6,140.2,155.2,139.9,155.7z"/>
			<path fill="#FFB261" d="M139.7,155.6c-0.3,0.4-0.8,0.5-1.2,0.3c-0.4-0.3-0.5-0.8-0.3-1.2c0.3-0.4,0.8-0.5,1.2-0.3
				C139.9,154.7,140,155.2,139.7,155.6z"/>
		</g>
		<g>
			<path fill="#CC8B96" d="M143.7,158.1c-0.3,0.5-1,0.7-1.5,0.3c-0.5-0.3-0.7-1-0.3-1.5c0.3-0.5,1-0.7,1.5-0.3
				C143.8,156.9,144,157.6,143.7,158.1z"/>
			<path fill="#FFB261" d="M143.5,158c-0.3,0.4-0.8,0.5-1.2,0.3c-0.4-0.3-0.5-0.8-0.3-1.2c0.3-0.4,0.8-0.5,1.2-0.3
				C143.6,157,143.7,157.6,143.5,158z"/>
		</g>
		<g>
			<path fill="#CC8B96" d="M147.4,160.5c-0.3,0.5-1,0.7-1.5,0.3c-0.5-0.3-0.7-1-0.3-1.5c0.3-0.5,1-0.7,1.5-0.3
				C147.6,159.3,147.7,160,147.4,160.5z"/>
			<path fill="#FFB261" d="M147.2,160.4c-0.3,0.4-0.8,0.5-1.2,0.3c-0.4-0.3-0.5-0.8-0.3-1.2c0.3-0.4,0.8-0.5,1.2-0.3
				C147.4,159.4,147.5,160,147.2,160.4z"/>
		</g>
		<g>
			<path fill="#CC8B96" d="M151.2,162.9c-0.3,0.5-1,0.7-1.5,0.3c-0.5-0.3-0.7-1-0.3-1.5c0.3-0.5,1-0.7,1.5-0.3
				C151.3,161.7,151.5,162.4,151.2,162.9z"/>
			<path fill="#FFB261" d="M151,162.7c-0.3,0.4-0.8,0.5-1.2,0.3c-0.4-0.3-0.5-0.8-0.3-1.2c0.3-0.4,0.8-0.5,1.2-0.3
				C151.1,161.8,151.2,162.3,151,162.7z"/>
		</g>
		<g>
			<path fill="#CC8B96" d="M154.9,165.2c-0.3,0.5-1,0.7-1.5,0.3c-0.5-0.3-0.7-1-0.3-1.5c0.3-0.5,1-0.7,1.5-0.3
				C155.1,164.1,155.2,164.7,154.9,165.2z"/>
			<path fill="#FFB261" d="M154.7,165.1c-0.3,0.4-0.8,0.5-1.2,0.3c-0.4-0.3-0.5-0.8-0.3-1.2c0.3-0.4,0.8-0.5,1.2-0.3
				C154.9,164.2,155,164.7,154.7,165.1z"/>
		</g>
		<g>
			<path fill="#CC8B96" d="M158.7,167.6c-0.3,0.5-1,0.7-1.5,0.3c-0.5-0.3-0.7-1-0.3-1.5c0.3-0.5,1-0.7,1.5-0.3
				C158.8,166.4,159,167.1,158.7,167.6z"/>
			<path fill="#FFB261" d="M158.5,167.5c-0.3,0.4-0.8,0.5-1.2,0.3c-0.4-0.3-0.5-0.8-0.3-1.2c0.3-0.4,0.8-0.5,1.2-0.3
				C158.6,166.6,158.7,167.1,158.5,167.5z"/>
		</g>
		<g>
			<path fill="#CC8B96" d="M162.4,170c-0.3,0.5-1,0.7-1.5,0.3c-0.5-0.3-0.7-1-0.3-1.5c0.3-0.5,1-0.7,1.5-0.3
				C162.6,168.8,162.7,169.5,162.4,170z"/>
			<path fill="#FFB261" d="M162.2,169.9c-0.3,0.4-0.8,0.5-1.2,0.3c-0.4-0.3-0.5-0.8-0.3-1.2c0.3-0.4,0.8-0.5,1.2-0.3
				C162.4,168.9,162.5,169.5,162.2,169.9z"/>
		</g>
		<path fill="#EB4764" d="M139.4,176.5c-0.9,1.4-11.7,14.2-14,12.7c-2.3-1.5,4.6-16.7,5.5-18.1c0.9-1.4,3.9-2,6.3-0.5
			C139.5,172.1,140.2,175.1,139.4,176.5z"/>
	</g>
</g>
</svg>
