<?xml version="1.0" encoding="utf-8"?>
<!-- Generator: Adobe Illustrator 23.0.4, SVG Export Plug-In . SVG Version: 6.00 Build 0)  -->
<svg version="1.1" class="barre-icon" xmlns="http://www.w3.org/2000/svg" xmlns:xlink="http://www.w3.org/1999/xlink" x="0px" y="0px"
	 viewBox="0 0 112 43" style="enable-background:new 0 0 112 43;" xml:space="preserve">
<style type="text/css">
	.Ombre_x0020_portée{fill:none;}
	.Lueur_x0020_externe_x0020_5 pt{fill:none;}
	.Néon_x0020_bleu{fill:none;stroke:#8AACDA;stroke-width:7;stroke-linecap:round;stroke-linejoin:round;}
	.Ton_x0020_clair_x0020_chrome{fill:url(#SVGID_1_);stroke:#FFFFFF;stroke-width:0.3629;stroke-miterlimit:1;}
	.Swing_GS{fill:#FFDD00;}
	.Alysse_GS{fill:#A6D0E4;}
	.barre-st0{fill:#DEE2B5;}
	.barre-st1{fill:#CED893;}
</style>
<linearGradient id="SVGID_1_" gradientUnits="userSpaceOnUse" x1="-444" y1="-479" x2="-444" y2="-480">
	<stop  offset="0" style="stop-color:#656565"/>
	<stop  offset="0.618" style="stop-color:#1B1B1B"/>
	<stop  offset="0.6292" style="stop-color:#545454"/>
	<stop  offset="0.9831" style="stop-color:#3E3E3E"/>
</linearGradient>
<path id="Tracé_10111" class="barre-st0" d="M111.9,38c0,2.7-2.2,5-5,5H5c-2.7,0-5-2.2-5-5V5c0-2.7,2.2-5,5-5h102c2.7,0,5,2.2,5,5
	L111.9,38z"/>
<path id="Tracé_10112" class="barre-st1" d="M19.7,38V5c0-2.7,2.2-5,5-5H5C2.2,0,0,2.2,0,5v33c0,2.7,2.2,5,5,5h19.7
	C21.9,42.9,19.7,40.7,19.7,38z"/>
</svg>
