<?xml version="1.0" encoding="utf-8"?>
<!-- Generator: Adobe Illustrator 23.0.4, SVG Export Plug-In . SVG Version: 6.00 Build 0)  -->
<svg class="engrenage-2-icon" version="1.1" xmlns="http://www.w3.org/2000/svg" xmlns:xlink="http://www.w3.org/1999/xlink" x="0px" y="0px"
	 viewBox="0 0 46.6 49.4" style="enable-background:new 0 0 46.6 49.4;" xml:space="preserve">
<style type="text/css">
	.Ombre_x0020_portée{fill:none;}
	.Lueur_x0020_externe_x0020_5 pt{fill:none;}
	.Néon_x0020_bleu{fill:none;stroke:#8AACDA;stroke-width:7;stroke-linecap:round;stroke-linejoin:round;}
	.Ton_x0020_clair_x0020_chrome{fill:url(#SVGID_1_);stroke:#FFFFFF;stroke-width:0.3629;stroke-miterlimit:1;}
	.Swing_GS{fill:#FFDD00;}
	.Alysse_GS{fill:#A6D0E4;}
	.sprocket-2-st0{fill:#D9CFC9;}
	.sprocket-2-st1{fill:#B2A9A4;}
</style>
<linearGradient id="SVGID_1_" gradientUnits="userSpaceOnUse" x1="-399.9021" y1="-473.5289" x2="-399.9021" y2="-474.5289">
	<stop  offset="0" style="stop-color:#656565"/>
	<stop  offset="0.618" style="stop-color:#1B1B1B"/>
	<stop  offset="0.6292" style="stop-color:#545454"/>
	<stop  offset="0.9831" style="stop-color:#3E3E3E"/>
</linearGradient>
<path id="Tracé_10120" class="sprocket-2-st0" d="M45.7,31.9l-3.5-2c-0.2-0.1-0.3-0.3-0.2-0.5c0.8-3.1,0.8-6.3,0-9.3c-0.1-0.2,0-0.4,0.2-0.5
	l3.5-2c0.8-0.5,1.1-1.5,0.6-2.3c0,0,0,0,0,0L43,9.5c-0.5-0.8-1.5-1.1-2.3-0.6c0,0,0,0,0,0l-3.5,2c-0.2,0.1-0.4,0.1-0.5-0.1
	c-2.3-2.2-5-3.8-8.1-4.7c-0.2-0.1-0.3-0.2-0.3-0.4v-4c0-0.9-0.8-1.7-1.7-1.7l0,0H20c-0.9,0-1.7,0.8-1.7,1.7c0,0,0,0,0,0v4
	c0,0.2-0.1,0.4-0.3,0.4c-3,0.9-5.8,2.5-8.1,4.7c-0.1,0.1-0.4,0.2-0.5,0.1l-3.5-2C5.1,8.4,4,8.7,3.6,9.5c0,0,0,0,0,0l-3.3,5.7
	C-0.2,16,0,17.1,0.8,17.6c0,0,0,0,0,0l3.5,2c0.2,0.1,0.3,0.3,0.2,0.5c-0.8,3.1-0.8,6.3,0,9.3c0.1,0.2,0,0.4-0.2,0.5l-3.5,2
	c-0.8,0.5-1.1,1.5-0.6,2.3c0,0,0,0,0,0l3.3,5.7C4,40.8,5.1,41,5.9,40.6c0,0,0,0,0,0l3.5-2c0.2-0.1,0.4-0.1,0.5,0.1
	c2.3,2.2,5,3.8,8.1,4.7c0.2,0.1,0.3,0.2,0.3,0.4v4c0,0.9,0.8,1.7,1.7,1.7l0,0h6.6c0.9,0,1.7-0.8,1.7-1.7c0,0,0,0,0,0v-4
	c0-0.2,0.1-0.4,0.3-0.4c3-0.9,5.8-2.5,8.1-4.7c0.1-0.1,0.4-0.2,0.5-0.1l3.5,2c0.8,0.5,1.9,0.2,2.3-0.6c0,0,0,0,0,0l3.3-5.7
	C46.8,33.4,46.5,32.3,45.7,31.9C45.7,31.9,45.7,31.9,45.7,31.9L45.7,31.9z M23.3,36.1c-6.3,0-11.4-5.1-11.4-11.4S17,13.3,23.3,13.3
	c6.3,0,11.4,5.1,11.4,11.4C34.7,31,29.6,36.1,23.3,36.1C23.3,36.1,23.3,36.1,23.3,36.1z"/>
<path id="Tracé_10121" class="sprocket-2-st1" d="M7,34.2c-0.5-0.8-0.2-1.9,0.6-2.3c0,0,0,0,0,0l3.5-2c0.2-0.1,0.3-0.3,0.2-0.5
	c-0.8-3.1-0.8-6.3,0-9.3c0.1-0.2,0-0.4-0.2-0.5l-3.5-2C6.8,17.1,6.6,16,7,15.2c0,0,0,0,0,0l2.5-4.3c-0.1,0-0.1,0-0.2-0.1l-3.5-2
	C5.1,8.4,4,8.7,3.6,9.5c0,0,0,0,0,0l-3.3,5.7C-0.2,16,0,17.1,0.9,17.6c0,0,0,0,0,0l3.5,2c0.2,0.1,0.3,0.3,0.2,0.5
	c-0.8,3.1-0.8,6.3,0,9.3c0.1,0.2,0,0.4-0.2,0.5l-3.5,2c-0.8,0.5-1.1,1.5-0.6,2.3c0,0,0,0,0,0l3.3,5.7C4,40.8,5.1,41,5.9,40.6
	c0,0,0,0,0,0l3.5-2c0.1,0,0.1,0,0.2-0.1L7,34.2z"/>
<path id="Tracé_10130" class="sprocket-2-st1" d="M26.6,0H20c-0.9,0-1.7,0.8-1.7,1.7c0,0,0,0,0,0v4c0,0.2-0.1,0.4-0.3,0.4
	C20,5.9,22,5.7,24,5.7c0.6,0,1-0.5,1-1.1v-3C25.1,0.8,25.8,0,26.6,0C26.7,0,26.6,0,26.6,0L26.6,0z"/>
<path id="Tracé_10131" class="sprocket-2-st1" d="M25.1,47.7v-3c0-0.6-0.4-1-1-1c-2,0-4.1-0.2-6.1-0.4c0.2,0.1,0.3,0.2,0.3,0.4v4
	c0,0.9,0.8,1.7,1.7,1.7l0,0h6.6c0,0,0.1,0,0.1,0C25.8,49.4,25.1,48.6,25.1,47.7z"/>
</svg>
