<?xml version="1.0" encoding="utf-8"?>
<!-- Generator: Adobe Illustrator 23.0.2, SVG Export Plug-In . SVG Version: 6.00 Build 0)  -->
<svg version="1.1" id="Calque_1" xmlns="http://www.w3.org/2000/svg" xmlns:xlink="http://www.w3.org/1999/xlink" x="0px" y="0px"
	 viewBox="0 0 137.1 167.9" enable-background="new 0 0 137.1 167.9" xml:space="preserve">
<title>appartement</title>
<g>
	<g>
		<path fill="#B0CE67" d="M118.8,163.3c2.5-0.6,4.3-2.7,4.5-5.2c0-0.4,0-0.9-0.2-1.3c-0.5-0.8-1.4-1.3-2.3-1.2
			c-0.9,0.1-1.8,0.4-2.6,0.9c2-2.6,3.4-6,2.1-9c-0.3-0.8-1-1.4-1.9-1.5c-0.9,0-1.6,0.8-2.1,1.6c-1.3,1.9-2.4,4-3.3,6.1
			c-0.3-2.2-1-4.7-3-5.8c-0.5-0.4-1.3-0.4-1.7,0.1c0,0,0,0,0,0c-1.7,1.6-1.5,4.3-1.2,6.6c-0.5-1.5-2.6-2.1-4-1.4
			c-1.4,0.8-2.4,2.2-2.6,3.9c-0.3,1.3-0.2,2.6,0.4,3.8c0.6,1.1,1.9,2.6,3.2,2.5"/>
		<polygon fill="#E4E5E7" points="13.3,4 61.7,9.9 112.9,18 112.9,164.3 13.3,164.3 		"/>
		<polygon opacity="0.15" fill="#4B4B4D" enable-background="new    " points="13.3,6.2 13.3,13.3 112.9,24.4 112.9,17.1 		"/>
		<polygon fill="#717676" points="10.3,5.8 118.6,20.4 121.3,15.6 7.7,0 		"/>
		<polygon opacity="0.7" fill="#CCCDCC" enable-background="new    " points="112.9,159.1 34.7,138.8 13.3,121.1 112.9,121.1 		"/>
		<g>
			<defs>
				<polygon id="SVGID_1_" points="22.4,99.5 102.7,99.5 116.1,117.9 9.6,117.9 				"/>
			</defs>
			<clipPath id="SVGID_2_">
				<use xlink:href="#SVGID_1_"  overflow="visible"/>
			</clipPath>
			<g clip-path="url(#SVGID_2_)">
				<polygon fill="#717676" points="22.4,99.5 102.7,99.5 116.1,117.9 9.6,117.9 				"/>
				<path fill="#717676" d="M15.4,132.7c0,0,1.5,5.8,6.1,5.9s6.3-3.7,6.8-5.9l-5-2.7L15.4,132.7z"/>
				<path fill="#505656" d="M21.6,138.9h-0.2c-4.8-0.1-6.3-6.1-6.3-6.1l-0.1-0.2l8.1-2.8l5.3,2.8l0,0.2
					C27.9,135.7,25.7,138.9,21.6,138.9z M15.7,132.9c0.3,1.1,1.9,5.4,5.7,5.5h0.1c4.7,0,6-4.2,6.3-5.5l-4.8-2.5L15.7,132.9z"/>
				<path fill="#717676" d="M28.2,132.7c0,0,1.5,5.8,6.1,5.9s6.3-3.7,6.8-5.9l-5-2.7L28.2,132.7z"/>
				<path fill="#505656" d="M34.4,138.9h-0.2c-4.8-0.1-6.3-6.1-6.3-6.1l-0.1-0.2l8.1-2.8l5.3,2.8v0.2
					C40.7,135.7,38.6,138.9,34.4,138.9z M28.5,132.9c0.3,1.1,1.9,5.4,5.7,5.5h0.2c4.7,0,6-4.2,6.3-5.5l-4.7-2.5L28.5,132.9z"/>
				<path fill="#717676" d="M41,132.7c0,0,1.5,5.8,6,5.9s6.3-3.7,6.8-5.9l-5-2.7L41,132.7z"/>
				<path fill="#505656" d="M47.2,138.9h-0.2c-4.7-0.1-6.3-6.1-6.3-6.1l-0.1-0.2l8.1-2.8l5.3,2.8v0.2
					C53.5,135.7,51.4,138.9,47.2,138.9z M41.4,132.9c0.3,1.1,1.9,5.4,5.7,5.5h0.1c4.7,0,6-4.2,6.3-5.5l-4.7-2.5L41.4,132.9z"/>
				<path fill="#717676" d="M53.8,132.7c0,0,1.5,5.8,6.1,5.9s6.3-3.7,6.8-5.9l-5-2.7L53.8,132.7z"/>
				<path fill="#505656" d="M60,138.9h-0.2c-4.8-0.1-6.3-6.1-6.3-6.1l-0.1-0.2l8.1-2.8l5.4,2.8v0.2C66.3,135.7,64.2,138.9,60,138.9z
					 M54.2,132.9c0.3,1.1,1.9,5.4,5.7,5.5h0.2c4.7,0,6-4.2,6.3-5.5l-4.8-2.5L54.2,132.9z"/>
				<path fill="#717676" d="M66.7,132.7c0,0,1.5,5.8,6,5.9s6.3-3.7,6.8-5.9l-5-2.7L66.7,132.7z"/>
				<path fill="#505656" d="M72.9,138.9h-0.2c-4.8-0.1-6.3-6.1-6.3-6.1l-0.1-0.2l8.1-2.8l5.3,2.8v0.2
					C79.2,135.7,77,138.9,72.9,138.9z M67,132.9c0.3,1.1,1.9,5.4,5.7,5.5h0.1c4.7,0,6-4.2,6.3-5.5l-4.8-2.5L67,132.9z"/>
				<path fill="#717676" d="M79.5,132.7c0,0,1.5,5.8,6.1,5.9s6.3-3.7,6.8-5.9l-5-2.7L79.5,132.7z"/>
				<path fill="#505656" d="M85.7,138.9h-0.2c-4.8-0.1-6.3-6.1-6.3-6.1l-0.1-0.2l8.1-2.8l5.3,2.8v0.2
					C92,135.7,89.9,138.9,85.7,138.9z M79.8,132.9c0.3,1.1,1.9,5.4,5.7,5.5h0.2c4.7,0,6-4.2,6.3-5.5l-4.8-2.5L79.8,132.9z"/>
				<path fill="#717676" d="M92.3,132.7c0,0,1.5,5.8,6.1,5.9s6.3-3.7,6.8-5.9l-5.1-2.7L92.3,132.7z"/>
				<path fill="#505656" d="M98.5,138.9h-0.2c-4.8-0.1-6.3-6.1-6.3-6.1l0-0.2l8.1-2.8l5.3,2.8v0.2
					C104.8,135.7,102.7,138.9,98.5,138.9z M92.7,132.9c0.3,1.1,1.9,5.4,5.7,5.5c4.8,0.1,6.1-4.2,6.4-5.5l-4.8-2.5L92.7,132.9z"/>
				<path fill="#717676" d="M105.2,132.7c0,0,1.5,5.8,6,5.9s6.3-3.7,6.8-5.9l-5-2.7L105.2,132.7z"/>
				<path fill="#505656" d="M111.3,138.9h-0.2c-4.7-0.1-6.3-6.1-6.3-6.1l-0.1-0.2l8.1-2.8l5.3,2.8v0.2
					C117.6,135.7,115.5,138.9,111.3,138.9z M105.5,132.9c0.3,1.1,1.9,5.4,5.7,5.5h0.1c4.7,0,6-4.2,6.3-5.5l-4.7-2.5L105.5,132.9z"/>
				<path fill="#717676" d="M9,128.4c0,0,1.5,5.8,6.1,5.9s6.3-3.6,6.8-5.9l-5-2.7L9,128.4z"/>
				<path fill="#505656" d="M15.2,134.6H15c-4.8-0.1-6.3-6.1-6.3-6.1l-0.1-0.2l8.1-2.8l5.3,2.8v0.2
					C21.5,131.5,19.3,134.6,15.2,134.6z M9.3,128.6c0.3,1.1,1.9,5.4,5.7,5.4h0.1c4.7,0,6-4.2,6.3-5.5l-4.8-2.5L9.3,128.6z"/>
				<path fill="#717676" d="M21.8,128.4c0,0,1.5,5.8,6,5.9s6.3-3.6,6.8-5.9l-5-2.7L21.8,128.4z"/>
				<path fill="#505656" d="M28,134.6h-0.2c-4.7-0.1-6.3-6.1-6.3-6.1l-0.1-0.2l8.1-2.8l5.3,2.8v0.2C34.3,131.5,32.2,134.6,28,134.6z
					 M22.1,128.6c0.3,1.1,1.9,5.4,5.7,5.5H28c4.7,0,6-4.2,6.3-5.5l-4.8-2.5L22.1,128.6z"/>
				<path fill="#717676" d="M34.6,128.4c0,0,1.5,5.8,6.1,5.9s6.3-3.6,6.8-5.9l-5-2.7L34.6,128.4z"/>
				<path fill="#505656" d="M40.8,134.6h-0.2c-4.8-0.1-6.3-6.1-6.3-6.1l-0.1-0.2l8.1-2.8l5.3,2.8v0.2
					C47.1,131.5,45,134.6,40.8,134.6z M35,128.6c0.3,1.1,1.9,5.4,5.7,5.5h0.2c4.7,0,6-4.2,6.3-5.5l-4.8-2.5L35,128.6z"/>
				<path fill="#717676" d="M47.4,128.4c0,0,1.5,5.8,6,5.9s6.3-3.6,6.8-5.9l-5-2.7L47.4,128.4z"/>
				<path fill="#505656" d="M53.6,134.6h-0.2c-4.8-0.1-6.3-6.1-6.3-6.1l-0.1-0.2l8.1-2.8l5.3,2.8v0.2
					C59.9,131.5,57.8,134.6,53.6,134.6z M47.8,128.6c0.3,1.1,1.9,5.4,5.7,5.5h0.1c4.7,0,6-4.2,6.3-5.5l-4.8-2.5L47.8,128.6z"/>
				<path fill="#717676" d="M60.3,128.4c0,0,1.5,5.8,6,5.9s6.3-3.6,6.8-5.9l-5-2.7L60.3,128.4z"/>
				<path fill="#505656" d="M66.5,134.6h-0.2c-4.8-0.1-6.3-6.1-6.3-6.1l-0.1-0.2l8.1-2.8l5.3,2.8l-0.1,0.2
					C72.8,131.5,70.6,134.6,66.5,134.6z M60.6,128.6c0.3,1.1,1.9,5.4,5.7,5.5h0.2c4.7,0,6-4.2,6.3-5.5l-4.8-2.5L60.6,128.6z"/>
				<path fill="#717676" d="M73.1,128.4c0,0,1.5,5.8,6,5.9s6.3-3.6,6.8-5.9l-5-2.7L73.1,128.4z"/>
				<path fill="#505656" d="M79.3,134.6h-0.2c-4.8-0.1-6.3-6.1-6.3-6.1l-0.1-0.2l8.1-2.8l5.3,2.8v0.2
					C85.6,131.5,83.4,134.6,79.3,134.6z M73.4,128.6c0.3,1.1,1.9,5.4,5.7,5.5h0.2c4.7,0,6-4.2,6.3-5.5l-4.8-2.5L73.4,128.6z"/>
				<path fill="#717676" d="M85.9,128.4c0,0,1.5,5.8,6,5.9s6.3-3.6,6.8-5.9l-5-2.7L85.9,128.4z"/>
				<path fill="#505656" d="M92.1,134.6H92c-4.7-0.1-6.3-6.1-6.3-6.1l-0.1-0.2l8.2-2.8l5.3,2.8v0.2
					C98.4,131.5,96.3,134.6,92.1,134.6z M86.2,128.6c0.3,1.1,1.9,5.4,5.7,5.5h0.1c4.7,0,6-4.2,6.3-5.5l-4.8-2.5L86.2,128.6z"/>
				<path fill="#717676" d="M98.7,128.4c0,0,1.5,5.8,6.1,5.9s6.3-3.6,6.8-5.9l-5-2.7L98.7,128.4z"/>
				<path fill="#505656" d="M104.9,134.6h-0.2c-4.8-0.1-6.3-6.1-6.3-6.1l-0.1-0.2l8.1-2.8l5.3,2.8v0.2
					C111.2,131.5,109.1,134.6,104.9,134.6z M99.1,128.6c0.3,1.1,1.9,5.4,5.7,5.5h0.2c4.7,0,6-4.2,6.3-5.5l-4.8-2.5L99.1,128.6z"/>
				<path fill="#717676" d="M15.4,124.1c0,0,1.5,5.9,6.1,5.9s6.3-3.7,6.8-5.9l-5-2.7L15.4,124.1z"/>
				<path fill="#505656" d="M21.6,130.3h-0.2c-4.8-0.1-6.3-6.1-6.3-6.1l-0.1-0.2l8.1-2.8l5.3,2.8l0,0.2
					C27.9,127.2,25.7,130.3,21.6,130.3z M15.7,124.3c0.3,1.1,1.9,5.4,5.7,5.4h0.1c4.7,0,6-4.2,6.3-5.5l-4.8-2.5L15.7,124.3z"/>
				<path fill="#717676" d="M28.2,124.1c0,0,1.5,5.9,6.1,5.9s6.3-3.7,6.8-5.9l-5-2.7L28.2,124.1z"/>
				<path fill="#505656" d="M34.4,130.3h-0.2c-4.8-0.1-6.3-6.1-6.3-6.1l-0.1-0.2l8.1-2.8l5.3,2.8v0.2
					C40.7,127.2,38.6,130.3,34.4,130.3z M28.5,124.3c0.3,1.1,1.9,5.4,5.7,5.4h0.2c4.7,0,6-4.2,6.3-5.5l-4.7-2.5L28.5,124.3z"/>
				<path fill="#717676" d="M41,124.1c0,0,1.5,5.8,6,5.9s6.3-3.7,6.8-5.9l-5-2.7L41,124.1z"/>
				<path fill="#505656" d="M47.2,130.3h-0.2c-4.7-0.1-6.3-6.1-6.3-6.1l-0.1-0.2l8.1-2.8l5.3,2.8v0.2
					C53.5,127.2,51.4,130.3,47.2,130.3z M41.4,124.3c0.3,1.1,1.9,5.4,5.7,5.4h0.1c4.7,0,6-4.2,6.3-5.5l-4.7-2.5L41.4,124.3z"/>
				<path fill="#717676" d="M53.8,124.1c0,0,1.5,5.9,6.1,5.9s6.3-3.7,6.8-5.9l-5-2.7L53.8,124.1z"/>
				<path fill="#505656" d="M60,130.3h-0.2c-4.8-0.1-6.3-6.1-6.3-6.1l-0.1-0.2l8.1-2.8L67,124v0.2C66.3,127.2,64.2,130.3,60,130.3z
					 M54.2,124.3c0.3,1.1,1.9,5.4,5.7,5.4c4.8,0.1,6.2-4.2,6.4-5.4l-4.8-2.5L54.2,124.3z"/>
				<path fill="#717676" d="M66.7,124.1c0,0,1.5,5.8,6,5.9s6.3-3.7,6.8-5.9l-5-2.7L66.7,124.1z"/>
				<path fill="#505656" d="M72.9,130.3h-0.2c-4.8-0.1-6.3-6.1-6.3-6.1l-0.1-0.2l8.1-2.8l5.3,2.8v0.2
					C79.2,127.2,77,130.3,72.9,130.3z M67,124.3c0.3,1.1,1.9,5.4,5.7,5.4h0.1c4.7,0,6-4.2,6.3-5.5l-4.8-2.5L67,124.3z"/>
				<path fill="#717676" d="M79.5,124.1c0,0,1.5,5.9,6.1,5.9s6.3-3.7,6.8-5.9l-5-2.7L79.5,124.1z"/>
				<path fill="#505656" d="M85.7,130.3h-0.2c-4.8-0.1-6.3-6.1-6.3-6.1l-0.1-0.2l8.1-2.8l5.3,2.8v0.2
					C92,127.2,89.9,130.3,85.7,130.3z M79.8,124.3c0.3,1.1,1.9,5.4,5.7,5.4c4.8,0.1,6.2-4.2,6.4-5.4l-4.8-2.5L79.8,124.3z"/>
				<path fill="#717676" d="M92.3,124.1c0,0,1.5,5.9,6.1,5.9s6.3-3.7,6.8-5.9l-5.1-2.7L92.3,124.1z"/>
				<path fill="#505656" d="M98.5,130.3h-0.2c-4.8-0.1-6.3-6.1-6.3-6.1l-0.1-0.2l8.1-2.8l5.3,2.8v0.2
					C104.8,127.2,102.7,130.3,98.5,130.3z M92.7,124.3c0.3,1.1,1.9,5.4,5.7,5.4c4.8,0.1,6.1-4.2,6.4-5.4l-4.8-2.5L92.7,124.3z"/>
				<path fill="#717676" d="M105.2,124.1c0,0,1.5,5.8,6,5.9s6.3-3.7,6.8-5.9l-5-2.7L105.2,124.1z"/>
				<path fill="#505656" d="M111.3,130.3h-0.2c-4.7-0.1-6.3-6.1-6.3-6.1l-0.1-0.2l8.1-2.8l5.3,2.8v0.2
					C117.6,127.2,115.5,130.3,111.3,130.3z M105.5,124.3c0.3,1.1,1.9,5.4,5.7,5.4h0.1c4.7,0,6-4.2,6.3-5.5l-4.7-2.5L105.5,124.3z"/>
				<path fill="#717676" d="M9,119.8c0,0,1.5,5.8,6.1,5.9s6.3-3.7,6.8-5.9l-5-2.7L9,119.8z"/>
				<path fill="#505656" d="M15.2,126H15c-4.8-0.1-6.3-6.1-6.3-6.1l-0.1-0.2l8.1-2.8l5.3,2.8v0.2C21.5,122.9,19.3,126,15.2,126z
					 M9.3,120c0.3,1.1,1.9,5.4,5.7,5.5c4.8,0.1,6.1-4.2,6.4-5.4l-4.8-2.5L9.3,120z"/>
				<path fill="#717676" d="M21.8,119.8c0,0,1.5,5.8,6,5.9s6.3-3.7,6.8-5.9l-5-2.7L21.8,119.8z"/>
				<path fill="#505656" d="M28,126h-0.2c-4.7-0.1-6.3-6.1-6.3-6.1l-0.1-0.2l8.1-2.8l5.3,2.8v0.2C34.3,122.9,32.2,126,28,126z
					 M22.1,120c0.3,1.1,1.9,5.4,5.7,5.5H28c4.7,0,6-4.2,6.3-5.5l-4.8-2.5L22.1,120z"/>
				<path fill="#717676" d="M34.6,119.8c0,0,1.5,5.8,6.1,5.9s6.3-3.7,6.8-5.9l-5-2.7L34.6,119.8z"/>
				<path fill="#505656" d="M40.8,126h-0.2c-4.8-0.1-6.3-6.1-6.3-6.1l-0.1-0.2l8.1-2.8l5.3,2.8v0.2C47.1,122.9,45,126,40.8,126z
					 M35,120c0.3,1.1,1.9,5.4,5.7,5.5c4.8,0.1,6.2-4.2,6.5-5.4l-4.8-2.5L35,120z"/>
				<path fill="#717676" d="M47.4,119.8c0,0,1.5,5.8,6,5.9s6.3-3.7,6.8-5.9l-5-2.7L47.4,119.8z"/>
				<path fill="#505656" d="M53.6,126h-0.2c-4.8-0.1-6.3-6.1-6.3-6.1l-0.1-0.2l8.1-2.8l5.3,2.8v0.2C59.9,122.9,57.8,126,53.6,126z
					 M47.8,120c0.3,1.1,1.9,5.4,5.7,5.5h0.1c4.7,0,6-4.2,6.3-5.5l-4.8-2.5L47.8,120z"/>
				<path fill="#717676" d="M60.3,119.8c0,0,1.5,5.8,6,5.9s6.3-3.7,6.8-5.9l-5-2.7L60.3,119.8z"/>
				<path fill="#505656" d="M66.5,126h-0.2c-4.8-0.1-6.3-6-6.3-6.1l-0.1-0.2l8.1-2.8l5.3,2.8l-0.1,0.2C72.8,122.9,70.6,126,66.5,126
					z M60.6,120c0.3,1.1,1.9,5.4,5.7,5.5h0.2c4.7,0,6-4.2,6.3-5.5l-4.8-2.5L60.6,120z"/>
				<path fill="#717676" d="M73.1,119.8c0,0,1.5,5.8,6,5.9s6.3-3.7,6.8-5.9l-5-2.7L73.1,119.8z"/>
				<path fill="#505656" d="M79.3,126h-0.2c-4.8-0.1-6.3-6.1-6.3-6.1l-0.1-0.2l8.1-2.8l5.3,2.8v0.2C85.6,122.9,83.4,126,79.3,126z
					 M73.4,120c0.3,1.1,1.9,5.4,5.7,5.5c4.8,0.1,6.1-4.2,6.4-5.4l-4.8-2.5L73.4,120z"/>
				<path fill="#717676" d="M85.9,119.8c0,0,1.5,5.8,6,5.9s6.3-3.7,6.8-5.9l-5-2.7L85.9,119.8z"/>
				<path fill="#505656" d="M92.1,126H92c-4.7-0.1-6.3-6.1-6.3-6.1l-0.1-0.2l8.2-2.8l5.3,2.8v0.2C98.4,122.9,96.3,126,92.1,126z
					 M86.2,120c0.3,1.1,1.9,5.4,5.7,5.5c4.8,0.1,6.1-4.2,6.4-5.4l-4.8-2.5L86.2,120z"/>
				<path fill="#717676" d="M98.7,119.8c0,0,1.5,5.8,6.1,5.9s6.3-3.7,6.8-5.9l-5-2.7L98.7,119.8z"/>
				<path fill="#505656" d="M104.9,126h-0.2c-4.8-0.1-6.3-6.1-6.3-6.1l-0.1-0.2l8.1-2.8l5.3,2.8v0.2
					C111.2,122.9,109.1,126,104.9,126z M99.1,120c0.3,1.1,1.9,5.4,5.7,5.5h0.2c4.7,0,6-4.2,6.3-5.5l-4.8-2.5L99.1,120z"/>
				<path fill="#717676" d="M15.4,115.6c0,0,1.5,5.8,6.1,5.9s6.3-3.7,6.8-5.9l-5-2.7L15.4,115.6z"/>
				<path fill="#505656" d="M21.6,121.8h-0.2c-4.8-0.1-6.3-6.1-6.3-6.1l-0.1-0.2l8.1-2.8l5.3,2.8l0,0.2
					C27.9,118.6,25.7,121.8,21.6,121.8z M15.7,115.8c0.3,1.1,1.9,5.4,5.7,5.5c4.8,0.1,6.1-4.2,6.5-5.4l-4.8-2.5L15.7,115.8z"/>
				<path fill="#717676" d="M28.2,115.6c0,0,1.5,5.8,6.1,5.9s6.3-3.7,6.8-5.9l-5-2.7L28.2,115.6z"/>
				<path fill="#505656" d="M34.4,121.8h-0.2c-4.8-0.1-6.3-6.1-6.3-6.1l-0.1-0.2l8.1-2.8l5.3,2.8v0.2
					C40.7,118.6,38.6,121.8,34.4,121.8z M28.5,115.8c0.3,1.1,1.9,5.4,5.7,5.5h0.2c4.7,0,6-4.2,6.3-5.4l-4.7-2.6L28.5,115.8z"/>
				<path fill="#717676" d="M41,115.6c0,0,1.5,5.8,6,5.9s6.3-3.7,6.8-5.9l-5-2.7L41,115.6z"/>
				<path fill="#505656" d="M47.2,121.8h-0.2c-4.7-0.1-6.3-6.1-6.3-6.1l-0.1-0.2l8.1-2.8l5.3,2.8v0.2
					C53.5,118.6,51.4,121.8,47.2,121.8z M41.4,115.8c0.3,1.1,1.9,5.4,5.7,5.5h0.1c4.7,0,6-4.2,6.3-5.4l-4.7-2.5L41.4,115.8z"/>
				<path fill="#717676" d="M53.8,115.6c0,0,1.5,5.8,6.1,5.9s6.3-3.7,6.8-5.9l-5-2.7L53.8,115.6z"/>
				<path fill="#505656" d="M60,121.8h-0.2c-4.8-0.1-6.3-6.1-6.3-6.1l-0.1-0.2l8.1-2.8l5.4,2.8v0.2C66.3,118.6,64.2,121.8,60,121.8z
					 M54.2,115.8c0.3,1.1,1.9,5.4,5.7,5.5c4.8,0.1,6.1-4.2,6.5-5.4l-4.8-2.5L54.2,115.8z"/>
				<path fill="#717676" d="M66.7,115.6c0,0,1.5,5.8,6,5.9s6.3-3.7,6.8-5.9l-5-2.7L66.7,115.6z"/>
				<path fill="#505656" d="M72.9,121.8h-0.2c-4.8-0.1-6.3-6.1-6.3-6.1l-0.1-0.2l8.1-2.8l5.3,2.8v0.2
					C79.2,118.6,77,121.8,72.9,121.8z M67,115.8c0.3,1.1,1.9,5.4,5.7,5.5h0.1c4.7,0,6-4.2,6.3-5.4l-4.8-2.5L67,115.8z"/>
				<path fill="#717676" d="M79.5,115.6c0,0,1.5,5.8,6.1,5.9s6.3-3.7,6.8-5.9l-5-2.7L79.5,115.6z"/>
				<path fill="#505656" d="M85.7,121.8h-0.2c-4.8-0.1-6.3-6.1-6.3-6.1l-0.1-0.2l8.1-2.8l5.3,2.8v0.2
					C92,118.6,89.9,121.8,85.7,121.8z M79.8,115.8c0.3,1.1,1.9,5.4,5.7,5.5c4.8,0.1,6.2-4.2,6.4-5.4l-4.8-2.5L79.8,115.8z"/>
				<path fill="#717676" d="M92.3,115.6c0,0,1.5,5.8,6.1,5.9s6.3-3.7,6.8-5.9l-5.1-2.7L92.3,115.6z"/>
				<path fill="#505656" d="M98.5,121.8h-0.2c-4.8-0.1-6.3-6.1-6.3-6.1l-0.1-0.2l8.1-2.8l5.3,2.8v0.2
					C104.8,118.6,102.7,121.8,98.5,121.8z M92.7,115.8c0.3,1.1,1.9,5.4,5.7,5.5c4.8,0.1,6.1-4.2,6.4-5.4l-4.8-2.5L92.7,115.8z"/>
				<path fill="#717676" d="M105.2,115.6c0,0,1.5,5.8,6,5.9s6.3-3.7,6.8-5.9l-5-2.7L105.2,115.6z"/>
				<path fill="#505656" d="M111.3,121.8h-0.2c-4.7-0.1-6.3-6.1-6.3-6.1l-0.1-0.2l8.1-2.8l5.3,2.8v0.2
					C117.6,118.6,115.5,121.8,111.3,121.8z M105.5,115.8c0.3,1.1,1.9,5.4,5.7,5.5h0.1c4.7,0,6-4.2,6.3-5.4l-4.7-2.5L105.5,115.8z"/>
				<path fill="#717676" d="M9,111.3c0,0,1.5,5.8,6.1,5.9s6.3-3.7,6.8-5.9l-5-2.7L9,111.3z"/>
				<path fill="#505656" d="M15.2,117.5H15c-4.8-0.1-6.3-6.1-6.3-6.1l-0.1-0.2l8.1-2.8l5.3,2.8v0.2
					C21.5,114.3,19.3,117.5,15.2,117.5z M9.3,111.5c0.3,1.1,1.9,5.4,5.7,5.5c4.8,0.1,6.1-4.2,6.4-5.4l-4.8-2.5L9.3,111.5z"/>
				<path fill="#717676" d="M21.8,111.3c0,0,1.5,5.8,6,5.9s6.3-3.7,6.8-5.9l-5-2.7L21.8,111.3z"/>
				<path fill="#505656" d="M28,117.5h-0.2c-4.7-0.1-6.3-6.1-6.3-6.1l-0.1-0.2l8.1-2.8l5.3,2.8v0.2C34.3,114.3,32.2,117.5,28,117.5z
					 M22.1,111.5c0.3,1.1,1.9,5.4,5.7,5.5H28c4.7,0,6-4.2,6.3-5.4l-4.8-2.5L22.1,111.5z"/>
				<path fill="#717676" d="M34.6,111.3c0,0,1.5,5.8,6.1,5.9s6.3-3.7,6.8-5.9l-5-2.7L34.6,111.3z"/>
				<path fill="#505656" d="M40.8,117.5h-0.2c-4.8-0.1-6.3-6.1-6.3-6.1l-0.1-0.2l8.1-2.8l5.3,2.8v0.2
					C47.1,114.3,45,117.5,40.8,117.5z M35,111.5c0.3,1.1,1.9,5.4,5.7,5.5c4.8,0.1,6.2-4.2,6.5-5.4l-4.8-2.5L35,111.5z"/>
				<path fill="#717676" d="M47.4,111.3c0,0,1.5,5.8,6,5.9s6.3-3.7,6.8-5.9l-5-2.7L47.4,111.3z"/>
				<path fill="#505656" d="M53.6,117.5h-0.2c-4.8-0.1-6.3-6.1-6.3-6.1l-0.1-0.2l8.1-2.8l5.3,2.8v0.2
					C59.9,114.3,57.8,117.5,53.6,117.5z M47.8,111.5c0.3,1.1,1.9,5.4,5.7,5.5h0.1c4.7,0,6-4.2,6.3-5.4l-4.8-2.5L47.8,111.5z"/>
				<path fill="#717676" d="M60.3,111.3c0,0,1.5,5.8,6,5.9s6.3-3.7,6.8-5.9l-5-2.7L60.3,111.3z"/>
				<path fill="#505656" d="M66.5,117.5h-0.2c-4.8-0.1-6.3-6.1-6.3-6.1l-0.1-0.2l8.1-2.8l5.3,2.8l-0.1,0.2
					C72.8,114.3,70.6,117.5,66.5,117.5z M60.6,111.5c0.3,1.1,1.9,5.4,5.7,5.5h0.2c4.7,0,6-4.2,6.3-5.4l-4.8-2.6L60.6,111.5z"/>
				<path fill="#717676" d="M73.1,111.3c0,0,1.5,5.8,6,5.9s6.3-3.7,6.8-5.9l-5-2.7L73.1,111.3z"/>
				<path fill="#505656" d="M79.3,117.5h-0.2c-4.8-0.1-6.3-6.1-6.3-6.1l-0.1-0.2l8.1-2.8l5.3,2.8v0.2
					C85.6,114.3,83.4,117.5,79.3,117.5z M73.4,111.5c0.3,1.1,1.9,5.4,5.7,5.5c4.8,0.1,6.1-4.2,6.4-5.4l-4.8-2.5L73.4,111.5z"/>
				<path fill="#717676" d="M85.9,111.3c0,0,1.5,5.8,6,5.9s6.3-3.7,6.8-5.9l-5-2.7L85.9,111.3z"/>
				<path fill="#505656" d="M92.1,117.5H92c-4.7-0.1-6.3-6.1-6.3-6.1l-0.1-0.2l8.2-2.8l5.3,2.8v0.2
					C98.4,114.3,96.3,117.5,92.1,117.5z M86.2,111.5c0.3,1.1,1.9,5.4,5.7,5.5c4.8,0.1,6.1-4.2,6.4-5.4l-4.8-2.5L86.2,111.5z"/>
				<path fill="#717676" d="M98.7,111.3c0,0,1.5,5.8,6.1,5.9s6.3-3.7,6.8-5.9l-5-2.7L98.7,111.3z"/>
				<path fill="#505656" d="M104.9,117.5h-0.2c-4.8-0.1-6.3-6.1-6.3-6.1l-0.1-0.2l8.1-2.8l5.3,2.8v0.2
					C111.2,114.3,109.1,117.5,104.9,117.5z M99.1,111.5c0.3,1.1,1.9,5.4,5.7,5.5c4.8,0.1,6.2-4.2,6.4-5.4l-4.8-2.5L99.1,111.5z"/>
				<path fill="#717676" d="M15.4,107c0,0,1.5,5.8,6.1,5.9s6.3-3.7,6.8-5.9l-5-2.7L15.4,107z"/>
				<path fill="#505656" d="M21.6,113.2h-0.2c-4.8-0.1-6.3-6.1-6.3-6.1l-0.1-0.2l8.1-2.8l5.3,2.8l0,0.2
					C27.9,110.1,25.7,113.2,21.6,113.2z M15.7,107.2c0.3,1.1,1.9,5.4,5.7,5.5h0.1c4.7,0,6-4.2,6.3-5.4l-4.8-2.5L15.7,107.2z"/>
				<path fill="#717676" d="M28.2,107c0,0,1.5,5.8,6.1,5.9s6.3-3.7,6.8-5.9l-5-2.7L28.2,107z"/>
				<path fill="#505656" d="M34.4,113.2h-0.2c-4.8-0.1-6.3-6.1-6.3-6.1l-0.1-0.2l8.1-2.8l5.3,2.8v0.2
					C40.7,110.1,38.6,113.2,34.4,113.2z M28.5,107.2c0.3,1.1,1.9,5.4,5.7,5.5h0.2c4.7,0,6-4.2,6.3-5.4l-4.7-2.6L28.5,107.2z"/>
				<path fill="#717676" d="M41,107c0,0,1.5,5.8,6,5.9s6.3-3.7,6.8-5.9l-5-2.7L41,107z"/>
				<path fill="#505656" d="M47.2,113.2h-0.2c-4.7-0.1-6.3-6.1-6.3-6.1l-0.1-0.2l8.1-2.8l5.3,2.8v0.2
					C53.5,110.1,51.4,113.2,47.2,113.2z M41.4,107.2c0.3,1.1,1.9,5.4,5.7,5.5h0.1c4.7,0,6-4.2,6.3-5.4l-4.7-2.5L41.4,107.2z"/>
				<path fill="#717676" d="M53.8,107c0,0,1.5,5.8,6.1,5.9s6.3-3.7,6.8-5.9l-5-2.7L53.8,107z"/>
				<path fill="#505656" d="M60,113.2h-0.2c-4.8-0.1-6.3-6.1-6.3-6.1l-0.1-0.2l8.1-2.8l5.4,2.8v0.2C66.3,110.1,64.2,113.2,60,113.2z
					 M54.2,107.2c0.3,1.1,1.9,5.4,5.7,5.5H60c4.7,0,6-4.2,6.3-5.4l-4.8-2.5L54.2,107.2z"/>
				<path fill="#717676" d="M66.7,107c0,0,1.5,5.8,6,5.9s6.3-3.7,6.8-5.9l-5-2.7L66.7,107z"/>
				<path fill="#505656" d="M72.9,113.2h-0.2c-4.8-0.1-6.3-6.1-6.3-6.1l-0.1-0.2l8.1-2.8l5.3,2.8v0.2
					C79.2,110.1,77,113.2,72.9,113.2z M67,107.2c0.3,1.1,1.9,5.4,5.7,5.5h0.1c4.7,0,6-4.2,6.3-5.4l-4.8-2.5L67,107.2z"/>
				<path fill="#717676" d="M79.5,107c0,0,1.5,5.8,6.1,5.9s6.3-3.7,6.8-5.9l-5-2.7L79.5,107z"/>
				<path fill="#505656" d="M85.7,113.2h-0.2c-4.8-0.1-6.3-6.1-6.3-6.1l-0.1-0.2l8.1-2.8l5.3,2.8v0.2
					C92,110.1,89.9,113.2,85.7,113.2z M79.8,107.2c0.3,1.1,1.9,5.4,5.7,5.5h0.2c4.7,0,6-4.2,6.3-5.4l-4.8-2.5L79.8,107.2z"/>
				<path fill="#717676" d="M92.3,107c0,0,1.5,5.8,6.1,5.9s6.3-3.7,6.8-5.9l-5.1-2.7L92.3,107z"/>
				<path fill="#505656" d="M98.5,113.2h-0.2c-4.8-0.1-6.3-6.1-6.3-6.1l-0.1-0.2l8.1-2.8l5.3,2.8v0.2
					C104.8,110.1,102.7,113.2,98.5,113.2z M92.7,107.2c0.3,1.1,1.9,5.4,5.7,5.5h0.2c4.7,0,6-4.2,6.3-5.4l-4.8-2.5L92.7,107.2z"/>
				<path fill="#717676" d="M105.2,107c0,0,1.5,5.8,6,5.9s6.3-3.7,6.8-5.9l-5-2.7L105.2,107z"/>
				<path fill="#505656" d="M111.3,113.2h-0.2c-4.7-0.1-6.3-6.1-6.3-6.1l-0.1-0.2l8.1-2.8l5.3,2.8v0.2
					C117.6,110.1,115.5,113.2,111.3,113.2z M105.5,107.2c0.3,1.1,1.9,5.4,5.7,5.5h0.1c4.7,0,6-4.2,6.3-5.4l-4.7-2.5L105.5,107.2z"/>
				<path fill="#717676" d="M9,102.7c0,0,1.5,5.8,6.1,5.9s6.3-3.7,6.8-5.9l-5-2.7L9,102.7z"/>
				<path fill="#505656" d="M15.2,108.9H15c-4.8-0.1-6.3-6.1-6.3-6.1l-0.1-0.2l8.1-2.8l5.3,2.8v0.2
					C21.5,105.8,19.3,108.9,15.2,108.9z M9.3,102.9c0.3,1.1,1.9,5.4,5.7,5.5h0.1c4.7,0,6-4.2,6.3-5.4l-4.8-2.5L9.3,102.9z"/>
				<path fill="#717676" d="M21.8,102.7c0,0,1.5,5.8,6,5.9s6.3-3.7,6.8-5.9l-5-2.7L21.8,102.7z"/>
				<path fill="#505656" d="M28,108.9h-0.2c-4.7-0.1-6.3-6.1-6.3-6.1l-0.1-0.2l8.1-2.8l5.3,2.8v0.2C34.3,105.8,32.2,108.9,28,108.9z
					 M22.1,102.9c0.3,1.1,1.9,5.4,5.7,5.5H28c4.7,0,6-4.2,6.3-5.4l-4.8-2.5L22.1,102.9z"/>
				<path fill="#717676" d="M34.6,102.7c0,0,1.5,5.8,6.1,5.9s6.3-3.6,6.8-5.9l-5-2.7L34.6,102.7z"/>
				<path fill="#505656" d="M40.8,108.9h-0.2c-4.8-0.1-6.3-6.1-6.3-6.1l-0.1-0.2l8.1-2.8l5.3,2.8v0.2
					C47.1,105.8,45,108.9,40.8,108.9z M35,102.9c0.3,1.1,1.9,5.4,5.7,5.5h0.2c4.7,0,6-4.2,6.3-5.4l-4.8-2.5L35,102.9z"/>
				<path fill="#717676" d="M47.4,102.7c0,0,1.5,5.8,6,5.9s6.3-3.7,6.8-5.9l-5-2.7L47.4,102.7z"/>
				<path fill="#505656" d="M53.6,108.9h-0.2c-4.8-0.1-6.3-6.1-6.3-6.1l-0.1-0.2l8.1-2.8l5.3,2.8v0.2
					C59.9,105.8,57.8,108.9,53.6,108.9z M47.8,102.9c0.3,1.1,1.9,5.4,5.7,5.5h0.2c4.7,0,6-4.2,6.3-5.4l-4.8-2.5L47.8,102.9z"/>
				<path fill="#717676" d="M60.3,102.7c0,0,1.5,5.8,6,5.9s6.3-3.7,6.8-5.9l-5-2.7L60.3,102.7z"/>
				<path fill="#505656" d="M66.5,108.9h-0.2c-4.8-0.1-6.3-6.1-6.3-6.1l-0.1-0.2l8.1-2.8l5.3,2.8l-0.1,0.2
					C72.8,105.8,70.6,108.9,66.5,108.9z M60.6,102.9c0.3,1.1,1.9,5.4,5.7,5.5h0.2c4.7,0,6-4.2,6.3-5.4l-4.8-2.6L60.6,102.9z"/>
				<path fill="#717676" d="M73.1,102.7c0,0,1.5,5.8,6,5.9s6.3-3.7,6.8-5.9l-5-2.7L73.1,102.7z"/>
				<path fill="#505656" d="M79.3,108.9h-0.2c-4.8-0.1-6.3-6.1-6.3-6.1l-0.1-0.2l8.1-2.8l5.3,2.8v0.2
					C85.6,105.8,83.4,108.9,79.3,108.9z M73.4,102.9c0.3,1.1,1.9,5.4,5.7,5.5h0.2c4.7,0,6-4.2,6.3-5.4l-4.8-2.5L73.4,102.9z"/>
				<path fill="#717676" d="M85.9,102.7c0,0,1.5,5.8,6,5.9s6.3-3.7,6.8-5.9l-5-2.7L85.9,102.7z"/>
				<path fill="#505656" d="M92.1,108.9H92c-4.7-0.1-6.3-6.1-6.3-6.1l-0.1-0.2l8.2-2.8l5.3,2.8v0.2
					C98.4,105.8,96.3,108.9,92.1,108.9z M86.2,102.9c0.3,1.1,1.9,5.4,5.7,5.5h0.1c4.7,0,6-4.2,6.3-5.4l-4.8-2.5L86.2,102.9z"/>
				<path fill="#717676" d="M98.7,102.7c0,0,1.5,5.8,6.1,5.9s6.3-3.7,6.8-5.9l-5-2.7L98.7,102.7z"/>
				<path fill="#505656" d="M104.9,108.9h-0.2c-4.8-0.1-6.3-6.1-6.3-6.1l-0.1-0.2l8.1-2.8l5.3,2.8v0.2
					C111.2,105.8,109.1,108.9,104.9,108.9z M99.1,102.9c0.3,1.1,1.9,5.4,5.7,5.5h0.2c4.7,0,6-4.2,6.3-5.4l-4.8-2.5L99.1,102.9z"/>
				<path fill="#717676" d="M15.4,98.4c0,0,1.5,5.8,6.1,5.9s6.3-3.7,6.8-5.9l-5-2.7L15.4,98.4z"/>
				<path fill="#505656" d="M21.6,104.6h-0.2c-4.8-0.1-6.3-6.1-6.3-6.1L15,98.2l8.1-2.8l5.3,2.8l0,0.2
					C27.9,101.5,25.7,104.6,21.6,104.6z M15.7,98.6c0.3,1.1,1.9,5.4,5.7,5.5c4.8,0.1,6.1-4.2,6.5-5.4l-4.8-2.5L15.7,98.6z"/>
				<path fill="#717676" d="M28.2,98.4c0,0,1.5,5.8,6.1,5.9s6.3-3.7,6.8-5.9l-5-2.7L28.2,98.4z"/>
				<path fill="#505656" d="M34.4,104.6h-0.2c-4.8-0.1-6.3-6.1-6.3-6.1l-0.1-0.2l8.1-2.8l5.3,2.8v0.2
					C40.7,101.5,38.6,104.6,34.4,104.6z M28.5,98.6c0.3,1.1,1.9,5.4,5.7,5.5h0.2c4.7,0,6-4.2,6.3-5.4L36,96.1L28.5,98.6z"/>
				<path fill="#717676" d="M41,98.4c0,0,1.5,5.8,6,5.9s6.3-3.7,6.8-5.9l-5-2.7L41,98.4z"/>
				<path fill="#505656" d="M47.2,104.6h-0.2c-4.7-0.1-6.3-6.1-6.3-6.1l-0.1-0.2l8.1-2.8l5.3,2.8v0.2
					C53.5,101.5,51.4,104.6,47.2,104.6z M41.4,98.6c0.3,1.1,1.9,5.4,5.7,5.5c4.8,0.1,6.1-4.2,6.4-5.4l-4.7-2.5L41.4,98.6z"/>
				<path fill="#717676" d="M53.8,98.4c0,0,1.5,5.8,6.1,5.9s6.3-3.7,6.8-5.9l-5-2.7L53.8,98.4z"/>
				<path fill="#505656" d="M60,104.6h-0.2c-4.8-0.1-6.3-6.1-6.3-6.1l-0.1-0.2l8.1-2.8l5.4,2.8v0.2C66.3,101.5,64.2,104.6,60,104.6z
					 M54.2,98.6c0.3,1.1,1.9,5.4,5.7,5.5c4.8,0.1,6.1-4.2,6.5-5.4l-4.8-2.6L54.2,98.6z"/>
				<path fill="#717676" d="M66.7,98.4c0,0,1.5,5.8,6,5.9s6.3-3.7,6.8-5.9l-5-2.7L66.7,98.4z"/>
				<path fill="#505656" d="M72.9,104.6h-0.2c-4.8-0.1-6.3-6.1-6.3-6.1l-0.1-0.2l8.1-2.8l5.3,2.8v0.2
					C79.2,101.5,77,104.6,72.9,104.6z M67,98.6c0.3,1.1,1.9,5.4,5.7,5.5c4.8,0.1,6.1-4.2,6.4-5.4l-4.8-2.5L67,98.6z"/>
				<path fill="#717676" d="M79.5,98.4c0,0,1.5,5.8,6.1,5.9s6.3-3.7,6.8-5.9l-5-2.7L79.5,98.4z"/>
				<path fill="#505656" d="M85.7,104.6h-0.2c-4.8-0.1-6.3-6.1-6.3-6.1l-0.1-0.2l8.1-2.8l5.3,2.8v0.2
					C92,101.5,89.9,104.6,85.7,104.6z M79.8,98.6c0.3,1.1,1.9,5.4,5.7,5.5c4.8,0.1,6.2-4.2,6.4-5.4l-4.8-2.5L79.8,98.6z"/>
				<path fill="#717676" d="M92.3,98.4c0,0,1.5,5.8,6.1,5.9s6.3-3.7,6.8-5.9l-5.1-2.7L92.3,98.4z"/>
				<path fill="#505656" d="M98.5,104.6h-0.2c-4.8-0.1-6.3-6.1-6.3-6.1l0-0.2l8.1-2.8l5.3,2.8v0.2
					C104.8,101.5,102.7,104.6,98.5,104.6z M92.7,98.6c0.3,1.1,1.9,5.4,5.7,5.5h0.2c4.7,0,6-4.2,6.3-5.4l-4.8-2.5L92.7,98.6z"/>
				<path fill="#717676" d="M105.2,98.4c0,0,1.5,5.8,6,5.9s6.3-3.7,6.8-5.9l-5-2.7L105.2,98.4z"/>
				<path fill="#505656" d="M111.3,104.6h-0.2c-4.7-0.1-6.3-6.1-6.3-6.1l-0.1-0.2l8.2-2.8l5.3,2.8v0.2
					C117.6,101.5,115.5,104.6,111.3,104.6z M105.5,98.6c0.3,1.1,1.9,5.4,5.7,5.5h0.1c4.7,0,6-4.2,6.3-5.4l-4.7-2.5L105.5,98.6z"/>
				<path fill="#717676" d="M9,94.2c0,0,1.4,5.8,6,5.9s6.3-3.7,6.8-5.9l-5-2.7L9,94.2z"/>
				<path fill="#505656" d="M15.2,100.3H15c-4.8-0.1-6.3-6.1-6.3-6.1L8.6,94l8.1-2.8l5.3,2.8v0.2C21.5,97.2,19.3,100.3,15.2,100.3z
					 M9.3,94.3c0.3,1.1,1.9,5.4,5.7,5.5c4.8,0.1,6.1-4.2,6.4-5.5l-4.8-2.5L9.3,94.3z"/>
				<path fill="#717676" d="M21.8,94.2c0,0,1.5,5.8,6,5.9s6.3-3.7,6.8-5.9l-5-2.7L21.8,94.2z"/>
				<path fill="#505656" d="M28,100.3h-0.2c-4.7-0.1-6.3-6.1-6.3-6.1L21.4,94l8.1-2.8l5.3,2.8v0.2C34.3,97.2,32.2,100.3,28,100.3z
					 M22.1,94.3c0.3,1.1,1.9,5.4,5.7,5.5c4.7,0.1,6.1-4.2,6.4-5.5l-4.8-2.5L22.1,94.3z"/>
				<path fill="#717676" d="M34.6,94.2c0,0,1.5,5.8,6.1,5.9s6.3-3.7,6.8-5.9l-5-2.7L34.6,94.2z"/>
				<path fill="#505656" d="M40.8,100.3h-0.2c-4.8-0.1-6.3-6.1-6.3-6.1L34.3,94l8.1-2.8l5.3,2.8v0.2C47.1,97.2,45,100.3,40.8,100.3z
					 M35,94.3c0.3,1.1,1.9,5.4,5.7,5.5c4.8,0.1,6.2-4.2,6.5-5.5l-4.8-2.5L35,94.3z"/>
				<path fill="#717676" d="M47.4,94.2c0,0,1.5,5.8,6,5.9s6.3-3.7,6.8-5.9l-5-2.7L47.4,94.2z"/>
				<path fill="#505656" d="M53.6,100.3h-0.2c-4.8-0.1-6.3-6.1-6.3-6.1L47.1,94l8.1-2.8l5.3,2.8v0.2
					C59.9,97.2,57.8,100.3,53.6,100.3z M47.8,94.3c0.3,1.1,1.9,5.4,5.7,5.5h0.1c4.7,0,6-4.2,6.3-5.5l-4.8-2.5L47.8,94.3z"/>
				<path fill="#717676" d="M60.3,94.2c0,0,1.5,5.8,6,5.9s6.3-3.7,6.8-5.9L68,91.5L60.3,94.2z"/>
				<path fill="#505656" d="M66.5,100.3h-0.2c-4.8-0.1-6.3-6.1-6.3-6.1L59.9,94l8.1-2.8l5.3,2.8l-0.1,0.2
					C72.8,97.2,70.6,100.3,66.5,100.3z M60.6,94.3c0.3,1.1,1.9,5.4,5.7,5.5c4.8,0.1,6.2-4.2,6.4-5.5L68,91.8L60.6,94.3z"/>
				<path fill="#717676" d="M73.1,94.2c0,0,1.5,5.8,6,5.9s6.3-3.7,6.8-5.9l-5-2.7L73.1,94.2z"/>
				<path fill="#505656" d="M79.3,100.3h-0.2c-4.8-0.1-6.3-6.1-6.3-6.1L72.8,94l8.1-2.8l5.3,2.8v0.2
					C85.6,97.2,83.4,100.3,79.3,100.3z M73.4,94.3c0.3,1.1,1.9,5.4,5.7,5.5c4.8,0.1,6.1-4.2,6.4-5.5l-4.8-2.5L73.4,94.3z"/>
				<path fill="#717676" d="M85.9,94.2c0,0,1.5,5.8,6,5.9s6.3-3.7,6.8-5.9l-5-2.7L85.9,94.2z"/>
				<path fill="#505656" d="M92.1,100.3H92c-4.7-0.1-6.3-6.1-6.3-6.1L85.6,94l8.2-2.8l5.3,2.8v0.2C98.4,97.2,96.3,100.3,92.1,100.3z
					 M86.2,94.3c0.3,1.1,1.9,5.4,5.7,5.5c4.8,0.1,6.1-4.2,6.4-5.5l-4.8-2.5L86.2,94.3z"/>
				<path fill="#717676" d="M98.7,94.2c0,0,1.5,5.8,6.1,5.9s6.3-3.7,6.8-5.9l-5-2.7L98.7,94.2z"/>
				<path fill="#505656" d="M104.9,100.3h-0.2c-4.8-0.1-6.3-6.1-6.3-6.1L98.4,94l8.1-2.8l5.3,2.8v0.2
					C111.2,97.2,109.1,100.3,104.9,100.3z M99.1,94.3c0.3,1.1,1.9,5.4,5.7,5.5h0.2c4.7,0,6-4.2,6.3-5.5l-4.8-2.5L99.1,94.3z"/>
				<path fill="#717676" d="M15.4,89.9c0,0,1.5,5.8,6.1,5.9s6.3-3.7,6.8-5.9l-5-2.7L15.4,89.9z"/>
				<path fill="#505656" d="M21.6,96.1h-0.2c-4.8-0.1-6.3-6.1-6.3-6.1L15,89.7l8.1-2.8l5.3,2.8l0,0.2C27.9,92.9,25.7,96.1,21.6,96.1
					z M15.7,90.1c0.3,1.1,1.9,5.4,5.7,5.5c4.8,0.1,6.1-4.2,6.5-5.5l-4.8-2.5L15.7,90.1z"/>
				<path fill="#717676" d="M28.2,89.9c0,0,1.5,5.8,6.1,5.9s6.3-3.7,6.8-5.9l-5-2.7L28.2,89.9z"/>
				<path fill="#505656" d="M34.4,96.1h-0.2c-4.7-0.1-6.3-6.1-6.3-6.1l-0.1-0.2l8.1-2.8l5.3,2.8V90C40.7,92.9,38.6,96.1,34.4,96.1z
					 M28.5,90.1c0.3,1.1,1.9,5.4,5.7,5.5h0.2c4.7,0,6-4.2,6.3-5.5L36,87.5L28.5,90.1z"/>
				<path fill="#717676" d="M41,89.9c0,0,1.5,5.8,6,5.9s6.3-3.7,6.8-5.9l-5-2.7L41,89.9z"/>
				<path fill="#505656" d="M47.2,96.1h-0.2c-4.7-0.1-6.3-6.1-6.3-6.1l-0.1-0.2l8.1-2.8l5.3,2.8V90C53.5,92.9,51.4,96.1,47.2,96.1z
					 M41.4,90.1c0.3,1.1,1.9,5.4,5.7,5.5c4.8,0.1,6.1-4.2,6.4-5.5l-4.7-2.5L41.4,90.1z"/>
				<path fill="#717676" d="M53.8,89.9c0,0,1.5,5.8,6.1,5.9s6.3-3.7,6.8-5.9l-5-2.7L53.8,89.9z"/>
				<path fill="#505656" d="M60,96.1h-0.2c-4.8-0.1-6.3-6.1-6.3-6.1l-0.1-0.2l8.1-2.8l5.4,2.8V90C66.3,92.9,64.2,96.1,60,96.1z
					 M54.2,90.1c0.3,1.1,1.9,5.4,5.7,5.5c4.8,0.1,6.2-4.2,6.4-5.5l-4.8-2.5L54.2,90.1z"/>
				<path fill="#717676" d="M66.7,89.9c0,0,1.5,5.8,6,5.9s6.3-3.7,6.8-5.9l-5-2.7L66.7,89.9z"/>
				<path fill="#505656" d="M72.9,96.1h-0.2C68,96,66.4,90,66.4,89.9l-0.1-0.2l8.1-2.8l5.3,2.8V90C79.2,92.9,77,96.1,72.9,96.1z
					 M67,90.1c0.3,1.1,1.9,5.4,5.7,5.5c4.8,0.1,6.1-4.2,6.4-5.5l-4.8-2.5L67,90.1z"/>
				<path fill="#717676" d="M79.5,89.9c0,0,1.5,5.8,6.1,5.9s6.3-3.7,6.8-5.9l-5-2.7L79.5,89.9z"/>
				<path fill="#505656" d="M85.7,96.1h-0.2c-4.8-0.1-6.3-6.1-6.3-6.1l-0.1-0.2l8.1-2.8l5.3,2.8V90C92,92.9,89.9,96.1,85.7,96.1z
					 M79.8,90.1c0.3,1.1,1.9,5.4,5.7,5.5c4.8,0.1,6.2-4.2,6.4-5.5l-4.8-2.5L79.8,90.1z"/>
				<path fill="#717676" d="M92.3,89.9c0,0,1.5,5.8,6.1,5.9s6.3-3.7,6.8-5.9l-5.1-2.7L92.3,89.9z"/>
				<path fill="#505656" d="M98.5,96.1h-0.2c-4.7-0.1-6.3-6.1-6.3-6.1L92,89.7l8.1-2.8l5.3,2.8V90C104.8,92.9,102.7,96.1,98.5,96.1z
					 M92.7,90.1c0.3,1.1,1.9,5.4,5.7,5.5h0.2c4.7,0,6-4.2,6.3-5.5l-4.8-2.5L92.7,90.1z"/>
				<path fill="#717676" d="M105.2,89.9c0,0,1.5,5.8,6,5.9s6.3-3.7,6.8-5.9l-5-2.7L105.2,89.9z"/>
				<path fill="#505656" d="M111.3,96.1h-0.2c-4.7-0.1-6.3-6.1-6.3-6.1l-0.1-0.2l8.2-2.8l5.3,2.8V90
					C117.6,92.9,115.5,96.1,111.3,96.1z M105.5,90.1c0.3,1.1,1.9,5.4,5.7,5.5h0.1c4.7,0,6-4.2,6.3-5.5l-4.7-2.5L105.5,90.1z"/>
				<path fill="#717676" d="M9,85.6c0,0,1.4,5.8,6,5.9s6.3-3.7,6.8-5.9l-5-2.7L9,85.6z"/>
				<path fill="#505656" d="M15.2,91.8H15c-4.8-0.1-6.3-6.1-6.3-6.1l-0.1-0.2l8.1-2.8l5.3,2.8v0.2C21.5,88.6,19.3,91.8,15.2,91.8z
					 M9.3,85.8c0.3,1.1,1.9,5.4,5.7,5.4c4.8,0.1,6.1-4.2,6.4-5.4l-4.8-2.5L9.3,85.8z"/>
				<path fill="#717676" d="M21.8,85.6c0,0,1.5,5.8,6,5.9s6.3-3.7,6.8-5.9l-5-2.7L21.8,85.6z"/>
				<path fill="#505656" d="M28,91.8h-0.2c-4.7-0.1-6.3-6.1-6.3-6.1l-0.1-0.2l8.1-2.8l5.3,2.8v0.2C34.3,88.6,32.2,91.8,28,91.8z
					 M22.1,85.8c0.3,1.1,1.9,5.4,5.7,5.4c4.7,0.1,6.1-4.2,6.4-5.4l-4.8-2.5L22.1,85.8z"/>
				<path fill="#717676" d="M34.6,85.6c0,0,1.5,5.8,6.1,5.9s6.3-3.7,6.8-5.9l-5-2.7L34.6,85.6z"/>
				<path fill="#505656" d="M40.8,91.8h-0.2c-4.8-0.1-6.3-6.1-6.3-6.1l-0.1-0.2l8.1-2.8l5.3,2.8v0.2C47.1,88.6,45,91.8,40.8,91.8z
					 M35,85.8c0.3,1.1,1.9,5.4,5.7,5.4c4.8,0.1,6.2-4.2,6.5-5.4l-4.8-2.5L35,85.8z"/>
				<path fill="#717676" d="M47.4,85.6c0,0,1.5,5.8,6,5.9s6.3-3.7,6.8-5.9l-5-2.7L47.4,85.6z"/>
				<path fill="#505656" d="M53.6,91.8h-0.2c-4.8-0.1-6.3-6.1-6.3-6.1l-0.1-0.2l8.1-2.8l5.3,2.8v0.2C59.9,88.6,57.8,91.8,53.6,91.8z
					 M47.8,85.8c0.3,1.1,1.9,5.4,5.7,5.4h0.1c4.7,0,6-4.2,6.3-5.5l-4.8-2.5L47.8,85.8z"/>
				<path fill="#717676" d="M60.3,85.6c0,0,1.5,5.8,6,5.9s6.3-3.7,6.8-5.9l-5-2.7L60.3,85.6z"/>
				<path fill="#505656" d="M66.5,91.8h-0.2c-4.8-0.1-6.3-6.1-6.3-6.1l-0.1-0.2l8.1-2.8l5.3,2.8l-0.1,0.2
					C72.8,88.6,70.6,91.8,66.5,91.8z M60.6,85.8c0.3,1.1,1.9,5.4,5.7,5.4c4.8,0.1,6.2-4.2,6.4-5.4L68,83.2L60.6,85.8z"/>
				<path fill="#717676" d="M73.1,85.6c0,0,1.5,5.8,6,5.9s6.3-3.7,6.8-5.9l-5-2.7L73.1,85.6z"/>
				<path fill="#505656" d="M79.3,91.8h-0.2c-4.8-0.1-6.3-6.1-6.3-6.1l-0.1-0.2l8.1-2.8l5.3,2.8v0.2C85.6,88.6,83.4,91.8,79.3,91.8z
					 M73.4,85.8c0.3,1.1,1.9,5.4,5.7,5.4c4.8,0.1,6.1-4.2,6.4-5.4l-4.8-2.5L73.4,85.8z"/>
				<path fill="#717676" d="M85.9,85.6c0,0,1.5,5.8,6,5.9s6.3-3.7,6.8-5.9l-5-2.7L85.9,85.6z"/>
				<path fill="#505656" d="M92.1,91.8H92c-4.7-0.1-6.3-6.1-6.3-6.1l-0.1-0.2l8.2-2.8l5.3,2.8v0.2C98.4,88.6,96.3,91.8,92.1,91.8z
					 M86.2,85.8c0.3,1.1,1.9,5.4,5.7,5.4c4.8,0.1,6.1-4.2,6.4-5.4l-4.8-2.5L86.2,85.8z"/>
				<path fill="#717676" d="M98.7,85.6c0,0,1.5,5.8,6.1,5.9s6.3-3.7,6.8-5.9l-5-2.7L98.7,85.6z"/>
				<path fill="#505656" d="M104.9,91.8h-0.2c-4.8-0.1-6.3-6.1-6.3-6.1l-0.1-0.2l8.1-2.8l5.3,2.8v0.2
					C111.2,88.6,109.1,91.8,104.9,91.8z M99.1,85.8c0.3,1.1,1.9,5.4,5.7,5.4h0.2c4.7,0,6-4.2,6.3-5.5l-4.8-2.5L99.1,85.8z"/>
				<path fill="#717676" d="M15.4,81.3c0,0,1.5,5.8,6.1,5.9s6.3-3.7,6.8-5.9l-5-2.7L15.4,81.3z"/>
				<path fill="#505656" d="M21.6,87.5h-0.2c-4.8-0.1-6.3-6.1-6.3-6.1L15,81.1l8.1-2.8l5.3,2.8l0,0.2C27.9,84.4,25.7,87.5,21.6,87.5
					z M15.7,81.5c0.3,1.1,1.9,5.4,5.7,5.5c4.8,0.1,6.1-4.2,6.5-5.4L23.1,79L15.7,81.5z"/>
				<path fill="#717676" d="M28.2,81.3c0,0,1.5,5.8,6.1,5.9s6.3-3.7,6.8-5.9l-5-2.7L28.2,81.3z"/>
				<path fill="#505656" d="M34.4,87.5h-0.2c-4.8-0.1-6.3-6.1-6.3-6.1l-0.1-0.2l8.1-2.8l5.3,2.8v0.2C40.7,84.4,38.6,87.5,34.4,87.5z
					 M28.5,81.5c0.3,1.1,1.9,5.4,5.7,5.5h0.2c4.7,0,6-4.2,6.3-5.4L36,79L28.5,81.5z"/>
				<path fill="#717676" d="M41,81.3c0,0,1.5,5.8,6,5.9s6.3-3.7,6.8-5.9l-5-2.7L41,81.3z"/>
				<path fill="#505656" d="M47.2,87.5h-0.2c-4.7-0.1-6.3-6.1-6.3-6.1l-0.1-0.2l8.1-2.8l5.3,2.8v0.2C53.5,84.4,51.4,87.5,47.2,87.5z
					 M41.4,81.5c0.3,1.1,1.9,5.4,5.7,5.5c4.8,0.1,6.1-4.2,6.4-5.4L48.8,79L41.4,81.5z"/>
				<path fill="#717676" d="M53.8,81.3c0,0,1.5,5.8,6.1,5.9s6.3-3.7,6.8-5.9l-5-2.7L53.8,81.3z"/>
				<path fill="#505656" d="M60,87.5h-0.2c-4.8-0.1-6.3-6.1-6.3-6.1l-0.1-0.2l8.1-2.8l5.4,2.8v0.2C66.3,84.4,64.2,87.5,60,87.5z
					 M54.2,81.5c0.3,1.1,1.9,5.4,5.7,5.5c4.8,0.1,6.1-4.2,6.5-5.4L61.6,79L54.2,81.5z"/>
				<path fill="#717676" d="M66.7,81.3c0,0,1.5,5.8,6,5.9s6.3-3.7,6.8-5.9l-5-2.7L66.7,81.3z"/>
				<path fill="#505656" d="M72.9,87.5h-0.2c-4.8-0.1-6.3-6.1-6.3-6.1l-0.1-0.2l8.1-2.8l5.3,2.8v0.2C79.2,84.4,77,87.5,72.9,87.5z
					 M67,81.5c0.3,1.1,1.9,5.4,5.7,5.5c4.8,0.1,6.1-4.2,6.4-5.4L74.4,79L67,81.5z"/>
				<path fill="#717676" d="M79.5,81.3c0,0,1.5,5.8,6.1,5.9s6.3-3.7,6.8-5.9l-5-2.7L79.5,81.3z"/>
				<path fill="#505656" d="M85.7,87.5h-0.2c-4.8-0.1-6.3-6.1-6.3-6.1l-0.1-0.2l8.1-2.8l5.3,2.8v0.2C92,84.4,89.9,87.5,85.7,87.5z
					 M79.8,81.5c0.3,1.1,1.9,5.4,5.7,5.5c4.8,0.1,6.2-4.2,6.4-5.4L87.2,79L79.8,81.5z"/>
				<path fill="#717676" d="M92.3,81.3c0,0,1.5,5.8,6.1,5.9s6.3-3.7,6.8-5.9l-5.1-2.7L92.3,81.3z"/>
				<path fill="#505656" d="M98.5,87.5h-0.2c-4.8-0.1-6.3-6.1-6.3-6.1l0-0.2l8.1-2.8l5.3,2.8v0.2C104.8,84.4,102.7,87.5,98.5,87.5z
					 M92.7,81.5c0.3,1.1,1.9,5.4,5.7,5.5h0.2c4.7,0,6-4.2,6.3-5.4l-4.8-2.5L92.7,81.5z"/>
				<path fill="#717676" d="M105.2,81.3c0,0,1.5,5.8,6,5.9s6.3-3.7,6.8-5.9l-5-2.7L105.2,81.3z"/>
				<path fill="#505656" d="M111.3,87.5h-0.2c-4.7-0.1-6.3-6.1-6.3-6.1l-0.1-0.2l8.2-2.8l5.3,2.8v0.2
					C117.6,84.4,115.5,87.5,111.3,87.5z M105.5,81.5c0.3,1.1,1.9,5.4,5.7,5.5h0.1c4.7,0,6-4.2,6.3-5.4l-4.7-2.5L105.5,81.5z"/>
				<path fill="#717676" d="M9,77c0,0,1.5,5.8,6.1,5.9s6.3-3.7,6.8-5.9l-5-2.7L9,77z"/>
				<path fill="#505656" d="M15.2,83.2H15c-4.8-0.1-6.3-6.1-6.3-6.1l-0.1-0.2l8.1-2.8l5.3,2.8v0.2C21.5,80.1,19.3,83.2,15.2,83.2z
					 M9.3,77.2c0.3,1.1,1.9,5.4,5.7,5.5c4.8,0.1,6.1-4.2,6.4-5.4l-4.8-2.5L9.3,77.2z"/>
				<path fill="#717676" d="M21.8,77c0,0,1.5,5.8,6,5.9s6.3-3.7,6.8-5.9l-5-2.7L21.8,77z"/>
				<path fill="#505656" d="M28,83.2h-0.2c-4.7-0.1-6.3-6.1-6.3-6.1l-0.1-0.2l8.1-2.8l5.3,2.8v0.2C34.3,80.1,32.2,83.2,28,83.2z
					 M22.1,77.2c0.3,1.1,1.9,5.4,5.7,5.5c4.7,0.1,6.1-4.2,6.4-5.4l-4.8-2.5L22.1,77.2z"/>
				<path fill="#717676" d="M34.6,77c0,0,1.5,5.8,6.1,5.9s6.3-3.7,6.8-5.9l-5-2.7L34.6,77z"/>
				<path fill="#505656" d="M40.8,83.2h-0.2c-4.8-0.1-6.3-6.1-6.3-6.1l-0.1-0.2l8.1-2.8l5.3,2.8v0.2C47.1,80.1,45,83.2,40.8,83.2z
					 M35,77.2c0.3,1.1,1.9,5.4,5.7,5.5c4.8,0.1,6.2-4.2,6.5-5.4l-4.8-2.5L35,77.2z"/>
				<path fill="#717676" d="M47.4,77c0,0,1.5,5.8,6,5.9s6.3-3.7,6.8-5.9l-5-2.7L47.4,77z"/>
				<path fill="#505656" d="M53.6,83.2h-0.2c-4.8-0.1-6.3-6.1-6.3-6.1l-0.1-0.2l8.1-2.8l5.3,2.8v0.2C59.9,80.1,57.8,83.2,53.6,83.2z
					 M47.8,77.2c0.3,1.1,1.9,5.4,5.7,5.5c4.7,0.1,6.1-4.2,6.5-5.4l-4.8-2.5L47.8,77.2z"/>
				<path fill="#717676" d="M60.3,77c0,0,1.5,5.8,6,5.9s6.3-3.7,6.8-5.9l-5-2.7L60.3,77z"/>
				<path fill="#505656" d="M66.5,83.2h-0.2c-4.8-0.1-6.3-6.1-6.3-6.1l-0.1-0.2l8.1-2.8l5.3,2.8l-0.1,0.2
					C72.8,80.1,70.6,83.2,66.5,83.2z M60.6,77.2c0.3,1.1,1.9,5.4,5.7,5.5c4.8,0.1,6.2-4.2,6.4-5.4L68,74.7L60.6,77.2z"/>
				<path fill="#717676" d="M73.1,77c0,0,1.5,5.8,6,5.9s6.3-3.7,6.8-5.9l-5-2.7L73.1,77z"/>
				<path fill="#505656" d="M79.3,83.2h-0.2c-4.8-0.1-6.3-6.1-6.3-6.1l-0.1-0.2l8.1-2.8l5.3,2.8v0.2C85.6,80.1,83.4,83.2,79.3,83.2z
					 M73.4,77.2c0.3,1.1,1.9,5.4,5.7,5.5c4.8,0.1,6.1-4.2,6.4-5.4l-4.8-2.5L73.4,77.2z"/>
				<path fill="#717676" d="M85.9,77c0,0,1.5,5.8,6,5.9s6.3-3.7,6.8-5.9l-5-2.7L85.9,77z"/>
				<path fill="#505656" d="M92.1,83.2H92c-4.7-0.1-6.3-6.1-6.3-6.1l-0.1-0.2l8.2-2.8l5.3,2.8v0.2C98.4,80.1,96.3,83.2,92.1,83.2z
					 M86.2,77.2c0.3,1.1,1.9,5.4,5.7,5.5c4.8,0.1,6.1-4.2,6.4-5.4l-4.8-2.5L86.2,77.2z"/>
				<path fill="#717676" d="M98.7,77c0,0,1.5,5.8,6.1,5.9s6.3-3.7,6.8-5.9l-5-2.7L98.7,77z"/>
				<path fill="#505656" d="M104.9,83.2h-0.2c-4.8-0.1-6.3-6.1-6.3-6.1l-0.1-0.2l8.1-2.8l5.3,2.8v0.2
					C111.2,80.1,109.1,83.2,104.9,83.2z M99.1,77.2c0.3,1.1,1.9,5.4,5.7,5.5c4.8,0.1,6.2-4.2,6.4-5.4l-4.8-2.5L99.1,77.2z"/>
				<path fill="#717676" d="M15.4,72.7c0,0,1.5,5.8,6.1,5.9s6.3-3.7,6.8-5.9l-5-2.7L15.4,72.7z"/>
				<path fill="#505656" d="M21.6,78.9h-0.2c-4.8-0.1-6.3-6.1-6.3-6.1L15,72.6l8.1-2.8l5.3,2.8l0,0.2C27.9,75.8,25.7,78.9,21.6,78.9
					z M15.7,72.9c0.3,1.1,1.9,5.4,5.7,5.5c4.8,0.1,6.1-4.2,6.5-5.4l-4.7-2.6L15.7,72.9z"/>
				<path fill="#717676" d="M28.2,72.7c0,0,1.5,5.8,6.1,5.9s6.3-3.7,6.8-5.9l-5-2.7L28.2,72.7z"/>
				<path fill="#505656" d="M34.4,78.9h-0.2c-4.8-0.1-6.3-6.1-6.3-6.1l-0.1-0.2l8.1-2.8l5.3,2.8v0.2C40.7,75.8,38.6,78.9,34.4,78.9z
					 M28.5,72.9c0.3,1.1,1.9,5.4,5.7,5.5h0.2c4.7,0,6-4.2,6.3-5.4L36,70.4L28.5,72.9z"/>
				<path fill="#717676" d="M41,72.7c0,0,1.5,5.8,6,5.9s6.3-3.7,6.8-5.9l-5-2.7L41,72.7z"/>
				<path fill="#505656" d="M47.2,78.9h-0.2c-4.7-0.1-6.3-6.1-6.3-6.1l-0.1-0.2l8.1-2.8l5.3,2.8v0.2C53.5,75.8,51.4,78.9,47.2,78.9z
					 M41.4,72.9c0.3,1.1,1.9,5.4,5.7,5.5c4.8,0.1,6.1-4.2,6.4-5.4l-4.7-2.6L41.4,72.9z"/>
				<path fill="#717676" d="M53.8,72.7c0,0,1.5,5.8,6.1,5.9s6.3-3.7,6.8-5.9l-5-2.7L53.8,72.7z"/>
				<path fill="#505656" d="M60,78.9h-0.2c-4.8-0.1-6.3-6.1-6.3-6.1l-0.1-0.2l8.1-2.8l5.4,2.8v0.2C66.3,75.8,64.2,78.9,60,78.9z
					 M54.2,72.9c0.3,1.1,1.9,5.4,5.7,5.5c4.8,0.1,6.1-4.2,6.5-5.4l-4.8-2.6L54.2,72.9z"/>
				<path fill="#717676" d="M66.7,72.7c0,0,1.5,5.8,6,5.9s6.3-3.7,6.8-5.9l-5-2.7L66.7,72.7z"/>
				<path fill="#505656" d="M72.9,78.9h-0.2c-4.8-0.1-6.3-6.1-6.3-6.1l-0.1-0.2l8.1-2.8l5.3,2.8v0.2C79.2,75.8,77,78.9,72.9,78.9z
					 M67,72.9c0.3,1.1,1.9,5.4,5.7,5.5c4.8,0.1,6.1-4.2,6.4-5.4l-4.8-2.6L67,72.9z"/>
				<path fill="#717676" d="M79.5,72.7c0,0,1.5,5.8,6.1,5.9s6.3-3.7,6.8-5.9l-5-2.7L79.5,72.7z"/>
				<path fill="#505656" d="M85.7,78.9h-0.2c-4.8-0.1-6.3-6.1-6.3-6.1l-0.1-0.2l8.1-2.8l5.3,2.8v0.2C92,75.8,89.9,78.9,85.7,78.9z
					 M79.8,72.9c0.3,1.1,1.9,5.4,5.7,5.5c4.8,0.1,6.2-4.2,6.4-5.4l-4.7-2.6L79.8,72.9z"/>
				<path fill="#717676" d="M92.3,72.7c0,0,1.5,5.8,6.1,5.9s6.3-3.7,6.8-5.9l-5.1-2.7L92.3,72.7z"/>
				<path fill="#505656" d="M98.5,78.9h-0.2c-4.8-0.1-6.3-6.1-6.3-6.1l0-0.3l8.1-2.8l5.3,2.8v0.2C104.8,75.8,102.7,78.9,98.5,78.9z
					 M92.7,72.9c0.3,1.1,1.9,5.4,5.7,5.5h0.2c4.7,0,6-4.2,6.3-5.4l-4.8-2.5L92.7,72.9z"/>
				<path fill="#717676" d="M105.2,72.7c0,0,1.5,5.8,6,5.9s6.4-3.7,6.8-5.9l-5-2.7L105.2,72.7z"/>
				<path fill="#505656" d="M111.3,78.9h-0.2c-4.7-0.1-6.3-6.1-6.3-6.1l-0.1-0.2l8.2-2.8l5.3,2.8v0.2
					C117.6,75.8,115.5,78.9,111.3,78.9z M105.5,72.9c0.3,1.1,1.9,5.4,5.7,5.5h0.1c4.7,0,6-4.2,6.3-5.4l-4.7-2.5L105.5,72.9z"/>
				<path fill="#717676" d="M9,69.7c0,0,1.5,5.8,6.1,5.9s6.3-3.7,6.8-5.9l-5-2.7L9,69.7z"/>
				<path fill="#505656" d="M15.2,75.9H15c-4.8-0.1-6.3-6.1-6.3-6.1l-0.1-0.2l8.1-2.8l5.3,2.8v0.2C21.5,72.7,19.3,75.9,15.2,75.9z
					 M9.3,69.9c0.3,1.1,1.9,5.4,5.7,5.5c4.8,0.1,6.1-4.2,6.4-5.4l-4.8-2.5L9.3,69.9z"/>
				<path fill="#717676" d="M21.8,69.7c0,0,1.5,5.8,6,5.9s6.3-3.7,6.8-5.9l-5-2.7L21.8,69.7z"/>
				<path fill="#505656" d="M28,75.9h-0.2c-4.7-0.1-6.3-6.1-6.3-6.1l-0.1-0.2l8.1-2.8l5.3,2.8v0.2C34.3,72.7,32.2,75.9,28,75.9z
					 M22.1,69.9c0.3,1.1,1.9,5.4,5.7,5.5H28c4.7,0,6-4.2,6.3-5.4l-4.8-2.5L22.1,69.9z"/>
				<path fill="#717676" d="M34.6,69.7c0,0,1.5,5.8,6.1,5.9s6.3-3.7,6.8-5.9l-5-2.7L34.6,69.7z"/>
				<path fill="#505656" d="M40.8,75.9h-0.2c-4.8-0.1-6.3-6.1-6.3-6.1l-0.1-0.2l8.1-2.8l5.3,2.8v0.2C47.1,72.7,45,75.9,40.8,75.9z
					 M35,69.9c0.3,1.1,1.9,5.4,5.7,5.5c4.8,0.1,6.2-4.2,6.5-5.4l-4.8-2.5L35,69.9z"/>
				<path fill="#717676" d="M47.4,69.7c0,0,1.5,5.8,6,5.9s6.3-3.7,6.8-5.9l-5-2.7L47.4,69.7z"/>
				<path fill="#505656" d="M53.6,75.9h-0.2c-4.8-0.1-6.3-6.1-6.3-6.1l-0.1-0.2l8.1-2.8l5.3,2.8v0.2C59.9,72.7,57.8,75.9,53.6,75.9z
					 M47.8,69.9c0.3,1.1,1.9,5.4,5.7,5.5h0.1c4.7,0,6-4.2,6.3-5.4l-4.8-2.5L47.8,69.9z"/>
				<path fill="#717676" d="M60.3,69.7c0,0,1.5,5.8,6,5.9s6.3-3.7,6.8-5.9L68,67L60.3,69.7z"/>
				<path fill="#505656" d="M66.5,75.9h-0.2c-4.8-0.1-6.3-6.1-6.3-6.1l-0.1-0.2l8.1-2.8l5.3,2.8l-0.1,0.2
					C72.8,72.7,70.6,75.9,66.5,75.9z M60.6,69.9c0.3,1.1,1.9,5.4,5.7,5.5h0.2c4.7,0,6-4.2,6.3-5.4L68,67.3L60.6,69.9z"/>
				<path fill="#717676" d="M73.1,69.7c0,0,1.5,5.8,6,5.9s6.3-3.7,6.8-5.9l-5-2.7L73.1,69.7z"/>
				<path fill="#505656" d="M79.3,75.9h-0.2c-4.8-0.1-6.3-6.1-6.3-6.1l-0.1-0.2l8.1-2.8l5.3,2.8v0.2C85.6,72.7,83.4,75.9,79.3,75.9z
					 M73.4,69.9c0.3,1.1,1.9,5.4,5.7,5.5c4.8,0.1,6.1-4.2,6.4-5.4l-4.8-2.5L73.4,69.9z"/>
				<path fill="#717676" d="M85.9,69.7c0,0,1.5,5.8,6,5.9s6.3-3.7,6.8-5.9l-5-2.7L85.9,69.7z"/>
				<path fill="#505656" d="M92.1,75.9H92c-4.7-0.1-6.3-6.1-6.3-6.1l-0.1-0.2l8.2-2.8l5.3,2.8v0.2C98.4,72.7,96.3,75.9,92.1,75.9z
					 M86.2,69.9c0.3,1.1,1.9,5.4,5.7,5.5c4.8,0.1,6.1-4.2,6.4-5.4l-4.8-2.5L86.2,69.9z"/>
				<path fill="#717676" d="M98.7,69.7c0,0,1.5,5.8,6.1,5.9s6.3-3.7,6.8-5.9l-5-2.7L98.7,69.7z"/>
				<path fill="#505656" d="M104.9,75.9h-0.2c-4.8-0.1-6.3-6.1-6.3-6.1l-0.1-0.2l8.1-2.8l5.3,2.8v0.2
					C111.2,72.7,109.1,75.9,104.9,75.9z M99.1,69.9c0.3,1.1,1.9,5.4,5.7,5.5c4.8,0.1,6.2-4.2,6.4-5.5l-4.8-2.5L99.1,69.9z"/>
			</g>
		</g>
		<rect x="9.6" y="117.9" fill="#5E6162" width="106.5" height="3.3"/>
		<rect x="13.3" y="159.2" fill="#59698A" width="102.2" height="5.2"/>
		<rect x="17.3" y="121.1" fill="#59698A" width="2.9" height="37.3"/>
		<path fill="#59698A" d="M15.2,121.1h7.2c0.2,0,0.4,0.2,0.4,0.4v1.5c0,0.2-0.2,0.4-0.4,0.4h-7.2c-0.2,0-0.4-0.2-0.4-0.4v-1.5
			C14.8,121.3,15,121.1,15.2,121.1z"/>
		<path fill="#59698A" d="M15.2,156.9h7.2c0.2,0,0.4,0.2,0.4,0.4v1.5c0,0.2-0.2,0.4-0.4,0.4h-7.2c-0.2,0-0.4-0.2-0.4-0.4v-1.5
			C14.8,157.1,15,156.9,15.2,156.9z"/>
		<rect x="34.5" y="121.1" fill="#59698A" width="2.9" height="37.3"/>
		<path fill="#59698A" d="M32.4,121.1h7.2c0.2,0,0.4,0.2,0.4,0.4v1.5c0,0.2-0.2,0.4-0.4,0.4h-7.2c-0.2,0-0.4-0.2-0.4-0.4v-1.5
			C32,121.3,32.2,121.1,32.4,121.1z"/>
		<path fill="#59698A" d="M32.4,156.9h7.2c0.2,0,0.4,0.2,0.4,0.4v1.5c0,0.2-0.2,0.4-0.4,0.4h-7.2c-0.2,0-0.4-0.2-0.4-0.4v-1.5
			C32,157.1,32.2,156.9,32.4,156.9z"/>
		<rect x="20.2" y="141.5" fill="#59698A" width="15.2" height="2.1"/>
		<rect x="23.4" y="143.2" fill="#59698A" width="2.1" height="17.2"/>
		<rect x="29.1" y="143.2" fill="#59698A" width="2.1" height="17.2"/>
		<rect x="89.8" y="121.1" fill="#59698A" width="2.9" height="37.3"/>
		<path fill="#59698A" d="M87.7,121.1h7.2c0.2,0,0.4,0.2,0.4,0.4v1.5c0,0.2-0.2,0.4-0.4,0.4h-7.2c-0.2,0-0.4-0.2-0.4-0.4v-1.5
			C87.3,121.3,87.5,121.1,87.7,121.1z"/>
		<path fill="#59698A" d="M87.7,156.9h7.2c0.2,0,0.4,0.2,0.4,0.4v1.5c0,0.2-0.2,0.4-0.4,0.4h-7.2c-0.2,0-0.4-0.2-0.4-0.4v-1.5
			C87.3,157.1,87.5,156.9,87.7,156.9z"/>
		<rect x="107" y="121.1" fill="#59698A" width="2.9" height="37.3"/>
		<path fill="#59698A" d="M104.9,121.1h7.2c0.2,0,0.4,0.2,0.4,0.4v1.5c0,0.2-0.2,0.4-0.4,0.4h-7.2c-0.2,0-0.4-0.2-0.4-0.4v-1.5
			C104.5,121.3,104.7,121.1,104.9,121.1z"/>
		<path fill="#59698A" d="M104.9,156.9h7.2c0.2,0,0.4,0.2,0.4,0.4v1.5c0,0.2-0.2,0.4-0.4,0.4h-7.2c-0.2,0-0.4-0.2-0.4-0.4v-1.5
			C104.5,157.1,104.7,156.9,104.9,156.9z"/>
		<rect x="92.7" y="141.5" fill="#59698A" width="15.2" height="2.1"/>
		<rect x="96" y="143.2" fill="#59698A" width="2.2" height="17.2"/>
		<rect x="101.6" y="143.2" fill="#59698A" width="2.2" height="17.2"/>
		<rect x="51.3" y="126.1" fill="#85684E" width="23.2" height="33.1"/>
		<rect x="53.1" y="128.7" fill="#A4896D" width="19.2" height="28.2"/>
		<rect x="18.3" y="43" fill="#CCCDCC" width="9.7" height="5.1"/>
		<rect x="23.2" y="50.3" fill="#CCCDCC" width="9.7" height="5.1"/>
		<rect x="96.8" y="85.6" fill="#CCCDCC" width="9.7" height="5.1"/>
		<rect x="64.9" y="53.4" fill="#CCCDCC" width="9.7" height="5.1"/>
		<path fill="#C3A98F" d="M59.9,136C59.9,136,59.8,136,59.9,136c-0.1,0-0.1-0.1-0.1-0.1c0,0,0,0,0,0l2.3-2.2c0,0,0.1,0,0.1,0
			c0,0,0,0.1,0,0.1L60,136C60,136,59.9,136,59.9,136z"/>
		<path fill="#C3A98F" d="M63.8,136.8C63.8,136.8,63.7,136.8,63.8,136.8c-0.1,0-0.1-0.1-0.1-0.1l2.3-2.3c0,0,0.1,0,0.1,0
			c0,0,0,0.1,0,0.1c0,0,0,0,0,0L63.8,136.8C63.8,136.8,63.8,136.8,63.8,136.8z"/>
		<path fill="#C3A98F" d="M62.5,155.1L62.5,155.1c-0.1,0-0.1-0.1-0.1-0.1l2.3-2.2c0,0,0.1,0,0.1,0c0,0,0,0.1,0,0.1L62.5,155.1
			C62.6,155.1,62.6,155.1,62.5,155.1z"/>
		<path fill="#C3A98F" d="M58.9,139.3C58.9,139.3,58.8,139.3,58.9,139.3c-0.1,0-0.1-0.1-0.1-0.1c0,0,0,0,0,0l7.9-7.9
			c0,0,0.1-0.1,0.1,0s0.1,0.1,0,0.1c0,0,0,0,0,0l-7.9,7.8C59,139.3,58.9,139.4,58.9,139.3z"/>
		<path fill="#B0CE67" d="M10.5,165.4c-2-0.5-3.5-2.2-3.7-4.3c0-0.3,0-0.7,0.2-1c0.4-0.7,1.1-1.1,1.9-1c0.7,0.1,1.5,0.3,2.1,0.7
			c-1.6-2.1-2.8-4.9-1.8-7.3c0.2-0.7,0.8-1.2,1.5-1.3c0.7,0,1.3,0.7,1.7,1.3c1,1.6,1.9,3.3,2.7,5c0.3-1.8,0.9-3.8,2.4-4.8
			c0.2-0.2,0.5-0.2,0.8-0.2c0.3,0.1,0.5,0.2,0.7,0.4c1.4,1.3,1.2,3.5,1,5.4c0.6-1.2,2-1.7,3.2-1.2c0,0,0,0,0.1,0
			c1.2,0.7,2,1.8,2.1,3.1c0.2,1,0.1,2.1-0.3,3.1c-0.5,0.9-1.5,2.1-2.6,2"/>
		<rect x="77.1" y="25.8" fill="#5C9F9F" width="13" height="17.5"/>
		<path opacity="0.4" fill="#59698A" enable-background="new    " d="M91.2,45.1H75.9c-0.5,0-0.9-0.4-0.9-0.9l0,0
			c0-0.5,0.4-0.9,0.9-0.9l0,0h15.4c0.5,0,0.9,0.4,0.9,0.9v0l0,0C92.1,44.7,91.7,45.1,91.2,45.1L91.2,45.1z"/>
		<path fill="#59698A" d="M91.2,44.9H75.9c-0.5,0-0.9-0.4-0.9-0.9l0,0c0-0.5,0.4-0.9,0.9-0.9h15.3c0.5,0,0.9,0.4,0.9,0.9
			c0,0,0,0,0,0l0,0C92.1,44.5,91.7,44.9,91.2,44.9L91.2,44.9z"/>
		<path fill="#85CAC8" d="M80.8,35.5C80.7,35.5,80.7,35.5,80.8,35.5c-0.1,0-0.1-0.1-0.1-0.1c0,0,0,0,0,0l2.2-2.1c0,0,0.1,0,0.1,0
			c0,0,0,0,0,0c0,0,0,0.1,0,0.1c0,0,0,0,0,0L80.8,35.5C80.8,35.5,80.8,35.5,80.8,35.5z"/>
		<path fill="#85CAC8" d="M82.1,37.8C82.1,37.8,82.1,37.8,82.1,37.8c-0.1,0-0.1-0.1-0.1-0.1c0,0,0,0,0,0l2.2-2.1c0,0,0.1,0,0.1,0
			c0,0,0,0.1,0,0.1c0,0,0,0,0,0L82.1,37.8L82.1,37.8z"/>
		<path fill="#85CAC8" d="M84.3,29.4C84.2,29.4,84.2,29.4,84.3,29.4c-0.1,0-0.1-0.1-0.1-0.1c0,0,0,0,0,0l2.2-2.1c0,0,0.1,0,0.1,0
			c0,0,0,0,0,0c0,0,0,0.1,0,0.1c0,0,0,0,0,0L84.3,29.4L84.3,29.4z"/>
		<path fill="#85CAC8" d="M79.8,37.7C79.7,37.7,79.7,37.7,79.8,37.7c-0.1,0-0.1-0.1-0.1-0.1c0,0,0,0,0,0l6.8-6.1c0,0,0.1,0,0.1,0
			c0,0,0,0,0,0c0,0,0,0.1,0,0.1c0,0,0,0,0,0L79.8,37.7C79.8,37.7,79.8,37.7,79.8,37.7z"/>
		<rect x="83.2" y="25.8" fill="#5A6A8B" width="0.7" height="18.1"/>
		<rect x="77.1" y="31.6" fill="#5A6A8B" width="13" height="0.7"/>
		<rect x="77.1" y="38.6" fill="#5A6A8B" width="13" height="0.7"/>
		<polygon opacity="0.7" fill="#CCCDCC" enable-background="new    " points="75.4,44.9 91,48 91,44.9 		"/>
		<rect x="35.8" y="25.8" fill="#5C9F9F" width="13" height="17.5"/>
		<path opacity="0.4" fill="#59698A" enable-background="new    " d="M50,45.1H34.7c-0.5,0-0.9-0.4-0.9-0.9v0l0,0
			c0-0.5,0.4-0.9,0.9-0.9h0H50c0.5,0,0.9,0.4,0.9,0.9v0l0,0C50.9,44.7,50.5,45.1,50,45.1z"/>
		<path fill="#59698A" d="M50,44.9H34.7c-0.5,0-0.9-0.4-0.9-0.9v0l0,0c0-0.5,0.4-0.9,0.9-0.9c0,0,0,0,0,0H50c0.5,0,0.9,0.4,0.9,0.9
			l0,0C50.9,44.5,50.5,44.9,50,44.9L50,44.9z"/>
		<path fill="#85CAC8" d="M39.5,35.5C39.5,35.5,39.5,35.5,39.5,35.5c-0.1,0-0.1-0.1-0.1-0.1l2.2-2.1c0,0,0.1,0,0.1,0c0,0,0,0,0,0
			c0,0,0,0.1,0,0.1c0,0,0,0,0,0L39.5,35.5C39.6,35.5,39.6,35.5,39.5,35.5z"/>
		<path fill="#85CAC8" d="M40.9,37.8C40.9,37.8,40.8,37.8,40.9,37.8c-0.1,0-0.1-0.1-0.1-0.1l2.2-2.1c0,0,0.1,0,0.1,0s0,0.1,0,0.1
			l0,0L41,37.8C41,37.8,40.9,37.8,40.9,37.8z"/>
		<path fill="#85CAC8" d="M43,29.4C43,29.4,43,29.3,43,29.4C43,29.2,43,29.2,43,29.2l2.2-2.1c0,0,0.1,0,0.1,0c0,0,0,0,0,0
			c0,0,0,0.1,0,0.1L43,29.4L43,29.4z"/>
		<path fill="#85CAC8" d="M38.5,37.7C38.5,37.7,38.5,37.7,38.5,37.7c-0.1,0-0.1-0.1-0.1-0.1c0,0,0,0,0,0l6.8-6.1c0,0,0.1,0,0.1,0
			c0,0,0,0.1,0,0.1L38.5,37.7C38.6,37.7,38.6,37.7,38.5,37.7z"/>
		<rect x="42" y="25.8" fill="#5A6A8B" width="0.7" height="18.1"/>
		<rect x="35.8" y="31.6" fill="#5A6A8B" width="13" height="0.7"/>
		<rect x="35.8" y="38.6" fill="#5A6A8B" width="13" height="0.7"/>
		<polygon opacity="0.7" fill="#CCCDCC" enable-background="new    " points="34.7,44.9 50.3,48 50.3,44.9 		"/>
		<rect x="77.1" y="51.3" fill="#5C9F9F" width="13" height="17.5"/>
		<path opacity="0.4" fill="#59698A" enable-background="new    " d="M91.2,70.6H75.9c-0.5,0-0.9-0.4-0.9-0.9l0,0
			c0-0.5,0.4-0.9,0.9-0.9l0,0h15.4c0.5,0,0.9,0.4,0.9,0.9l0,0l0,0C92.1,70.2,91.7,70.6,91.2,70.6C91.2,70.6,91.2,70.6,91.2,70.6z"/>
		<path fill="#59698A" d="M91.2,70.4H75.9c-0.5,0-0.9-0.4-0.9-0.9l0,0l0,0c0-0.5,0.4-0.9,0.9-0.9h15.4c0.5,0,0.9,0.4,0.9,0.9l0,0
			l0,0C92.1,70,91.7,70.4,91.2,70.4L91.2,70.4z"/>
		<path fill="#85CAC8" d="M80.8,61C80.7,61.1,80.7,61.1,80.8,61c-0.1,0-0.1-0.1-0.1-0.1c0,0,0,0,0,0l2.2-2.1c0,0,0.1,0,0.1,0
			c0,0,0,0.1,0,0.1c0,0,0,0,0,0L80.8,61C80.8,61,80.8,61,80.8,61z"/>
		<path fill="#85CAC8" d="M82.1,63.3C82.1,63.3,82.1,63.3,82.1,63.3c-0.1,0-0.1-0.1-0.1-0.1c0,0,0,0,0,0l2.2-2.1c0,0,0.1,0,0.1,0
			c0,0,0,0.1,0,0.1c0,0,0,0,0,0L82.1,63.3C82.1,63.3,82.1,63.3,82.1,63.3z"/>
		<path fill="#85CAC8" d="M84.3,54.9C84.2,54.9,84.2,54.9,84.3,54.9c-0.1,0-0.1-0.1-0.1-0.1c0,0,0,0,0,0l2.2-2.1c0,0,0.1,0,0.1,0
			c0,0,0,0,0,0c0,0,0,0.1,0,0.1c0,0,0,0,0,0L84.3,54.9L84.3,54.9z"/>
		<path fill="#85CAC8" d="M79.8,63.2C79.7,63.2,79.7,63.2,79.8,63.2c-0.1,0-0.1-0.1-0.1-0.1c0,0,0,0,0,0l6.8-6.1c0,0,0.1,0,0.1,0
			c0,0,0,0.1,0,0.1L79.8,63.2C79.8,63.2,79.8,63.2,79.8,63.2z"/>
		<rect x="83.2" y="51.3" fill="#5A6A8B" width="0.7" height="18.1"/>
		<rect x="77.1" y="57.1" fill="#5A6A8B" width="13" height="0.7"/>
		<rect x="77.1" y="64.2" fill="#5A6A8B" width="13" height="0.7"/>
		<polygon opacity="0.7" fill="#CCCDCC" enable-background="new    " points="76.1,70.7 91.7,73.8 91.7,70.7 		"/>
		<rect x="35.8" y="51.3" fill="#5C9F9F" width="13" height="17.5"/>
		<path opacity="0.4" fill="#59698A" enable-background="new    " d="M50,70.6H34.7c-0.5,0-0.9-0.4-0.9-0.9c0,0,0,0,0,0l0,0
			c0-0.5,0.4-0.9,0.9-0.9h0H50c0.5,0,0.9,0.4,0.9,0.9l0,0l0,0C50.9,70.2,50.5,70.6,50,70.6z"/>
		<path fill="#59698A" d="M50,70.4H34.7c-0.5,0-0.9-0.4-0.9-0.9l0,0l0,0c0-0.5,0.4-0.9,0.9-0.9h0H50c0.5,0,0.9,0.4,0.9,0.9l0,0
			C50.9,70,50.5,70.4,50,70.4L50,70.4z"/>
		<path fill="#85CAC8" d="M39.5,61C39.5,61.1,39.5,61.1,39.5,61c-0.1,0-0.1-0.1-0.1-0.1l2.2-2.1c0,0,0.1,0,0.1,0c0,0,0,0.1,0,0.1
			c0,0,0,0,0,0L39.5,61L39.5,61z"/>
		<path fill="#85CAC8" d="M40.9,63.3C40.9,63.3,40.8,63.3,40.9,63.3c-0.1,0-0.1-0.1-0.1-0.1l2.2-2.1c0,0,0.1,0,0.1,0s0,0.1,0,0.1
			L41,63.3C41,63.3,40.9,63.4,40.9,63.3z"/>
		<path fill="#85CAC8" d="M43,54.9C43,54.9,43,54.8,43,54.9C43,54.8,43,54.7,43,54.7l2.2-2.1c0,0,0.1,0,0.1,0c0,0,0,0,0,0
			c0,0,0,0.1,0,0.1L43,54.9L43,54.9z"/>
		<path fill="#85CAC8" d="M38.5,63.2C38.5,63.2,38.5,63.2,38.5,63.2c-0.1,0-0.1-0.1-0.1-0.1c0,0,0,0,0,0l6.8-6.1c0,0,0.1,0,0.1,0
			c0,0,0,0,0,0c0,0,0,0.1,0,0.1c0,0,0,0,0,0L38.5,63.2C38.6,63.2,38.6,63.2,38.5,63.2z"/>
		<rect x="42" y="51.3" fill="#5A6A8B" width="0.7" height="18.1"/>
		<rect x="35.8" y="57.1" fill="#5A6A8B" width="13" height="0.7"/>
		<rect x="35.8" y="64.2" fill="#5A6A8B" width="13" height="0.7"/>
		<polygon opacity="0.7" fill="#CCCDCC" enable-background="new    " points="34.5,70.7 50.1,73.8 50.1,70.7 		"/>
		<rect x="35.8" y="76.9" fill="#5C9F9F" width="13" height="17.5"/>
		<path opacity="0.4" fill="#59698A" enable-background="new    " d="M50,96.3H34.7c-0.5,0-0.9-0.4-0.9-0.9l0,0l0,0
			c0-0.5,0.4-0.9,0.9-0.9h0H50c0.5,0,0.9,0.4,0.9,0.9l0,0l0,0C50.9,95.9,50.5,96.3,50,96.3L50,96.3z"/>
		<path fill="#59698A" d="M50,96.1H34.7c-0.5,0-0.9-0.4-0.9-0.9c0,0,0,0,0,0l0,0c0-0.5,0.4-0.9,0.9-0.9h0H50c0.5,0,0.9,0.4,0.9,0.9
			l0,0l0,0C50.9,95.7,50.5,96.1,50,96.1z"/>
		<path fill="#85CAC8" d="M39.5,86.7C39.5,86.7,39.4,86.7,39.5,86.7c-0.1-0.1-0.1-0.1-0.1-0.2l2.2-2.1c0,0,0.1,0,0.1,0c0,0,0,0,0,0
			c0,0,0,0.1,0,0.1c0,0,0,0,0,0L39.5,86.7C39.6,86.7,39.6,86.7,39.5,86.7z"/>
		<path fill="#85CAC8" d="M40.9,89C40.9,89,40.8,89,40.9,89c-0.1,0-0.1-0.1-0.1-0.1l2.2-2.1c0,0,0.1,0,0.1,0c0,0,0,0,0,0
			c0,0,0,0.1,0,0.1L41,89C41,89,40.9,89,40.9,89z"/>
		<path fill="#85CAC8" d="M43,80.6C43,80.6,43,80.6,43,80.6c-0.1,0-0.1-0.1-0.1-0.1l2.2-2.1c0,0,0.1,0,0.1,0c0,0,0,0.1,0,0.1l0,0
			L43,80.6C43.1,80.6,43.1,80.6,43,80.6z"/>
		<path fill="#85CAC8" d="M38.5,88.9C38.5,88.9,38.5,88.9,38.5,88.9c-0.1,0-0.1-0.1-0.1-0.1c0,0,0,0,0,0l6.8-6.1c0,0,0.1,0,0.1,0
			c0,0,0,0.1,0,0.1L38.5,88.9L38.5,88.9z"/>
		<rect x="42" y="76.9" fill="#5A6A8B" width="0.7" height="18.1"/>
		<rect x="35.8" y="82.8" fill="#5A6A8B" width="13" height="0.7"/>
		<rect x="35.8" y="89.8" fill="#5A6A8B" width="13" height="0.7"/>
		<polygon opacity="0.7" fill="#CCCDCC" enable-background="new    " points="34.7,96.1 50.3,99.2 50.3,96.1 		"/>
		<rect x="77.1" y="76.9" fill="#5C9F9F" width="13" height="17.5"/>
		<path opacity="0.4" fill="#59698A" enable-background="new    " d="M91.2,96.3H75.9c-0.5,0-0.9-0.4-0.9-0.9l0,0l0,0
			c0-0.5,0.4-0.9,0.9-0.9l0,0h15.4c0.5,0,0.9,0.4,0.9,0.9l0,0l0,0C92.1,95.9,91.7,96.3,91.2,96.3L91.2,96.3z"/>
		<path fill="#59698A" d="M91.2,96.1H75.9c-0.5,0-0.9-0.4-0.9-0.9l0,0c0-0.5,0.4-0.9,0.9-0.9l0,0h15.4c0.5,0,0.9,0.4,0.9,0.9l0,0
			l0,0C92.1,95.7,91.7,96.1,91.2,96.1C91.2,96.1,91.2,96.1,91.2,96.1z"/>
		<path fill="#85CAC8" d="M80.8,86.7C80.7,86.7,80.7,86.7,80.8,86.7c-0.1,0-0.1-0.1-0.1-0.1c0,0,0,0,0,0l2.2-2.1c0,0,0.1,0,0.1,0
			c0,0,0,0,0,0c0,0,0,0.1,0,0.1c0,0,0,0,0,0L80.8,86.7C80.8,86.7,80.8,86.7,80.8,86.7z"/>
		<path fill="#85CAC8" d="M82.1,89c0,0-0.1,0-0.1,0c0,0,0-0.1,0-0.1c0,0,0,0,0,0l2.2-2.1c0,0,0.1,0,0.1,0c0,0,0,0,0,0
			c0,0,0,0.1,0,0.1c0,0,0,0,0,0L82.1,89C82.2,89,82.1,89,82.1,89z"/>
		<path fill="#85CAC8" d="M84.3,80.6C84.2,80.6,84.2,80.6,84.3,80.6c-0.1,0-0.1-0.1-0.1-0.1c0,0,0,0,0,0l2.2-2.1c0,0,0.1,0,0.1,0
			c0,0,0,0.1,0,0.1c0,0,0,0,0,0L84.3,80.6C84.3,80.6,84.3,80.6,84.3,80.6z"/>
		<path fill="#85CAC8" d="M79.8,88.9C79.7,88.9,79.7,88.9,79.8,88.9c-0.1,0-0.1-0.1-0.1-0.1c0,0,0,0,0,0l6.8-6.1c0,0,0.1,0,0.1,0
			c0,0,0,0,0,0c0,0,0,0.1,0,0.1c0,0,0,0,0,0L79.8,88.9L79.8,88.9z"/>
		<rect x="83.2" y="76.9" fill="#5A6A8B" width="0.7" height="18.1"/>
		<rect x="77.1" y="82.8" fill="#5A6A8B" width="13" height="0.7"/>
		<rect x="77.1" y="89.8" fill="#5A6A8B" width="13" height="0.7"/>
		<polygon opacity="0.7" fill="#CCCDCC" enable-background="new    " points="75.8,96.1 91.4,99.2 91.4,96.1 		"/>
		<path fill="#A4B45C" d="M4.4,164.1L0,167.9h60.1c2.2-1.3,4.4-2.6,6.6-3.9H4.4z"/>
		<path fill="#B0CE67" d="M128.7,167.9l-5.3-3.9H66.7c-2.2,1.3-4.4,2.6-6.6,3.9H128.7z"/>
		<path fill="#85684E" d="M113.4,119.6c-0.1,14.8-0.5,29.6-1.3,44.4c1.3,0.1,2.5-0.2,3.6-1c-2.4-16.4-2.1-33.1,0.9-49.4"/>
		<path fill="#85684E" d="M113.4,119.6c-1.2,6.9-0.3,14.3-0.6,21.3c-0.3,7.7-0.8,15.4-1.2,23.1c0,0.3,0.3,0.6,0.6,0.6
			c1.4,0,2.7-0.4,3.9-1.1c0.2-0.1,0.3-0.3,0.3-0.5c-0.9-8.2-1.3-16.5-1.2-24.8c0.1-3.8,0.3-7.6,0.6-11.4c0.4-4.4,1.6-8.9,1.4-13.2
			c0-0.5-0.7-0.8-1-0.3c-2.7,6.2-2.6,14.5-2.9,21.1c-0.4,7.7-0.1,15.5,1,23.1c0.1,0.8,1.7,5.8-1.4,4.6c-0.3-0.1,0.2-5,0.2-5.8
			c0.2-4.5,0.3-9,0.3-13.5C113.4,135.3,114.7,127.1,113.4,119.6L113.4,119.6z"/>
		<path fill="#85684E" d="M114.2,134c3.1-2.9,5.4-6.6,6.6-10.7c0-0.3,0.2-0.5,0.4-0.7c0.4-0.2,0.8,0,1,0.4c0,0,0,0,0,0.1
			c0.1,0.4,0.1,0.9-0.1,1.3c-1.3,4.6-3.9,8.7-7.3,12"/>
		<path fill="#85684E" d="M108.1,119.6c-0.4,5,1.8,9.9,5.8,13.1c0.7,0.5,1.6-0.4,0.9-0.9c-3.6-3-5.7-7.4-5.9-12.1
			c0-0.2-0.2-0.4-0.4-0.4C108.3,119.2,108.1,119.4,108.1,119.6z"/>
		<path fill="#9FC051" d="M134.9,111.5c2.7-6.5-3-15.3-9.8-11.3c-0.2-0.3-0.5-0.7-0.7-1c-0.9-1.3-2-2.4-3.2-3.3
			c-1.7-1.3-3.8-2.2-6-2.4c-3.7-0.4-7.3,1.3-9.4,4.3c-2.5-1.1-5.3,0-6.4,2.5c0,0.1-0.1,0.2-0.1,0.3c-0.4,1-0.5,2.1-0.4,3.1
			c-2.4,1.8-2.9,5.3-1.1,7.7c0.4,0.6,1,1.1,1.6,1.4c-2.1,3.4-1,7.8,2.4,9.9c2.2,1.4,5.1,1.4,7.4,0.1c0.8,3.5,3.7,6,7.2,6.2
			c2.3,0.2,4.6-0.7,6.1-2.5c0.6-0.9,1.1-1.9,1.5-2.9l0.4,0.3C131.7,129.3,141.5,117.2,134.9,111.5z"/>
	</g>
</g>
</svg>
