<?xml version="1.0" encoding="utf-8"?>
<!-- Generator: Adobe Illustrator 23.0.3, SVG Export Plug-In . SVG Version: 6.00 Build 0)  -->
<svg version="1.1" id="Calque_1" xmlns="http://www.w3.org/2000/svg" xmlns:xlink="http://www.w3.org/1999/xlink" x="0px" y="0px"
	 viewBox="0 0 167.4 167.9" style="enable-background:new 0 0 167.4 167.9;" xml:space="preserve">
<style type="text/css">
	.st0{fill:#B0CE67;}
	.st1{fill:#E4E5E7;}
	.st2{fill:#CCCDCC;}
	.st3{fill:#717676;}
	.st4{fill:#D3D3D3;}
	.st5{clip-path:url(#SVGID_2_);}
	.st6{fill:#505656;}
	.st7{fill:#5E6162;}
	.st8{fill:#59698A;}
	.st9{fill:#85684E;}
	.st10{fill:#A4896D;}
	.st11{fill:#C3A98F;}
	.st12{fill:#5C9F9F;}
	.st13{opacity:0.4;fill:#59698A;enable-background:new    ;}
	.st14{fill:#85CAC8;}
	.st15{fill:#5A6A8B;}
	.st16{opacity:0.7;fill:#CCCDCC;enable-background:new    ;}
	.st17{fill:#A4B45C;}
	.st18{fill:#9FC051;}
	.st19{fill:#FFFFFF;}
	.st20{fill:#005567;}
</style>
<title>appartement-actu</title>
<g>
	<g>
		<path class="st0" d="M149.1,163.3c2.5-0.6,4.3-2.7,4.5-5.2c0-0.4,0-0.9-0.2-1.3c-0.5-0.8-1.4-1.3-2.3-1.2
			c-0.9,0.1-1.8,0.4-2.6,0.9c2-2.6,3.4-6,2.1-9c-0.3-0.8-1-1.4-1.9-1.5c-0.9,0-1.6,0.8-2.1,1.6c-1.3,1.9-2.4,4-3.3,6.1
			c-0.3-2.2-1-4.7-3-5.8c-0.5-0.4-1.3-0.4-1.7,0.1l0,0c-1.7,1.6-1.5,4.3-1.2,6.6c-0.5-1.5-2.6-2.1-4-1.4c-1.4,0.8-2.4,2.2-2.6,3.9
			c-0.3,1.3-0.2,2.6,0.4,3.8c0.6,1.1,1.9,2.6,3.2,2.5"/>
		<polygon class="st1" points="43.6,4 92,9.9 143.2,18 143.2,164.3 43.6,164.3 		"/>
		<polygon class="st2" points="43.6,6.2 43.6,13.3 143.2,24.4 143.2,17.1 		"/>
		<polygon class="st3" points="40.6,5.8 148.9,20.4 151.6,15.6 38,0 		"/>
		<polygon class="st4" points="143.2,159.1 65,138.8 43.6,121.1 143.2,121.1 		"/>
		<g>
			<g>
				<g>
					<defs>
						<polygon id="SVGID_1_" points="52.7,99.5 133,99.5 146.4,117.9 39.9,117.9 						"/>
					</defs>
					<clipPath id="SVGID_2_">
						<use xlink:href="#SVGID_1_"  style="overflow:visible;"/>
					</clipPath>
					<g class="st5">
						<polygon class="st3" points="52.7,99.5 133,99.5 146.4,117.9 39.9,117.9 						"/>
						<path class="st3" d="M39.3,119.8c0,0,1.5,5.8,6.1,5.9s6.3-3.7,6.8-5.9l-5-2.7L39.3,119.8z"/>
						<path class="st6" d="M45.5,126h-0.2c-4.8-0.1-6.3-6.1-6.3-6.1l-0.1-0.2l8.1-2.8l5.3,2.8v0.2C51.8,122.9,49.6,126,45.5,126z
							 M39.6,120c0.3,1.1,1.9,5.4,5.7,5.5c4.8,0.1,6.1-4.2,6.4-5.4l-4.8-2.5L39.6,120z"/>
						<path class="st3" d="M52.1,119.8c0,0,1.5,5.8,6,5.9s6.3-3.7,6.8-5.9l-5-2.7L52.1,119.8z"/>
						<path class="st6" d="M58.3,126h-0.2c-4.7-0.1-6.3-6.1-6.3-6.1l-0.1-0.2l8.1-2.8l5.3,2.8v0.2C64.6,122.9,62.5,126,58.3,126z
							 M52.4,120c0.3,1.1,1.9,5.4,5.7,5.5h0.2c4.7,0,6-4.2,6.3-5.5l-4.8-2.5L52.4,120z"/>
						<path class="st3" d="M64.9,119.8c0,0,1.5,5.8,6.1,5.9s6.3-3.7,6.8-5.9l-5-2.7L64.9,119.8z"/>
						<path class="st6" d="M71.1,126h-0.2c-4.8-0.1-6.3-6.1-6.3-6.1l-0.1-0.2l8.1-2.8l5.3,2.8v0.2C77.4,122.9,75.3,126,71.1,126z
							 M65.3,120c0.3,1.1,1.9,5.4,5.7,5.5c4.8,0.1,6.2-4.2,6.5-5.4l-4.8-2.5L65.3,120z"/>
						<path class="st3" d="M77.7,119.8c0,0,1.5,5.8,6,5.9s6.3-3.7,6.8-5.9l-5-2.7L77.7,119.8z"/>
						<path class="st6" d="M83.9,126h-0.2c-4.8-0.1-6.3-6.1-6.3-6.1l-0.1-0.2l8.1-2.8l5.3,2.8v0.2C90.2,122.9,88.1,126,83.9,126z
							 M78.1,120c0.3,1.1,1.9,5.4,5.7,5.5h0.1c4.7,0,6-4.2,6.3-5.5l-4.8-2.5L78.1,120z"/>
						<path class="st3" d="M90.6,119.8c0,0,1.5,5.8,6,5.9c4.5,0.1,6.3-3.7,6.8-5.9l-5-2.7L90.6,119.8z"/>
						<path class="st6" d="M96.8,126h-0.2c-4.8-0.1-6.3-6-6.3-6.1l-0.1-0.2l8.1-2.8l5.3,2.8l-0.1,0.2
							C103.1,122.9,100.9,126,96.8,126z M90.9,120c0.3,1.1,1.9,5.4,5.7,5.5h0.2c4.7,0,6-4.2,6.3-5.5l-4.8-2.5L90.9,120z"/>
						<path class="st3" d="M103.4,119.8c0,0,1.5,5.8,6,5.9s6.3-3.7,6.8-5.9l-5-2.7L103.4,119.8z"/>
						<path class="st6" d="M109.6,126h-0.2c-4.8-0.1-6.3-6.1-6.3-6.1l-0.1-0.2l8.1-2.8l5.3,2.8v0.2C115.9,122.9,113.7,126,109.6,126
							z M103.7,120c0.3,1.1,1.9,5.4,5.7,5.5c4.8,0.1,6.1-4.2,6.4-5.4l-4.8-2.5L103.7,120z"/>
						<path class="st3" d="M116.2,119.8c0,0,1.5,5.8,6,5.9s6.3-3.7,6.8-5.9l-5-2.7L116.2,119.8z"/>
						<path class="st6" d="M122.4,126L122.4,126c-4.8-0.1-6.4-6.1-6.4-6.1l-0.1-0.2l8.2-2.8l5.3,2.8v0.2
							C128.7,122.9,126.6,126,122.4,126z M116.5,120c0.3,1.1,1.9,5.4,5.7,5.5c4.8,0.1,6.1-4.2,6.4-5.4l-4.8-2.5L116.5,120z"/>
						<path class="st3" d="M129,119.8c0,0,1.5,5.8,6.1,5.9c4.6,0.1,6.3-3.7,6.8-5.9l-5-2.7L129,119.8z"/>
						<path class="st6" d="M135.2,126H135c-4.8-0.1-6.3-6.1-6.3-6.1l-0.1-0.2l8.1-2.8l5.3,2.8v0.2C141.5,122.9,139.4,126,135.2,126z
							 M129.4,120c0.3,1.1,1.9,5.4,5.7,5.5h0.2c4.7,0,6-4.2,6.3-5.5l-4.8-2.5L129.4,120z"/>
						<path class="st3" d="M45.7,115.6c0,0,1.5,5.8,6.1,5.9s6.3-3.7,6.8-5.9l-5-2.7L45.7,115.6z"/>
						<path class="st6" d="M51.9,121.8h-0.2c-4.8-0.1-6.3-6.1-6.3-6.1l-0.1-0.2l8.1-2.8l5.3,2.8v0.2C58.2,118.6,56,121.8,51.9,121.8
							z M46,115.8c0.3,1.1,1.9,5.4,5.7,5.5c4.8,0.1,6.1-4.2,6.5-5.4l-4.8-2.5L46,115.8z"/>
						<path class="st3" d="M58.5,115.6c0,0,1.5,5.8,6.1,5.9s6.3-3.7,6.8-5.9l-5-2.7L58.5,115.6z"/>
						<path class="st6" d="M64.7,121.8h-0.2c-4.8-0.1-6.3-6.1-6.3-6.1l-0.1-0.2l8.1-2.8l5.3,2.8v0.2C71,118.6,68.9,121.8,64.7,121.8
							z M58.8,115.8c0.3,1.1,1.9,5.4,5.7,5.5h0.2c4.7,0,6-4.2,6.3-5.4l-4.7-2.6L58.8,115.8z"/>
						<path class="st3" d="M71.3,115.6c0,0,1.5,5.8,6,5.9s6.3-3.7,6.8-5.9l-5-2.7L71.3,115.6z"/>
						<path class="st6" d="M77.5,121.8h-0.2c-4.7-0.1-6.3-6.1-6.3-6.1l-0.1-0.2l8.1-2.8l5.3,2.8v0.2
							C83.8,118.6,81.7,121.8,77.5,121.8z M71.7,115.8c0.3,1.1,1.9,5.4,5.7,5.5h0.1c4.7,0,6-4.2,6.3-5.4l-4.7-2.5L71.7,115.8z"/>
						<path class="st3" d="M84.1,115.6c0,0,1.5,5.8,6.1,5.9c4.6,0.1,6.3-3.7,6.8-5.9l-5-2.7L84.1,115.6z"/>
						<path class="st6" d="M90.3,121.8h-0.2c-4.8-0.1-6.3-6.1-6.3-6.1l-0.1-0.2l8.1-2.8l5.4,2.8v0.2
							C96.6,118.6,94.5,121.8,90.3,121.8z M84.5,115.8c0.3,1.1,1.9,5.4,5.7,5.5c4.8,0.1,6.1-4.2,6.5-5.4l-4.8-2.5L84.5,115.8z"/>
						<path class="st3" d="M97,115.6c0,0,1.5,5.8,6,5.9s6.3-3.7,6.8-5.9l-5-2.7L97,115.6z"/>
						<path class="st6" d="M103.2,121.8H103c-4.8-0.1-6.3-6.1-6.3-6.1l-0.1-0.2l8.1-2.8l5.3,2.8v0.2
							C109.5,118.6,107.3,121.8,103.2,121.8z M97.3,115.8c0.3,1.1,1.9,5.4,5.7,5.5h0.1c4.7,0,6-4.2,6.3-5.4l-4.8-2.5L97.3,115.8z"/>
						<path class="st3" d="M109.8,115.6c0,0,1.5,5.8,6.1,5.9s6.3-3.7,6.8-5.9l-5-2.7L109.8,115.6z"/>
						<path class="st6" d="M116,121.8h-0.2c-4.8-0.1-6.3-6.1-6.3-6.1l-0.1-0.2l8.1-2.8l5.3,2.8v0.2
							C122.3,118.6,120.2,121.8,116,121.8z M110.1,115.8c0.3,1.1,1.9,5.4,5.7,5.5c4.8,0.1,6.2-4.2,6.4-5.4l-4.8-2.5L110.1,115.8z"/>
						<path class="st3" d="M122.6,115.6c0,0,1.5,5.8,6.1,5.9c4.6,0.1,6.3-3.7,6.8-5.9l-5.1-2.7L122.6,115.6z"/>
						<path class="st6" d="M128.8,121.8h-0.2c-4.8-0.1-6.3-6.1-6.3-6.1l-0.1-0.2l8.1-2.8l5.3,2.8v0.2
							C135.1,118.6,133,121.8,128.8,121.8z M123,115.8c0.3,1.1,1.9,5.4,5.7,5.5c4.8,0.1,6.1-4.2,6.4-5.4l-4.8-2.5L123,115.8z"/>
						<path class="st3" d="M135.5,115.6c0,0,1.5,5.8,6,5.9s6.3-3.7,6.8-5.9l-5-2.7L135.5,115.6z"/>
						<path class="st6" d="M141.6,121.8h-0.2c-4.7-0.1-6.3-6.1-6.3-6.1l-0.1-0.2l8.1-2.8l5.3,2.8v0.2
							C147.9,118.6,145.8,121.8,141.6,121.8z M135.8,115.8c0.3,1.1,1.9,5.4,5.7,5.5h0.1c4.7,0,6-4.2,6.3-5.4l-4.7-2.5L135.8,115.8z"
							/>
						<path class="st3" d="M39.3,111.3c0,0,1.5,5.8,6.1,5.9s6.3-3.7,6.8-5.9l-5-2.7L39.3,111.3z"/>
						<path class="st6" d="M45.5,117.5h-0.2c-4.8-0.1-6.3-6.1-6.3-6.1l-0.1-0.2l8.1-2.8l5.3,2.8v0.2
							C51.8,114.3,49.6,117.5,45.5,117.5z M39.6,111.5c0.3,1.1,1.9,5.4,5.7,5.5c4.8,0.1,6.1-4.2,6.4-5.4l-4.8-2.5L39.6,111.5z"/>
						<path class="st3" d="M52.1,111.3c0,0,1.5,5.8,6,5.9s6.3-3.7,6.8-5.9l-5-2.7L52.1,111.3z"/>
						<path class="st6" d="M58.3,117.5h-0.2c-4.7-0.1-6.3-6.1-6.3-6.1l-0.1-0.2l8.1-2.8l5.3,2.8v0.2
							C64.6,114.3,62.5,117.5,58.3,117.5z M52.4,111.5c0.3,1.1,1.9,5.4,5.7,5.5h0.2c4.7,0,6-4.2,6.3-5.4l-4.8-2.5L52.4,111.5z"/>
						<path class="st3" d="M64.9,111.3c0,0,1.5,5.8,6.1,5.9s6.3-3.7,6.8-5.9l-5-2.7L64.9,111.3z"/>
						<path class="st6" d="M71.1,117.5h-0.2c-4.8-0.1-6.3-6.1-6.3-6.1l-0.1-0.2l8.1-2.8l5.3,2.8v0.2
							C77.4,114.3,75.3,117.5,71.1,117.5z M65.3,111.5c0.3,1.1,1.9,5.4,5.7,5.5c4.8,0.1,6.2-4.2,6.5-5.4l-4.8-2.5L65.3,111.5z"/>
						<path class="st3" d="M77.7,111.3c0,0,1.5,5.8,6,5.9s6.3-3.7,6.8-5.9l-5-2.7L77.7,111.3z"/>
						<path class="st6" d="M83.9,117.5h-0.2c-4.8-0.1-6.3-6.1-6.3-6.1l-0.1-0.2l8.1-2.8l5.3,2.8v0.2
							C90.2,114.3,88.1,117.5,83.9,117.5z M78.1,111.5c0.3,1.1,1.9,5.4,5.7,5.5h0.1c4.7,0,6-4.2,6.3-5.4l-4.8-2.5L78.1,111.5z"/>
						<path class="st3" d="M90.6,111.3c0,0,1.5,5.8,6,5.9c4.5,0.1,6.3-3.7,6.8-5.9l-5-2.7L90.6,111.3z"/>
						<path class="st6" d="M96.8,117.5h-0.2c-4.8-0.1-6.3-6.1-6.3-6.1l-0.1-0.2l8.1-2.8l5.3,2.8l-0.1,0.2
							C103.1,114.3,100.9,117.5,96.8,117.5z M90.9,111.5c0.3,1.1,1.9,5.4,5.7,5.5h0.2c4.7,0,6-4.2,6.3-5.4l-4.8-2.6L90.9,111.5z"/>
						<path class="st3" d="M103.4,111.3c0,0,1.5,5.8,6,5.9s6.3-3.7,6.8-5.9l-5-2.7L103.4,111.3z"/>
						<path class="st6" d="M109.6,117.5h-0.2c-4.8-0.1-6.3-6.1-6.3-6.1l-0.1-0.2l8.1-2.8l5.3,2.8v0.2
							C115.9,114.3,113.7,117.5,109.6,117.5z M103.7,111.5c0.3,1.1,1.9,5.4,5.7,5.5c4.8,0.1,6.1-4.2,6.4-5.4l-4.8-2.5L103.7,111.5z"
							/>
						<path class="st3" d="M116.2,111.3c0,0,1.5,5.8,6,5.9s6.3-3.7,6.8-5.9l-5-2.7L116.2,111.3z"/>
						<path class="st6" d="M122.4,117.5L122.4,117.5c-4.8-0.1-6.4-6.1-6.4-6.1l-0.1-0.2l8.2-2.8l5.3,2.8v0.2
							C128.7,114.3,126.6,117.5,122.4,117.5z M116.5,111.5c0.3,1.1,1.9,5.4,5.7,5.5c4.8,0.1,6.1-4.2,6.4-5.4l-4.8-2.5L116.5,111.5z"
							/>
						<path class="st3" d="M129,111.3c0,0,1.5,5.8,6.1,5.9c4.6,0.1,6.3-3.7,6.8-5.9l-5-2.7L129,111.3z"/>
						<path class="st6" d="M135.2,117.5H135c-4.8-0.1-6.3-6.1-6.3-6.1l-0.1-0.2l8.1-2.8l5.3,2.8v0.2
							C141.5,114.3,139.4,117.5,135.2,117.5z M129.4,111.5c0.3,1.1,1.9,5.4,5.7,5.5c4.8,0.1,6.2-4.2,6.4-5.4l-4.8-2.5L129.4,111.5z"
							/>
						<path class="st3" d="M45.7,107c0,0,1.5,5.8,6.1,5.9s6.3-3.7,6.8-5.9l-5-2.7L45.7,107z"/>
						<path class="st6" d="M51.9,113.2h-0.2c-4.8-0.1-6.3-6.1-6.3-6.1l-0.1-0.2l8.1-2.8l5.3,2.8v0.2C58.2,110.1,56,113.2,51.9,113.2
							z M46,107.2c0.3,1.1,1.9,5.4,5.7,5.5h0.1c4.7,0,6-4.2,6.3-5.4l-4.8-2.5L46,107.2z"/>
						<path class="st3" d="M58.5,107c0,0,1.5,5.8,6.1,5.9s6.3-3.7,6.8-5.9l-5-2.7L58.5,107z"/>
						<path class="st6" d="M64.7,113.2h-0.2c-4.8-0.1-6.3-6.1-6.3-6.1l-0.1-0.2l8.1-2.8l5.3,2.8v0.2C71,110.1,68.9,113.2,64.7,113.2
							z M58.8,107.2c0.3,1.1,1.9,5.4,5.7,5.5h0.2c4.7,0,6-4.2,6.3-5.4l-4.7-2.6L58.8,107.2z"/>
						<path class="st3" d="M71.3,107c0,0,1.5,5.8,6,5.9s6.3-3.7,6.8-5.9l-5-2.7L71.3,107z"/>
						<path class="st6" d="M77.5,113.2h-0.2c-4.7-0.1-6.3-6.1-6.3-6.1l-0.1-0.2l8.1-2.8l5.3,2.8v0.2
							C83.8,110.1,81.7,113.2,77.5,113.2z M71.7,107.2c0.3,1.1,1.9,5.4,5.7,5.5h0.1c4.7,0,6-4.2,6.3-5.4l-4.7-2.5L71.7,107.2z"/>
						<path class="st3" d="M84.1,107c0,0,1.5,5.8,6.1,5.9c4.6,0.1,6.3-3.7,6.8-5.9l-5-2.7L84.1,107z"/>
						<path class="st6" d="M90.3,113.2h-0.2c-4.8-0.1-6.3-6.1-6.3-6.1l-0.1-0.2l8.1-2.8l5.4,2.8v0.2
							C96.6,110.1,94.5,113.2,90.3,113.2z M84.5,107.2c0.3,1.1,1.9,5.4,5.7,5.5h0.1c4.7,0,6-4.2,6.3-5.4l-4.8-2.5L84.5,107.2z"/>
						<path class="st3" d="M97,107c0,0,1.5,5.8,6,5.9s6.3-3.7,6.8-5.9l-5-2.7L97,107z"/>
						<path class="st6" d="M103.2,113.2H103c-4.8-0.1-6.3-6.1-6.3-6.1l-0.1-0.2l8.1-2.8l5.3,2.8v0.2
							C109.5,110.1,107.3,113.2,103.2,113.2z M97.3,107.2c0.3,1.1,1.9,5.4,5.7,5.5h0.1c4.7,0,6-4.2,6.3-5.4l-4.8-2.5L97.3,107.2z"/>
						<path class="st3" d="M109.8,107c0,0,1.5,5.8,6.1,5.9s6.3-3.7,6.8-5.9l-5-2.7L109.8,107z"/>
						<path class="st6" d="M116,113.2h-0.2c-4.8-0.1-6.3-6.1-6.3-6.1l-0.1-0.2l8.1-2.8l5.3,2.8v0.2
							C122.3,110.1,120.2,113.2,116,113.2z M110.1,107.2c0.3,1.1,1.9,5.4,5.7,5.5h0.2c4.7,0,6-4.2,6.3-5.4l-4.8-2.5L110.1,107.2z"/>
						<path class="st3" d="M122.6,107c0,0,1.5,5.8,6.1,5.9c4.6,0.1,6.3-3.7,6.8-5.9l-5.1-2.7L122.6,107z"/>
						<path class="st6" d="M128.8,113.2h-0.2c-4.8-0.1-6.3-6.1-6.3-6.1l-0.1-0.2l8.1-2.8l5.3,2.8v0.2
							C135.1,110.1,133,113.2,128.8,113.2z M123,107.2c0.3,1.1,1.9,5.4,5.7,5.5h0.2c4.7,0,6-4.2,6.3-5.4l-4.8-2.5L123,107.2z"/>
						<path class="st3" d="M135.5,107c0,0,1.5,5.8,6,5.9s6.3-3.7,6.8-5.9l-5-2.7L135.5,107z"/>
						<path class="st6" d="M141.6,113.2h-0.2c-4.7-0.1-6.3-6.1-6.3-6.1l-0.1-0.2l8.1-2.8l5.3,2.8v0.2
							C147.9,110.1,145.8,113.2,141.6,113.2z M135.8,107.2c0.3,1.1,1.9,5.4,5.7,5.5h0.1c4.7,0,6-4.2,6.3-5.4l-4.7-2.5L135.8,107.2z"
							/>
						<path class="st3" d="M39.3,102.7c0,0,1.5,5.8,6.1,5.9s6.3-3.7,6.8-5.9l-5-2.7L39.3,102.7z"/>
						<path class="st6" d="M45.5,108.9h-0.2c-4.8-0.1-6.3-6.1-6.3-6.1l-0.1-0.2l8.1-2.8l5.3,2.8v0.2
							C51.8,105.8,49.6,108.9,45.5,108.9z M39.6,102.9c0.3,1.1,1.9,5.4,5.7,5.5h0.1c4.7,0,6-4.2,6.3-5.4l-4.8-2.5L39.6,102.9z"/>
						<path class="st3" d="M52.1,102.7c0,0,1.5,5.8,6,5.9s6.3-3.7,6.8-5.9l-5-2.7L52.1,102.7z"/>
						<path class="st6" d="M58.3,108.9h-0.2c-4.7-0.1-6.3-6.1-6.3-6.1l-0.1-0.2l8.1-2.8l5.3,2.8v0.2
							C64.6,105.8,62.5,108.9,58.3,108.9z M52.4,102.9c0.3,1.1,1.9,5.4,5.7,5.5h0.2c4.7,0,6-4.2,6.3-5.4l-4.8-2.5L52.4,102.9z"/>
						<path class="st3" d="M64.9,102.7c0,0,1.5,5.8,6.1,5.9s6.3-3.6,6.8-5.9l-5-2.7L64.9,102.7z"/>
						<path class="st6" d="M71.1,108.9h-0.2c-4.8-0.1-6.3-6.1-6.3-6.1l-0.1-0.2l8.1-2.8l5.3,2.8v0.2
							C77.4,105.8,75.3,108.9,71.1,108.9z M65.3,102.9c0.3,1.1,1.9,5.4,5.7,5.5h0.2c4.7,0,6-4.2,6.3-5.4l-4.8-2.5L65.3,102.9z"/>
						<path class="st3" d="M77.7,102.7c0,0,1.5,5.8,6,5.9s6.3-3.7,6.8-5.9l-5-2.7L77.7,102.7z"/>
						<path class="st6" d="M83.9,108.9h-0.2c-4.8-0.1-6.3-6.1-6.3-6.1l-0.1-0.2l8.1-2.8l5.3,2.8v0.2
							C90.2,105.8,88.1,108.9,83.9,108.9z M78.1,102.9c0.3,1.1,1.9,5.4,5.7,5.5H84c4.7,0,6-4.2,6.3-5.4l-4.8-2.5L78.1,102.9z"/>
						<path class="st3" d="M90.6,102.7c0,0,1.5,5.8,6,5.9c4.5,0.1,6.3-3.7,6.8-5.9l-5-2.7L90.6,102.7z"/>
						<path class="st6" d="M96.8,108.9h-0.2c-4.8-0.1-6.3-6.1-6.3-6.1l-0.1-0.2l8.1-2.8l5.3,2.8l-0.1,0.2
							C103.1,105.8,100.9,108.9,96.8,108.9z M90.9,102.9c0.3,1.1,1.9,5.4,5.7,5.5h0.2c4.7,0,6-4.2,6.3-5.4l-4.8-2.6L90.9,102.9z"/>
						<path class="st3" d="M103.4,102.7c0,0,1.5,5.8,6,5.9s6.3-3.7,6.8-5.9l-5-2.7L103.4,102.7z"/>
						<path class="st6" d="M109.6,108.9h-0.2c-4.8-0.1-6.3-6.1-6.3-6.1l-0.1-0.2l8.1-2.8l5.3,2.8v0.2
							C115.9,105.8,113.7,108.9,109.6,108.9z M103.7,102.9c0.3,1.1,1.9,5.4,5.7,5.5h0.2c4.7,0,6-4.2,6.3-5.4l-4.8-2.5L103.7,102.9z"
							/>
						<path class="st3" d="M116.2,102.7c0,0,1.5,5.8,6,5.9s6.3-3.7,6.8-5.9l-5-2.7L116.2,102.7z"/>
						<path class="st6" d="M122.4,108.9L122.4,108.9c-4.8-0.1-6.4-6.1-6.4-6.1l-0.1-0.2l8.2-2.8l5.3,2.8v0.2
							C128.7,105.8,126.6,108.9,122.4,108.9z M116.5,102.9c0.3,1.1,1.9,5.4,5.7,5.5h0.1c4.7,0,6-4.2,6.3-5.4l-4.8-2.5L116.5,102.9z"
							/>
						<path class="st3" d="M129,102.7c0,0,1.5,5.8,6.1,5.9c4.6,0.1,6.3-3.7,6.8-5.9l-5-2.7L129,102.7z"/>
						<path class="st6" d="M135.2,108.9H135c-4.8-0.1-6.3-6.1-6.3-6.1l-0.1-0.2l8.1-2.8l5.3,2.8v0.2
							C141.5,105.8,139.4,108.9,135.2,108.9z M129.4,102.9c0.3,1.1,1.9,5.4,5.7,5.5h0.2c4.7,0,6-4.2,6.3-5.4l-4.8-2.5L129.4,102.9z"
							/>
						<path class="st3" d="M45.7,98.4c0,0,1.5,5.8,6.1,5.9s6.3-3.7,6.8-5.9l-5-2.7L45.7,98.4z"/>
						<path class="st6" d="M51.9,104.6h-0.2c-4.8-0.1-6.3-6.1-6.3-6.1l-0.1-0.3l8.1-2.8l5.3,2.8v0.2C58.2,101.5,56,104.6,51.9,104.6
							z M46,98.6c0.3,1.1,1.9,5.4,5.7,5.5c4.8,0.1,6.1-4.2,6.5-5.4l-4.8-2.5L46,98.6z"/>
						<path class="st3" d="M58.5,98.4c0,0,1.5,5.8,6.1,5.9s6.3-3.7,6.8-5.9l-5-2.7L58.5,98.4z"/>
						<path class="st6" d="M64.7,104.6h-0.2c-4.8-0.1-6.3-6.1-6.3-6.1l-0.1-0.2l8.1-2.8l5.3,2.8v0.2C71,101.5,68.9,104.6,64.7,104.6
							z M58.8,98.6c0.3,1.1,1.9,5.4,5.7,5.5h0.2c4.7,0,6-4.2,6.3-5.4l-4.7-2.6L58.8,98.6z"/>
						<path class="st3" d="M71.3,98.4c0,0,1.5,5.8,6,5.9s6.3-3.7,6.8-5.9l-5-2.7L71.3,98.4z"/>
						<path class="st6" d="M77.5,104.6h-0.2c-4.7-0.1-6.3-6.1-6.3-6.1l-0.1-0.2l8.1-2.8l5.3,2.8v0.2
							C83.8,101.5,81.7,104.6,77.5,104.6z M71.7,98.6c0.3,1.1,1.9,5.4,5.7,5.5c4.8,0.1,6.1-4.2,6.4-5.4l-4.7-2.5L71.7,98.6z"/>
						<path class="st3" d="M84.1,98.4c0,0,1.5,5.8,6.1,5.9c4.6,0.1,6.3-3.7,6.8-5.9l-5-2.7L84.1,98.4z"/>
						<path class="st6" d="M90.3,104.6h-0.2c-4.8-0.1-6.3-6.1-6.3-6.1l-0.1-0.2l8.1-2.8l5.4,2.8v0.2
							C96.6,101.5,94.5,104.6,90.3,104.6z M84.5,98.6c0.3,1.1,1.9,5.4,5.7,5.5c4.8,0.1,6.1-4.2,6.5-5.4l-4.8-2.6L84.5,98.6z"/>
						<path class="st3" d="M97,98.4c0,0,1.5,5.8,6,5.9s6.3-3.7,6.8-5.9l-5-2.7L97,98.4z"/>
						<path class="st6" d="M103.2,104.6H103c-4.8-0.1-6.3-6.1-6.3-6.1l-0.1-0.2l8.1-2.8l5.3,2.8v0.2
							C109.5,101.5,107.3,104.6,103.2,104.6z M97.3,98.6c0.3,1.1,1.9,5.4,5.7,5.5c4.8,0.1,6.1-4.2,6.4-5.4l-4.8-2.5L97.3,98.6z"/>
						<path class="st3" d="M109.8,98.4c0,0,1.5,5.8,6.1,5.9s6.3-3.7,6.8-5.9l-5-2.7L109.8,98.4z"/>
						<path class="st6" d="M116,104.6h-0.2c-4.8-0.1-6.3-6.1-6.3-6.1l-0.1-0.2l8.1-2.8l5.3,2.8v0.2
							C122.3,101.5,120.2,104.6,116,104.6z M110.1,98.6c0.3,1.1,1.9,5.4,5.7,5.5c4.8,0.1,6.2-4.2,6.4-5.4l-4.8-2.5L110.1,98.6z"/>
						<path class="st3" d="M122.6,98.4c0,0,1.5,5.8,6.1,5.9c4.6,0.1,6.3-3.7,6.8-5.9l-5.1-2.7L122.6,98.4z"/>
						<path class="st6" d="M128.8,104.6h-0.2c-4.8-0.1-6.3-6.1-6.3-6.1v-0.2l8.1-2.8l5.3,2.8v0.2C135.1,101.5,133,104.6,128.8,104.6
							z M123,98.6c0.3,1.1,1.9,5.4,5.7,5.5h0.2c4.7,0,6-4.2,6.3-5.4l-4.8-2.5L123,98.6z"/>
						<path class="st3" d="M135.5,98.4c0,0,1.5,5.8,6,5.9s6.3-3.7,6.8-5.9l-5-2.7L135.5,98.4z"/>
						<path class="st6" d="M141.6,104.6h-0.2c-4.7-0.1-6.3-6.1-6.3-6.1l-0.1-0.2l8.2-2.8l5.3,2.8v0.2
							C147.9,101.5,145.8,104.6,141.6,104.6z M135.8,98.6c0.3,1.1,1.9,5.4,5.7,5.5h0.1c4.7,0,6-4.2,6.3-5.4l-4.7-2.5L135.8,98.6z"/>
					</g>
				</g>
			</g>
		</g>
		<rect x="39.9" y="117.9" class="st7" width="106.5" height="3.3"/>
		<rect x="43.6" y="159.2" class="st8" width="102.2" height="5.2"/>
		<rect x="47.6" y="121.1" class="st8" width="2.9" height="37.3"/>
		<path class="st8" d="M45.5,121.1h7.2c0.2,0,0.4,0.2,0.4,0.4v1.5c0,0.2-0.2,0.4-0.4,0.4h-7.2c-0.2,0-0.4-0.2-0.4-0.4v-1.5
			C45.1,121.3,45.3,121.1,45.5,121.1z"/>
		<path class="st8" d="M45.5,156.9h7.2c0.2,0,0.4,0.2,0.4,0.4v1.5c0,0.2-0.2,0.4-0.4,0.4h-7.2c-0.2,0-0.4-0.2-0.4-0.4v-1.5
			C45.1,157.1,45.3,156.9,45.5,156.9z"/>
		<rect x="64.8" y="121.1" class="st8" width="2.9" height="37.3"/>
		<path class="st8" d="M62.7,121.1h7.2c0.2,0,0.4,0.2,0.4,0.4v1.5c0,0.2-0.2,0.4-0.4,0.4h-7.2c-0.2,0-0.4-0.2-0.4-0.4v-1.5
			C62.3,121.3,62.5,121.1,62.7,121.1z"/>
		<path class="st8" d="M62.7,156.9h7.2c0.2,0,0.4,0.2,0.4,0.4v1.5c0,0.2-0.2,0.4-0.4,0.4h-7.2c-0.2,0-0.4-0.2-0.4-0.4v-1.5
			C62.3,157.1,62.5,156.9,62.7,156.9z"/>
		<rect x="50.5" y="141.5" class="st8" width="15.2" height="2.1"/>
		<rect x="53.7" y="143.2" class="st8" width="2.1" height="17.2"/>
		<rect x="59.4" y="143.2" class="st8" width="2.1" height="17.2"/>
		<rect x="120.1" y="121.1" class="st8" width="2.9" height="37.3"/>
		<path class="st8" d="M118,121.1h7.2c0.2,0,0.4,0.2,0.4,0.4v1.5c0,0.2-0.2,0.4-0.4,0.4H118c-0.2,0-0.4-0.2-0.4-0.4v-1.5
			C117.6,121.3,117.8,121.1,118,121.1z"/>
		<path class="st8" d="M118,156.9h7.2c0.2,0,0.4,0.2,0.4,0.4v1.5c0,0.2-0.2,0.4-0.4,0.4H118c-0.2,0-0.4-0.2-0.4-0.4v-1.5
			C117.6,157.1,117.8,156.9,118,156.9z"/>
		<rect x="137.3" y="121.1" class="st8" width="2.9" height="37.3"/>
		<path class="st8" d="M135.2,121.1h7.2c0.2,0,0.4,0.2,0.4,0.4v1.5c0,0.2-0.2,0.4-0.4,0.4h-7.2c-0.2,0-0.4-0.2-0.4-0.4v-1.5
			C134.8,121.3,135,121.1,135.2,121.1z"/>
		<path class="st8" d="M135.2,156.9h7.2c0.2,0,0.4,0.2,0.4,0.4v1.5c0,0.2-0.2,0.4-0.4,0.4h-7.2c-0.2,0-0.4-0.2-0.4-0.4v-1.5
			C134.8,157.1,135,156.9,135.2,156.9z"/>
		<rect x="123" y="141.5" class="st8" width="15.2" height="2.1"/>
		<rect x="126.3" y="143.2" class="st8" width="2.2" height="17.2"/>
		<rect x="131.9" y="143.2" class="st8" width="2.2" height="17.2"/>
		<rect x="81.6" y="126.1" class="st9" width="23.2" height="33.1"/>
		<rect x="83.4" y="128.7" class="st10" width="19.2" height="28.2"/>
		<rect x="48.6" y="43" class="st2" width="9.7" height="5.1"/>
		<rect x="53.5" y="50.3" class="st2" width="9.7" height="5.1"/>
		<rect x="127.1" y="85.6" class="st2" width="9.7" height="5.1"/>
		<rect x="95.2" y="53.4" class="st2" width="9.7" height="5.1"/>
		<path class="st11" d="M90.2,136C90.2,136,90.1,136,90.2,136c-0.1,0-0.1-0.1-0.1-0.1l0,0l2.3-2.2h0.1v0.1L90.2,136L90.2,136z"/>
		<path class="st11" d="M94.1,136.8C94.1,136.8,94,136.8,94.1,136.8c-0.1,0-0.1-0.1-0.1-0.1l2.3-2.3h0.1v0.1l0,0L94.1,136.8
			L94.1,136.8z"/>
		<path class="st11" d="M92.8,155.1L92.8,155.1c-0.1,0-0.1-0.1-0.1-0.1l2.3-2.2h0.1v0.1L92.8,155.1
			C92.9,155.1,92.9,155.1,92.8,155.1z"/>
		<path class="st11" d="M89.2,139.3C89.2,139.3,89.1,139.3,89.2,139.3c-0.1,0-0.1-0.1-0.1-0.1l0,0l7.9-7.9c0,0,0.1-0.1,0.1,0
			s0.1,0.1,0,0.1l0,0L89.2,139.3C89.3,139.3,89.2,139.4,89.2,139.3z"/>
		<path class="st0" d="M40.8,165.4c-2-0.5-3.5-2.2-3.7-4.3c0-0.3,0-0.7,0.2-1c0.4-0.7,1.1-1.1,1.9-1c0.7,0.1,1.5,0.3,2.1,0.7
			c-1.6-2.1-2.8-4.9-1.8-7.3c0.2-0.7,0.8-1.2,1.5-1.3c0.7,0,1.3,0.7,1.7,1.3c1,1.6,1.9,3.3,2.7,5c0.3-1.8,0.9-3.8,2.4-4.8
			c0.2-0.2,0.5-0.2,0.8-0.2c0.3,0.1,0.5,0.2,0.7,0.4c1.4,1.3,1.2,3.5,1,5.4c0.6-1.2,2-1.7,3.2-1.2c0,0,0,0,0.1,0
			c1.2,0.7,2,1.8,2.1,3.1c0.2,1,0.1,2.1-0.3,3.1c-0.5,0.9-1.5,2.1-2.6,2"/>
		<rect x="107.4" y="25.8" class="st12" width="13" height="17.5"/>
		<path class="st13" d="M121.5,45.1h-15.3c-0.5,0-0.9-0.4-0.9-0.9l0,0c0-0.5,0.4-0.9,0.9-0.9l0,0h15.4c0.5,0,0.9,0.4,0.9,0.9l0,0
			l0,0C122.4,44.7,122,45.1,121.5,45.1L121.5,45.1z"/>
		<path class="st8" d="M121.5,44.9h-15.3c-0.5,0-0.9-0.4-0.9-0.9l0,0c0-0.5,0.4-0.9,0.9-0.9h15.3c0.5,0,0.9,0.4,0.9,0.9l0,0l0,0
			C122.4,44.5,122,44.9,121.5,44.9L121.5,44.9z"/>
		<path class="st14" d="M111.1,35.5C111,35.5,111,35.5,111.1,35.5C111,35.5,111,35.4,111.1,35.5L111.1,35.5l2.1-2.2h0.1l0,0v0.1l0,0
			L111.1,35.5L111.1,35.5z"/>
		<path class="st14" d="M112.4,37.8L112.4,37.8C112.3,37.8,112.3,37.7,112.4,37.8L112.4,37.8l2.1-2.2h0.1v0.1l0,0L112.4,37.8
			L112.4,37.8z"/>
		<path class="st14" d="M114.6,29.4C114.5,29.4,114.5,29.4,114.6,29.4c-0.1,0-0.1-0.1-0.1-0.1l0,0l2.2-2.1h0.1l0,0v0.1l0,0
			L114.6,29.4L114.6,29.4z"/>
		<path class="st14" d="M110.1,37.7C110,37.7,110,37.7,110.1,37.7C110,37.7,110,37.6,110.1,37.7L110.1,37.7l6.7-6.2h0.1l0,0v0.1l0,0
			L110.1,37.7L110.1,37.7z"/>
		<rect x="113.5" y="25.8" class="st15" width="0.7" height="18.1"/>
		<rect x="107.4" y="31.6" class="st15" width="13" height="0.7"/>
		<rect x="107.4" y="38.6" class="st15" width="13" height="0.7"/>
		<polygon class="st2" points="105.7,44.9 121.3,48 121.3,44.9 		"/>
		<rect x="66.1" y="25.8" class="st12" width="13" height="17.5"/>
		<path class="st13" d="M80.3,45.1H65c-0.5,0-0.9-0.4-0.9-0.9l0,0l0,0c0-0.5,0.4-0.9,0.9-0.9l0,0h15.3c0.5,0,0.9,0.4,0.9,0.9l0,0
			l0,0C81.2,44.7,80.8,45.1,80.3,45.1z"/>
		<path class="st8" d="M80.3,44.9H65c-0.5,0-0.9-0.4-0.9-0.9l0,0l0,0c0-0.5,0.4-0.9,0.9-0.9l0,0h15.3c0.5,0,0.9,0.4,0.9,0.9l0,0
			C81.2,44.5,80.8,44.9,80.3,44.9L80.3,44.9z"/>
		<path class="st14" d="M69.8,35.5L69.8,35.5C69.7,35.5,69.7,35.4,69.8,35.5l2.1-2.2H72l0,0v0.1l0,0L69.8,35.5
			C69.9,35.5,69.9,35.5,69.8,35.5z"/>
		<path class="st14" d="M71.2,37.8C71.2,37.8,71.1,37.8,71.2,37.8C71.1,37.8,71.1,37.7,71.2,37.8l2.1-2.2h0.1v0.1l0,0L71.2,37.8
			L71.2,37.8z"/>
		<path class="st14" d="M73.3,29.4C73.3,29.4,73.3,29.3,73.3,29.4c0-0.2,0-0.2,0-0.2l2.2-2.1h0.1l0,0v0.1L73.3,29.4L73.3,29.4z"/>
		<path class="st14" d="M68.8,37.7L68.8,37.7C68.7,37.7,68.7,37.6,68.8,37.7L68.8,37.7l6.7-6.2h0.1v0.1L68.8,37.7
			C68.9,37.7,68.9,37.7,68.8,37.7z"/>
		<rect x="72.3" y="25.8" class="st15" width="0.7" height="18.1"/>
		<rect x="66.1" y="31.6" class="st15" width="13" height="0.7"/>
		<rect x="66.1" y="38.6" class="st15" width="13" height="0.7"/>
		<polygon class="st2" points="65,44.9 80.6,48 80.6,44.9 		"/>
		<rect x="107.4" y="51.3" class="st12" width="13" height="17.5"/>
		<path class="st13" d="M121.5,70.6h-15.3c-0.5,0-0.9-0.4-0.9-0.9l0,0c0-0.5,0.4-0.9,0.9-0.9l0,0h15.4c0.5,0,0.9,0.4,0.9,0.9l0,0
			l0,0C122.4,70.2,122,70.6,121.5,70.6L121.5,70.6z"/>
		<path class="st8" d="M121.5,70.4h-15.3c-0.5,0-0.9-0.4-0.9-0.9l0,0l0,0c0-0.5,0.4-0.9,0.9-0.9h15.4c0.5,0,0.9,0.4,0.9,0.9l0,0l0,0
			C122.4,70,122,70.4,121.5,70.4L121.5,70.4z"/>
		<path class="st14" d="M111.1,61C111,61.1,111,61.1,111.1,61C111,61,111,60.9,111.1,61L111.1,61l2.1-2.2h0.1v0.1l0,0L111.1,61
			L111.1,61z"/>
		<path class="st14" d="M112.4,63.3L112.4,63.3C112.3,63.3,112.3,63.2,112.4,63.3L112.4,63.3l2.1-2.2h0.1v0.1l0,0L112.4,63.3
			L112.4,63.3z"/>
		<path class="st14" d="M114.6,54.9C114.5,54.9,114.5,54.9,114.6,54.9C114.5,54.9,114.5,54.8,114.6,54.9L114.6,54.9l2.1-2.2h0.1l0,0
			v0.1l0,0L114.6,54.9L114.6,54.9z"/>
		<path class="st14" d="M110.1,63.2C110,63.2,110,63.2,110.1,63.2C110,63.2,110,63.1,110.1,63.2L110.1,63.2l6.7-6.2h0.1v0.1
			L110.1,63.2L110.1,63.2z"/>
		<rect x="113.5" y="51.3" class="st15" width="0.7" height="18.1"/>
		<rect x="107.4" y="57.1" class="st15" width="13" height="0.7"/>
		<rect x="107.4" y="64.2" class="st15" width="13" height="0.7"/>
		<polygon class="st16" points="106.4,70.7 122,73.8 122,70.7 		"/>
		<rect x="66.1" y="51.3" class="st12" width="13" height="17.5"/>
		<path class="st13" d="M80.3,70.6H65c-0.5,0-0.9-0.4-0.9-0.9l0,0l0,0c0-0.5,0.4-0.9,0.9-0.9l0,0h15.3c0.5,0,0.9,0.4,0.9,0.9l0,0
			l0,0C81.2,70.2,80.8,70.6,80.3,70.6z"/>
		<path class="st8" d="M80.3,70.4H65c-0.5,0-0.9-0.4-0.9-0.9l0,0l0,0c0-0.5,0.4-0.9,0.9-0.9l0,0h15.3c0.5,0,0.9,0.4,0.9,0.9l0,0
			C81.2,70,80.8,70.4,80.3,70.4L80.3,70.4z"/>
		<path class="st14" d="M69.8,61C69.8,61.1,69.8,61.1,69.8,61C69.7,61,69.7,60.9,69.8,61l2.1-2.2H72v0.1l0,0L69.8,61L69.8,61z"/>
		<path class="st14" d="M71.2,63.3C71.2,63.3,71.1,63.3,71.2,63.3C71.1,63.3,71.1,63.2,71.2,63.3l2.1-2.2h0.1v0.1L71.2,63.3
			C71.3,63.3,71.2,63.4,71.2,63.3z"/>
		<path class="st14" d="M73.3,54.9C73.3,54.9,73.3,54.8,73.3,54.9c0-0.1,0-0.2,0-0.2l2.2-2.1h0.1l0,0v0.1L73.3,54.9L73.3,54.9z"/>
		<path class="st14" d="M68.8,63.2L68.8,63.2C68.7,63.2,68.7,63.1,68.8,63.2L68.8,63.2l6.7-6.2h0.1l0,0v0.1l0,0L68.8,63.2
			C68.9,63.2,68.9,63.2,68.8,63.2z"/>
		<rect x="72.3" y="51.3" class="st15" width="0.7" height="18.1"/>
		<rect x="66.1" y="57.1" class="st15" width="13" height="0.7"/>
		<rect x="66.1" y="64.2" class="st15" width="13" height="0.7"/>
		<polygon class="st16" points="64.8,70.7 80.4,73.8 80.4,70.7 		"/>
		<rect x="66.1" y="76.9" class="st12" width="13" height="17.5"/>
		<path class="st13" d="M80.3,96.3H65c-0.5,0-0.9-0.4-0.9-0.9l0,0l0,0c0-0.5,0.4-0.9,0.9-0.9l0,0h15.3c0.5,0,0.9,0.4,0.9,0.9l0,0
			l0,0C81.2,95.9,80.8,96.3,80.3,96.3L80.3,96.3z"/>
		<path class="st8" d="M80.3,96.1H65c-0.5,0-0.9-0.4-0.9-0.9l0,0l0,0c0-0.5,0.4-0.9,0.9-0.9l0,0h15.3c0.5,0,0.9,0.4,0.9,0.9l0,0l0,0
			C81.2,95.7,80.8,96.1,80.3,96.1z"/>
		<path class="st14" d="M69.8,86.7C69.8,86.7,69.7,86.7,69.8,86.7c-0.1-0.1-0.1-0.1-0.1-0.2l2.2-2.1H72l0,0v0.1l0,0L69.8,86.7
			C69.9,86.7,69.9,86.7,69.8,86.7z"/>
		<path class="st14" d="M71.2,89C71.2,89,71.1,89,71.2,89C71.1,89,71.1,88.9,71.2,89l2.1-2.2h0.1l0,0v0.1L71.2,89L71.2,89z"/>
		<path class="st14" d="M73.3,80.6L73.3,80.6C73.2,80.6,73.2,80.5,73.3,80.6l2.1-2.2h0.1v0.1l0,0L73.3,80.6
			C73.4,80.6,73.4,80.6,73.3,80.6z"/>
		<path class="st14" d="M68.8,88.9L68.8,88.9C68.7,88.9,68.7,88.8,68.8,88.9L68.8,88.9l6.7-6.2h0.1v0.1L68.8,88.9L68.8,88.9z"/>
		<rect x="72.3" y="76.9" class="st15" width="0.7" height="18.1"/>
		<rect x="66.1" y="82.8" class="st15" width="13" height="0.7"/>
		<rect x="66.1" y="89.8" class="st15" width="13" height="0.7"/>
		<polygon class="st2" points="65,96.1 80.6,99.2 80.6,96.1 		"/>
		<rect x="107.4" y="76.9" class="st12" width="13" height="17.5"/>
		<path class="st13" d="M121.5,96.3h-15.3c-0.5,0-0.9-0.4-0.9-0.9l0,0l0,0c0-0.5,0.4-0.9,0.9-0.9l0,0h15.4c0.5,0,0.9,0.4,0.9,0.9
			l0,0l0,0C122.4,95.9,122,96.3,121.5,96.3L121.5,96.3z"/>
		<path class="st8" d="M121.5,96.1h-15.3c-0.5,0-0.9-0.4-0.9-0.9l0,0c0-0.5,0.4-0.9,0.9-0.9l0,0h15.4c0.5,0,0.9,0.4,0.9,0.9l0,0l0,0
			C122.4,95.7,122,96.1,121.5,96.1L121.5,96.1z"/>
		<path class="st14" d="M111.1,86.7C111,86.7,111,86.7,111.1,86.7C111,86.7,111,86.6,111.1,86.7L111.1,86.7l2.1-2.2h0.1l0,0v0.1l0,0
			L111.1,86.7L111.1,86.7z"/>
		<path class="st14" d="M112.4,89L112.4,89L112.4,89L112.4,89l2.1-2.2h0.1l0,0v0.1l0,0L112.4,89C112.5,89,112.4,89,112.4,89z"/>
		<path class="st14" d="M114.6,80.6C114.5,80.6,114.5,80.6,114.6,80.6C114.5,80.6,114.5,80.5,114.6,80.6L114.6,80.6l2.1-2.2h0.1v0.1
			l0,0L114.6,80.6L114.6,80.6z"/>
		<path class="st14" d="M110.1,88.9C110,88.9,110,88.9,110.1,88.9C110,88.9,110,88.8,110.1,88.9L110.1,88.9l6.7-6.2h0.1l0,0v0.1l0,0
			L110.1,88.9L110.1,88.9z"/>
		<rect x="113.5" y="76.9" class="st15" width="0.7" height="18.1"/>
		<rect x="107.4" y="82.8" class="st15" width="13" height="0.7"/>
		<rect x="107.4" y="89.8" class="st15" width="13" height="0.7"/>
		<polygon class="st2" points="106.1,96.1 121.7,99.2 121.7,96.1 		"/>
		<path class="st17" d="M34.7,164.1l-4.4,3.8h60.1c2.2-1.3,4.4-2.6,6.6-3.9H34.7V164.1z"/>
		<path class="st0" d="M159,167.9l-5.3-3.9H97c-2.2,1.3-4.4,2.6-6.6,3.9H159z"/>
		<path class="st9" d="M143.7,119.6c-0.1,14.8-0.5,29.6-1.3,44.4c1.3,0.1,2.5-0.2,3.6-1c-2.4-16.4-2.1-33.1,0.9-49.4"/>
		<path class="st9" d="M143.7,119.6c-1.2,6.9-0.3,14.3-0.6,21.3c-0.3,7.7-0.8,15.4-1.2,23.1c0,0.3,0.3,0.6,0.6,0.6
			c1.4,0,2.7-0.4,3.9-1.1c0.2-0.1,0.3-0.3,0.3-0.5c-0.9-8.2-1.3-16.5-1.2-24.8c0.1-3.8,0.3-7.6,0.6-11.4c0.4-4.4,1.6-8.9,1.4-13.2
			c0-0.5-0.7-0.8-1-0.3c-2.7,6.2-2.6,14.5-2.9,21.1c-0.4,7.7-0.1,15.5,1,23.1c0.1,0.8,1.7,5.8-1.4,4.6c-0.3-0.1,0.2-5,0.2-5.8
			c0.2-4.5,0.3-9,0.3-13.5C143.7,135.3,145,127.1,143.7,119.6L143.7,119.6z"/>
		<path class="st9" d="M144.5,134c3.1-2.9,5.4-6.6,6.6-10.7c0-0.3,0.2-0.5,0.4-0.7c0.4-0.2,0.8,0,1,0.4c0,0,0,0,0,0.1
			c0.1,0.4,0.1,0.9-0.1,1.3c-1.3,4.6-3.9,8.7-7.3,12"/>
		<path class="st9" d="M138.4,119.6c-0.4,5,1.8,9.9,5.8,13.1c0.7,0.5,1.6-0.4,0.9-0.9c-3.6-3-5.7-7.4-5.9-12.1
			c0-0.2-0.2-0.4-0.4-0.4C138.6,119.2,138.4,119.4,138.4,119.6z"/>
		<path class="st18" d="M165.2,111.5c2.7-6.5-3-15.3-9.8-11.3c-0.2-0.3-0.5-0.7-0.7-1c-0.9-1.3-2-2.4-3.2-3.3
			c-1.7-1.3-3.8-2.2-6-2.4c-3.7-0.4-7.3,1.3-9.4,4.3c-2.5-1.1-5.3,0-6.4,2.5c0,0.1-0.1,0.2-0.1,0.3c-0.4,1-0.5,2.1-0.4,3.1
			c-2.4,1.8-2.9,5.3-1.1,7.7c0.4,0.6,1,1.1,1.6,1.4c-2.1,3.4-1,7.8,2.4,9.9c2.2,1.4,5.1,1.4,7.4,0.1c0.8,3.5,3.7,6,7.2,6.2
			c2.3,0.2,4.6-0.7,6.1-2.5c0.6-0.9,1.1-1.9,1.5-2.9l0.4,0.3C162,129.3,171.8,117.2,165.2,111.5z"/>
	</g>
</g>
<g>
	<path class="st19" d="M74.1,78.9c-0.1-0.3-2.7-0.8-3-0.9c-2.7-0.7-5.5-1.1-8.3-1.2c-8-0.5-14.2,1.5-21.5,4.7
		c-6.6,3-17.6,5.6-36.5,0.8L0,95.5c-0.1,0.3,23.9,7.8,40,2.5c3.7-1.2,8.2-2.7,11.8-4.2c2.6-1.1,5.3-1.9,8.1-2.5
		c5.6-1.2,11.3-1.2,16.9,0.2L74.1,78.9z"/>
	<rect x="30.4" y="84.5" transform="matrix(0.9802 -0.198 0.198 0.9802 -16.6964 7.8893)" class="st20" width="1.4" height="5.9"/>
	<rect x="14.2" y="86.8" transform="matrix(0.1336 -0.991 0.991 0.1336 -71.8682 92.8781)" class="st20" width="6" height="1.4"/>
	<path class="st19" d="M43.6,40.7c0,0-0.9,4.4,3.6,5.5c7.4,1.2,14.8,2.4,22.1,3.3c15.4,1.9,31,3.1,46.4,2.8c5.3-0.1,10.7-0.4,16-1
		c2.5-0.3,4.9-0.6,7.4-1.1c1.9-0.4,4.7-2,3.9-4.1c3.5,0.8,3.5,3.9,3.4,6.9c-0.1,1.9-0.2,3.9-0.5,5.8c-0.3,1.7-0.1,4.3-1,5.8
		c-1.1,1.9-5.6,2.8-7.6,3.1c-2.4,0.3-4.9,0.6-7.4,0.9c-4.9,0.5-9.9,0.8-14.9,0.9c-11.8,0.5-23.6,0.2-35.4-0.8
		c-7.1-0.6-14.2-1.5-21.2-2.6c-3.7-0.6-7.5-1.3-11.2-2.1c-2.4-0.5-3.6-0.6-6.1-1.7c-2.6-1.1-2.7-1.2-3.3-4.6
		c-0.6-4-0.8-7.1,0.4-11.2C38.9,44.1,39.6,41.9,43.6,40.7z"/>
	<path class="st19" d="M43.6,68.6c-0.1,3.1,0.1,3.9,3,5c0,0,65.1,5.9,96.9-5.7c0,0,2.9,7.4,0.7,18c-8.5,2.4-22.4,4.7-31.2,5.8
		c-11.2,1.3-22.5,1.9-33.8,1.9c-6.8-0.1-13.6-0.4-20.4-1c-5.9-0.6-10.8-1.2-14-5.8c-0.8-1.2-1.4-2.2-1.9-3.5c-1-2.5-1.5-3.7-1.9-4.9
		c-0.3-0.9-0.4-1.8-0.5-2.8C40.6,73.8,41.8,69.4,43.6,68.6z"/>
	
		<rect x="45.9" y="49.9" transform="matrix(0.1551 -0.9879 0.9879 0.1551 -7.9354 91.9106)" class="st20" width="7.8" height="1.4"/>
	<rect x="62" y="52.3" transform="matrix(0.1509 -0.9885 0.9885 0.1509 3.647 110.246)" class="st20" width="7.9" height="1.4"/>
	<rect x="78.1" y="54.1" transform="matrix(0.116 -0.9932 0.9932 0.116 18.1191 129.8918)" class="st20" width="7.8" height="1.4"/>
	
		<rect x="94.4" y="55.3" transform="matrix(6.191844e-02 -0.9981 0.9981 6.191844e-02 36.4714 150.7041)" class="st20" width="8" height="1.4"/>
	
		<rect x="113.4" y="52.3" transform="matrix(0.9953 -9.723176e-02 9.723176e-02 0.9953 -4.9273 11.3614)" class="st20" width="1.4" height="7.8"/>
	
		<rect x="129.4" y="51.4" transform="matrix(1 -9.773222e-03 9.773222e-03 1 -0.5336 1.2745)" class="st20" width="1.4" height="7.7"/>
	
		<rect x="49.1" y="73.8" transform="matrix(0.9964 -8.504534e-02 8.504534e-02 0.9964 -6.4082 4.513)" class="st20" width="1.4" height="7.4"/>
	
		<rect x="64.2" y="74.7" transform="matrix(0.9995 -3.174560e-02 3.174560e-02 0.9995 -2.4561 2.0996)" class="st20" width="1.4" height="7.4"/>
	
		<rect x="81.1" y="75" transform="matrix(0.9967 -8.146754e-02 8.146754e-02 0.9967 -6.1153 6.9218)" class="st20" width="1.4" height="6.8"/>
	
		<rect x="98.1" y="74.8" transform="matrix(0.9933 -0.1155 0.1155 0.9933 -8.3939 11.9386)" class="st20" width="1.4" height="7.3"/>
	
		<rect x="114.8" y="73.6" transform="matrix(0.9965 -8.402263e-02 8.402263e-02 0.9965 -6.1008 9.978)" class="st20" width="1.4" height="7.8"/>
	
		<rect x="129.4" y="71.8" transform="matrix(0.9905 -0.1376 0.1376 0.9905 -9.1678 18.6262)" class="st20" width="1.4" height="7.6"/>
</g>
</svg>
