<?xml version="1.0" encoding="utf-8"?>
<!-- Generator: Adobe Illustrator 23.1.1, SVG Export Plug-In . SVG Version: 6.00 Build 0)  -->
<svg version="1.1" id="Calque_1" xmlns="http://www.w3.org/2000/svg" xmlns:xlink="http://www.w3.org/1999/xlink" x="0px" y="0px"
	 viewBox="0 0 24 24" style="enable-background:new 0 0 24 24;" xml:space="preserve">
<path style="fill:#F0A68E;" class="st0" d="M19,4H5C3.3,4,2,5.3,2,7v10c0,1.7,1.3,3,3,3h14c1.7,0,3-1.3,3-3V7C22,5.3,20.7,4,19,4z M18.6,6l-5.9,5.9
	c-0.4,0.4-1,0.4-1.4,0c0,0,0,0,0,0L5.4,6H18.6z M20,17c0,0.6-0.4,1-1,1H5c-0.6,0-1-0.4-1-1V7.4l5.9,5.9c1.2,1.2,3.1,1.2,4.2,0
	L20,7.4V17z"/>
</svg>
