<?xml version="1.0" encoding="utf-8"?>
<!-- Generator: Adobe Illustrator 23.1.1, SVG Export Plug-In . SVG Version: 6.00 Build 0)  -->
<svg version="1.1" id="Calque_1" xmlns="http://www.w3.org/2000/svg" xmlns:xlink="http://www.w3.org/1999/xlink" x="0px" y="0px"
	 viewBox="0 0 24 24" style="enable-background:new 0 0 24 24;" xml:space="preserve">
<path style="fill:#F0A68E;" class="st0" d="M19.4,13c-0.2,0-0.5-0.1-0.7-0.1c-0.4-0.1-0.9-0.2-1.3-0.4c-1-0.3-2,0.1-2.5,1l-0.2,0.4c-1-0.5-1.9-1.2-2.7-2
	c-0.8-0.8-1.5-1.7-2-2.7L10.5,9c0.9-0.4,1.3-1.5,1-2.5c-0.2-0.4-0.3-0.9-0.4-1.3C11.1,5,11,4.8,11,4.5C10.8,3.1,9.5,2,8,2H5
	C3.4,2,2,3.4,2,5c0,0.1,0,0.3,0,0.4c1.1,8.6,7.9,15.4,16.5,16.5h0.4c0.7,0,1.4-0.3,2-0.8c0.6-0.6,1-1.4,1-2.2v-3
	C21.9,14.5,20.9,13.3,19.4,13z M19.9,19c0,0.3-0.1,0.6-0.3,0.8c-0.2,0.2-0.5,0.3-0.8,0.2C11.1,19,5,12.9,4.1,5.2
	c0-0.3,0.1-0.6,0.2-0.8c0.2-0.2,0.5-0.3,0.8-0.3h3c0.5,0,0.9,0.3,1,0.8c0,0.3,0.1,0.5,0.1,0.8c0.1,0.5,0.3,1,0.5,1.5L8.3,7.9
	C7.8,8.1,7.6,8.7,7.8,9.2c0,0,0,0,0,0c1.4,3.1,3.9,5.6,7,7c0.2,0.1,0.5,0.1,0.8,0c0.3-0.1,0.5-0.3,0.6-0.5l0.6-1.4
	c0.5,0.2,1,0.3,1.6,0.5c0.3,0.1,0.5,0.1,0.8,0.1c0.5,0.1,0.8,0.5,0.8,1L19.9,19z"/>
</svg>
