<?xml version="1.0" encoding="utf-8"?>
<svg version="1.1" xmlns="http://www.w3.org/2000/svg" xmlns:xlink="http://www.w3.org/1999/xlink" x="0px" y="0px"
	 viewBox="0 0 208.1 112.9" style="enable-background:new 0 0 208.1 112.9;" xml:space="preserve">
<g transform="translate(1)">
	<g transform="translate(9.32 14.343)">
		<g>
			<rect style="fill: white;" x="175" y="90.7" width="6" height="2"/>
		</g>
		<g>
			<rect style="fill: white;" x="-1" y="90.7" width="6" height="2"/>
		</g>
		<g>
			<rect style="fill: white;" x="88.2" y="-3.8" width="2" height="6"/>
		</g>
	</g>
	<g>
		<g>
			<path style="fill: #43425D;" d="M1.1,107.3c-0.6,0-1.2-0.3-1.5-0.9S-1,105-1,103.9s0.2-1.9,0.5-2.5c0.4-0.6,0.9-0.8,1.5-0.8
				c0.6,0,1.1,0.3,1.5,0.8c0.4,0.6,0.5,1.4,0.5,2.5s-0.2,1.9-0.5,2.5C2.2,107,1.7,107.3,1.1,107.3z M1.1,106.6
				c0.2,0,0.4-0.1,0.5-0.2c0.1-0.1,0.3-0.3,0.4-0.5c0.1-0.2,0.2-0.5,0.3-0.8s0.1-0.7,0.1-1.2s0-0.9-0.1-1.2
				c-0.1-0.3-0.1-0.6-0.3-0.8c-0.1-0.2-0.2-0.4-0.4-0.5c-0.1-0.1-0.3-0.1-0.5-0.1c-0.2,0-0.4,0-0.5,0.1c-0.2,0.1-0.3,0.3-0.4,0.5
				s-0.2,0.5-0.3,0.8c-0.1,0.3-0.1,0.7-0.1,1.2c0,0.9,0.1,1.6,0.3,2C0.4,106.4,0.7,106.6,1.1,106.6z"/>
		</g>
		<g>
			<path style="fill: #43425D;" d="M193.4,107.2v-0.7h1.5v-4.7h-1.2v-0.5c0.3-0.1,0.5-0.1,0.8-0.2c0.2-0.1,0.4-0.2,0.6-0.3h0.6v5.7h1.3v0.7
				H193.4z"/>
			<path style="fill: #43425D;" d="M200,107.3c-0.6,0-1.2-0.3-1.5-0.9c-0.4-0.6-0.5-1.4-0.5-2.5s0.2-1.9,0.5-2.5c0.4-0.6,0.9-0.8,1.5-0.8
				c0.6,0,1.1,0.3,1.5,0.8c0.4,0.6,0.5,1.4,0.5,2.5s-0.2,1.9-0.5,2.5S200.7,107.3,200,107.3z M200,106.6c0.2,0,0.4-0.1,0.5-0.2
				c0.2-0.1,0.3-0.3,0.4-0.5c0.1-0.2,0.2-0.5,0.3-0.8c0.1-0.3,0.1-0.7,0.1-1.2s0-0.9-0.1-1.2c-0.1-0.3-0.1-0.6-0.3-0.8
				c-0.1-0.2-0.2-0.4-0.4-0.5c-0.1-0.1-0.3-0.1-0.5-0.1s-0.4,0-0.5,0.1c-0.2,0.1-0.3,0.3-0.4,0.5c-0.1,0.2-0.2,0.5-0.3,0.8
				c-0.1,0.3-0.1,0.7-0.1,1.2c0,0.9,0.1,1.6,0.3,2C199.4,106.4,199.7,106.6,200,106.6z"/>
			<path style="fill: #43425D;" d="M205,107.3c-0.6,0-1.2-0.3-1.5-0.9c-0.4-0.6-0.5-1.4-0.5-2.5s0.2-1.9,0.5-2.5c0.4-0.6,0.9-0.8,1.5-0.8
				c0.6,0,1.1,0.3,1.5,0.8c0.4,0.6,0.5,1.4,0.5,2.5s-0.2,1.9-0.5,2.5C206.2,107,205.7,107.3,205,107.3z M205,106.6
				c0.2,0,0.4-0.1,0.5-0.2c0.1-0.1,0.3-0.3,0.4-0.5s0.2-0.5,0.3-0.8c0.1-0.3,0.1-0.7,0.1-1.2s0-0.9-0.1-1.2
				c-0.1-0.3-0.1-0.6-0.3-0.8s-0.2-0.4-0.4-0.5c-0.2-0.1-0.3-0.1-0.5-0.1c-0.2,0-0.4,0-0.5,0.1c-0.2,0.1-0.3,0.3-0.4,0.5
				c-0.1,0.2-0.2,0.5-0.3,0.8c-0.1,0.3-0.1,0.7-0.1,1.2c0,0.9,0.1,1.6,0.3,2C204.3,106.4,204.6,106.6,205,106.6z"/>
		</g>
		<g>
			<path style="fill: #43425D;" d="M95.2,7.3c-0.3,0-0.5,0-0.8-0.1c-0.2-0.1-0.4-0.1-0.6-0.2s-0.4-0.2-0.5-0.3c-0.2-0.1-0.3-0.2-0.4-0.4
				l0.4-0.6c0.2,0.2,0.4,0.4,0.7,0.6c0.3,0.2,0.6,0.2,1,0.2c0.2,0,0.4,0,0.6-0.1s0.4-0.2,0.5-0.3c0.1-0.1,0.2-0.3,0.3-0.5
				c0.1-0.2,0.1-0.4,0.1-0.7c0-0.5-0.1-0.9-0.4-1.1c-0.3-0.3-0.6-0.4-1.1-0.4c-0.2,0-0.4,0-0.6,0.1c-0.2,0.1-0.4,0.2-0.6,0.3
				l-0.5-0.3l0.2-3.4h3.5v0.8h-2.7L94.3,3c0.2-0.1,0.3-0.2,0.5-0.2c0.2-0.1,0.4-0.1,0.6-0.1c0.3,0,0.6,0,0.8,0.1
				c0.3,0.1,0.5,0.2,0.7,0.4c0.2,0.2,0.4,0.4,0.5,0.7s0.2,0.6,0.2,1c0,0.4-0.1,0.7-0.2,1c-0.1,0.3-0.3,0.5-0.5,0.7
				C96.6,6.9,96.3,7,96,7.1S95.5,7.3,95.2,7.3z"/>
			<path style="fill: #43425D;" d="M100.8,7.3c-0.7,0-1.3-0.3-1.7-0.9c-0.4-0.6-0.6-1.5-0.6-2.7s0.2-2.1,0.6-2.7c0.4-0.6,0.9-0.9,1.7-0.9
				c0.7,0,1.3,0.3,1.7,0.9c0.4,0.6,0.6,1.5,0.6,2.7s-0.2,2.1-0.6,2.7C102,7,101.5,7.3,100.8,7.3z M100.8,6.6c0.2,0,0.4-0.1,0.6-0.2
				c0.2-0.1,0.3-0.3,0.4-0.5c0.1-0.2,0.2-0.5,0.3-0.9c0.1-0.4,0.1-0.8,0.1-1.3c0-0.5,0-1-0.1-1.3c-0.1-0.4-0.2-0.7-0.3-0.9
				c-0.1-0.2-0.3-0.4-0.4-0.5c-0.2-0.1-0.4-0.2-0.6-0.2c-0.2,0-0.4,0.1-0.6,0.2c-0.2,0.1-0.3,0.3-0.4,0.5c-0.1,0.2-0.2,0.5-0.3,0.9
				c-0.1,0.4-0.1,0.8-0.1,1.3c0,1,0.1,1.8,0.4,2.2C100,6.3,100.4,6.6,100.8,6.6z"/>
		</g>
	</g>
	<path style="fill: white;" d="M172.8,112.9c-6,0-10.9-4.9-10.9-10.9v0c0-34.5-28-62.5-62.5-62.6c-34.5,0-62.5,28-62.6,62.5
		c0,0,0,0,0,0c0,6-4.9,10.9-10.9,10.9c-6,0-10.9-4.9-10.9-10.9c-0.2-46.6,37.5-84.4,84-84.6s84.4,37.5,84.6,84c0,0.2,0,0.4,0,0.6
		C183.6,108,178.8,112.9,172.8,112.9z"/>
	<path style="fill: #7986CB;" d="M142,56.3c-25.2-23.6-64.8-22.3-88.3,3C42.8,70.9,36.8,86.2,36.8,102c0,6-4.9,10.9-10.9,10.9
		c-6,0-10.9-4.9-10.9-10.9c0-46.6,37.8-84.3,84.3-84.3c22.4,0,43.8,8.9,59.6,24.7c3.4,3.5,6.5,7.2,9.4,11.1c2,2.9,1.4,11.2-3.6,14
		c-4.9,2.8-11.1,1.8-14.7-2.5C147.6,61.9,144.9,59,142,56.3z"/>
</g>
</svg>
