<?xml version="1.0" encoding="utf-8"?>
<!-- Generator: Adobe Illustrator 23.1.1, SVG Export Plug-In . SVG Version: 6.00 Build 0)  -->
<svg version="1.1" id="Calque_1" xmlns="http://www.w3.org/2000/svg" xmlns:xlink="http://www.w3.org/1999/xlink" x="0px" y="0px"
	 viewBox="0 0 24 24" style="enable-background:new 0 0 24 24;" xml:space="preserve">
<path class="st0" style="fill:#F0A68E;" d="M21,4.4l0.7-0.7c0.4-0.4,0.4-1,0-1.4s-1-0.4-1.4,0l-1.4,1.4l0,0l-2.8,2.8l0,0l-6.3,6.3
	c-2.3-1.5-5.4-0.9-6.9,1.4s-0.9,5.4,1.4,6.9s5.4,0.9,6.9-1.4c1.1-1.7,1.1-3.8,0-5.5l5.6-5.6l2.1,2.1c0.4,0.4,1,0.4,1.4,0
	c0.4-0.4,0.4-1,0-1.4l0,0l-2.1-2.1l1.4-1.4l0.7,0.7c0.4,0.4,1,0.4,1.4,0c0.4-0.4,0.4-1,0-1.4L21,4.4z M7,20c-1.7,0-3-1.3-3-3
	s1.3-3,3-3s3,1.3,3,3S8.7,20,7,20z"/>
</svg>
