<?xml version="1.0" encoding="utf-8"?>
<!-- Generator: Adobe Illustrator 23.0.3, SVG Export Plug-In . SVG Version: 6.00 Build 0)  -->
<svg version="1.1" id="Calque_1" xmlns="http://www.w3.org/2000/svg" xmlns:xlink="http://www.w3.org/1999/xlink" x="0px" y="0px"
	 viewBox="0 0 181 112.4" style="enable-background:new 0 0 181 112.4;" xml:space="preserve">
<style type="text/css">
	.st0{fill:#D4E7E8;}
	.st1{fill:#E8DCC5;}
	.st2{fill:#3F3C49;}
	.st3{fill:#B0C264;}
	.st4{fill:#DACFCA;}
	.st5{opacity:0.4;}
	.st6{fill:#221D1B;}
	.st7{fill:#EDE9EA;}
	.st8{fill:#362C25;}
	.st9{opacity:0.15;}
	.st10{fill:#B1C264;}
	.st11{fill:none;stroke:#3F3C49;stroke-width:2.7108;stroke-linecap:round;stroke-miterlimit:10;}
	.st12{fill:#010101;}
	.st13{fill:#8ACDCA;}
	.st14{opacity:5.000000e-02;}
	.st15{fill:#1E1E1C;}
	.st16{opacity:0.36;}
	.st17{fill:#FFFFFF;}
	.st18{fill-rule:evenodd;clip-rule:evenodd;fill:#EB7C20;}
	.st19{fill:#EA5D05;}
	.st20{fill-rule:evenodd;clip-rule:evenodd;fill:#EA5D05;}
	.st21{fill-rule:evenodd;clip-rule:evenodd;fill:#F9B123;}
	.st22{fill-rule:evenodd;clip-rule:evenodd;fill:#FCC556;}
	.st23{fill-rule:evenodd;clip-rule:evenodd;fill:#976C45;}
	.st24{fill-rule:evenodd;clip-rule:evenodd;fill:#754D29;}
	.st25{fill-rule:evenodd;clip-rule:evenodd;fill:#58872F;}
	.st26{fill-rule:evenodd;clip-rule:evenodd;fill:#82BA34;}
</style>
<g>
	<g>
		<path class="st0" d="M38.7,72.3c-2.8-28.8,17.5-40.6,44.1-45.1c34.7-5.8,42.3,8.9,68.9,11.8c25.8,2.9,43.7,32.3,13.5,52.7
			S43.4,121.5,38.7,72.3z"/>
	</g>
	<g>
		<g>
			<g>
				<g>
					<path class="st1" d="M96.5,44.9C96.4,44.7,96.6,45,96.5,44.9L96.5,44.9z"/>
				</g>
			</g>
		</g>
		<g>
			<g id="Layer0_1_FILL_138_">
				<g>
					<g>
						<path class="st2" d="M0,34c1.6,26.8,12.1,49.4,31.7,67.9c-0.9-2.6-1.6-6.3-1.9-11.1c-0.3-8.1,0.1-15.8,1.1-23.2
							c0.9-6.5,2.3-12.7,4.2-18.6c-1.4-9.1-3.4-15.9-6-20.3C15.9,23.5,6.2,25.3,0,34"/>
					</g>
				</g>
			</g>
		</g>
		<g>
			<g>
				<path class="st3" d="M86.9,49.9 M47.6,37.6l-5.1,2.5c-2.3,4.2-3.5,5.3-7.3,12.5c-2.7,5.2-3.4,11.4-4.3,17.5
					c-1,6.9-1.4,14.2-1.1,21.8c0.3,4.5,1,8,1.9,10.4c0.6,1.6,1.4,2.7,2.3,3.4c3.8,1.9,7.7,3.1,12,3.3c3,0.1,6.4,0.3,10.1,0.4l10.5,0
					c2.4,0,4.8-0.1,7.2-0.1c2.5-0.1,5-0.2,7.4-0.3c4.3-0.3,7.9-1.2,10.8-2.5c3.2-1.4,5.5-3.4,6.9-6c2-11.4-8.1-38.8-14.6-54.2"/>
			</g>
		</g>
		<g>
			<g id="Layer0_1_1_STROKES_138_">
				<g>
					<path class="st4" d="M22.9,85.1C22.9,85.1,22.9,85.1,22.9,85.1c-0.4-0.1-0.6-0.3-0.6-0.7l2.1-13.2l-8-4.1
						c-0.3-0.1-0.4-0.5-0.2-0.8c0.1-0.3,0.5-0.4,0.8-0.2l7.7,3.9L26.5,59c0-0.3,0.3-0.5,0.7-0.5c0.3,0,0.5,0.3,0.5,0.7l-1.8,11.4
						l3.5,1.8c0.3,0.1,0.4,0.5,0.3,0.8s-0.5,0.4-0.8,0.3l-3.2-1.6l-2.1,12.9C23.5,84.9,23.2,85.1,22.9,85.1z M12.9,56.4
						c-0.1,0-0.2,0-0.3-0.1c-0.3-0.2-0.4-0.5-0.2-0.8l5.4-8.9L6.5,42c-0.3-0.1-0.4-0.5-0.3-0.7c0.1-0.3,0.5-0.4,0.7-0.3l11.6,4.8
						l5.5-9c0.2-0.3,0.5-0.4,0.8-0.2c0.3,0.2,0.4,0.5,0.2,0.8l-5.4,8.8l8.6,3.6c0.3,0.1,0.4,0.5,0.3,0.7c-0.1,0.3-0.5,0.4-0.7,0.3
						l-8.8-3.6l-5.5,9C13.3,56.3,13.1,56.4,12.9,56.4z"/>
				</g>
			</g>
		</g>
		<g class="st5">
			<g>
				<path class="st6" d="M32.8,37.6c0.9,3.2,1.7,7,2.3,11.3c-1.9,5.9-3.3,12.1-4.2,18.6c-1,7.4-1.4,15.1-1.1,23.2
					c0.3,4.8,1,8.5,1.9,11.1c-1.6-1.5-3.1-3-4.6-4.6C18.2,75.4,19.9,52.5,32.8,37.6z"/>
			</g>
		</g>
		<g>
			<g>
				
					<ellipse transform="matrix(0.9911 -0.133 0.133 0.9911 -9.5975 11.0939)" class="st7" cx="78.2" cy="77.4" rx="13.8" ry="21.5"/>
			</g>
		</g>
		<g>
			<g>
				<g>
					<path class="st2" d="M87.1,55c0,0,7.2-3.4,9.6-3.3c1.2,0.9,3.3,4.2,3.3,4.2l-8.9,8.5C91.1,64.4,90,58.4,87.1,55z"/>
				</g>
			</g>
			<g>
				<g>
					<path class="st8" d="M95.4,54.1c-0.2,0-0.3-0.1-0.4-0.2c-0.2-0.2-0.2-0.6,0.1-0.8l2.5-2c0.2-0.2,0.6-0.2,0.8,0.1
						s0.2,0.6-0.1,0.8l-2.5,2C95.6,54.1,95.5,54.1,95.4,54.1z"/>
				</g>
			</g>
			<g>
				<g>
					<path class="st8" d="M97.5,55.8c-0.2,0-0.3-0.1-0.4-0.2c-0.2-0.2-0.2-0.6,0.1-0.8l2.8-2.4c0.2-0.2,0.6-0.2,0.8,0.1
						c0.2,0.2,0.2,0.6-0.1,0.8l-2.8,2.4C97.7,55.8,97.6,55.8,97.5,55.8z"/>
				</g>
			</g>
		</g>
		<g>
			<g>
				<path class="st2" d="M63,69.9l8.6,7.6c0,0,4-1.2,5.2-2c0.4-2.1-4.5-10.2-4.5-10.2S70.9,68.5,63,69.9z"/>
			</g>
		</g>
		<g>
			<g>
				<path class="st8" d="M76.8,77.1c-0.2,0-0.3-0.1-0.5-0.2l-1.9-2.5c-0.2-0.3-0.1-0.6,0.1-0.8c0.2-0.2,0.6-0.1,0.8,0.1l1.9,2.5
					c0.2,0.3,0.1,0.6-0.1,0.8C77,77,76.9,77.1,76.8,77.1z"/>
			</g>
		</g>
		<g>
			<g>
				<path class="st8" d="M74.9,78.9c-0.2,0-0.3-0.1-0.4-0.2l-2.3-2.9c-0.2-0.2-0.2-0.6,0.1-0.8c0.2-0.2,0.6-0.2,0.8,0.1l2.3,2.9
					c0.2,0.2,0.2,0.6-0.1,0.8C75.2,78.9,75,78.9,74.9,78.9z"/>
			</g>
		</g>
		<g class="st9">
			<g>
				<path class="st6" d="M40.8,28.9C40.8,28.8,40.8,28.8,40.8,28.9c0.3-0.1,0.5-0.2,0.7-0.3L40.8,27c1.6-5.3,4.6-9.4,9.1-12.1
					c0,0,0.1,0,0.1-0.1"/>
			</g>
		</g>
		<g>
			<g>
				<path class="st2" d="M63.1,105.3l-4.6,0.4c-1.2,1-2,2.3-2.5,3.7c-0.1,0.3-0.2,0.6-0.2,0.9l10.9,0c-0.1-0.3-0.1-0.6-0.2-0.9
					C66,107,64.9,105.7,63.1,105.3"/>
			</g>
		</g>
		<g>
			<g>
				<path class="st2" d="M110.2,105.3c-6-0.3-12.1,0-18.3,0.9c-2.9,1.4-6.5,2.3-10.8,2.6c-2.4,0.1-4.9,0.2-7.4,0.3l0,0.9l38.5,0"/>
			</g>
		</g>
		<g>
			<g>
				<path class="st10" d="M52.2,43.3"/>
			</g>
		</g>
		<g>
			<g>
				<path class="st11" d="M52.2,43.3"/>
			</g>
		</g>
		<g>
			<g>
				<path class="st10" d="M41.7,39.5c0,0-1.5-0.7-2.2-7.5c-0.7-5.9-5.1-5.4-7-7.6c-2.3-2.6-1.4-4.6,3.5-4.4c2.2,0.1,4.2-4.9,4.7-6.2
					c1.5-3.5,6.9-8.5,6.9-8.5l3.8-2l9.2-1.8l8.9,1l9.7,1.7l5.4,2.9l4,13.1l0.1,14l-4.1,9l-1.7,4.4l-3.8-3.2"/>
			</g>
		</g>
		<g>
			<g>
				<path class="st2" d="M82.2,48.7c-0.3,0-0.5-0.1-0.7-0.2c-9.1-5.1-8.3-15.8-8.3-16.3c0.1-0.8,0.8-1.5,1.6-1.4
					c0.8,0.1,1.5,0.8,1.4,1.6c0,0.4-0.6,9.2,6.8,13.4c0.7,0.4,1,1.3,0.6,2.1C83.3,48.5,82.7,48.7,82.2,48.7z"/>
			</g>
		</g>
		<g>
			<g>
				<path class="st2" d="M35.3,28.1c-0.5,0-1.1-0.1-1.6-0.2c-1.8-0.5-3.3-2-4.1-4c-0.6-1.6-0.2-2.7,0.2-3.3c1.5-2.2,5.7-2.1,6.5-2.1
					c0.8,0,1.5,0.7,1.5,1.6c0,0.8-0.8,1.5-1.6,1.5c-1.7-0.1-3.6,0.3-3.9,0.8c0,0,0,0.2,0.1,0.4c0.6,1.5,1.5,2.1,2.2,2.3
					c0.7,0.2,1.4,0,1.6-0.1c0.7-0.5,1.6-0.3,2.1,0.4c0.5,0.7,0.3,1.6-0.4,2.1C37.2,27.8,36.3,28.1,35.3,28.1z"/>
			</g>
		</g>
		<g>
			<g>
				<g>
					<path class="st1" d="M77.3,44C77.3,43.8,77.3,44.1,77.3,44L77.3,44z"/>
				</g>
			</g>
			<g>
				<g>
					<path class="st1" d="M70.6,43.6c1.6-1.8,3.1-3,3.5-5.3c0.6,2.6,2,4.5,3.2,6c0,3-0.4,5.3-1,7.6c-0.1,0.2-0.1,0.5-0.2,0.7
						c0,0,0,0.1,0,0.1c0,0,0,0.1,0,0.2c-0.2,0.6-0.8,2.7-1,3.3l-3.7,0c-2.4-2.2-4.3-5-5.5-8.5C67.4,46.7,69,45.3,70.6,43.6z"/>
				</g>
			</g>
		</g>
		<g>
			<g id="Layer0_2_1_STROKES_153_">
				<g>
					<path class="st2" d="M75,56.6C75,56.6,75,56.6,75,56.6l-3.7-0.2c-0.1,0-0.3-0.1-0.4-0.1c-2.7-2.4-4.2-4.7-5.4-8
						c-0.1-0.3,0-0.6,0.3-0.7c0.3-0.1,0.6,0,0.7,0.3c1.1,3.1,2.5,5.2,4.9,7.4l3.1,0.1c0.2-0.5,0.4-1.4,0.6-2
						c0.1-0.5,0.2-0.8,0.3-1.1l0-0.1c0,0,0-0.1,0-0.1c0,0,0,0,0-0.1c0.1-0.2,0.1-0.4,0.2-0.7c0.6-2.3,1-4.3,1.1-7.2
						c0-0.3,0.2-0.5,0.6-0.5c0.3,0,0.6,0.3,0.5,0.6c0,3-0.5,5.1-1.1,7.5c-0.1,0.2-0.1,0.4-0.2,0.7c0,0.1,0,0.2-0.1,0.2l0,0.1
						c-0.1,0.2-0.2,0.6-0.3,1.1c-0.3,1.2-0.6,2.1-0.8,2.5C75.5,56.4,75.3,56.6,75,56.6z M73.5,52C73.5,52,73.5,52,73.5,52
						c-0.3,0-0.6-0.3-0.6-0.6l0.1-1.6c0.3-3.9,0.5-6.6,0.2-11.3c0-0.3,0.2-0.6,0.5-0.6c0.3,0,0.6,0.2,0.6,0.5
						c0.3,4.8,0.1,7.6-0.2,11.5l-0.1,1.6C74,51.8,73.8,52,73.5,52z"/>
				</g>
			</g>
		</g>
		<g>
			<g>
				<path class="st12" d="M67.3,8.4c0.1-0.3,0-0.6-0.2-0.9c-0.2-0.3-0.5-0.4-0.8-0.5c-0.2,0-0.3,0-0.5,0c-0.1,0-0.3,0.1-0.4,0.2
					c-0.3,0.2-0.4,0.5-0.5,0.8c0,0.2,0,0.3,0,0.5c0,0.2,0.1,0.3,0.2,0.4c0.2,0.3,0.5,0.4,0.8,0.5c0.3,0.1,0.6,0,0.9-0.2
					C67,9,67.2,8.8,67.3,8.4 M59.7,10.7c0.3,0.5,0.7,0.7,1.3,0.8c0.5,0.1,1,0,1.5-0.4c0.4-0.3,0.7-0.7,0.8-1.3c0-0.3,0-0.5,0-0.8
					c-0.1-0.3-0.2-0.5-0.3-0.7c-0.3-0.4-0.8-0.7-1.3-0.8c-0.3,0-0.5,0-0.8,0c-0.3,0.1-0.5,0.2-0.7,0.3c-0.5,0.3-0.7,0.8-0.8,1.3
					C59.2,9.8,59.3,10.3,59.7,10.7z"/>
			</g>
		</g>
		<g class="st9">
			<g>
				<path class="st6" d="M92.2,104.1c-3.8,2.7-20,2.9-29.2,2.7c-9.2-0.2-17.5-2.2-21.9-9.8s-0.6-41.4,1.6-47.9
					c2.2-6.5,9.5-6.4,8.7-7.6l-3.8-6.2l-0.5-0.1c-1.8-3.8-4-9.8-3.1-15.2c1.5-8.7,0.7-13,7-15.9s-2.2-0.3-2.2-0.3l-8,8.1l-2.6,9.5
					l1.4,10l3.1,6.4c-1.8,2.9-3.9,6-7.5,13.1c-2.5,5-3.4,11.7-4.3,18c-1,7.1-1.4,14.6-1.1,22.4c0.3,4.7,1,8.2,1.9,10.7
					c0.6,1.6,1.4,2.8,2.3,3.5c3.8,2,7.7,3.2,12,3.4c3,0.1,6.4,0.3,10.1,0.4l10.5,0c2.4,0,4.8-0.1,7.2-0.1c2.5-0.1,5-0.2,7.4-0.3
					c4.3-0.4,7.9-1.2,10.8-2.5c3.2-1.5,5.5-3.6,6.9-6.2c0.2-1.2,0.3-2.3,0.5-3.5C97.6,99.3,94.9,102.2,92.2,104.1z"/>
			</g>
		</g>
		<g>
			<g>
				<path class="st2" d="M82.2,48.7c-0.4,0-0.8-0.1-1.1-0.4c-0.6-0.6-0.6-1.6,0-2.2c8.6-8.8,6.6-22,5.7-25.8
					c-1.7-8-2.6-11.4-6.6-13.7c-8.8-3.4-21.3-5.2-29.6-1.7c-0.9,0.6-8.8,6.1-10.6,15.3c-1.3,6.5,0.6,13.4,5.7,20.5
					c0.5,0.7,0.3,1.6-0.4,2.1c-0.7,0.5-1.6,0.3-2.1-0.4c-5.6-7.9-7.7-15.6-6.2-22.9c2.2-11,11.7-17,12.1-17.3l0.2-0.1
					c9.1-3.9,22.7-2,32.1,1.6l0.2,0.1c5.4,3.1,6.4,7.9,8.1,15.8c3.6,16.7-4.1,26.1-6.5,28.6C83,48.6,82.6,48.7,82.2,48.7z"/>
			</g>
		</g>
		<g>
			<g>
				<path class="st2" d="M59.2,49.3c-2.9,0-8.4-1.6-12.4-12.5c-0.3-0.8,0.1-1.7,0.9-2s1.7,0.1,2,0.9C54.2,47.9,60,46.2,60.2,46.1
					l0.2,0c4.8-1,8.3-3.3,10.5-6.7c4.2-6.9,1.7-16.4,1.7-16.5c-0.2-0.8,0.3-1.6,1.1-1.9c0.8-0.2,1.6,0.3,1.9,1.1
					c0.1,0.4,2.9,10.8-2.1,18.9c-2.6,4.2-6.7,6.9-12.4,8.1C60.8,49.1,60.1,49.3,59.2,49.3z"/>
			</g>
		</g>
		<g>
			<g>
				<path class="st2" d="M56,110.9c-3.8-0.1-7.2-0.2-10.2-0.4c-4.4-0.3-8.7-1.5-12.6-3.5l-0.2-0.1c-1.2-0.8-2.1-2.2-2.8-4.1
					c-1-2.6-1.6-6.1-2-10.8c-0.3-7.7,0.1-15.1,1.1-22.1c0.1-0.7,0.2-1.4,0.3-2.1c0.8-5.4,1.6-11,4.1-15.8c2.3-4.4,3.6-6.5,4.9-8.5
					c0.8-1.3,1.5-2.4,2.4-4.1l2.7,1.5c-0.9,1.7-1.7,3-2.6,4.3c-1.2,1.9-2.5,4-4.7,8.2c-2.3,4.4-3,9.5-3.8,14.8
					c-0.1,0.7-0.2,1.4-0.3,2.1c-1,6.8-1.4,14-1.1,21.5c0.3,4.3,0.9,7.6,1.8,9.9c0.5,1.2,1,2.1,1.7,2.6c3.5,1.8,7.3,2.8,11.2,3.1
					c3,0.1,6.4,0.3,10.1,0.4l10.5,0c2.4,0,4.8-0.1,7.2-0.1c2.5-0.1,4.9-0.2,7.3-0.3c4.1-0.3,7.5-1.1,10.2-2.3c2.8-1.2,4.8-3,6.1-5.2
					c1.6-10-6.4-33.9-14.5-53l2.9-1.2c4,9.6,17,41.8,14.6,55l0,0.3l-0.1,0.2c-1.6,2.9-4.2,5.1-7.6,6.7c-3,1.4-6.8,2.2-11.3,2.6
					c-2.5,0.1-4.9,0.2-7.4,0.3c-2.4,0.1-4.8,0.1-7.2,0.1L56,110.9z"/>
			</g>
		</g>
		<g>
			<g id="Layer0_6_FILL_157_">
				<g>
					<g>
						<path class="st12" d="M78.4,18.6c-1.2,1.6-2.5,2.9-4.1,3.9c-4.5-1.4-7.7-4-9.4-7.5c4.5-2.1,8.6-2.6,12.2-1.7
							c1.2,0.3,2.4,0.8,3.5,1.4C80,16.1,79.2,17.4,78.4,18.6z"/>
					</g>
				</g>
			</g>
		</g>
	</g>
	<g>
		<g>
			<g>
				<g>
					<path class="st13" d="M150.5,71.2c-0.9,0.4-1.7-0.1-2-1c-0.4-1.2,0.6-2-0.3-3.3c0,0,2.1,0.9,2.8,2
						C151.6,69.9,151.2,70.8,150.5,71.2z"/>
				</g>
				<g class="st14">
					<path class="st15" d="M149.6,71.3c0.3,0,0.5,0,0.8-0.1c0.8-0.4,1.1-1.3,0.5-2.3c-0.2-0.4-0.7-0.8-1.2-1.1c0,0,1.2,1.3,0.8,2.4
						C150.2,71.1,149.6,71.3,149.6,71.3z"/>
				</g>
				<g class="st16">
					<path class="st17" d="M149,68.3c-0.1,0-0.2,0-0.2,0.4c0,0.3,0,0.5-0.1,0.7c-0.1,0.1,0.1,0.3,0.3,0.1c0.2-0.3,0.3-0.8,0.3-0.9
						C149.1,68.4,149.1,68.3,149,68.3z"/>
				</g>
				<g class="st16">
					<path class="st17" d="M149.1,69.8c0.1,0.1,0.2,0.1,0.3-0.1c0.1-0.1,0-0.2,0-0.3c-0.1-0.1-0.2,0-0.2,0.1
						C149,69.6,149,69.7,149.1,69.8z"/>
				</g>
			</g>
			<g>
				<g>
					<path class="st13" d="M152.2,80c-0.7,0.2-1.2-0.2-1.4-0.9c-0.2-0.9,0.6-1.4,0.1-2.4c0,0,1.5,0.8,1.8,1.7
						C153.1,79.2,152.8,79.8,152.2,80z"/>
				</g>
				<g class="st14">
					<path class="st15" d="M151.6,80.1c0.2,0.1,0.4,0.1,0.6,0c0.6-0.2,0.9-0.9,0.6-1.6c-0.1-0.3-0.4-0.6-0.7-0.9
						c0,0,0.7,1.1,0.3,1.8C152,80,151.6,80.1,151.6,80.1z"/>
				</g>
				<g class="st16">
					<path class="st17" d="M151.3,77.8c-0.1,0-0.2,0-0.2,0.2c0,0.2,0,0.4-0.2,0.5c-0.1,0.1,0,0.3,0.2,0.1c0.2-0.2,0.3-0.5,0.3-0.6
						C151.4,77.9,151.4,77.8,151.3,77.8z"/>
				</g>
				<g class="st16">
					<path class="st17" d="M151.3,78.9c0.1,0.1,0.2,0.1,0.2,0c0.1-0.1,0.1-0.2,0-0.2c-0.1-0.1-0.1,0-0.2,0
						C151.3,78.8,151.2,78.8,151.3,78.9z"/>
				</g>
			</g>
			<g>
				<g>
					<path class="st13" d="M144.9,79.4c1.2,0.2,2-0.8,2-2c0-1.6-1.5-2.1-1-4c0,0-2.2,1.9-2.5,3.5C143.1,78.2,143.9,79.2,144.9,79.4z
						"/>
				</g>
				<g class="st14">
					<path class="st15" d="M146,79.2c-0.3,0.2-0.6,0.2-1,0.2c-1.1-0.1-1.8-1.1-1.5-2.6c0.1-0.6,0.5-1.2,0.9-1.8c0,0-0.8,2,0.1,3.2
						C145.2,79.2,146,79.2,146,79.2z"/>
				</g>
				<g class="st16">
					<path class="st17" d="M145.5,75.3c0.1,0,0.3,0,0.4,0.3c0.1,0.4,0.2,0.6,0.4,0.8c0.2,0.1,0,0.4-0.3,0.2c-0.4-0.3-0.7-0.8-0.7-1
						C145.4,75.4,145.4,75.3,145.5,75.3z"/>
				</g>
				<g class="st16">
					<path class="st17" d="M146,77.1c-0.1,0.1-0.2,0.2-0.4,0.1c-0.1-0.1-0.2-0.3-0.1-0.4c0.1-0.1,0.2-0.1,0.3,0
						C146,76.8,146.1,77,146,77.1z"/>
				</g>
			</g>
		</g>
		<g>
			<g>
				<polygon class="st18" points="128,58.4 111.5,41.9 96.1,62.6 107.3,73.9 				"/>
			</g>
			<g>
				<path class="st19" d="M107.6,47.5c-1.3-1.4-3.3-2.7-5.2-3.1c-1.2-0.3-2.4-0.3-3.4,0.1c-1.1,0.4-2,1.3-2.6,2.8c-1,2.5-1,6.9,1,14
					c0.6-0.1,1.3-1,1.5-2.1c-1.4-5.7-1.4-9.2-0.6-11.2c0.4-0.9,0.9-1.4,1.5-1.7c0.6-0.3,1.4-0.2,2.2-0.1c1.7,0.4,3.4,1.6,4.4,2.8
					C107.1,49,107.5,48.5,107.6,47.5z"/>
			</g>
			<g>
				<path class="st20" d="M117.4,66.3c-3.1,0.5-5.8,2.9-6.9,5.1l31.3-3l-0.2-2.9L117.4,66.3"/>
			</g>
			<g>
				<path class="st18" d="M118.1,51.9c-4.5-4.5-7.5-9-6.5-10c0.9-0.9,5.4,2,10,6.5c4.5,4.5,7.5,9,6.5,10
					C127.1,59.4,122.6,56.4,118.1,51.9z"/>
			</g>
			<g>
				<path class="st18" d="M142.5,62c-1,0.1-3.7,2.7-3.4,5.6c0.3,2.9,3.2,4.9,4.5,4.8C144.3,72.3,143.6,61.9,142.5,62z"/>
			</g>
			<g>
				<path class="st20" d="M144.1,67.1c-0.3-2.9-1-5.1-1.6-5.1c-0.6,0.1-0.8,2.4-0.5,5.3c0.3,2.9,1,5.1,1.6,5.1
					C144.2,72.3,144.4,70,144.1,67.1z"/>
			</g>
			<g>
				
					<ellipse transform="matrix(0.7073 -0.7069 0.7069 0.7073 -0.4139 99.3615)" class="st20" cx="119.8" cy="50.2" rx="1.9" ry="11"/>
			</g>
			<g>
				<path class="st18" d="M121,48.5c-0.2-0.2-0.5-0.5-0.7-0.7l-1.5,4.3c4.3,4.2,8.3,6.9,9,6.1C128.6,57.4,125.6,53.1,121,48.5z"/>
			</g>
			<g>
				<path class="st18" d="M100.7,69.2c-3.1-3.1-5.2-6.1-4.6-6.6c0.5-0.5,3.5,1.5,6.6,4.6s5.2,6.1,4.6,6.6
					C106.8,74.4,103.8,72.3,100.7,69.2z"/>
			</g>
		</g>
	</g>
	<g>
		<g>
			<g>
				<path class="st21" d="M156.6,95.3c6,0,10.8-1,10.8-2.3c0-1.2-4.9-2.3-10.8-2.3c-6,0-10.8,1-10.8,2.3
					C145.8,94.3,150.7,95.3,156.6,95.3z"/>
			</g>
			<g>
				<g>
					<polygon class="st22" points="166.8,94.1 146.5,94.1 149.7,111.4 163.5,111.4 					"/>
				</g>
				<g>
					<path class="st22" d="M156.6,112.4c3.8,0,6.9-0.5,6.9-1.1c0-0.6-3.1-1.1-6.9-1.1s-6.9,0.5-6.9,1.1
						C149.7,112,152.8,112.4,156.6,112.4z"/>
				</g>
			</g>
			<g>
				<path class="st21" d="M167.5,93.1h-21.7l0.7,5.1c2.3,0.8,6,1.3,10.1,1.3c4.1,0,7.8-0.5,10.1-1.3L167.5,93.1z"/>
			</g>
			<g>
				<ellipse class="st21" cx="156.6" cy="98.1" rx="10.1" ry="1.8"/>
			</g>
			<g>
				<ellipse class="st23" cx="156.6" cy="93.1" rx="10.2" ry="1.8"/>
			</g>
		</g>
		<g>
			<g>
				<path class="st24" d="M157.2,93.7c0.5-4.7-3.7-6.6-1.6-13.4l0,0c-3.2,5.7,1.3,8.4,0.6,13.4H157.2z"/>
			</g>
			<g>
				<path class="st24" d="M155,84.6c-0.1-1.3-1.2-2.4-2.6-2.1c1.1,0.5,1.9,0.8,2,2.2c0,0.2,0.1,0.3,0.3,0.3
					C154.9,84.9,155,84.8,155,84.6z"/>
			</g>
			<g>
				<g>
					<path class="st25" d="M159.3,79.6c-0.5-0.1-1.1,0.5-1.2,0.8c-0.3,0.8-1.8,1.2-2.6,0.3l0,0C155.9,79.5,157.1,78.3,159.3,79.6z"
						/>
				</g>
				<g>
					<path class="st26" d="M159.3,79.6c-0.5-0.1-1.1,0.5-1.2,0.8c-0.4,1-1.9,1.1-2.6,0.3c0.4-0.4,1.6-1.1,2.7-1.2
						c-1-0.1-2.2,0.5-2.7,1.2C156.1,78.8,157.6,78.6,159.3,79.6z"/>
				</g>
			</g>
			<g>
				<g>
					<path class="st25" d="M148.5,83c0.4-0.3,1.2,0,1.5,0.3c0.7,0.6,2.2,0.4,2.6-0.8l0,0C151.8,81.5,150.1,80.8,148.5,83z"/>
				</g>
				<g>
					<path class="st26" d="M148.5,83c0.4-0.3,1.2,0,1.5,0.3c0.9,0.8,2.3,0.3,2.6-0.8c-0.6-0.2-2-0.3-3,0c0.9-0.5,2.3-0.5,3,0
						C151.2,80.9,149.7,81.4,148.5,83z"/>
				</g>
			</g>
			<g>
				<g>
					<path class="st25" d="M152.9,80.7c0.2-0.2,0.7-0.1,0.8,0.1c0.4,0.3,1.2,0.1,1.4-0.6l0,0C154.6,79.7,153.7,79.4,152.9,80.7z"/>
				</g>
				<g>
					<path class="st26" d="M152.9,80.7c0.2-0.2,0.7-0.1,0.8,0.1c0.5,0.4,1.3,0,1.4-0.6c-0.3-0.1-1.1-0.1-1.7,0.2
						c0.5-0.3,1.2-0.4,1.7-0.2C154.3,79.4,153.5,79.7,152.9,80.7z"/>
				</g>
			</g>
		</g>
		<g>
			<path class="st23" d="M157.8,94.4c0.8,0,1.4-0.5,1.4-1c0-0.6-0.6-1-1.4-1c-0.8,0-1.4,0.5-1.4,1C156.4,94,157,94.4,157.8,94.4z"/>
		</g>
		<g>
			<path class="st23" d="M155.3,94.5c0.8,0,1.4-0.5,1.4-1c0-0.6-0.6-1-1.4-1c-0.8,0-1.4,0.5-1.4,1C153.9,94.1,154.5,94.5,155.3,94.5
				z"/>
		</g>
	</g>
</g>
</svg>
