<?xml version="1.0" encoding="utf-8"?>
<!-- Generator: Adobe Illustrator 23.0.3, SVG Export Plug-In . SVG Version: 6.00 Build 0)  -->
<svg version="1.1" id="Calque_1" xmlns="http://www.w3.org/2000/svg" xmlns:xlink="http://www.w3.org/1999/xlink" x="0px" y="0px"
	 viewBox="0 0 423.5 180.2" enable-background="new 0 0 423.5 180.2" xml:space="preserve">
<g id="Groupe_3402" transform="translate(-99.19 -195.246)">
	<path id="Tracé_4996" fill="#EF9884" d="M379.8,296.4c5.6-7.7,17.4-15.4,17.4-15.4c-9,0.3-24.5,6.7-28.8,8.6
		c-10.4-4.7-24.1-7.6-41.8-7.3c-45,0.8-64.5,22.4-64.5,42.9c0,23.8,29.8,43.1,66.6,43.1s66.6-19.3,66.6-43.1
		C395.2,316,390.7,305,379.8,296.4z"/>
	<path id="Tracé_4997" fill="#EBE0E0" d="M309.3,195.2c-42.7,0-77.2,22.4-77.2,50c0,15.4,6.8,29.8,25.6,38.4
		c-1.4,2.2-7.6,8.2-16.9,13.7c0,0,16.7-4.7,20.8-6c2.5-0.9,4.8-2.2,6.8-3.9c9.9,2.8,22.1,4.4,37.2,4.4c48.3,0,81.1-19.1,81.1-46.7
		S352,195.2,309.3,195.2z"/>
	<g id="Groupe_3345" transform="translate(99.19 250.294)">
		<g id="Groupe_3344">
			<g id="Groupe_3343">
				<g id="Groupe_3320" transform="translate(0 20.506)">
					<g id="Layer0_1_FILL">
						<g id="Groupe_3319">
							<path id="Tracé_4998" fill="#2F2D39" d="M0,10c1.9,32.7,14.8,60.2,38.6,82.7c-1.1-3.1-1.9-7.6-2.3-13.5
								c-0.4-9.5,0.1-18.9,1.3-28.3c1.1-7.7,2.8-15.3,5.2-22.7c-1.7-11.1-4.1-19.3-7.3-24.8C19.4-2.8,7.6-0.6,0,10"/>
						</g>
					</g>
				</g>
				<g id="Groupe_3321" transform="translate(36.155 1.873)">
					<path id="Tracé_4999" fill="#ABB74E" d="M64.8,46.5c2.6-0.6,5.1-1.5,7.5-2.7c2.4-1.2,4.5-3.2,5.9-5.5c0.3,2.8,0.9,5.5,1.8,8.1
						c0.1,0.2,0.2,0.5,0.3,0.7c5.5-11.2,7.4-21.9,5.6-32.1c-0.2-1-0.4-1.9-0.6-2.8c-0.5-2-1.1-4-1.9-5.9C83.3,6,83.1,5.7,83,5.3
						c-22.7-5.9-40-6.9-51.8-3h0c0,0-0.1,0-0.1,0c-0.2,0.1-0.8,0.3-1.8,0.7c-1.1,0.4-2.1,0.8-3.1,1.4c-0.9,0.5-1.3,0.8-1.4,0.8
						c0,0,0,0-0.1,0c0,0-0.1,0-0.1,0.1c-5.4,3.3-9.4,8.6-11.1,14.8l0.8,1.9c-0.3,0.1-0.5,0.2-0.8,0.4c0,0-0.1,0-0.1,0
						c-3.7,1.8-5.1,3.7-4.2,5.6c0.6,0.9,2.1,0.9,4.7,0l-0.2,1.5C11,35.1,8.6,40.9,6.7,46.8c-2.4,7.4-4.1,15-5.2,22.7
						c-1.3,9.4-1.7,18.8-1.4,28.3c0.4,5.9,1.2,10.4,2.3,13.5c0.5,1.7,1.5,3.2,2.8,4.4c4.5,2.5,9.5,4,14.6,4.3
						c3.7,0.2,7.8,0.3,12.3,0.5l12.8,0c3,0,5.9-0.1,8.8-0.2c3.1-0.1,6-0.2,9-0.4c4.6-0.3,9-1.3,13.2-3.2c3.6-1.6,6.6-4.4,8.4-7.9
						c2.5-14.8-0.2-32.1-8.1-52.1c0-0.1-1.8-4.5-1.8-4.5c0,0.1,0.5,1.1,1.8,4.5"/>
				</g>
				<g id="Groupe_3322" transform="translate(7.075 26.658)">
					<g id="Layer0_1_1_STROKES">
						<path id="Tracé_5000" fill="#D2C4BE" d="M20.4,59.3c-0.4-0.1-0.6-0.4-0.6-0.8c0,0,0,0,0,0l2.6-16.1l-9.8-5
							c-0.3-0.2-0.5-0.6-0.3-0.9c0.2-0.3,0.6-0.5,0.9-0.3c0,0,0,0,0,0l9.4,4.8l2.2-13.5c0.1-0.4,0.4-0.6,0.8-0.6s0.6,0.4,0.6,0.8
							l-2.3,14l4.3,2.2c0.3,0.2,0.5,0.6,0.3,0.9C28.4,45,28,45.1,27.6,45c0,0,0,0,0,0l-3.9-2l-2.5,15.7c-0.1,0.3-0.3,0.6-0.7,0.6
							C20.5,59.3,20.4,59.3,20.4,59.3z M7.9,24.2c-0.3-0.2-0.4-0.6-0.2-1l6.6-10.8L0.4,6.7C0.1,6.5-0.1,6.1,0.1,5.8
							C0.2,5.4,0.6,5.3,1,5.4L15,11.3l6.7-10.9c0.2-0.3,0.6-0.4,1-0.2c0.3,0.2,0.4,0.6,0.2,0.9l-6.6,10.8l10.5,4.3
							c0.4,0.1,0.5,0.5,0.4,0.9s-0.5,0.5-0.9,0.4c0,0,0,0,0,0L15.6,13L8.9,24c-0.1,0.2-0.3,0.3-0.6,0.3C8.2,24.3,8,24.3,7.9,24.2z"
							/>
					</g>
				</g>
				<g id="Groupe_3323" transform="translate(26.249 34.965)" opacity="0.4">
					<path id="Tracé_5001" fill="#1A1716" d="M13.7,0c1.2,4.5,2.2,9.1,2.9,13.7c-2.4,7.4-4.1,15-5.2,22.7
						c-1.3,9.4-1.7,18.8-1.3,28.3c0.4,5.9,1.2,10.4,2.3,13.5c-1.9-1.8-3.8-3.7-5.6-5.6C-4.1,46-2,18.1,13.7,0z"/>
				</g>
				<g id="Groupe_3324" transform="translate(75.162 55.214)">
					
						<ellipse id="Ellipse_391" transform="matrix(0.9911 -0.133 0.133 0.9911 -3.5703 2.9357)" fill="#EBE5E5" cx="20.2" cy="28.2" rx="16.9" ry="26.2"/>
				</g>
				<g id="Groupe_3325" transform="translate(99.777 67.246)">
					<path id="Tracé_5002" fill="#2F2D39" d="M12.3,1.4c0,0-0.8,9.7-2.3,12.2c-1.6,0.7-6.4,1-6.4,1L0,0C0,0,7,2.4,12.3,1.4z"/>
				</g>
				<g id="Groupe_3326" transform="translate(107.956 77.578)">
					<path id="Tracé_5003" fill="#29211B" d="M1.3,5.2c0,0,0.1,0,0.1,0C1.8,5.2,2,4.8,2,4.4L1.4,0.6C1.3,0.2,1-0.1,0.6,0
						S-0.1,0.4,0,0.8l0.6,3.9C0.7,5,1,5.2,1.3,5.2z"/>
				</g>
				<g id="Groupe_3327" transform="translate(104.828 78.747)">
					<path id="Tracé_5004" fill="#29211B" d="M1.5,5.8c0,0,0.1,0,0.1,0C2,5.7,2.3,5.4,2.2,5c0,0,0,0,0,0L1.4,0.6
						C1.3,0.2,0.9-0.1,0.6,0C0.2,0.1-0.1,0.4,0,0.8l0.8,4.4C0.9,5.6,1.2,5.8,1.5,5.8z"/>
				</g>
				<g id="Groupe_3328" transform="translate(76.768 68.626)">
					<path id="Tracé_5005" fill="#2F2D39" d="M0,5.7l10.4,9.2c0,0,4.9-1.4,6.3-2.5C17.3,10,11.3,0,11.3,0S9.6,4,0,5.7z"/>
				</g>
				<g id="Groupe_3329" transform="translate(90.571 78.557)">
					<path id="Tracé_5006" fill="#29211B" d="M3,4.5c0.4,0,0.7-0.3,0.7-0.7c0-0.2,0-0.3-0.1-0.4L1.2,0.3C1,0,0.6-0.1,0.3,0.1
						C0,0.4-0.1,0.8,0.1,1.1l2.3,3.1C2.6,4.4,2.8,4.5,3,4.5z"/>
				</g>
				<g id="Groupe_3330" transform="translate(87.774 80.342)">
					<path id="Tracé_5007" fill="#29211B" d="M3.5,4.9c0.4,0,0.7-0.3,0.7-0.7c0-0.2-0.1-0.3-0.2-0.4L1.2,0.3C1,0,0.6-0.1,0.3,0.2
						C0,0.4-0.1,0.8,0.2,1.1L3,4.6C3.1,4.8,3.3,4.9,3.5,4.9z"/>
				</g>
				<g id="Groupe_3331" transform="translate(36.155 6.867)" opacity="0.15">
					<path id="Tracé_5008" fill="#1A1716" d="M2.4,106.3c-1.1-3.1-1.9-7.6-2.3-13.5c-0.4-9.5,0.1-18.9,1.4-28.3
						c1.1-7.7,2.8-15.3,5.2-22.7c1.9-5.9,4.3-11.7,7.1-17.2l0.2-1.5c-2.5,0.9-4.1,0.9-4.7,0c-0.9-1.9,0.5-3.8,4.2-5.6
						c0,0,0.1,0,0.1,0c0.2-0.1,0.5-0.2,0.8-0.4l-0.8-1.9c1.7-6.2,5.6-11.5,11.1-14.8c0,0,0.1-0.1,0.1-0.1c0,0,0.1,0,0.1,0
						c0,0,0.1-0.1,0.3-0.2c-1.9,1.7-3.5,3.8-4.6,6.1c-1,2.4-3.5,10.5-2.2,14.3s2.2,7.8,3.2,9.3s-3,1.7-5.7,9.9s-7.4,50.8-2,60.4
						c5.4,9.6,15.5,12.1,26.7,12.3s31,0,35.6-3.5c3.4-2.6,6.3-5.8,8.6-9.4c-0.1,1.5-0.3,3-0.6,4.4c-1.9,3.5-4.8,6.2-8.4,7.9
						c-4.2,1.9-8.6,2.9-13.2,3.2c-2.9,0.1-5.9,0.3-9,0.4c-2.9,0.1-5.8,0.1-8.8,0.2l-12.8,0c-4.5-0.1-8.7-0.3-12.3-0.5
						c-5.1-0.4-10.1-1.8-14.6-4.3C3.9,109.5,2.9,108,2.4,106.3z"/>
				</g>
				<g id="Groupe_3332" transform="translate(34.261)">
					<path id="Tracé_5009" fill="#2F2D39" d="M21.5,123.8c-5.4-0.4-10.6-1.9-15.4-4.6L5.9,119c-1.6-1.4-2.8-3.2-3.4-5.2
						c-1.2-3.3-2-7.9-2.4-14.1c-0.4-9.6,0.1-19.1,1.4-28.6c1.1-7.8,2.9-15.5,5.3-23c1.8-5.3,3.9-10.6,6.3-15.6
						c-1.3,0.2-2.6-0.4-3.4-1.5l-0.1-0.3c-0.9-2-0.9-4.9,4.3-7.7l-0.4-0.9l0.2-0.6c1.8-6.6,6-12.3,11.8-15.8c0.1,0,0.1-0.1,0.2-0.1
						l0,0c1.6-0.9,3.2-1.6,4.8-2.3c1-0.3,1.9-0.7,2-0.7c12.1-4,29.9-3,52.9,3l0.9,0.2l0.4,0.8c0.2,0.3,0.3,0.7,0.4,1
						c0.8,2,1.5,4,2,6.1c0.3,1,0.5,2,0.6,3c1.9,10.5-0.1,21.7-5.7,33.3c-0.5,0.9-1.6,1.3-2.5,0.8c-0.9-0.5-1.3-1.6-0.9-2.5
						c5.3-10.8,7.1-21.2,5.4-31c-0.1-0.9-0.3-1.8-0.6-2.8c-0.4-1.9-1-3.8-1.8-5.6l0,0C61.7,3.2,45,2.3,33.8,6c0,0-1,0.4-2,0.7
						c-0.9,0.3-3.6,1.7-4,1.9c-0.1,0.1-0.2,0.1-0.3,0.2c-4.9,2.9-8.5,7.6-10,13.1l1.2,3l-1.6,0.8c-0.2,0.1-0.4,0.2-0.5,0.3L16,26.1
						c-1,0.5-2.9,1.6-3,2.5c0.8-0.1,1.6-0.2,2.4-0.5l2.9-1L17.5,32l-0.1,0.3c-2.8,5.5-5.1,11.1-7,16.9C8,56.5,6.3,64,5.3,71.6
						C4,80.9,3.5,90.2,3.9,99.5c0.4,5.7,1.1,10,2.2,13c0.4,1.3,1.1,2.5,2,3.4c4.2,2.3,8.8,3.7,13.6,4c3.6,0.2,7.8,0.3,12.2,0.5
						l12.8,0c3,0,5.9-0.1,8.7-0.2c3-0.1,6-0.2,8.9-0.4c4.3-0.2,8.6-1.3,12.5-3c3.1-1.4,5.7-3.8,7.4-6.8c2.3-14.2-0.4-31.2-8-50.5
						c0-0.1-0.1-0.1-0.1-0.2c-1.2-2.9-1.6-4-1.8-4.5l0,0l0,0l0,0l3.5-1.4c1.3,3.3,1.7,4.2,1.8,4.5l0,0c8,20.2,10.8,38,8.2,53.1
						l-0.1,0.3l-0.1,0.3c-2,3.8-5.3,6.9-9.3,8.7c-4.4,2-9.1,3.1-13.9,3.4c-2.9,0.1-5.9,0.3-9,0.4c-2.9,0.1-5.8,0.1-8.8,0.2l-12.9,0
						C29.4,124.1,25.2,124,21.5,123.8z M64.8,48.8c-0.2-1,0.4-2,1.4-2.3c0,0,0,0,0,0c2.5-0.6,4.9-1.4,7.1-2.5
						c0.9-0.5,2.1-0.1,2.5,0.9c0.5,0.9,0.1,2.1-0.9,2.5c-2.5,1.2-5.2,2.2-7.9,2.8c-0.1,0-0.3,0-0.4,0C65.8,50.3,65,49.7,64.8,48.8
						L64.8,48.8z"/>
				</g>
				<g id="Groupe_3333" transform="translate(67.968 117.325)">
					<path id="Tracé_5010" fill="#2F2D39" d="M9,0.1L3.4,0.6C2,1.8,0.9,3.3,0.3,5C0.2,5.4,0.1,5.7,0,6.1l13.3,0
						c-0.1-0.4-0.1-0.7-0.2-1.1C12.5,2.2,11.1,0.6,9,0.1 M44,1.3c-4.2,1.9-8.6,2.9-13.2,3.2c-2.9,0.1-5.9,0.3-9,0.4v1.1l46.9,0
						c0-3.3-0.8-5.3-2.5-5.8C58.8-0.2,51.4,0.1,44,1.3L44,1.3z"/>
				</g>
				<path id="Tracé_5011" fill="#E06142" d="M112.6,53.5c0,0-3.9,1.9-7,3.1c-3.1,1.1-9.4,1.4-9.4,1.4l-1.2,5c0,0,7.8-0.2,14.5-0.6
					c6.5-0.4,5.6-1.6,5.6-1.6S115.1,55.9,112.6,53.5z"/>
				<g id="Groupe_3336" transform="translate(101.324 41.346)">
					<g id="Groupe_3334" transform="translate(14.597 7.386)">
						<path id="Tracé_5012" fill="#E5D4B8" d="M0,0.1C0.1-0.1,0,0.2,0,0.1z"/>
					</g>
					<g id="Groupe_3335">
						<path id="Tracé_5013" fill="#E5D4B8" d="M7.1,4.3c2.6-1.4,4.7-2,6.1-4.3c-0.2,2.7,0.2,5.4,1.3,7.9c-1,2.8-2.4,5.4-4.2,7.8
							c-0.2,0.2-0.3,0.5-0.5,0.7c0,0,0,0.1-0.1,0.1c0,0-0.1,0.1-0.1,0.2c-0.5,0.6-1,1.2-1.5,1.7H2.9C0.9,14.9,0,10.9,0,6.9
							C2.5,6.3,4.9,5.4,7.1,4.3z"/>
					</g>
				</g>
				<g id="Groupe_3337" transform="translate(100.63 41.059)">
					<g id="Layer0_2_1_STROKES">
						<path id="Tracé_5014" fill="#2F2D39" d="M3,19c-2-3.3-3-7.1-3-10.9c0-0.4,0.3-0.7,0.7-0.7c0,0,0,0,0,0l0,0
							c0.4,0,0.7,0.3,0.7,0.7c-0.1,3.5,0.8,6.9,2.6,9.9h4.5C9,17.5,9.4,17,9.8,16.5l0.1-0.1c0,0,0.1-0.1,0.1-0.1c0,0,0,0,0-0.1
							c0.2-0.2,0.3-0.4,0.5-0.6c1.7-2.3,3.1-4.8,4.1-7.5c0.1-0.4,0.5-0.5,0.9-0.4c0.4,0.1,0.5,0.5,0.4,0.9c-1.1,2.8-2.5,5.4-4.3,7.8
							c-0.2,0.2-0.3,0.4-0.5,0.6c0,0.1-0.1,0.2-0.2,0.2c0,0-0.1,0.1-0.1,0.1c-0.5,0.6-1,1.2-1.6,1.7c-0.1,0.1-0.3,0.2-0.5,0.2H3.6
							C3.3,19.3,3.1,19.2,3,19z M7.4,15.3c-0.3-0.2-0.4-0.6-0.2-1c0,0,0,0,0,0c2.9-4,4.8-8.8,5.4-13.7C12.7,0.2,13-0.1,13.4,0
							C13.8,0.1,14,0.4,14,0.8C13.4,6,11.4,10.9,8.4,15.1c-0.1,0.2-0.3,0.3-0.6,0.3C7.7,15.4,7.5,15.4,7.4,15.3L7.4,15.3z"/>
					</g>
				</g>
				<g id="Groupe_3338" transform="translate(82.762 15.482)">
					<path id="Tracé_5015" fill="#2F2D39" d="M13.4,34.8c1.9,0,3.1-0.1,3.2-0.1c6.7-0.7,11.8-3.3,15.3-8c7.3-9.7,4.6-24.5,4.5-25.1
						c-0.2-1-1.2-1.7-2.2-1.5s-1.7,1.2-1.5,2.2c0,0.1,2.5,13.8-3.8,22.2c-2.8,3.8-7.1,5.9-12.6,6.5c-4.7,0.3-9.3-0.1-13.9-1.1
						c-1-0.2-2,0.4-2.3,1.4c-0.2,1,0.4,2,1.3,2.3C5.3,34.4,9.3,34.8,13.4,34.8z"/>
				</g>
				<g id="Groupe_3340" transform="translate(105.345 7.142)">
					<g id="Layer0_6_FILL">
						<g id="Groupe_3339">
							<path id="Tracé_5016" fill="#050506" d="M16.8,7.6c-1,1.7-2.5,3.1-4.2,4.2C6.9,9.5,2.7,6.1,0,1.6C4.5-0.3,9.6-0.5,14.3,1
								c1.6,0.5,3.1,1.2,4.5,2.1C18.3,4.7,17.7,6.2,16.8,7.6z"/>
						</g>
					</g>
				</g>
				<g id="Groupe_3341" transform="translate(113.74 37.276)">
					<path id="Tracé_5017" fill="#2F2D39" d="M2.5,13.3c0.2,0,0.3,0,0.5-0.1c0.6-0.3,0.8-0.9,0.6-1.5c0,0,0,0,0,0
						C1.5,7.5,2.4,1.3,2.4,1.3C2.5,0.7,2.1,0.1,1.5,0C0.9-0.1,0.3,0.3,0.2,0.9c0,0.3-1,6.8,1.2,11.7C1.6,13.1,2,13.3,2.5,13.3z"/>
				</g>
				<g id="Groupe_3342" transform="translate(72.476 10.239)">
					<path id="Tracé_5018" fill="#050506" d="M9,1.4C9,0.6,8.3,0,7.6,0c0,0,0,0,0,0C7.4,0,7.2,0,7,0.1C6.9,0.2,6.7,0.3,6.6,0.4
						C6.3,0.7,6.2,1,6.2,1.4c0,0.2,0,0.4,0.1,0.5c0.1,0.2,0.2,0.3,0.3,0.4c0.5,0.5,1.4,0.6,1.9,0c0,0,0,0,0,0C8.8,2.1,9,1.8,9,1.4
						 M0.7,5.4c0.4,0.5,1,0.7,1.6,0.7c0.6,0,1.2-0.2,1.6-0.7c0.4-0.4,0.7-1,0.7-1.6c0-0.3-0.1-0.6-0.2-0.9C4.4,2.6,4.2,2.4,4,2.1
						c-0.4-0.4-1-0.7-1.6-0.7C2,1.5,1.7,1.5,1.4,1.7C1.2,1.8,0.9,1.9,0.7,2.1C0.2,2.6,0,3.2,0,3.8C0,4.4,0.2,5,0.7,5.4L0.7,5.4z"/>
				</g>
			</g>
			<path id="Tracé_5019" fill="#8D3526" d="M92.4,58.3c0,0-19-2.8-26.7-4.8c-11.2-2.9-21.6-14-21.6-14c-1.3,0.6-2.5,1.5-3.5,2.6
				c-1.8,2,0.3,4.2,0.3,4.2s9.8,7.6,20.7,11.5C71.6,61.5,93.1,63,93.1,63L92.4,58.3z"/>
			<path id="Tracé_5020" fill="#E06142" d="M97.4,62.8l11.2,27.5l-6.2,5.7l-8.2-32.5L97.4,62.8z"/>
			<path id="Tracé_5021" fill="#8D3526" d="M101,96.3l-7.9-2.5L91,64.2l3.2-0.7L101,96.3z"/>
			<path id="Tracé_5022" fill="#E06142" d="M95.4,54.4l3.9,3.7L98,65.4l-6.4,1.5L87.1,61l1.9-5.1L95.4,54.4z"/>
		</g>
	</g>
	<g id="Groupe_3360" transform="translate(263.699 215.454)">
		<g id="Groupe_3357">
			<g id="Groupe_3352" transform="translate(1.966)">
				<path id="Tracé_5023" fill="#FFE0B6" d="M67.4,16.8L3,18.8l2.3,35h59.5L67.4,16.8z"/>
				<path id="Tracé_5024" fill="#ECC18C" d="M7.5,18.7L3,18.8l2.3,35h55.1L8.7,48.3L7.5,18.7z"/>
				<path id="Tracé_5025" fill="#9A293C" d="M71.3,12.8L0,17.2L13.4,0.7L58.3,0L71.3,12.8z"/>
				<path id="Tracé_5026" fill="#811D2D" d="M28.6,0.4L13.3,0.7L0,17.2l41.1-2.5c-6.3-2.9-12.5-5.9-18.7-9.1
					C24.4,3.7,26.5,2,28.6,0.4z"/>
				<g id="Groupe_3346" transform="translate(26.774 23.926)">
					<path id="Tracé_5027" fill="#401536" d="M2,29.9L0,1l17.3-1l-1.8,29.9L2,29.9z"/>
					<path id="Tracé_5028" fill="#FCC193" d="M3.4,29.9L1.7,2.5l14-0.8L14,29.9L3.4,29.9z"/>
					<path id="Tracé_5029" fill="#F49F86" d="M14,29.9l-9-7.8L4.1,2.4L1.7,2.5l1.8,27.3H14z"/>
					<path id="Tracé_5030" fill="#401536" d="M13,13.3h-1.3l-0.4,3H13V13.3z"/>
				</g>
				<path id="Tracé_5031" fill="#401536" d="M71.3,12.8v4.4L0.6,20.7L0,17.2L71.3,12.8z"/>
				<g id="Groupe_3351" transform="translate(7.482 23.925)">
					<g id="Groupe_3348" transform="translate(0 1.882)">
						<path id="Tracé_5032" fill="#FCC193" d="M0,0c0.1,0.3,0.8,16.6,0.8,16.6l13.3-1.2L15.5,0H0z"/>
						<path id="Tracé_5033" fill="#401536" d="M2,15.2C1.6,7,1.4,3.1,1.3,1.3h12.8L13,14.2L2,15.2z"/>
						<g id="Groupe_3347" transform="translate(1.469 1.309)">
							<path id="Tracé_5034" fill="#4D2642" d="M2.6,0C1.8,1,0.9,1.9,0,2.8c0,0.8,0.1,1.8,0.1,2.9C1.8,3.8,3.4,2,5,0L2.6,0z"/>
							<path id="Tracé_5035" fill="#4D2642" d="M6,0C4.1,2.6,2.2,5.1,0.2,7.6l0,1C2.4,5.8,4.5,2.8,6.7,0H6z"/>
							<path id="Tracé_5036" fill="#4D2642" d="M12.6,0.6c-4,4.3-8,8.4-12.1,12.2l0,1.1l0.6-0.1c3.8-3.5,7.6-7.4,11.3-11.2
								L12.6,0.6z"/>
							<path id="Tracé_5037" fill="#4D2642" d="M12.3,4.3C9.3,7.8,6,10.5,3,13.7l1.6-0.2c2.7-2.3,5.2-4.7,7.5-7.3L12.3,4.3z"/>
						</g>
						<path id="Tracé_5038" fill="#FCC193" d="M6.9,0.5v14.7h1.2L8.5,0.5H6.9z"/>
						<path id="Tracé_5039" fill="#FCC193" d="M14,7H1.4v1.3L14,8.7L14,7z"/>
						<path id="Tracé_5040" fill="#401536" d="M14.8,15.2L0.2,16.3l0.2,2.2l14.1-0.7L14.8,15.2z"/>
					</g>
					<g id="Groupe_3350" transform="translate(40.393)">
						<path id="Tracé_5041" fill="#FCC193" d="M0,0c0.1,0.3,0.8,16.6,0.8,16.6l13.3-1.2L15.5,0H0z"/>
						<path id="Tracé_5042" fill="#401536" d="M2,15.2C1.6,7,1.4,3.1,1.3,1.3h12.8L13,14.2L2,15.2z"/>
						<g id="Groupe_3349" transform="translate(1.469 1.309)">
							<path id="Tracé_5043" fill="#4D2642" d="M2.6,0C1.8,1,0.9,1.9,0,2.8c0,0.8,0.1,1.8,0.1,2.9C1.8,3.8,3.4,2,5,0H2.6z"/>
							<path id="Tracé_5044" fill="#4D2642" d="M6,0C4.1,2.6,2.2,5.1,0.2,7.6l0,1C2.4,5.8,4.5,2.8,6.7,0L6,0z"/>
							<path id="Tracé_5045" fill="#4D2642" d="M12.6,0.6c-4,4.3-8,8.4-12.1,12.2l0,1.1l0.6-0.1c3.8-3.5,7.5-7.4,11.3-11.2
								L12.6,0.6z"/>
							<path id="Tracé_5046" fill="#4D2642" d="M12.3,4.3C9.3,7.8,6,10.5,3,13.7l1.6-0.2c2.7-2.3,5.2-4.7,7.5-7.3L12.3,4.3z"/>
						</g>
						<path id="Tracé_5047" fill="#FCC193" d="M6.9,0.5v14.7h1.2L8.5,0.5H6.9z"/>
						<path id="Tracé_5048" fill="#FCC193" d="M14,7H1.4v1.3L14,8.7L14,7z"/>
						<path id="Tracé_5049" fill="#401536" d="M14.8,15.2L0.2,16.3l0.2,2.2l14.1-0.7L14.8,15.2z"/>
					</g>
				</g>
			</g>
			<g id="Groupe_3356" transform="translate(0 53.8)">
				<g id="Groupe_3355">
					<g id="Groupe_3353" transform="translate(0 0)">
						<path id="Tracé_5050" fill="#59A249" d="M70.5,0H4.7L0,2.9l57.9,0l-0.7,1.7l4-2.3l-0.7,3.5l4.7-2.9l-1.3,2.9l7-2.8l6-0.1
							l-0.5-0.5C74.8,0.9,72.7,0,70.5,0z"/>
					</g>
					<g id="Groupe_3354" transform="translate(0)">
						<path id="Tracé_5051" fill="#59A249" d="M25.3,0l-5.7,2.9L0,2.9L4.7,0L25.3,0z"/>
					</g>
				</g>
			</g>
		</g>
		<g id="Groupe_3359" transform="translate(22.903 8.526)">
			<path id="Tracé_5052" fill="#282120" d="M38.4,23.5l-3.2,21.8l-0.7,0.2L38,24.1L38.4,23.5z"/>
			<path id="Tracé_5053" fill="#402610" d="M29.2,45.4h5.3l3.9-23.9h-5.3L29.2,45.4z"/>
			<path id="Tracé_5054" fill="#5F3328" d="M2,20.4l68.4,7.1L78,5.4L0,0L2,20.4z"/>
			<path id="Tracé_5055" fill="#3F1D18" d="M0,0h4.8L79,4.5L78,5.4L0,0z"/>
			<path id="Tracé_5056" fill="#3E2523" d="M79,4.5l-7.5,22.5l-1,0.5L78,5.4L79,4.5z"/>
			<path id="Tracé_5057" opacity="0.65" fill="#282120" enable-background="new    " d="M32.4,26l5.1,1.1l0.5-3l-5.2-0.6L32.4,26z"
				/>
			<g id="Groupe_3358" transform="translate(4.731 2.194)">
				<path id="Tracé_5058" fill="#FFFFFF" d="M4.6,13.8c-0.6,0-1.1,0.1-1.7,0.2c-0.2,0.3-0.4,0.6-0.5,0.9c-0.2,0.3-0.3,0.5-0.4,0.8
					c0,0.1-0.1,0.2-0.3,0.2c-0.2,0-0.3,0-0.4-0.1c-0.1-0.1-0.2-0.1-0.4-0.2s-0.3-0.1-0.4-0.2c-0.1-0.1-0.2-0.1-0.3-0.2
					C0.1,15.2,0,15,0,14.8c0-0.1,0-0.3,0.1-0.4c0.2-0.6,0.6-1.2,1-2c0.4-0.8,0.8-1.5,1.2-2.4c0.4-0.8,0.9-1.6,1.4-2.4
					C4.1,6.9,4.5,6.2,5,5.6C5.1,5.3,5.3,5.2,5.5,5c0.3-0.1,0.6-0.2,0.9-0.1C6.8,5,7.1,5,7.3,5.1s0.5,0.1,0.7,0.2
					c0.2,0.1,0.4,0.1,0.6,0.2S9,5.6,9.2,5.7c0.2,0.1,0.4,0.2,0.5,0.4c0.1,0.2,0.1,0.4,0,0.6C9.6,7.3,9.5,8,9.4,8.8s-0.2,1.6-0.3,2.4
					c-0.1,0.8-0.2,1.7-0.2,2.5c-0.1,0.9-0.1,1.6-0.2,2.4c0,0.1,0,0.2-0.1,0.3c-0.1,0.1-0.3,0.1-0.4,0.1c-0.2,0-0.4,0-0.6-0.1
					c-0.2,0-0.4-0.1-0.6-0.2c-0.2,0-0.3-0.1-0.4-0.3c-0.1-0.2-0.1-0.3-0.1-0.5c0-0.2,0-0.5,0-0.8s0-0.6,0-1
					C5.8,13.8,5.2,13.8,4.6,13.8z M4.7,0.6c0.1-0.2,0.2-0.3,0.4-0.3C5.3,0.1,5.6,0,5.8,0C6,0,6.2,0.1,6.4,0.2c0.6,0.5,1.2,1,1.8,1.4
					c0.7,0.4,1.3,0.9,2,1.2c0.1,0.1,0.2,0.2,0.2,0.3c0,0.1,0,0.2-0.1,0.3c0,0.1-0.1,0.1-0.2,0.2c-0.1,0-0.1,0.1-0.1,0.1
					C9.8,3.7,9.6,3.8,9.3,3.9c-0.2,0-0.4,0-0.6-0.1C8.4,3.6,8,3.4,7.6,3.2S6.8,2.7,6.4,2.5S5.6,2,5.3,1.8S4.7,1.4,4.5,1.2
					C4.5,1,4.6,0.7,4.7,0.6L4.7,0.6z M5.3,11.7c0.4,0,0.8,0,1.2,0c0-0.7,0.1-1.4,0.1-2.1s0.1-1.4,0.2-2.1C6.4,8.2,6,8.8,5.6,9.5
					c-0.5,0.7-0.9,1.5-1.4,2.2C4.6,11.7,5,11.7,5.3,11.7L5.3,11.7z"/>
				<path id="Tracé_5059" fill="#FFFFFF" d="M23.7,9.6c-0.2,0.5-0.5,1-0.8,1.5c-0.3,0.5-0.6,1.1-0.9,1.7c-0.3,0.6-0.6,1.1-0.9,1.6
					s-0.6,1-0.9,1.5c-0.3,0.5-0.5,0.9-0.7,1.2c-0.1,0.2-0.3,0.3-0.4,0.4c-0.2,0-0.5,0-0.7-0.1c-0.3-0.1-0.6-0.2-0.8-0.3
					c-0.3-0.1-0.5-0.2-0.8-0.4c-0.3-0.1-0.5-0.4-0.7-0.6c-0.1-0.2-0.2-0.4-0.3-0.7c-0.2-1.2-0.4-2.5-0.5-4s-0.2-3.1-0.3-4.8
					c0-0.2,0-0.3,0.1-0.5C15.3,6,15.5,5.9,15.7,6c0.2,0,0.5,0,0.7,0.1c0.2,0.1,0.4,0.1,0.6,0.2c0.5,0.2,0.8,0.7,0.9,1.2
					c0,0.4,0,0.9,0.1,1.4s0,1.1,0.1,1.7s0,1.2,0.1,1.8s0.1,1.3,0.1,1.9c0.7-1.2,1.3-2.4,1.9-3.8s1.3-2.6,1.9-3.9
					c0.1-0.3,0.4-0.4,0.7-0.3c0.2,0,0.3,0.1,0.4,0.2c0.2,0.1,0.3,0.2,0.5,0.3c0.2,0.1,0.3,0.2,0.4,0.3c0.1,0.1,0.2,0.2,0.3,0.3
					c0.1,0.1,0.1,0.3,0.1,0.4c0,0.2-0.1,0.3-0.1,0.5C24.2,8.7,24,9.2,23.7,9.6z"/>
				<path id="Tracé_5060" fill="#FFFFFF" d="M26.1,7.2c0.5-0.1,0.9-0.1,1.4-0.2s1-0.1,1.5-0.1s1,0,1.5,0c0.4,0,0.8,0.2,0.9,0.6
					c0.1,0.2,0.1,0.4,0.2,0.6c0,0.2,0.1,0.4,0.1,0.5c0,0.2,0,0.3-0.1,0.4c-0.1,0.1-0.3,0.1-0.5,0.1c-0.5,0-1,0-1.6,0.1
					s-1.1,0-1.7,0.1c-0.2,0.4-0.3,0.8-0.4,1.2s-0.3,0.8-0.5,1.3c0.3,0,0.5,0,0.8,0s0.5,0,0.8,0c0.2,0,0.4,0,0.6,0.1
					c0.1,0.1,0.3,0.2,0.3,0.4c0.1,0.2,0.2,0.3,0.2,0.5c0,0.2,0.1,0.3,0.1,0.5c0.1,0.2,0,0.3,0,0.4c-0.1,0.1-0.3,0.1-0.5,0.1
					c-0.5,0.1-1,0.1-1.6,0.1c-0.5,0-1.1,0.1-1.6,0.2c-0.1,0.3-0.2,0.5-0.3,0.8s-0.2,0.5-0.2,0.7c0.4,0,0.8-0.1,1.2-0.1
					c0.4,0,0.8,0,1.2,0c0.2,0,0.4,0,0.6,0.1c0.1,0.1,0.2,0.2,0.3,0.3c0.1,0.2,0.1,0.3,0.2,0.5c0,0.2,0.1,0.3,0.1,0.5
					c0,0.1,0,0.2,0,0.4c-0.1,0.1-0.3,0.1-0.4,0.1c-0.6,0.1-1.1,0.1-1.7,0.2s-1.1,0.1-1.6,0.2c-0.3,0.1-0.5,0.1-0.8,0
					c-0.2-0.1-0.3-0.1-0.4-0.2c-0.1-0.1-0.3-0.2-0.4-0.3s-0.3-0.2-0.4-0.4c-0.1-0.1-0.2-0.3-0.3-0.4C23,16.2,23,16,23,15.8l1.9-8.4
					C25.3,7.3,25.7,7.3,26.1,7.2z"/>
				<path id="Tracé_5061" fill="#FFFFFF" d="M37.1,11.1c0.3-1.1,0.7-2,1-2.9c0-0.2,0.2-0.3,0.3-0.4c0.2,0,0.4,0,0.6,0.1
					c0.1,0,0.2,0.1,0.3,0.1c0.1,0,0.2,0.1,0.3,0.1c0.1,0.1,0.2,0.1,0.3,0.2s0.2,0.2,0.4,0.3c0.2,0.1,0.3,0.3,0.4,0.5
					c0,0.2,0,0.4-0.1,0.6c-0.2,0.6-0.5,1.3-0.8,2.1c-0.3,0.8-0.5,1.6-0.8,2.4c-0.3,0.8-0.5,1.6-0.8,2.4c-0.3,0.8-0.5,1.4-0.7,2
					c-0.1,0.3-0.3,0.4-0.8,0.3c-0.4-0.1-0.8-0.3-1.2-0.4c-0.3-0.2-0.6-0.5-0.7-0.8c-0.1-0.3-0.2-0.6-0.3-0.9s-0.2-0.7-0.3-1.2
					S34.1,14.5,34,14s-0.2-0.9-0.3-1.3c-0.1,0.5-0.3,1-0.4,1.6s-0.3,1-0.4,1.5s-0.2,0.9-0.3,1.3s-0.2,0.8-0.3,1.1
					c0,0.1-0.1,0.2-0.2,0.3c-0.2,0-0.3,0-0.4-0.1c-0.2-0.1-0.4-0.1-0.6-0.2c-0.2-0.1-0.4-0.2-0.6-0.3c-0.2-0.1-0.3-0.2-0.4-0.4
					c-0.1-0.2-0.1-0.3,0-0.5c0-0.2,0.1-0.6,0.2-1s0.2-0.9,0.3-1.4s0.2-1.1,0.4-1.7s0.3-1.2,0.4-1.8s0.3-1.2,0.4-1.7s0.3-1.1,0.4-1.5
					c0-0.2,0.2-0.4,0.4-0.4c0.2,0,0.4,0,0.6,0.1c0.3,0.1,0.6,0.2,0.9,0.4C34.4,7.8,34.7,8,35,8.1c0.2,0.1,0.4,0.3,0.5,0.5
					c0.1,0.2,0.2,0.5,0.2,0.8c0,0.2,0.1,0.6,0.1,1s0.1,0.8,0.1,1.3s0.1,0.9,0.2,1.4s0.1,0.9,0.2,1.4C36.5,13.2,36.8,12.1,37.1,11.1z
					"/>
				<path id="Tracé_5062" fill="#FFFFFF" d="M42,8.3c0.5-0.1,0.9-0.2,1.4-0.2c0.5,0,1,0,1.5,0c0.5,0.1,1,0.2,1.5,0.4
					c0.5,0.2,0.9,0.5,1.3,0.9c0.8,0.8,1.2,1.9,1.2,3c0,0.6-0.1,1.1-0.2,1.7c-0.2,0.6-0.4,1.1-0.8,1.7c-0.4,0.6-0.8,1.1-1.3,1.5
					c-0.6,0.5-1.2,0.9-1.8,1.2c-0.7,0.4-1.5,0.6-2.3,0.8c-0.5,0.1-1,0-1.4-0.2c-0.2-0.1-0.4-0.3-0.6-0.4c-0.2-0.1-0.4-0.3-0.6-0.5
					c-0.1-0.1-0.2-0.2-0.2-0.2c-0.1-0.1-0.1-0.2-0.2-0.3c-0.1-0.1-0.1-0.2-0.1-0.4c0-0.2,0-0.3,0.1-0.5l1.4-8
					C41.2,8.6,41.6,8.4,42,8.3z M43.7,16.3c0.5-0.3,0.9-0.7,1.3-1.1c0.3-0.4,0.6-0.8,0.8-1.2c0.2-0.4,0.3-0.8,0.4-1.2
					c0.1-0.4,0.1-0.8-0.1-1.2c-0.2-0.3-0.4-0.6-0.7-0.7c-0.4-0.2-0.9-0.2-1.4-0.1c-0.4,1.1-0.7,2.2-1,3.2c-0.3,1.1-0.6,2.1-0.9,3.2
					C42.5,17,43.1,16.7,43.7,16.3L43.7,16.3z"/>
				<path id="Tracé_5063" fill="#FFFFFF" d="M51.3,18.2c-0.1,0.5-0.3,0.9-0.4,1.4c0,0.1-0.1,0.2-0.2,0.3c-0.1,0-0.3,0-0.4,0
					c-0.2-0.1-0.4-0.1-0.6-0.2c-0.2,0-0.3-0.1-0.5-0.2c-0.1-0.1-0.2-0.2-0.3-0.4c-0.1-0.2-0.1-0.4,0-0.5c0-0.2,0.1-0.4,0.1-0.8
					s0.1-0.7,0.2-1.1s0.2-0.9,0.3-1.4s0.2-1,0.3-1.5s0.2-1,0.3-1.4s0.2-0.9,0.3-1.2c0.1-0.3,0.2-0.6,0.4-0.9
					c0.1-0.2,0.2-0.3,0.4-0.4c0.5-0.2,1.1-0.4,1.7-0.6c0.6-0.2,1.1-0.3,1.7-0.4c0.5-0.1,1.1,0,1.6,0.1c0.5,0.1,0.9,0.4,1.3,0.8
					c0.3,0.3,0.5,0.7,0.7,1.1c0.2,0.4,0.4,0.9,0.5,1.4c0.1,0.5,0,1-0.2,1.4c-0.4,0.6-1,1.1-1.6,1.5c-0.8,0.5-1.7,0.9-2.6,1.2
					c0.2,0.2,0.4,0.5,0.6,0.7c0.2,0.3,0.4,0.5,0.7,0.8s0.5,0.5,0.7,0.8s0.4,0.5,0.6,0.7c0.2,0.2,0.2,0.3,0.2,0.4
					c0,0.1-0.1,0.2-0.2,0.2c-0.1,0.1-0.3,0.2-0.4,0.2c-0.1,0-0.2,0-0.4,0c-0.2,0-0.4,0-0.6,0c-0.3-0.1-0.5-0.2-0.8-0.4
					c-0.2-0.2-0.4-0.3-0.6-0.6s-0.5-0.5-0.7-0.7s-0.5-0.5-0.8-0.8c-0.2-0.3-0.5-0.6-0.7-0.9C51.5,17.2,51.4,17.7,51.3,18.2z M53,13
					c-0.2,0.5-0.4,1-0.6,1.5c0.6-0.1,1.1-0.3,1.6-0.6c0.4-0.2,0.8-0.5,1.2-0.8c0.3-0.2,0.5-0.5,0.7-0.8c0.1-0.2,0.2-0.4,0.2-0.6
					c-0.1-0.2-0.4-0.4-0.9-0.4c-0.3,0-0.5,0-0.8,0c-0.3,0-0.7,0.1-1,0.3C53.3,12.1,53.1,12.5,53,13L53,13z"/>
				<path id="Tracé_5064" fill="#FFFFFF" d="M61,9.9c0.5-0.1,0.9-0.1,1.4-0.2s1-0.1,1.5-0.1s1,0,1.5,0c0.4,0,0.8,0.2,0.9,0.6
					c0.1,0.2,0.1,0.4,0.2,0.6c0,0.2,0.1,0.4,0.1,0.6c0,0.2,0,0.3-0.1,0.4C66.4,11.9,66.2,12,66,12c-0.5,0-1,0-1.6,0.1
					c-0.5,0-1.1,0-1.7,0.1c-0.2,0.4-0.3,0.8-0.4,1.2s-0.3,0.8-0.5,1.3c0.3,0,0.5,0,0.8,0s0.5,0,0.8,0c0.2,0,0.4,0,0.6,0.1
					c0.1,0.1,0.3,0.2,0.3,0.4c0.1,0.2,0.2,0.3,0.2,0.5c0,0.2,0.1,0.3,0.1,0.5c0.1,0.2,0.1,0.3,0,0.4c-0.1,0.1-0.3,0.1-0.5,0.1
					c-0.5,0.1-1,0.1-1.6,0.1s-1.1,0.1-1.6,0.2c-0.1,0.3-0.2,0.5-0.3,0.8s-0.2,0.5-0.2,0.7c0.4,0,0.8-0.1,1.2-0.1s0.8,0,1.2,0
					c0.2,0,0.4,0,0.5,0.1c0.1,0.1,0.2,0.2,0.3,0.3c0.1,0.2,0.1,0.3,0.2,0.5c0,0.2,0.1,0.3,0.1,0.5c0,0.1,0,0.2,0,0.4
					c0,0.1-0.2,0.1-0.4,0.1c-0.6,0.1-1.1,0.1-1.7,0.2s-1.1,0.1-1.6,0.2c-0.3,0.1-0.5,0.1-0.8,0c-0.2-0.1-0.3-0.1-0.4-0.2
					c-0.1-0.1-0.3-0.2-0.4-0.3c-0.1-0.1-0.3-0.2-0.4-0.4c-0.1-0.1-0.2-0.3-0.3-0.4c-0.1-0.2-0.1-0.4,0-0.6l1.9-8.4
					C60.1,10.1,60.5,10,61,9.9z"/>
			</g>
		</g>
	</g>
	<g id="Groupe_3374" transform="translate(299.16 294.565)">
		<g id="Groupe_3361" transform="translate(55.341 8.273)">
			<path id="Tracé_5065" fill="#ABB74D" d="M0,0"/>
		</g>
		<g id="Groupe_3362" transform="translate(55.341 8.273)">
			<path id="Tracé_5066" fill="none" stroke="#2F2D39" stroke-width="2.711" stroke-linecap="round" stroke-miterlimit="10" d="
				M0,0"/>
		</g>
		<g id="Groupe_3363" transform="translate(4.38 24.12)">
			<path id="Tracé_5067" fill="#E02F3D" d="M48.3,0L0.9,2.7C0.4,2.8,0,3.2,0,3.7c0,0,0,0,0,0l1.6,27.9c0,0.5,0.5,0.9,0.9,0.8
				c0,0,0,0,0,0L50,29.7c0.5,0,0.9-0.5,0.8-0.9c0,0,0,0,0,0L49.3,0.8C49.3,0.4,48.8,0,48.3,0C48.3,0,48.3,0,48.3,0z"/>
		</g>
		<g id="Groupe_3364" transform="translate(4.937 24.15)">
			<path id="Tracé_5068" fill="#D21629" d="M47.2,0L0.8,2.7C0.3,2.7,0,3.1,0,3.6c0,0,0,0,0,0l0.2,3.6l48.2-2.8l-0.2-3.6
				C48.1,0.4,47.7,0,47.2,0z"/>
		</g>
		<g id="Groupe_3365" transform="translate(23.518 25.221)">
			<path id="Tracé_5069" fill="#FFD142" d="M10,0L0.8,0.5C0.3,0.6,0,1,0,1.5l1.6,28.4c0,0.5,0.5,0.9,1,0.9l9.2-0.5
				c0.5,0,0.9-0.5,0.8-1c0,0,0,0,0,0L11,0.9C11,0.4,10.6,0,10,0C10.1,0,10.1,0,10,0z"/>
		</g>
		<g id="Groupe_3366" transform="translate(23.518 25.221)">
			<path id="Tracé_5070" fill="#F8AA29" d="M10,0L0.8,0.5C0.4,0.6,0,1,0,1.5c0,0,0,0,0,0l0.2,3.6l11-0.6L11,0.9C11,0.4,10.6,0,10,0
				C10.1,0,10.1,0,10,0z"/>
		</g>
		<g id="Groupe_3367" transform="translate(31.037)">
			<path id="Tracé_5071" fill="#FFD142" d="M18.9,6.5c-1-2.2-2.3-4.2-4.1-5.8c-0.6-0.5-1.3-0.8-2.1-0.7C10,0.2,5.8,3.9,0.2,10.8
				C0.1,11,0,11.2,0,11.5l0.3,4.8c0,0.5,0.5,0.9,0.9,0.8c0,0,0,0,0,0l13.8-0.8c3.1-0.2,4.3-1.8,4.7-3C20.4,11.5,20.1,9.1,18.9,6.5z"
				/>
		</g>
		<g id="Groupe_3368" transform="translate(34.912 6.628)">
			<path id="Tracé_5072" fill="#ED7D14" d="M15.3,1.4c0-0.1-0.1-0.2-0.1-0.3c-1.5-2-4.3-1-6.4,0.1C2.6,4.5,0.2,8.7,0.1,8.9
				C0,9.2,0,9.5,0.1,9.8c0.2,0.3,0.5,0.4,0.8,0.4L11,9.7c1.6,0,3.2-0.7,4.1-2C16.1,6.1,16.2,4,15.3,1.4z"/>
		</g>
		<g id="Groupe_3369" transform="translate(5.269 1.872)">
			<path id="Tracé_5073" fill="#FFD142" d="M19.8,9.3C13.4,3,8.8-0.1,6.1,0c-0.8,0-1.5,0.3-2,0.9C2.6,2.7,1.4,4.9,0.7,7.1
				c-0.9,2.8-0.9,5.2-0.1,6.8c0.6,1.2,2,2.7,5,2.5l13.8-0.8c0.5,0,0.9-0.5,0.8-0.9c0,0,0,0,0,0L20,9.9C20,9.7,19.9,9.5,19.8,9.3z"/>
		</g>
		<g id="Groupe_3370" transform="translate(5.546 8.871)">
			<path id="Tracé_5074" fill="#ED7D14" d="M16.3,7.4c-0.1-0.2-3-4-9.5-6.6C4.5-0.1,1.6-0.7,0.4,1.5c0,0.1-0.1,0.2-0.1,0.3
				C-0.3,4.4,0,6.5,1.2,7.9c1.1,1.2,2.7,1.8,4.4,1.5l10.1-0.6c0.3,0,0.6-0.2,0.7-0.5C16.5,8,16.4,7.7,16.3,7.4z"/>
		</g>
		<g id="Groupe_3371" transform="translate(23.445 9.618)">
			<path id="Tracé_5075" fill="#F8AA29" d="M8.4,0L0.9,0.4C0.4,0.5,0,0.9,0,1.4c0,0,0,0,0,0L0.3,7c0,0.5,0.5,0.9,0.9,0.9
				c0,0,0,0,0,0l7.5-0.4c0.5,0,0.9-0.5,0.8-0.9c0,0,0,0,0,0L9.3,0.9C9.3,0.4,8.9,0,8.4,0C8.4,0,8.4,0,8.4,0z"/>
		</g>
		<g id="Groupe_3372" transform="translate(0 15.015)">
			<path id="Tracé_5076" fill="#E02F3D" d="M56.1,0L0.9,3.2C0.4,3.2,0,3.6,0,4.1c0,0,0,0,0,0L0.5,13c0,0.5,0.5,0.9,0.9,0.8
				c0,0,0,0,0,0l55.2-3.2c0.5,0,0.9-0.5,0.8-0.9c0,0,0,0,0,0L57,0.8C57,0.4,56.6,0,56.1,0z"/>
		</g>
		<g id="Groupe_3373" transform="translate(21.087 15.846)">
			
				<rect id="Rectangle_2098" x="0.3" y="0.4" transform="matrix(0.9983 -5.744205e-02 5.744205e-02 0.9983 -0.3377 0.451)" fill="#FFD142" width="14.7" height="11.4"/>
		</g>
	</g>
	<g id="Groupe_3401" transform="translate(386.735 245.443)">
		<g id="Groupe_3376" transform="translate(94.709 31.089)">
			<g id="Layer0_1_FILL-2">
				<g id="Groupe_3375">
					<path id="Tracé_5077" fill="#2F2D39" d="M41.2,9.6C33.9-0.5,22.5-2.7,7,3.3C4,8.5,1.6,16.5,0,27.2C2.3,34.3,4,41.6,5,49
						c1.2,9,1.7,18.2,1.3,27.3c-0.4,4.6-1.5,9.2-3.1,13.5C26.1,68.2,39.4,41.1,41.2,9.6"/>
				</g>
			</g>
		</g>
		<g id="Groupe_3377" transform="translate(16.722 1.99)">
			<path id="Tracé_5078" fill="#ABB74E" d="M11,65.9c1.5-3.2,2-4.2,2-4.3C13,61.7,11.1,65.8,11,65.9C2.3,84.7-1.3,101.2,0.4,115.2
				c1.7,3.3,4.4,6,7.8,7.5c4,1.8,8.3,2.8,12.7,3.1c2.9,0.1,5.8,0.3,8.8,0.4c2.8,0.1,5.7,0.1,8.6,0.2l12.5,0.1
				c4.5-0.1,8.5-0.2,12.1-0.4c5.1-0.3,10-1.7,14.5-4.1c1.3-1.1,2.3-2.5,2.9-4.1c1.6-4.1,2.5-8.4,2.9-12.8c0.8-8.9,0.9-17.9,0.1-26.8
				c-0.6-7.3-2-14.5-3.9-21.5c-1.6-5.7-4-9.1-4.7-14.8l0.3-1.5c2,1.5,3.5,2,4.3,1.3c1.5-1.5,0.9-3.6-1.9-6.3c0,0,0-0.1-0.1-0.1
				c-0.2-0.2-0.4-0.4-0.6-0.6l1.4-1.5c0.6-6-1.2-11.9-5.1-16.5c0,0-0.1-0.1-0.1-0.1c0,0,0,0,0-0.1c0,0-0.4-0.4-1-1.1
				c-0.7-0.8-1.5-1.5-2.4-2.1c-0.8-0.6-1.2-1-1.4-1.1c0,0-0.1,0-0.1-0.1l0,0C58.7,5.3,42.5,1.2,19.6,0c-0.2,0.2-0.5,0.5-0.7,0.7
				c-1.4,1.5-2.6,3.1-3.7,4.8c-0.5,0.8-1.1,1.6-1.5,2.4c-5.2,8.7-7.1,18.9-5.9,30.6c0.2-0.2,0.4-0.4,0.5-0.6
				c1.7-2.1,3.2-4.4,4.4-6.8c0.5,2.5,1.7,4.8,3.6,6.7c1.8,1.7,3.8,3.3,6,4.6"/>
		</g>
		<g id="Groupe_3378" transform="translate(101.613 37.014)">
			<g id="Layer0_1_1_STROKES-2">
				<path id="Tracé_5079" fill="#D2C4BE" d="M7.8,57.1c-0.3,0-0.6-0.2-0.7-0.6L4.7,41.4L1,43.3c-0.3,0.2-0.7,0-0.9-0.3
					s0-0.7,0.3-0.9L4.5,40L2.3,26.6c-0.1-0.4,0.2-0.7,0.5-0.8c0.4-0.1,0.7,0.2,0.8,0.5c0,0,0,0,0,0l2.1,13l9-4.6
					c0.3-0.1,0.7,0,0.9,0.3c0.1,0.3,0,0.7-0.3,0.9L6,40.8l2.5,15.5C8.5,56.7,8.3,57,7.8,57.1C7.9,57.1,7.8,57.1,7.8,57.1z
					 M19.6,23.4c-0.2,0-0.4-0.1-0.6-0.3l-6.5-10.6L2.2,16.8c-0.3,0.1-0.7,0-0.9-0.4s0-0.7,0.4-0.9l10.1-4.2L5.4,1
					C5.2,0.7,5.3,0.3,5.7,0.1C6-0.1,6.4,0,6.6,0.3L13,10.9l13.6-5.6c0.3-0.2,0.7,0,0.9,0.3c0.2,0.3,0,0.7-0.3,0.9c0,0,0,0,0,0
					L13.7,12l6.4,10.4c0.2,0.3,0.1,0.7-0.2,0.9C19.8,23.4,19.7,23.4,19.6,23.4L19.6,23.4z"/>
			</g>
		</g>
		<g id="Groupe_3379" transform="translate(94.709 45.016)" opacity="0.4">
			<path id="Tracé_5080" fill="#1A1716" d="M2.8,0C1.6,4.3,0.6,8.8,0,13.2c2.3,7.1,4,14.4,5,21.9c1.2,9,1.7,18.2,1.3,27.3
				C5.9,67,4.8,71.6,3.1,75.9c1.9-1.8,4.7-4.7,6.4-6.5C20,43.7,17.9,17.4,2.8,0z"/>
		</g>
		<g id="Groupe_3380" transform="translate(20.888 63.054)">
			
				<ellipse id="Ellipse_392" transform="matrix(0.2314 -0.9728 0.9728 0.2314 -10.7127 42.7415)" fill="#EBE5E5" cx="21.7" cy="28.2" rx="25" ry="16.3"/>
		</g>
		<g id="Groupe_3381" transform="translate(26.93 75.887)">
			<path id="Tracé_5081" fill="#2F2D39" d="M0,1.3c0,0,0.3,9.2,1.7,11.5c1.6,0.7,6.2,1,6.2,1L12.1,0C12.1,0,5.2,2.3,0,1.3z"/>
		</g>
		<g id="Groupe_3382" transform="translate(28.353 85.634)">
			<path id="Tracé_5082" fill="#29211B" d="M0.7,5c0,0-0.1,0-0.1,0C0.2,4.9-0.1,4.5,0,4.2c0,0,0,0,0,0l0.8-3.7
				C0.9,0.2,1.2-0.1,1.6,0C1.9,0,2.2,0.4,2.1,0.7c0,0,0,0.1,0,0.1L1.3,4.5C1.3,4.8,1,5,0.7,5z"/>
		</g>
		<g id="Groupe_3383" transform="translate(31.096 86.748)">
			<path id="Tracé_5083" fill="#29211B" d="M0.7,5.5c-0.1,0-0.1,0-0.2,0C0.1,5.4-0.1,5.1,0,4.7l1.1-4.2C1.2,0.1,1.5-0.1,1.9,0
				c0.4,0.1,0.6,0.5,0.5,0.8L1.3,5C1.2,5.3,1,5.5,0.7,5.5z"/>
		</g>
		<g id="Groupe_3387" transform="translate(43.695 77.231)">
			<g id="Groupe_3384" transform="translate(0.758)">
				<path id="Tracé_5084" fill="#2F2D39" d="M16.8,5.4L6.1,14.1c0,0-4.8-1.4-6.1-2.4C-0.4,9.4,6,0,6,0S7.5,3.8,16.8,5.4z"/>
			</g>
			<g id="Groupe_3385" transform="translate(0 9.384)">
				<path id="Tracé_5085" fill="#29211B" d="M0.7,4.3c-0.2,0-0.3-0.1-0.4-0.2C0,3.9-0.1,3.5,0.2,3.2c0,0,0,0,0,0l2.4-2.9
					C2.8,0,3.2-0.1,3.5,0.2s0.3,0.7,0.1,0.9l0,0L1.2,4C1.1,4.2,0.9,4.3,0.7,4.3z"/>
			</g>
			<g id="Groupe_3386" transform="translate(2.135 11.084)">
				<path id="Tracé_5086" fill="#29211B" d="M0.7,4.7C0.3,4.7,0,4.4,0,4c0-0.2,0.1-0.3,0.2-0.4l2.9-3.3c0.2-0.3,0.7-0.3,0.9-0.1
					c0.3,0.2,0.3,0.7,0.1,0.9c0,0,0,0,0,0L1.2,4.4C1,4.6,0.9,4.7,0.7,4.7z"/>
			</g>
		</g>
		<g id="Groupe_3388" transform="translate(16.298 18.188)" opacity="0.15">
			<path id="Tracé_5087" fill="#1A1716" d="M80.4,101.4c1.6-4.1,2.5-8.4,2.9-12.8c0.8-8.9,0.9-17.9,0.1-26.8
				c-0.6-7.3-2-14.5-3.9-21.5c-1.6-5.7-4-9.1-4.7-14.8l0.3-1.5c2,1.5,3.5,2,4.3,1.3c1.5-1.5,0.9-3.6-1.9-6.3c0,0,0-0.1-0.1-0.1
				c-0.2-0.2-0.4-0.4-0.6-0.6l1.4-1.5C78.9,11,77,5,73.1,0.4c0,0-0.1-0.1-0.1-0.1c0,0,0,0,0-0.1c0,0-0.1-0.1-0.2-0.3
				c1.2,2.1,1.9,4.5,2.1,6.9C75,9.3,74.5,17.3,72,20.4s-5.4,7-6.5,8.4s2.8,1.6,5,9.4s4.6,48.1-1.2,57.2S53.7,106.8,42.6,107
				s-30.3-0.1-34.7-3.4c-3.2-2.4-5.9-5.5-7.9-9c0.1,1.4,0.2,2.8,0.3,4.2c1.7,3.3,4.4,6,7.8,7.5c4,1.8,8.3,2.8,12.7,3.1
				c2.9,0.1,5.8,0.3,8.8,0.4c2.8,0.1,5.7,0.1,8.6,0.2l12.5,0.1c4.5-0.1,8.5-0.2,12.1-0.4c5.1-0.3,10-1.7,14.5-4.1
				C78.8,104.4,79.8,103,80.4,101.4z"/>
		</g>
		<g id="Groupe_3389" transform="translate(14.407)">
			<path id="Tracé_5088" fill="#2F2D39" d="M52.7,130l-12.6-0.1c-2.9,0-5.8-0.1-8.6-0.2c-3-0.1-5.9-0.2-8.8-0.4
				c-4.6-0.3-9.2-1.4-13.4-3.3c-3.8-1.7-6.9-4.6-8.7-8.3l-0.1-0.3l0-0.3C-1.3,103,2.3,86.1,11.2,67c0.2-0.6,0.5-1.2,0.9-1.8
				l6.2-12.7l3.8-7.4c-1.9-1.2-3.6-2.6-5.2-4.2c-0.7-0.7-0.7-1.9-0.1-2.6c0.7-0.7,1.9-0.7,2.6-0.1c1.7,1.7,3.6,3.1,5.7,4.3
				c0.8,1,1,2.2,0.7,3.4l-4.2,8.1l-7,14.4l0,0C6,86.9,2.5,103,4,116.5c1.5,2.8,3.9,5.1,6.9,6.3c3.8,1.7,7.9,2.7,12.1,2.9
				c2.8,0.1,5.7,0.3,8.7,0.4c2.8,0.1,5.6,0.1,8.5,0.2l12.5,0.1c4.4-0.1,8.4-0.2,12-0.4c4.8-0.3,9.4-1.6,13.6-3.8
				c1-0.9,1.8-2,2.2-3.3c1.5-4,2.4-8.1,2.8-12.3c0.8-8.8,0.9-17.6,0.1-26.4C82.9,73,81.6,65.9,79.6,59c-1-3.6-2.2-7.1-3.6-10.6
				c-0.2-0.4-0.3-0.8-0.5-1.1c-0.4-0.8-0.6-1.6-0.6-2.5c0-0.2,0-0.5-0.1-0.9l0-0.3l1-4.5l2.3,1.7c0.6,0.5,1.4,0.9,2.2,1.2
				c0-0.1,0-0.1,0-0.2c0-0.2-0.1-1.2-1.9-2.9l0,0l-0.5-0.5c-0.1-0.1-0.3-0.2-0.4-0.4l-1.3-1.2l2.2-2.4c0.4-5.3-1.3-10.5-4.7-14.6
				c-0.1-0.1-0.1-0.1-0.2-0.2c-0.5-0.5-2.4-2.4-3-2.9c-0.8-0.6-1.6-1.2-1.6-1.2C59.9,8.9,44.2,5,22.2,3.7l-0.1,0.1
				c-1.3,1.4-2.5,3-3.6,4.6c-0.6,0.8-1,1.6-1.5,2.3c-4.9,8.3-6.9,18.2-5.7,29.5c0.1,1-0.6,1.9-1.7,2c-1,0.1-1.9-0.6-2-1.6
				c-1.3-12,0.8-22.7,6.2-31.7c0.5-0.8,1-1.7,1.6-2.5c1.2-1.8,2.5-3.4,3.9-5c0.2-0.2,0.5-0.5,0.7-0.8L20.7,0l0.8,0
				c23.1,1.2,39.8,5.4,49.6,12.5c0.1,0.1,0.8,0.6,1.6,1.2c1.3,1.1,2.5,2.3,3.7,3.5l0,0c0,0,0.1,0.1,0.1,0.2
				c4.1,4.9,6.1,11.4,5.5,17.8l0,0.6l-0.6,0.7c1.8,1.9,2.6,3.5,2.6,5.1c0,1.2-0.5,2.3-1.3,3.1L82.4,45c-1.1,0.7-2.5,0.8-3.7,0.3
				c0,0.1,0.1,0.3,0.2,0.6c0.2,0.4,0.3,0.8,0.5,1.2c1.4,3.6,2.7,7.2,3.7,10.9c2,7.1,3.3,14.5,4,21.9c0.8,9,0.7,18.1-0.1,27.1
				c-0.7,5.8-1.7,10.2-3.1,13.3c-0.7,1.9-1.9,3.6-3.5,4.9l-0.2,0.1c-4.7,2.5-9.9,3.9-15.2,4.3C61.3,129.8,57.2,129.9,52.7,130z"/>
		</g>
		<g id="Groupe_3390" transform="translate(0 123.225)">
			<path id="Tracé_5089" fill="#2F2D39" d="M58.9,0.3c-2.1,0.5-3.6,2-4.3,4.6c-0.1,0.3-0.2,0.7-0.3,1l13,0c-0.1-0.3-0.1-0.7-0.2-1
				c-0.5-1.6-1.5-3.1-2.8-4.2L58.9,0.3 M2.7,0.1C1.1,0.6,0.1,2.5,0,5.6l45.9,0.1L46,4.7c-3-0.1-5.9-0.2-8.8-0.4
				C32.8,4.1,28.5,3,24.5,1.3C17.3,0.2,10-0.2,2.7,0.1L2.7,0.1z"/>
		</g>
		<g id="Groupe_3393" transform="translate(24.475 33.99)">
			<g id="Groupe_3391" transform="translate(0.048 6.253)">
				<path id="Tracé_5090" fill="#E5D4B8" d="M0,0.1C0-0.1,0,0.2,0,0.1z"/>
			</g>
			<g id="Groupe_3392">
				<path id="Tracé_5091" fill="#E5D4B8" d="M2.1,17.6c0.4,0.6,1.3,0.7,1.8,1.2l3.8,0.5c2-3.2,4.5-5.4,6-9.3
					c-2-1.3-3.9-2.7-5.6-4.4C6.1,3.7,4.4,2.5,3.9,0C3.2,2.5,1.8,4.8,0,6.8c0,3.3,0.4,7.5,1.9,9.6C2,16.6,2.2,16.8,2.3,17"/>
			</g>
		</g>
		<g id="Groupe_3394" transform="translate(27.145 9.739)">
			<path id="Tracé_5092" fill="#2F2D39" d="M25.9,40.8c-6.5,0-12.8-3.7-13.8-4.3C6.3,34,2.6,30.2,0.9,25.1C-2.6,14.1,5,1.4,5.3,0.9
				C5.9,0,7-0.3,7.9,0.3S9,1.9,8.5,2.8C8.4,2.9,1.4,14.6,4.4,24c1.3,4.1,4.4,7.2,9.2,9.2l0.3,0.1c0.1,0.1,9.6,6,16.1,3
				c0.9-0.4,2,0,2.4,0.9c0.4,0.9,0,2-0.9,2.4C29.7,40.5,27.8,40.9,25.9,40.8z"/>
		</g>
		<g id="Groupe_3396" transform="translate(30.214 2.576)">
			<g id="Layer0_6_FILL-2">
				<g id="Groupe_3395">
					<path id="Tracé_5093" fill="#050506" d="M0.3,5.2c0.4,1.8,1.2,3.6,2.4,5C8.2,9.9,13.5,8,17.8,4.7C14.2,1.6,9.6-0.1,4.9,0
						C3.3,0,1.7,0.2,0.1,0.6C-0.1,2.1,0,3.7,0.3,5.2z"/>
				</g>
			</g>
		</g>
		<g id="Groupe_3397" transform="translate(22.967 30.095)">
			<path id="Tracé_5094" fill="#2F2D39" d="M1.1,11.8c-0.6,0-1.1-0.5-1.1-1.1c0-0.3,0.1-0.6,0.3-0.8c3.3-3.3,4.6-9.1,4.6-9.2
				C5,0.3,5.6-0.1,6.2,0C6.7,0.2,7.1,0.7,7,1.3l0,0C6.9,1.6,5.5,7.7,1.8,11.5C1.6,11.7,1.4,11.8,1.1,11.8z"/>
		</g>
		<g id="Groupe_3398" transform="translate(71.988 19.35)">
			<path id="Tracé_5095" fill="#050506" d="M1.2,2.2C0.5,1.4,0.7-0.1,0.6,0C0.4,0.2,0.3,0.5,0.1,0.8C-0.1,1.3,0,1.9,0.2,2.4
				c0.2,0.5,0.7,0.9,1.3,1.1c0.6,0.2,1.2,0.1,1.7-0.2C3.5,3.2,1.9,3,1.2,2.2z"/>
		</g>
		<g id="Groupe_3399" transform="translate(23.733 33.864)">
			<g id="Layer0_2_1_STROKES-2">
				<path id="Tracé_5096" fill="#2F2D39" d="M7.8,20.3c-0.1,0-0.1,0-0.2,0l-4.8-1.5c-0.1,0-0.1,0-0.2-0.1l0,0l0,0
					c-0.1-0.1-0.2-0.2-0.3-0.3c-0.3-0.7-0.6-1.3-0.8-2c0-0.1,0-0.1,0-0.2c0,0,0-0.1,0-0.1l0,0c-0.1-0.3-0.2-0.5-0.2-0.8
					C0.4,12.7,0,9.9,0,7.1c0-0.4,0.3-0.7,0.7-0.7C1,6.4,1.3,6.7,1.3,7c0,0,0,0,0,0c0,2.7,0.4,5.3,1.2,7.9c0.1,0.2,0.1,0.5,0.2,0.7
					l0,0c0,0.1,0.1,0.2,0.1,0.4c0.3,0.7,0.5,1.2,0.6,1.5l4.1,1.3c2.6-2.2,4.6-5,5.8-8.2c0.1-0.3,0.5-0.5,0.8-0.4l9.4,2.4
					c0.4,0.1,0.6,0.5,0.5,0.8c-0.1,0.4-0.5,0.6-0.8,0.5l-8.8-2.3c-1.3,3.3-3.5,6.2-6.2,8.4C8.2,20.3,8,20.3,7.8,20.3z M5.3,15.6
					c-0.3,0-0.6-0.2-0.6-0.5C3.3,10.3,3.2,5.3,4.4,0.5C4.5,0.2,4.9,0,5.2,0.1c0.3,0.1,0.5,0.4,0.5,0.8c-1.2,4.6-1.1,9.4,0.2,13.9
					c0.1,0.4-0.1,0.7-0.5,0.8c0,0,0,0,0,0C5.4,15.6,5.4,15.6,5.3,15.6L5.3,15.6z"/>
			</g>
		</g>
		<g id="Groupe_3400" transform="translate(68.715 16.675)">
			<path id="Tracé_5097" fill="#050506" d="M0.6,1.1C0.3,0.7,0.3-0.1,0.3,0C0.2,0.1,0.1,0.2,0.1,0.4c-0.2,0.5,0.1,1.1,0.6,1.3
				c0,0,0,0,0.1,0C1,1.8,1.3,1.8,1.6,1.6C1.7,1.6,0.9,1.5,0.6,1.1z"/>
		</g>
	</g>
</g>
</svg>
