<?xml version="1.0" encoding="utf-8"?>
<!-- Generator: Adobe Illustrator 23.0.2, SVG Export Plug-In . SVG Version: 6.00 Build 0)  -->
<svg version="1.1" id="Calque_1" xmlns="http://www.w3.org/2000/svg" xmlns:xlink="http://www.w3.org/1999/xlink" x="0px" y="0px"
	 viewBox="0 0 71.5 96.1" enable-background="new 0 0 71.5 96.1" xml:space="preserve">
<g>
	<g>
		<g>
			<polygon fill="#51696C" points="1.9,0.6 39.5,66.4 38.8,66.8 0.3,1.5 			"/>
			<polygon fill="#51696C" points="41.3,1.6 2.6,66.7 1.9,66.3 39.7,0.7 			"/>
			<g>
				
					<rect x="0" y="0" transform="matrix(1 2.104526e-03 -2.104526e-03 1 2.408713e-03 -4.396364e-02)" fill="#708588" width="41.8" height="2.2"/>
				
					<rect x="4" y="0.3" transform="matrix(1 2.104526e-03 -2.104526e-03 1 1.153130e-03 -4.396768e-02)" opacity="0.6" fill="#FFF5D5" width="33.8" height="0.4"/>
			</g>
			<g>
				
					<rect x="0.7" y="28.8" transform="matrix(1 2.104526e-03 -2.104526e-03 1 6.292690e-02 -4.377260e-02)" fill="#708588" width="40.3" height="2.2"/>
				
					<rect x="4.5" y="29.1" transform="matrix(1 2.104526e-03 -2.104526e-03 1 6.167101e-02 -4.377664e-02)" opacity="0.6" fill="#FFF5D5" width="32.6" height="0.4"/>
			</g>
			<g>
				
					<rect x="1.5" y="57.6" transform="matrix(1 2.104526e-03 -2.104526e-03 1 0.1234 -4.358155e-02)" fill="#708588" width="38.6" height="2.2"/>
				
					<rect x="5.2" y="57.8" transform="matrix(1 2.104526e-03 -2.104526e-03 1 0.1222 -4.358552e-02)" opacity="0.6" fill="#FFF5D5" width="31.2" height="0.4"/>
			</g>
			<g>
				
					<rect x="1.4" y="86.3" transform="matrix(1 2.104526e-03 -2.104526e-03 1 0.184 -4.339051e-02)" fill="#708588" width="38.6" height="2.2"/>
				
					<rect x="5.1" y="86.6" transform="matrix(1 2.104526e-03 -2.104526e-03 1 0.1827 -4.339447e-02)" opacity="0.6" fill="#FFF5D5" width="31.2" height="0.4"/>
			</g>
			<polygon fill="#A1B2A3" points="3.8,94.9 1.4,94.9 0,0 3.3,0 			"/>
			<polygon fill="#21567E" points="4,93 1.1,93 0.9,95.2 4.3,95.2 			"/>
			<g>
				<polygon fill="#708588" points="1.7,61.3 1.7,63.8 2.7,63.8 2.6,61.3 				"/>
				<polygon fill="#708588" points="1.7,69.5 1.8,72 2.7,72 2.7,69.5 				"/>
				<polygon fill="#708588" points="1.6,53.1 1.6,55.6 2.6,55.6 2.6,53.1 				"/>
				<polygon fill="#708588" points="2.7,88.4 2.7,85.9 1.9,85.9 1.9,88.4 				"/>
				<polygon fill="#708588" points="1.8,77.7 1.8,80.2 2.7,80.2 2.7,77.7 				"/>
				<polygon fill="#708588" points="1.5,44.9 1.5,47.4 2.6,47.4 2.6,44.9 				"/>
				<polygon fill="#708588" points="1.4,36.8 1.5,39.3 2.6,39.3 2.6,36.8 				"/>
				<polygon fill="#708588" points="1.2,12.2 1.2,14.7 2.5,14.7 2.5,12.2 				"/>
				<polygon fill="#708588" points="1.1,4 1.1,6.5 2.5,6.5 2.5,4 				"/>
				<polygon fill="#708588" points="1.4,28.6 1.4,31.1 2.6,31.1 2.5,28.6 				"/>
				<polygon fill="#708588" points="1.3,20.4 1.3,22.9 2.5,22.9 2.5,20.4 				"/>
			</g>
			<polygon fill="#A1B2A3" points="37.6,95 40,95 41.8,0.1 38.5,0.1 			"/>
			<polygon fill="#21567E" points="37.4,93 40.3,93 40.5,95.3 37.1,95.3 			"/>
			<g>
				<polygon fill="#708588" points="39.9,61.4 39.8,63.9 38.9,63.9 38.9,61.4 				"/>
				<polygon fill="#708588" points="39.8,69.6 39.7,72.1 38.8,72.1 38.8,69.6 				"/>
				<polygon fill="#708588" points="40,53.2 39.9,55.7 38.9,55.7 38.9,53.2 				"/>
				<polygon fill="#708588" points="38.7,88.5 38.7,86 39.5,86 39.5,88.5 				"/>
				<polygon fill="#708588" points="39.6,77.8 39.6,80.3 38.7,80.3 38.8,77.8 				"/>
				<polygon fill="#708588" points="40.1,45 40.1,47.5 39,47.5 39,45 				"/>
				<polygon fill="#708588" points="40.2,36.8 40.2,39.3 39,39.3 39.1,36.8 				"/>
				<polygon fill="#708588" points="40.5,12.3 40.5,14.8 39.2,14.8 39.2,12.3 				"/>
				<polygon fill="#708588" points="40.6,4.1 40.6,6.6 39.3,6.6 39.3,4.1 				"/>
				<polygon fill="#708588" points="40.3,28.6 40.3,31.1 39.1,31.1 39.1,28.6 				"/>
				<polygon fill="#708588" points="40.4,20.5 40.4,22.9 39.2,22.9 39.2,20.4 				"/>
			</g>
		</g>
		<g>
			<polygon fill="#305576" points="16.4,26.6 10.9,26.1 10.9,28 10.7,29 16.4,28.8 16.3,27.9 			"/>
			<path fill="#305576" d="M18.2,30.2c-0.5-0.5-1.1-1-1.8-1.4L11,29l0,3.3l-0.4,3.8l1.2,0.3l0,2l3.1,1l0.2-1.7l1.3-0.1l0.1-3.8
				l1,0.9l1.1,0C18.3,33.2,18.2,31.6,18.2,30.2z"/>
		</g>
		<g>
			<polygon fill="#DAD1C0" points="18.1,26.6 18,27.9 18.1,28.8 12.4,29 12.6,28 12.6,26.1 			"/>
			<path fill="#DAD1C0" d="M18.1,28.8c0.7,0.4,1.3,0.9,1.8,1.4c0,1.4,0.1,3,0.4,4.5l-1.1,0l-1-0.9l-0.1,3.8l-1.3,0.1l-0.2,1.7
				l-3.1-1l0-2l-1.2-0.3l0.4-3.8l0-3.3L18.1,28.8z"/>
			<polygon fill="#F6F2E9" points="17.9,28.5 17.7,28 16.6,28 16.5,28.3 15.8,28.5 			"/>
			<polygon fill="#F6F2E9" points="17.7,27.9 17.9,26.9 16.7,26.8 16.8,27.4 15.8,27.8 			"/>
			<polygon opacity="0.45" fill="#547275" points="14.3,28.7 12.7,28.7 12.9,28 13.6,27.9 12.9,27.8 12.8,26.3 14.5,26.6 13.8,27.7 
				14.2,28 13.9,28.2 			"/>
			<path fill="#F6F2E9" d="M18,29.2c0.6,0.3,1.1,0.7,1.5,1.1c0.2,0.2,0.1,0.5,0.1,0.7c-0.1,0.1-0.2,0.1-0.3,0.2c0.1,0,0.2,0,0.3,0.1
				c0,1,0.1,2.1,0.4,3.1c-0.5-0.8-0.8-1.8-0.8-2.8c-0.1-0.1-0.2-0.2-0.3-0.2c0.1-0.1,0.2-0.3,0.3-0.4c-0.6,0.3-1.4,0.1-2-0.2
				c-0.6-0.3-1-1-1.1-1.6C16.8,29.1,17.5,29.2,18,29.2z"/>
			<path fill="#F6F2E9" d="M15.9,29.5c0.4,0.7,0.3,1.7-0.3,2.4c-0.6,0.6-1.5,0.9-2.3,0.5c0.3-0.4,0.5-0.8,0.8-1.2
				C14.5,30.5,15.2,29.9,15.9,29.5z"/>
			<path opacity="0.45" fill="#547275" d="M12.8,35.9c0.1,0.1,0.1,0.2,0.2,0.3c-0.2-0.1-0.3-0.1-0.5-0.2c0.1-1.2,0.4-3.6,0.4-3.6
				s-0.1-2.2,0-3.2c0.9-0.1,2-0.1,2.8-0.1c-1,0.2-2,0.8-2.6,1.7c-0.1,0.8-0.1,0.9-0.1,1.7L12.8,35.9z"/>
			<path opacity="0.45" fill="#547275" d="M14.6,32.9c0,0,0.1,0,0.2,0c0.2,0,0.4,0,0.6,0c0.3,0,0.6-0.1,0.9-0.2
				c0.2-0.1,0.3-0.1,0.5-0.2c0.2-0.1,0.4-0.2,0.6-0.3c0,0,0.1,0,0.1-0.1l0,0.1c0,0.1,0.1,0.2,0.1,0.2c0,0.1,0.1,0.2,0.1,0.3
				c0.1,0.2,0.2,0.3,0.3,0.5c0.2,0.3,0.4,0.6,0.6,0.7c0.2,0.2,0.4,0.3,0.5,0.4c0.1,0.1,0.2,0.1,0.2,0.1s-0.1,0-0.2-0.1
				c-0.1-0.1-0.3-0.2-0.6-0.3c-0.2-0.2-0.5-0.4-0.7-0.7c-0.1-0.2-0.2-0.3-0.3-0.5c0-0.1-0.1-0.2-0.1-0.3l0-0.1c0,0,0,0,0,0
				c-0.1,0-0.1,0.1-0.2,0.1c-0.1,0-0.2,0.1-0.3,0.1c-0.2,0.1-0.4,0.1-0.5,0.2c-0.4,0.1-0.7,0.2-1,0.2c-0.3,0-0.5,0-0.7-0.1
				C14.7,33,14.6,32.9,14.6,32.9z"/>
			<path opacity="0.45" fill="#547275" d="M16.8,37.2c0,0-0.1-0.8-0.1-1.8c0-1,0.2-1.8,0.2-1.8s0.1,0.8,0.1,1.8
				C17,36.4,16.8,37.2,16.8,37.2z"/>
			<path opacity="0.45" fill="#547275" d="M15.3,38.2c0,0-0.1-1,0-2.1c0.1-1.2,0.3-2.1,0.3-2.1s0.1,1,0,2.1
				C15.5,37.3,15.3,38.2,15.3,38.2z"/>
			<path opacity="0.45" fill="#547275" d="M13.8,36.1c0,0-0.1-0.6,0-1.2c0.1-0.7,0.3-1.2,0.3-1.2s0,0.6-0.1,1.2
				C14,35.5,13.8,36.1,13.8,36.1z"/>
			<path fill="#F6F2E9" d="M17.4,33.7c0.2,0.1,0.4,0.2,0.6,0.2c0,1.1-0.1,2.3-0.1,3.4c-0.2,0.1-0.5,0.1-0.7,0.1
				c0.1-0.1,0.2-0.3,0.2-0.5C17.3,35.9,17.3,34.9,17.4,33.7C17.4,33.8,17.4,33.8,17.4,33.7z"/>
			<path fill="#F6F2E9" d="M16.6,33.7c-0.1,1.8-0.1,3.6-0.1,5.5c-0.3-0.1-0.6-0.3-0.8-0.4c0.2,0.1,0.4-0.1,0.4-0.3
				c0.1-0.2,0.1-0.4,0.1-0.5c0-1,0-1.9,0-2.9c0-0.3,0-0.6,0-0.9c0-0.1,0-0.2,0-0.3C16.3,33.8,16.5,33.7,16.6,33.7z"/>
			<path fill="#F6F2E9" d="M15.5,33.8c-0.3,1.5-0.5,3.1-0.4,4.7c0,0.1,0,0.1,0,0.1c-0.4-0.2-0.8-0.4-1.1-0.6c0.2,0,0.4-0.1,0.5-0.3
				c0.1-0.2,0.1-0.4,0.1-0.6c0.1-1.2,0.2-2.5,0.3-3.7C15,33.7,15.3,33.8,15.5,33.8z"/>
			<path fill="#F6F2E9" d="M14,33.3c-0.4,0.9-0.5,1.9-0.4,2.9c-0.2-0.1-0.4-0.1-0.6-0.2c0.2-0.9,0.4-1.8,0.3-2.7
				C13.6,33.3,13.8,33.3,14,33.3z"/>
		</g>
		<g>
			<path fill="#AA3718" d="M15.2,13.5l14.6,0l-1,15.2c-4.2,0.2-8.4,0.2-12.7,0L15.2,13.5z"/>
			<path opacity="0.3" fill="#6A1448" d="M29.8,14.1l0,0.6l-7.4,0.4l-0.5,13.1l2.1,0.3c-2.1,0.1-4.2,0.1-6.2,0l0.7-0.2l-0.6-13.1
				l-2.5-0.1l-0.1-1.3L29.8,14.1z"/>
			<polygon fill="#EDD391" points="18.3,24.8 26.4,24.8 27,18.2 17.7,18.2 			"/>
			<polygon fill="#E7855E" points="19.5,21.9 25.1,21.9 25.3,20.3 19.4,20.3 			"/>
			<polygon fill="#E7855E" points="20.9,22.9 23.8,23 23.8,22.4 20.9,22.4 			"/>
			<path fill="#E7855E" d="M18.2,18.6l0,0.2l0.6,5.4l0,0l0,0c2.4,0,4.7,0.1,7.1,0.1c0.2-1.8,0.3-3.7,0.4-5.5l0-0.1l-0.1,0l-8-0.1
				L18.2,18.6z M18.5,19l7.7-0.1c-0.2,1.7-0.3,3.5-0.5,5.2c-2.3,0-4.6,0-6.9,0.1L18.5,19z"/>
			<polygon opacity="0.65" fill="#FFF7CC" points="16.9,27 17,28.3 17.4,28.3 17.3,27 			"/>
			
				<rect x="14.7" y="13.2" transform="matrix(-1 -2.104526e-03 2.104526e-03 -1 44.7336 27.3676)" fill="#E1A302" width="15.4" height="0.9"/>
			
				<rect x="28.2" y="12.3" transform="matrix(-2.104526e-03 1 -1 -2.104526e-03 42.2317 -14.7966)" opacity="0.25" fill="#EBDF9F" width="0.5" height="2.7"/>
			
				<rect x="15.5" y="12.9" transform="matrix(-2.104526e-03 1 -1 -2.104526e-03 29.4301 -2.0755)" opacity="0.25" fill="#EBDF9F" width="0.5" height="1.5"/>
		</g>
		<g>
			<path fill="#F6A021" d="M26.3,42.9l0.8-2.9c-4.4-0.6-8.7-0.6-13.1,0l0.8,2.9l-2.2,11.6l2.9,3l10,0l2.8-3L26.3,42.9z M18.2,42.4
				l0.5-1.7c1.4-0.2,3-0.1,4.6,0.1l0.3,1.7L18.2,42.4z"/>
			<path opacity="0.3" fill="#AC1737" d="M14,40l0.8,2.9l11.4,0l0.8-2.9C22.9,39.4,18.5,39.4,14,40z M18.2,42.4l0.5-1.7
				c1.4-0.2,3-0.1,4.6,0.1l0.3,1.7L18.2,42.4z"/>
			<polygon opacity="0.3" fill="#AC1737" points="28.4,54.6 25.5,57.6 15.5,57.6 12.6,54.5 12.6,54.5 28.4,54.6 28.4,54.6 			"/>
			<polygon opacity="0.4" fill="#EBDF9F" points="13.4,54 15.1,43.4 16.1,43.4 16.6,43.4 25.7,43.4 27.5,54 22.2,54 24.2,53.3 
				22.7,43.8 16.6,43.4 14.3,54 13.4,54 			"/>
			<polygon opacity="0.4" fill="#EBDF9F" points="15.2,42.6 14.7,40.5 15.5,40.5 15.7,42.6 15.2,42.6 			"/>
			<polygon opacity="0.2" fill="#AC1737" points="16.9,42.7 16.5,40.5 18.3,40.5 17.8,42.7 23.4,42.9 15.5,42.9 16.9,42.7 			"/>
			<polygon opacity="0.4" fill="#EBDF9F" points="13.4,55 15.7,57.3 16.3,57.3 14.5,55 13.4,55 			"/>
		</g>
		<g>
			<path fill="#79AA2B" d="M31.7,45.4c1,2.6,1.9,5.5,2.8,8.7c-0.5,1.4-1.1,2.6-1.8,3.5c-2,0.3-4.1,0.2-6.3,0c-0.7-1-1.3-2.2-1.8-3.6
				c0.8-3.2,1.7-6.2,2.8-8.7L31.7,45.4z"/>
			<path fill="#FFE796" d="M31.6,50.5c0,1.6-1,2.4-2.1,2.4c-1.2,0-2.1-0.8-2.1-2.4s1-3.3,2.1-3.3C30.7,47.3,31.6,49,31.6,50.5z"/>
			<path fill="#E7855E" d="M29.5,52.5c-0.5,0-1.1-0.2-1.4-0.7c-0.3-0.5-0.4-1.1-0.3-1.6c0-0.6,0.2-1.1,0.5-1.6
				c0.1-0.2,0.3-0.5,0.5-0.7c0.2-0.2,0.5-0.4,0.8-0.4c0.3,0,0.6,0.2,0.8,0.4c0.2,0.2,0.4,0.4,0.5,0.7c0.3,0.5,0.4,1,0.5,1.6
				c0,0.5,0,1.1-0.3,1.6C30.6,52.3,30,52.5,29.5,52.5z M29.5,52.4c0.5,0,1.1-0.2,1.3-0.7c0.3-0.5,0.3-1,0.3-1.5
				c-0.1-0.5-0.2-1.1-0.5-1.5c-0.1-0.2-0.3-0.4-0.5-0.6c-0.2-0.2-0.4-0.3-0.7-0.3c-0.2,0-0.5,0.1-0.7,0.3c-0.2,0.2-0.3,0.4-0.5,0.6
				c-0.3,0.5-0.4,1-0.5,1.5c-0.1,0.5,0,1.1,0.3,1.5C28.4,52.2,29,52.4,29.5,52.4z"/>
			<path opacity="0.3" fill="#21567E" d="M34.5,54.1c-0.5,1.4-1.1,2.6-1.8,3.5c-2,0.3-4.1,0.2-6.3,0c-0.7-1-1.3-2.2-1.8-3.6
				c0,0,0,0,0,0L34.5,54.1C34.5,54.1,34.5,54.1,34.5,54.1z"/>
			<path opacity="0.4" fill="#EBDF9F" d="M25.1,53.6c0.7-2.9,1.5-5.6,2.4-7.8l0.4,0l0.2,0l3.4,0c0.9,2.2,1.7,4.9,2.4,7.8l-3.3,0
				l1.3-0.6c-0.4-2.4-0.9-4.7-1.5-6.8l-2.3-0.4c-0.8,2.4-1.6,5-2.4,7.8L25.1,53.6z"/>
			<path opacity="0.4" fill="#EBDF9F" d="M25.1,54.5c0.4,1.1,0.8,2,1.4,3l0.4,0l-1.1-3L25.1,54.5z"/>
			<polygon fill="#E7855E" points="30.3,50.7 28.7,50.7 28.6,49.8 30.4,49.8 			"/>
			<polygon fill="#E8D995" points="27.4,45.4 31.7,45.4 31.8,43.7 32.9,43.2 33,41.7 27.2,42.1 24.4,45.4 24.9,45.9 27.1,44.6 			
				"/>
			<path opacity="0.2" fill="#E7855E" d="M27.6,42.5l-0.3,0l-2.3,2.7l2.2-1.3l0.4,1l2.2,0C28.9,44.4,28,43.6,27.6,42.5z"/>
			<polygon fill="#E7855E" points="33,41.7 33.8,41.7 33.8,42.9 32.9,43.2 			"/>
			<path fill="#E7855E" d="M31.8,43.7c0.5,1.2,1.3,2.3,2.2,3.3l0.4-0.1c-0.8-1.3-1.5-2.5-1.6-3.7L31.8,43.7z"/>
		</g>
		<g>
			<polygon fill="#D3A76C" points="11.9,86.3 25.5,86.3 26.5,73.1 11.5,73.1 			"/>
			<polygon fill="#BF9258" points="5.7,73 11.5,73.1 11.9,86.3 6.6,86.3 			"/>
			<polygon fill="#FFEFBC" points="20.3,77.4 24.7,77.4 25.2,74.4 19.9,74.4 			"/>
			<path fill="#166779" d="M16.1,80.4l3.8,0.1l-1.6,2.1l0,1.9l1.2,0.6l-2.8,0l1.2-0.6l0-1.9L16.1,80.4z M13.6,81.8l0.1,2.5l0.3,0
				l0.1-2.5l0.9,0.4L13.8,80l-1.1,2.1L13.6,81.8z M12.9,84.7l1.9-0.1L14.6,85l-1.7,0L12.9,84.7z"/>
		</g>
		<g>
			<polygon fill="#E1B678" points="10.6,73.1 20.6,73.1 21.3,62.6 10.3,62.6 			"/>
			<polygon fill="#BF9258" points="5.9,62.6 10.3,62.6 10.6,73.1 6.6,73.1 			"/>
			<polygon fill="#FFEFBC" points="16.7,66 20,66 20.3,63.7 16.4,63.6 			"/>
			<path fill="#166779" d="M13.7,68.4l2.8,0.1l-1.2,1.6l0,1.5l0.9,0.5l-2.1,0l0.9-0.5l0-1.5L13.7,68.4z M11.7,69.5l0,2l0.2,0l0.1-2
				l0.7,0.3l-0.9-1.7l-0.8,1.6L11.7,69.5z M11.2,71.8l1.4-0.1l-0.1,0.4l-1.2,0L11.2,71.8z"/>
		</g>
		<g>
			<path fill="#62B6C4" d="M7.2,17.6l10.6,0l-0.7,11.1c-3,0.2-6.1,0.2-9.2,0L7.2,17.6z"/>
			<path opacity="0.3" fill="#6A1448" d="M17.8,18.1l0,0.5l-5.4,0.3l-0.4,9.5l1.5,0.2c-1.5,0.1-3,0-4.5,0l0.5-0.1L9.2,19l-1.8,0
				l-0.1-0.9L17.8,18.1z"/>
			<polygon fill="#EDD391" points="9.5,25.8 15.4,25.9 15.8,21.1 9.1,21 			"/>
			<polygon fill="#E7855E" points="10.4,23.7 14.5,23.7 14.6,22.5 10.3,22.5 			"/>
			<polygon fill="#E7855E" points="11.4,24.5 13.5,24.5 13.5,24.1 11.4,24.1 			"/>
			<path fill="#E7855E" d="M9.4,21.4l0,0.1l0.4,3.9l0,0l0,0c1.7,0,3.5,0.1,5.2,0.1c0.1-1.3,0.2-2.7,0.3-4l0-0.1l-0.1,0l-5.8-0.1
				L9.4,21.4z M9.7,21.6l5.6-0.1c-0.1,1.3-0.2,2.5-0.4,3.8c-1.7,0-3.3,0-5,0L9.7,21.6z"/>
			
				<rect x="6.9" y="17.4" transform="matrix(-1 -2.104526e-03 2.104526e-03 -1 24.9026 35.487)" fill="#E1A302" width="11.2" height="0.7"/>
			
				<rect x="16.7" y="16.7" transform="matrix(-2.104526e-03 1 -1 -2.104526e-03 34.6968 0.856)" opacity="0.25" fill="#EBDF9F" width="0.4" height="2"/>
			
				<rect x="7.4" y="17.2" transform="matrix(-2.104526e-03 1 -1 -2.104526e-03 25.3816 10.1125)" opacity="0.25" fill="#EBDF9F" width="0.4" height="1.1"/>
		</g>
	</g>
	<g>
		<polygon fill="#DAB092" points="51.7,38.7 52.8,38.7 71.5,52.1 69.3,95.4 68.3,95.3 70.2,52 		"/>
		
			<linearGradient id="SVGID_1_" gradientUnits="userSpaceOnUse" x1="60.7004" y1="101.7443" x2="60.7004" y2="45.1667" gradientTransform="matrix(1 2.104526e-03 -2.104526e-03 1 0.3988 -6.5461)">
			<stop  offset="0" style="stop-color:#EE7C29"/>
			<stop  offset="1" style="stop-color:#BA2418"/>
		</linearGradient>
		<polygon fill="url(#SVGID_1_)" points="54.4,95.3 51.7,38.7 70.2,52 68.3,95.3 		"/>
		<g>
			<path fill="#581224" d="M55,41.9l13.6,9.7L67.5,53c-0.2,0.2-0.5,0.3-0.7,0.1l-6.6-4.3l0,0l-3.4-2.2l0,0l-0.6-0.4
				c-0.9-0.6-1.5-1.5-1.5-2.6c0,0,0,0,0,0l-0.1-1.1L55,41.9z"/>
			<polygon fill="#581224" points="51,40.4 54.5,42.6 55,41.9 51.6,39.5 			"/>
			<path fill="#581224" d="M69.6,50.1l-0.8,1.2l-0.2,0.3l-0.9-0.6l-1.3-0.9l-1.8-1.3l0,0l-0.2-0.2L63,47.6l-0.2-0.2l-0.3-0.2
				l-0.9-0.7l0,0l-3.9-2.8l-0.1,0l-0.3-0.2l-0.1,0l-0.8-0.6l-0.2-0.1l-0.5-0.4l-0.1-0.1l-0.2-0.2L55,41.9l0,0l0.2-0.3l0.2-0.2
				l0.1-0.2l0,0l1.1-0.3c0.6-0.2,1.3-0.1,1.9,0.1c0.2,0.1,0.4,0.2,0.6,0.3c0.1,0.1,0.3,0.2,0.4,0.3l0.2,0.2l0.6,0.5l4.9,3.8l1.6,1.3
				l0,0l2.5,2l0.1,0.1C69.7,49.5,69.8,49.8,69.6,50.1z"/>
			<path fill="#581224" d="M55.5,41.1l-0.1,0.2l-0.2,0.2L55,41.9l0,0l-0.2-0.1c0,0,0,0,0,0l-0.4-0.3l-0.1-0.1l-0.4-0.3l-0.2-0.2
				c0,0,0,0,0,0l-0.5-0.3l-0.5-0.4l-0.9-0.6l-0.2-0.1l0,0l0.7-0.9l0.2,0.1l0.1,0l0.4,0.4l0,0l0.3,0.2l0,0l0,0l0,0l1.7,1.4l0.3,0.2
				l0.1,0.1L55.5,41.1z"/>
			<polygon fill="#581224" points="52.5,38.5 53.3,39.3 52,41.2 51,40.7 			"/>
			<path opacity="0.3" fill="#AF4E27" d="M56.8,45.3c0,0-1.8-1.8-1.1-3.4c0.8-1.5,3-0.7,3.7-0.2c0.7,0.5,2.6,2.1,2.6,2.1
				s-2.7-2.1-3.3-2c-0.6,0.1-0.9,0.7-1.5,1.7C56.7,44.5,56.8,45.3,56.8,45.3z"/>
			<path opacity="0.55" fill="#FFF5D5" d="M57.5,44l0.9-1.3l7,5.3l-0.2,0.3c0,0-6.5-4.5-6.8-4.7C58.1,43.4,57.5,44,57.5,44z"/>
			<polygon opacity="0.55" fill="#FFF5D5" points="69.4,49.3 69.3,49.4 67.4,47.9 60.1,42.4 60.1,42.4 59.9,42.1 59.9,42 59.8,41.7 
				59.8,41.7 60.3,42.1 65.2,46 66.9,47.3 66.9,47.3 			"/>
			<polygon fill="#EF7F2B" points="55.5,41.1 55.4,41.3 55.2,41.6 55,41.9 55,41.9 54.9,42 54.9,42 54.6,42.4 54.5,42.6 53.9,42.2 
				54,42 54.3,41.6 54.4,41.5 54.4,41.5 54.4,41.5 54.5,41.4 54.6,41.2 54.7,41.1 54.8,40.9 54.8,40.9 55,40.7 55.3,40.9 55.4,41 
				55.5,41.1 			"/>
			<path opacity="0.53" fill="#7A1C23" d="M53.3,39.3L52.1,41l0.3,0.2l0.2-0.2l2.1,1.4c0,0-0.2,1.5,1.1,2.9c1,1.2,11.8,7.7,11.8,7.7
				l0.7-1.1c0,0-10.6-7.1-11.5-8c-0.8-0.8-1.9-2-1.9-2l-1.7-1.1L53.3,39.3z"/>
			<polygon opacity="0.3" fill="#AF4E27" points="53.4,40.3 53.3,39.6 55.3,41.3 55.1,41.5 			"/>
			<polygon opacity="0.3" fill="#AF4E27" points="52.2,39.1 52.5,38.7 53.2,39.3 52.8,39.6 			"/>
			<polygon opacity="0.53" fill="#7A1C23" points="51.9,41 51.2,40.5 51.7,39.8 52.4,40.4 			"/>
			<polygon fill="#FFF5D5" points="53.3,39.3 55,40.7 54.8,40.9 53.3,39.6 53.3,39.5 53.2,39.4 			"/>
			<polygon fill="#FFF5D5" points="52.5,38.5 53.3,39.3 53.3,39.3 53.2,39.3 52.7,38.9 52.5,38.7 52.3,38.5 			"/>
			<path opacity="0.2" fill="#FFF5D5" d="M56.9,44.3L68.2,52l0.5-0.7l-11.2-8.1C57.5,43.1,56.8,43.8,56.9,44.3z"/>
			<path opacity="0.59" fill="#807C7D" d="M69.5,49.4l-0.1-0.1l-2.5-2c0,0,0.3,0.3,0.5,0.6c0.1,0.2,0.4,0.5,0.3,0.6
				c-0.2,0.3-0.9,0-0.8,0.7c0.1,0.7,2.4,0.7,2,1.3c0,0-0.7,0.5-0.7,0.5c-0.1,0.1-0.2,0.5-0.3,0.6c-0.2,0.1-0.6-0.6-0.8-0.5l0,0
				c-0.6,0.3-1.2,0.4-1.5,0c-0.1-0.1-0.1-0.2-0.1-0.3c-0.1-0.4-0.1-0.7-0.2-0.9c0,0,0,0,0,0c-0.1-0.4-0.2-0.6-0.3-0.8
				c-0.1-0.1-0.2,0.1-0.4,0.3c0,0,0,0,0,0c-0.2,0.3-0.5,0.6-0.6,0.4c-0.1-0.2,0-0.4,0.2-0.7c0,0,0,0,0,0c0.2-0.2,0.3-0.4,0.4-0.6
				l0,0c0,0,0-0.1-0.1-0.1c-0.1,0-0.1-0.1-0.2-0.1c-0.2,0-0.4,0.2-0.8-0.2c-0.2-0.2-0.4-0.4-0.6-0.7c0,0-0.1-0.1-0.1-0.1
				c-0.1-0.1-0.2-0.2-0.3-0.3c-0.3-0.3-0.6-0.6-0.9-0.7l0,0c-0.2,0-0.3,0-0.4,0.1C61.1,46.7,61,46.9,61,47c0,0,0,0,0,0
				c0,0.1,0,0.2-0.1,0.3c0,0.2,0,0.3-0.1,0.5c0,0.1,0,0.1,0,0.2c0,0,0,0,0,0c0,0,0,0,0,0.1c0,0,0,0,0,0.1c-0.1,0.1-0.1,0.1-0.3,0
				c-0.2,0-0.4-0.2-0.7-0.3c0,0-0.1,0-0.1-0.1c-0.1,0-0.1-0.1-0.2-0.1c-0.5-0.3-0.8-0.5-0.8-0.3l0,0c0.1,0.3,1.3,1.2,1.5,1.4
				c0,0,0,0,0,0l0,0l0.1,0.1l0.2,0.1l0.3,0.2l0.1,0.1l0.7,0.5l1.6,1L65,52l0,0l1.7,1.1c0.2,0.1,0.5,0.1,0.7-0.1l0.7-1.1l0.3-0.5
				l0.2-0.3l0.8-1.2C69.8,49.8,69.7,49.5,69.5,49.4z M61.4,47.3c-0.1-0.1-0.1-0.3-0.1-0.4c0.1-0.6,1.4,0.8,1.2,1.1
				c0,0,0,0.1-0.1,0.1c0,0,0,0,0,0c0,0,0,0,0,0C62.2,48.2,61.6,47.8,61.4,47.3C61.4,47.3,61.4,47.3,61.4,47.3z M67.9,49.4
				c-0.3,0.4-1,0.1-0.8-0.5C67.2,48.4,68.1,49.1,67.9,49.4z"/>
			<path opacity="0.59" fill="#807C7D" d="M60.8,46.9c-0.3,0.4-1.4-0.5-1.2-1.1C59.7,45.2,61,46.6,60.8,46.9z"/>
			<path opacity="0.59" fill="#807C7D" d="M59.4,44.9c0,0.1,0.5-0.2,0.3-0.4C59.5,44.2,59.3,44.6,59.4,44.9z"/>
			<path opacity="0.59" fill="#807C7D" d="M56.2,42.7c0,0.1,0,0.1,0,0.2c0.1,0.3,0.5,0.1,0.5,0.4c0,0.3-0.7,1.4-0.6,1.8
				c0.1,0.3,1,0.1,1.1,0.6s-0.4,1.1-0.4,1.1l0,0l-0.6-0.4c-0.9-0.6-1.5-1.5-1.5-2.6c0,0,0,0,0,0c0-0.1,0.1-0.9,0.3-0.8
				c0.2,0.1,0.1,0.5,0.1,0.6c0,0.1,0.5-0.7,0.8-1.2c0.1-0.1,0.2-0.2,0.2-0.2C56.1,42.1,56.2,42.4,56.2,42.7z"/>
			<path opacity="0.59" fill="#807C7D" d="M56.6,42.5c0,0.2,0.4-0.2,0.3-0.5C56.8,41.8,56.5,42.3,56.6,42.5z"/>
			<g opacity="0.59">
				<path fill="#807C7D" d="M55.9,41.4c0,0,0,0.1,0,0.1c0,0-0.1,0-0.1,0c0,0,0-0.1,0-0.1C55.8,41.4,55.8,41.4,55.9,41.4z"/>
				<path fill="#807C7D" d="M57.4,42.3c0.1,0,0.1,0.1,0,0.2c0,0.1-0.1,0.1-0.2,0c-0.1,0-0.1-0.1,0-0.2
					C57.3,42.2,57.4,42.2,57.4,42.3z"/>
				<path fill="#807C7D" d="M55.3,42.3c0.1,0,0.1,0.1,0,0.2c0,0.1-0.1,0.1-0.2,0c-0.1,0-0.1-0.1,0-0.2
					C55.2,42.2,55.3,42.2,55.3,42.3z"/>
			</g>
			<g opacity="0.59">
				<path fill="#807C7D" d="M58,45.1c0,0,0,0.1,0,0.1c0,0-0.1,0-0.1,0c0,0,0-0.1,0-0.1C57.9,45.1,58,45.1,58,45.1z"/>
				<path fill="#807C7D" d="M58.2,46.5c0,0,0,0.1,0,0.1c0,0-0.1,0-0.1,0c0,0,0-0.1,0-0.1C58.1,46.5,58.2,46.5,58.2,46.5z"/>
				<path fill="#807C7D" d="M66.5,49c0,0,0,0.1,0,0.1c0,0-0.1,0-0.1,0c0,0,0-0.1,0-0.1C66.5,49,66.5,49,66.5,49z"/>
				<path fill="#807C7D" d="M61.7,44.5c0.1,0,0.1,0.1,0,0.2c0,0.1-0.1,0.1-0.2,0c-0.1,0-0.1-0.1,0-0.2
					C61.6,44.5,61.7,44.5,61.7,44.5z"/>
				<path fill="#807C7D" d="M66.8,48.3c0.1,0,0.1,0.1,0,0.2c0,0.1-0.1,0.1-0.2,0c-0.1,0-0.1-0.1,0-0.2
					C66.6,48.3,66.7,48.2,66.8,48.3z"/>
				<path fill="#807C7D" d="M63,47.3c0.1,0,0.1,0.1,0,0.2c0,0.1-0.1,0.1-0.2,0c-0.1,0-0.1-0.1,0-0.2C62.8,47.3,62.9,47.3,63,47.3z"
					/>
			</g>
		</g>
		<g>
			<path fill="#581224" d="M51.7,42.1l13.6,9.7l-1.1,1.5c-0.2,0.2-0.5,0.3-0.7,0.1l-6.6-4.3l0,0L53.4,47l0,0l-0.6-0.4
				C51.9,46,51.3,45,51.3,44c0,0,0,0,0,0l-0.1-1.1L51.7,42.1z"/>
			<polygon fill="#581224" points="47.6,40.7 51.2,42.9 51.7,42.1 48.3,39.7 			"/>
			<path fill="#581224" d="M56.2,41.8l7.3,5.8c0,0,0,0,0,0l2.6,2.1c0.2,0.2,0.3,0.5,0.1,0.7l-1,1.5l-13.6-9.7l0.5-0.7l1.1-0.3
				c0.6-0.2,1.3-0.1,1.9,0.1c0.2,0.1,0.4,0.2,0.6,0.3l0,0C55.9,41.6,56.1,41.7,56.2,41.8z"/>
			<polygon fill="#581224" points="48.9,38.8 49.1,38.9 49.2,39 49.6,39.3 49.9,39.6 49.9,39.6 51.6,41 52.2,41.4 51.7,42.1 
				48.3,39.7 			"/>
			<polygon fill="#581224" points="49.2,38.8 50,39.6 48.6,41.5 47.7,41 			"/>
			<path opacity="0.3" fill="#AF4E27" d="M53.5,45.6c0,0-1.8-1.8-1.1-3.4c0.8-1.5,3-0.7,3.7-0.2s2.6,2.1,2.6,2.1s-2.7-2.1-3.3-2
				c-0.6,0.1-0.9,0.7-1.5,1.7C53.3,44.7,53.5,45.6,53.5,45.6z"/>
			<path opacity="0.55" fill="#FFF5D5" d="M54.1,44.3L55,43l7,5.3l-0.2,0.3c0,0-6.5-4.5-6.8-4.7S54.1,44.3,54.1,44.3z"/>
			<polygon opacity="0.55" fill="#FFF5D5" points="66,49.7 56.8,42.7 56.4,42 66,49.6 			"/>
			<polygon fill="#EF7F2B" points="51.2,42.9 50.6,42.5 51.6,41 52.2,41.4 			"/>
			<path opacity="0.53" fill="#7A1C23" d="M49.9,39.6l-1.2,1.7l0.3,0.2l0.2-0.2l2.1,1.4c0,0-0.2,1.5,1.1,2.9
				c1,1.2,11.8,7.7,11.8,7.7l0.7-1.1c0,0-10.6-7.1-11.5-8c-0.8-0.8-1.9-2-1.9-2l-1.7-1.1L49.9,39.6z"/>
			<polygon opacity="0.3" fill="#AF4E27" points="50,40.6 50,39.8 51.9,41.6 51.7,41.8 			"/>
			<polygon opacity="0.3" fill="#AF4E27" points="48.9,39.4 49.2,39 49.8,39.5 49.5,39.9 			"/>
			<polygon opacity="0.53" fill="#7A1C23" points="48.6,41.3 47.9,40.8 48.4,40.1 49,40.6 			"/>
			<polygon fill="#FFF5D5" points="49.9,39.6 51.6,41 51.5,41.2 50,39.9 49.9,39.8 49.9,39.7 			"/>
			<polygon fill="#FFF5D5" points="49.2,38.8 50,39.6 49.9,39.6 49.9,39.6 49.4,39.2 49.2,39 48.9,38.8 			"/>
			<path opacity="0.2" fill="#FFF5D5" d="M53.6,44.6l11.3,7.6l0.5-0.7l-11.2-8.1C54.2,43.4,53.5,44.1,53.6,44.6z"/>
			<path opacity="0.59" fill="#807C7D" d="M57.5,47.2c-0.3,0.4-1.4-0.5-1.2-1.1C56.4,45.5,57.7,46.9,57.5,47.2z"/>
			<path opacity="0.59" fill="#807C7D" d="M56,45.2c0,0.1,0.5-0.2,0.3-0.4C56.2,44.5,56,44.9,56,45.2z"/>
			<path opacity="0.59" fill="#807C7D" d="M52.9,43c0,0.1,0,0.1,0,0.2c0.1,0.3,0.5,0.1,0.5,0.4c0,0.3-0.7,1.4-0.6,1.8
				c0.1,0.3,1,0.1,1.1,0.6c0.1,0.5-0.4,1.1-0.4,1.1l0,0l-0.6-0.4C51.9,46,51.3,45,51.3,44c0,0,0,0,0,0c0-0.1,0.1-0.9,0.3-0.8
				c0.2,0.1,0.1,0.5,0.1,0.6c0,0.1,0.5-0.7,0.8-1.2c0.1-0.1,0.2-0.2,0.2-0.2C52.8,42.4,52.8,42.7,52.9,43z"/>
			<path opacity="0.59" fill="#807C7D" d="M53.2,42.8c0,0.2,0.4-0.2,0.3-0.5C53.5,42.1,53.2,42.6,53.2,42.8z"/>
			<g opacity="0.59">
				<path fill="#807C7D" d="M52.5,41.7c0,0,0,0.1,0,0.1c0,0-0.1,0-0.1,0c0,0,0-0.1,0-0.1C52.5,41.7,52.5,41.7,52.5,41.7z"/>
				<path fill="#807C7D" d="M54.1,42.5c0.1,0,0.1,0.1,0,0.2c0,0.1-0.1,0.1-0.2,0s-0.1-0.1,0-0.2C53.9,42.5,54,42.5,54.1,42.5z"/>
				<path fill="#807C7D" d="M52,42.6c0.1,0,0.1,0.1,0,0.2c0,0.1-0.1,0.1-0.2,0c-0.1,0-0.1-0.1,0-0.2C51.8,42.5,51.9,42.5,52,42.6z"
					/>
			</g>
			<g opacity="0.59">
				<path fill="#807C7D" d="M54.7,45.4c0,0,0,0.1,0,0.1c0,0-0.1,0-0.1,0c0,0,0-0.1,0-0.1C54.6,45.4,54.6,45.3,54.7,45.4z"/>
				<path fill="#807C7D" d="M54.9,46.8c0,0,0,0.1,0,0.1c0,0-0.1,0-0.1,0c0,0,0-0.1,0-0.1C54.8,46.8,54.8,46.8,54.9,46.8z"/>
				<path fill="#807C7D" d="M63.2,49.3c0,0,0,0.1,0,0.1c0,0-0.1,0-0.1,0c0,0,0-0.1,0-0.1C63.1,49.3,63.2,49.3,63.2,49.3z"/>
				<path fill="#807C7D" d="M58.4,44.8c0.1,0,0.1,0.1,0,0.2c0,0.1-0.1,0.1-0.2,0c-0.1,0-0.1-0.1,0-0.2S58.3,44.8,58.4,44.8z"/>
				<path fill="#807C7D" d="M63.5,48.6c0.1,0,0.1,0.1,0,0.2c0,0.1-0.1,0.1-0.2,0c-0.1,0-0.1-0.1,0-0.2
					C63.3,48.6,63.4,48.5,63.5,48.6z"/>
				<path fill="#807C7D" d="M59.7,47.6c0.1,0,0.1,0.1,0,0.2c0,0.1-0.1,0.1-0.2,0c-0.1,0-0.1-0.1,0-0.2
					C59.5,47.6,59.6,47.6,59.7,47.6z"/>
			</g>
		</g>
		<g>
			<path fill="#581224" d="M48.7,42.4l13.6,9.7l-1.1,1.5c-0.2,0.2-0.5,0.3-0.7,0.1l-6.6-4.3l0,0l-3.4-2.2l0,0l-0.6-0.4
				c-0.9-0.6-1.5-1.5-1.5-2.6c0,0,0,0,0,0l-0.1-1.1L48.7,42.4z"/>
			<polygon fill="#581224" points="44.7,41 48.2,43.2 48.7,42.4 45.4,40 			"/>
			<path fill="#581224" d="M53.3,42.1l7.3,5.8c0,0,0,0,0,0l2.6,2.1c0.2,0.2,0.3,0.5,0.1,0.7l-1,1.5l-13.6-9.7l0.5-0.7l1.1-0.3
				c0.6-0.2,1.3-0.1,1.9,0.1c0.2,0.1,0.4,0.2,0.6,0.3l0,0C53,41.9,53.1,42,53.3,42.1z"/>
			<polygon fill="#581224" points="46,39.1 46.2,39.2 46.2,39.3 46.7,39.6 47,39.9 47,39.9 48.7,41.3 49.2,41.7 48.7,42.4 45.4,40 
							"/>
			<polygon fill="#581224" points="46.3,39.1 47,39.9 45.7,41.8 44.7,41.3 			"/>
			<path opacity="0.3" fill="#AF4E27" d="M50.6,45.9c0,0-1.8-1.8-1.1-3.4c0.8-1.5,3-0.7,3.7-0.2c0.7,0.5,2.6,2.1,2.6,2.1
				s-2.7-2.1-3.3-2c-0.6,0.1-0.9,0.7-1.5,1.7C50.4,45,50.6,45.9,50.6,45.9z"/>
			<path opacity="0.55" fill="#FFF5D5" d="M51.2,44.6l0.9-1.3l7,5.3l-0.2,0.3c0,0-6.5-4.5-6.8-4.7C51.8,44,51.2,44.6,51.2,44.6z"/>
			<polygon opacity="0.55" fill="#FFF5D5" points="63.1,50 53.8,43 53.5,42.3 63.1,49.9 			"/>
			<polygon fill="#EF7F2B" points="48.2,43.2 47.6,42.8 48.7,41.3 49.2,41.7 			"/>
			<path opacity="0.53" fill="#7A1C23" d="M47,39.9l-1.2,1.7l0.3,0.2l0.2-0.2l2.1,1.4c0,0-0.2,1.5,1.1,2.9c1,1.2,11.8,7.7,11.8,7.7
				l0.7-1.1c0,0-10.6-7.1-11.5-8c-0.8-0.8-1.9-2-1.9-2l-1.7-1.1L47,39.9z"/>
			<polygon opacity="0.3" fill="#AF4E27" points="47.1,40.9 47.1,40.1 49,41.9 48.8,42.1 			"/>
			<polygon opacity="0.3" fill="#AF4E27" points="45.9,39.7 46.2,39.3 46.9,39.8 46.6,40.2 			"/>
			<polygon opacity="0.53" fill="#7A1C23" points="45.7,41.6 44.9,41.1 45.5,40.4 46.1,40.9 			"/>
			<polygon fill="#FFF5D5" points="47,39.9 48.7,41.3 48.6,41.5 47.1,40.2 47,40.1 46.9,40 			"/>
			<polygon fill="#FFF5D5" points="46.3,39.1 47,39.9 47,39.9 47,39.9 46.5,39.5 46.2,39.2 46,39.1 			"/>
			<path opacity="0.2" fill="#FFF5D5" d="M50.6,44.9l11.3,7.6l0.5-0.7l-11.2-8.1C51.3,43.7,50.5,44.4,50.6,44.9z"/>
			<path opacity="0.59" fill="#807C7D" d="M63.2,49.9l-0.1-0.1l-0.2-0.2l-1.5-1.1L60.8,48l-0.2-0.1c0,0,0.1,0.1,0.2,0.2
				c0.1,0.1,0.1,0.1,0.2,0.2c0.1,0.1,0.1,0.1,0.2,0.2c0.1,0.2,0.2,0.4,0.2,0.5c0,0,0,0,0,0c0,0-0.1,0.1-0.1,0.1
				c-0.1,0.1-0.3,0.1-0.4,0.2c0,0-0.1,0.1-0.1,0.1c0,0,0,0,0,0c0,0.1,1.2,0.1,1.2,0.3c0.1,0.7,0.1,0.9-0.3,1.5c0,0,0,0,0,0
				c-0.1,0.1-0.1,0.2-0.2,0.2c0,0-0.1,0.1-0.1,0.1c-0.1,0.1-0.3,0.2-0.4,0.2c0,0,0,0-0.1,0c0,0,0,0,0,0c-0.7,0.3-1.5,0.4-1.6-0.2
				c-0.1-0.4-0.1-0.7-0.2-0.9c0,0,0,0,0,0c0,0,0,0,0,0c0-0.2-0.1-0.4-0.1-0.5c0-0.1-0.1-0.2-0.2-0.2c0,0-0.1,0-0.1,0
				c-0.1,0-0.2,0.1-0.2,0.3l0,0c0,0,0,0,0,0c-0.2,0.3-0.5,0.6-0.6,0.3c-0.1-0.2,0-0.4,0.2-0.6c0,0,0,0,0,0c0,0,0,0,0,0
				c0.1-0.1,0.1-0.2,0.2-0.3c0.1-0.1,0.2-0.2,0.2-0.3c0,0,0-0.1-0.1-0.1c-0.1,0-0.1-0.1-0.2-0.1l0,0c-0.2,0-0.4,0.2-0.8-0.2
				c-0.2-0.2-0.4-0.4-0.6-0.7c0,0-0.1-0.1-0.1-0.1c-0.1-0.1-0.2-0.2-0.3-0.3l0,0c-0.3-0.3-0.6-0.6-0.9-0.7l0,0c-0.2,0-0.3,0-0.4,0.1
				c-0.1,0.1-0.1,0.1-0.1,0.2c0,0.1-0.1,0.1-0.1,0.2c0,0,0,0,0,0c0,0,0,0.1,0,0.1c-0.1,0.6-0.1,1.2-0.5,1.1
				c-0.6-0.2-1.9-1.1-1.8-0.8c0.1,0.3,1.3,1.2,1.5,1.4c0,0,0,0,0,0l0,0l6.6,4.3c0.2,0.1,0.5,0.1,0.7-0.1l0.8-1.1l0,0l0.2-0.4l0,0
				l0-0.1L63,51l0.1-0.2l0.1-0.2c0,0,0.1-0.1,0.1-0.1c0,0,0,0,0,0C63.4,50.3,63.4,50.1,63.2,49.9z M55.1,48
				C55.1,47.9,55.1,47.9,55.1,48C55,47.8,55,47.7,55,47.6c0,0,0,0,0,0c0.1-0.5,1,0.4,1.2,0.9c0,0.1,0,0.2,0,0.2c0,0,0,0.1-0.1,0.1
				l0,0c0,0,0,0,0,0c0,0,0,0-0.1,0c-0.2,0-0.6-0.3-0.9-0.6C55.2,48.1,55.1,48,55.1,48z"/>
			<path opacity="0.59" fill="#807C7D" d="M54.5,47.5c-0.3,0.4-1.4-0.5-1.2-1.1C53.4,45.8,54.7,47.2,54.5,47.5z"/>
			<path opacity="0.59" fill="#807C7D" d="M53.1,45.5c0,0.1,0.5-0.2,0.3-0.4C53.2,44.8,53,45.2,53.1,45.5z"/>
			<path opacity="0.59" fill="#807C7D" d="M49.9,43.3c0,0.1,0,0.1,0,0.2c0.1,0.3,0.5,0.1,0.5,0.4c0,0.3-0.7,1.4-0.6,1.8
				c0.1,0.3,1,0.1,1.1,0.6c0.1,0.5-0.4,1.1-0.4,1.1l0,0l-0.6-0.4c-0.9-0.6-1.5-1.5-1.5-2.6c0,0,0,0,0,0c0-0.1,0.1-0.9,0.3-0.8
				c0.2,0.1,0.1,0.5,0.1,0.6c0,0.1,0.5-0.7,0.8-1.2c0.1-0.1,0.2-0.2,0.2-0.2C49.9,42.7,49.9,43,49.9,43.3z"/>
			<path opacity="0.59" fill="#807C7D" d="M50.3,43.1c0,0.2,0.4-0.2,0.3-0.5C50.6,42.4,50.3,42.9,50.3,43.1z"/>
			<g opacity="0.59">
				<path fill="#807C7D" d="M49.6,42c0,0,0,0.1,0,0.1c0,0-0.1,0-0.1,0c0,0,0-0.1,0-0.1C49.5,42,49.6,42,49.6,42z"/>
				<path fill="#807C7D" d="M51.2,42.8c0.1,0,0.1,0.1,0,0.2s-0.1,0.1-0.2,0c-0.1,0-0.1-0.1,0-0.2C51,42.8,51.1,42.8,51.2,42.8z"/>
				<path fill="#807C7D" d="M49.1,42.9c0.1,0,0.1,0.1,0,0.2c0,0.1-0.1,0.1-0.2,0c-0.1,0-0.1-0.1,0-0.2S49,42.8,49.1,42.9z"/>
			</g>
			<g opacity="0.59">
				<path fill="#807C7D" d="M51.7,45.7c0,0,0,0.1,0,0.1c0,0-0.1,0-0.1,0c0,0,0-0.1,0-0.1C51.7,45.7,51.7,45.7,51.7,45.7z"/>
				<path fill="#807C7D" d="M51.9,47.1c0,0,0,0.1,0,0.1c0,0-0.1,0-0.1,0c0,0,0-0.1,0-0.1C51.9,47.1,51.9,47.1,51.9,47.1z"/>
				<path fill="#807C7D" d="M60.3,49.6c0,0,0,0.1,0,0.1c0,0-0.1,0-0.1,0c0,0,0-0.1,0-0.1C60.2,49.6,60.2,49.6,60.3,49.6z"/>
				<path fill="#807C7D" d="M55.5,45.1c0.1,0,0.1,0.1,0,0.2c0,0.1-0.1,0.1-0.2,0c-0.1,0-0.1-0.1,0-0.2
					C55.3,45.1,55.4,45.1,55.5,45.1z"/>
				<path fill="#807C7D" d="M60.5,48.9c0.1,0,0.1,0.1,0,0.2c0,0.1-0.1,0.1-0.2,0c-0.1,0-0.1-0.1,0-0.2
					C60.4,48.9,60.5,48.8,60.5,48.9z"/>
				<path fill="#807C7D" d="M56.7,47.9c0.1,0,0.1,0.1,0,0.2c0,0.1-0.1,0.1-0.2,0c-0.1,0-0.1-0.1,0-0.2
					C56.6,47.9,56.7,47.9,56.7,47.9z"/>
			</g>
		</g>
		<g>
			<path fill="#581224" d="M69.6,61.4l-0.2,0.4l-0.1,0.1l-0.7,1.1c-0.2,0.2-0.5,0.3-0.7,0.1l-1.9-1.2L63.2,60l-1.9-1.3l0,0l-3.4-2.2
				l0,0l-0.6-0.4c-0.9-0.6-1.5-1.5-1.5-2.6c0,0,0,0,0,0l-0.1-1.1l0.1-0.2l0.3-0.4l0.1-0.1l0,0l0.6,0.4l0.1,0.1l0.5,0.3l1,0.7l0.1,0
				l0.3,0.2l0.1,0l5.1,3.6l0.2,0.2l3.8,2.7L69.6,61.4z"/>
			<polygon fill="#581224" points="52,50.2 55.5,52.4 56,51.7 52.7,49.3 			"/>
			<path fill="#581224" d="M70.6,59.9l-0.8,1.2l-0.2,0.3l-1.7-1.2L64,57.4l-0.2-0.2l-5.1-3.6l-0.1,0l-0.3-0.2l-0.1,0l-1-0.7
				l-0.5-0.3l-0.1-0.1L56,51.7l0,0l0.5-0.7l0,0l1.1-0.3c0.6-0.2,1.3-0.1,1.9,0.1c0.2,0.1,0.4,0.2,0.6,0.3l0,0
				c0.1,0.1,0.3,0.2,0.4,0.3l0.2,0.2l5.5,4.3l4.2,3.3l0.1,0.1c0.1,0,0.1,0.1,0.1,0.2C70.7,59.5,70.7,59.7,70.6,59.9z"/>
			<polygon fill="#581224" points="53.3,48.4 53.5,48.5 53.5,48.5 54,48.9 54.3,49.1 54.3,49.2 56,50.6 56.5,51 56,51.7 52.7,49.3 
							"/>
			<polygon fill="#581224" points="53.6,48.4 54.3,49.1 53,51 52,50.5 			"/>
			
				<linearGradient id="SVGID_2_" gradientUnits="userSpaceOnUse" x1="-311.8773" y1="262.9766" x2="-311.8773" y2="256.7285" gradientTransform="matrix(0.58 -0.8146 0.8146 0.58 28.5791 -351.2587)">
				<stop  offset="0" style="stop-color:#000000"/>
				<stop  offset="1" style="stop-color:#B2A512"/>
			</linearGradient>
			<path opacity="0.62" fill="url(#SVGID_2_)" d="M57.9,55.2c0,0-1.8-1.8-1.1-3.4c0.8-1.5,3-0.7,3.7-0.2c0.7,0.5,2.6,2.1,2.6,2.1
				s-2.7-2.1-3.3-2c-0.6,0.1-0.9,0.7-1.5,1.7C57.7,54.3,57.9,55.2,57.9,55.2z"/>
			<path opacity="0.55" fill="#FFF5D5" d="M58.5,53.8l0.9-1.3l7,5.3l-0.2,0.3c0,0-6.5-4.5-6.8-4.7C59.1,53.2,58.5,53.8,58.5,53.8z"
				/>
			<polygon opacity="0.55" fill="#FFF5D5" points="70.4,59.2 61.1,52.3 60.8,51.5 70.4,59.1 			"/>
			
				<linearGradient id="SVGID_3_" gradientUnits="userSpaceOnUse" x1="-313.2498" y1="255.7436" x2="-311.4218" y2="255.7436" gradientTransform="matrix(0.58 -0.8146 0.8146 0.58 28.5791 -351.2587)">
				<stop  offset="0" style="stop-color:#F6A64E"/>
				<stop  offset="1" style="stop-color:#EF7F2B"/>
			</linearGradient>
			<polygon fill="url(#SVGID_3_)" points="55.5,52.4 54.9,52 56,50.6 56.5,51 			"/>
			<path opacity="0.53" fill="#7A1C23" d="M54.3,49.2l-1.2,1.7l0.3,0.2l0.2-0.2l2.1,1.4c0,0-0.2,1.5,1.1,2.9
				c1,1.2,11.8,7.7,11.8,7.7l0.7-1.1c0,0-10.6-7.1-11.5-8s-1.9-2-1.9-2l-1.7-1.1L54.3,49.2z"/>
			
				<linearGradient id="SVGID_4_" gradientUnits="userSpaceOnUse" x1="-311.7112" y1="255.9907" x2="-311.7112" y2="253.4036" gradientTransform="matrix(0.58 -0.8146 0.8146 0.58 28.5791 -351.2587)">
				<stop  offset="0" style="stop-color:#000000"/>
				<stop  offset="1" style="stop-color:#B2A512"/>
			</linearGradient>
			<polygon opacity="0.62" fill="url(#SVGID_4_)" points="54.4,50.1 54.4,49.4 56.3,51.1 56.1,51.3 			"/>
			
				<linearGradient id="SVGID_5_" gradientUnits="userSpaceOnUse" x1="-311.4852" y1="253.0851" x2="-311.4852" y2="252.2227" gradientTransform="matrix(0.58 -0.8146 0.8146 0.58 28.5791 -351.2587)">
				<stop  offset="0" style="stop-color:#000000"/>
				<stop  offset="1" style="stop-color:#B2A512"/>
			</linearGradient>
			<polygon opacity="0.62" fill="url(#SVGID_5_)" points="53.2,48.9 53.5,48.5 54.2,49.1 53.9,49.5 			"/>
			<polygon opacity="0.53" fill="#7A1C23" points="53,50.8 52.2,50.4 52.8,49.6 53.4,50.2 			"/>
			<polygon fill="#FFF5D5" points="54.3,49.2 56,50.6 55.9,50.7 54.4,49.4 54.3,49.4 54.2,49.3 			"/>
			<polygon fill="#FFF5D5" points="53.6,48.4 54.3,49.1 54.3,49.2 54.3,49.1 53.8,48.7 53.5,48.5 53.5,48.5 			"/>
			<path opacity="0.2" fill="#FFF5D5" d="M69.8,61.1l-0.2,0.3l-0.2,0.4l-0.1,0.1l-0.2-0.1l-0.2-0.1l-0.2-0.1l-0.3-0.2l-0.3-0.2
				l-0.9-0.6L66.6,60l-0.4-0.3l-0.6-0.4l-3.8-2.6L60.6,56L59,54.9l0,0c0,0,0,0,0,0l-1.1-0.7l0,0c0-0.1,0-0.1,0-0.2
				c0-0.2,0.2-0.5,0.3-0.7c0.1-0.2,0.3-0.3,0.3-0.3c0,0,0,0,0,0l0.3,0.3l0.3,0.2l1.3,0.9l0.3,0.2l7.4,5.4L69.8,61.1z"/>
			<path opacity="0.59" fill="#807C7D" d="M61.8,56.7c-0.3,0.4-1.4-0.5-1.2-1.1C60.7,55.1,62,56.4,61.8,56.7z"/>
			<path opacity="0.59" fill="#807C7D" d="M60.4,54.8c0,0.1,0.5-0.2,0.3-0.4C60.5,54.1,60.3,54.5,60.4,54.8z"/>
			<path opacity="0.59" fill="#807C7D" d="M57.2,52.6c0,0.1,0,0.1,0,0.2c0.1,0.3,0.5,0.1,0.5,0.4c0,0.3-0.7,1.4-0.6,1.8
				c0.1,0.3,1,0.1,1.1,0.6c0.1,0.5-0.4,1.1-0.4,1.1l0,0l-0.6-0.4c-0.9-0.6-1.5-1.5-1.5-2.6c0,0,0,0,0,0c0-0.1,0.1-0.9,0.3-0.8
				c0.2,0.1,0.1,0.5,0.1,0.6c0,0.1,0.5-0.7,0.8-1.2c0.1-0.1,0.2-0.2,0.2-0.2C57.2,52,57.2,52.3,57.2,52.6z"/>
			<path opacity="0.59" fill="#807C7D" d="M57.6,52.4c0,0.2,0.4-0.2,0.3-0.5C57.9,51.7,57.6,52.2,57.6,52.4z"/>
			<g opacity="0.59">
				<path fill="#807C7D" d="M56.9,51.2c0,0,0,0.1,0,0.1c0,0-0.1,0-0.1,0c0,0,0-0.1,0-0.1C56.8,51.2,56.9,51.2,56.9,51.2z"/>
				<path fill="#807C7D" d="M58.5,52.1c0.1,0,0.1,0.1,0,0.2c0,0.1-0.1,0.1-0.2,0c-0.1,0-0.1-0.1,0-0.2
					C58.3,52.1,58.4,52.1,58.5,52.1z"/>
				<path fill="#807C7D" d="M56.4,52.1c0.1,0,0.1,0.1,0,0.2c0,0.1-0.1,0.1-0.2,0c-0.1,0-0.1-0.1,0-0.2
					C56.2,52.1,56.3,52.1,56.4,52.1z"/>
			</g>
			<g opacity="0.59">
				<path fill="#807C7D" d="M59,54.9c0,0,0,0.1,0,0.1c0,0-0.1,0-0.1,0c0,0,0-0.1,0-0.1C59,54.9,59,54.9,59,54.9z"/>
				<path fill="#807C7D" d="M59.2,56.3c0,0,0,0.1,0,0.1c0,0-0.1,0-0.1,0c0,0,0-0.1,0-0.1C59.2,56.3,59.2,56.3,59.2,56.3z"/>
				<path fill="#807C7D" d="M67.6,58.9c0,0,0,0.1,0,0.1c0,0-0.1,0-0.1,0c0,0,0-0.1,0-0.1S67.5,58.8,67.6,58.9z"/>
				<path fill="#807C7D" d="M62.8,54.4c0.1,0,0.1,0.1,0,0.2c0,0.1-0.1,0.1-0.2,0c-0.1,0-0.1-0.1,0-0.2
					C62.6,54.3,62.7,54.3,62.8,54.4z"/>
				<path fill="#807C7D" d="M67.8,58.1c0.1,0,0.1,0.1,0,0.2c0,0.1-0.1,0.1-0.2,0c-0.1,0-0.1-0.1,0-0.2
					C67.7,58.1,67.8,58.1,67.8,58.1z"/>
				<path fill="#807C7D" d="M64,57.2c0.1,0,0.1,0.1,0,0.2c0,0.1-0.1,0.1-0.2,0c-0.1,0-0.1-0.1,0-0.2C63.9,57.2,64,57.1,64,57.2z"/>
			</g>
		</g>
		<g>
			<path fill="#581224" d="M52.7,52l13.6,9.7l-1.1,1.5c-0.2,0.2-0.5,0.3-0.7,0.1L57.9,59l0,0l-3.4-2.2l0,0l-0.6-0.4
				c-0.9-0.6-1.5-1.5-1.5-2.6c0,0,0,0,0,0l-0.1-1.1L52.7,52z"/>
			<polygon fill="#581224" points="48.7,50.5 52.2,52.7 52.7,52 49.3,49.6 			"/>
			<path fill="#581224" d="M57.2,51.6l7.3,5.8c0,0,0,0,0,0l2.6,2.1c0.2,0.2,0.3,0.5,0.1,0.7l-1,1.5L52.7,52l0.5-0.7l1.1-0.3
				c0.6-0.2,1.3-0.1,1.9,0.1c0.2,0.1,0.4,0.2,0.6,0.3l0,0C56.9,51.4,57.1,51.5,57.2,51.6z"/>
			<polygon fill="#581224" points="50,48.7 50.1,48.8 50.2,48.8 50.6,49.2 50.9,49.4 51,49.5 52.7,50.8 53.2,51.3 52.7,52 
				49.3,49.6 			"/>
			<polygon fill="#581224" points="50.2,48.6 51,49.4 49.7,51.3 48.7,50.8 			"/>
			
				<linearGradient id="SVGID_6_" gradientUnits="userSpaceOnUse" x1="-314.0515" y1="260.4257" x2="-314.0515" y2="254.1776" gradientTransform="matrix(0.58 -0.8146 0.8146 0.58 28.5791 -351.2587)">
				<stop  offset="0" style="stop-color:#000000"/>
				<stop  offset="1" style="stop-color:#B2A512"/>
			</linearGradient>
			<path opacity="0.62" fill="url(#SVGID_6_)" d="M54.5,55.5c0,0-1.8-1.8-1.1-3.4c0.8-1.5,3-0.7,3.7-0.2c0.7,0.5,2.6,2.1,2.6,2.1
				s-2.7-2.1-3.3-2c-0.6,0.1-0.9,0.7-1.5,1.7C54.4,54.6,54.5,55.5,54.5,55.5z"/>
			<path opacity="0.55" fill="#FFF5D5" d="M55.1,54.1l0.9-1.3l7,5.3l-0.2,0.3c0,0-6.5-4.5-6.8-4.7C55.8,53.5,55.1,54.1,55.1,54.1z"
				/>
			<polygon opacity="0.55" fill="#FFF5D5" points="67,59.5 57.8,52.6 57.4,51.8 67.1,59.4 			"/>
			
				<linearGradient id="SVGID_7_" gradientUnits="userSpaceOnUse" x1="-315.424" y1="253.1927" x2="-313.596" y2="253.1927" gradientTransform="matrix(0.58 -0.8146 0.8146 0.58 28.5791 -351.2587)">
				<stop  offset="0" style="stop-color:#F6A64E"/>
				<stop  offset="1" style="stop-color:#EF7F2B"/>
			</linearGradient>
			<polygon fill="url(#SVGID_7_)" points="52.2,52.7 51.6,52.3 52.7,50.8 53.2,51.3 			"/>
			<path opacity="0.53" fill="#7A1C23" d="M51,49.5l-1.2,1.7l0.3,0.2l0.2-0.2l2.1,1.4c0,0-0.2,1.5,1.1,2.9c1,1.2,11.8,7.7,11.8,7.7
				l0.7-1.1c0,0-10.6-7.1-11.5-8c-0.8-0.8-1.9-2-1.9-2L50.9,51L51,49.5z"/>
			
				<linearGradient id="SVGID_8_" gradientUnits="userSpaceOnUse" x1="-313.8853" y1="253.4398" x2="-313.8853" y2="250.8527" gradientTransform="matrix(0.58 -0.8146 0.8146 0.58 28.5791 -351.2587)">
				<stop  offset="0" style="stop-color:#000000"/>
				<stop  offset="1" style="stop-color:#B2A512"/>
			</linearGradient>
			<polygon opacity="0.62" fill="url(#SVGID_8_)" points="51.1,50.4 51,49.7 53,51.4 52.8,51.6 			"/>
			
				<linearGradient id="SVGID_9_" gradientUnits="userSpaceOnUse" x1="-313.6594" y1="250.5342" x2="-313.6594" y2="249.6718" gradientTransform="matrix(0.58 -0.8146 0.8146 0.58 28.5791 -351.2587)">
				<stop  offset="0" style="stop-color:#000000"/>
				<stop  offset="1" style="stop-color:#B2A512"/>
			</linearGradient>
			<polygon opacity="0.62" fill="url(#SVGID_9_)" points="49.9,49.2 50.2,48.8 50.8,49.4 50.5,49.8 			"/>
			<polygon opacity="0.53" fill="#7A1C23" points="49.6,51.1 48.9,50.7 49.4,49.9 50.1,50.5 			"/>
			<polygon fill="#FFF5D5" points="51,49.5 52.7,50.8 52.5,51 51,49.7 50.9,49.6 50.9,49.6 			"/>
			<polygon fill="#FFF5D5" points="50.2,48.6 51,49.4 51,49.5 50.9,49.4 50.4,49 50.2,48.8 50.1,48.8 			"/>
			<path opacity="0.2" fill="#FFF5D5" d="M54.6,54.5l11.3,7.6l0.5-0.7l-11.2-8.1C55.2,53.2,54.5,53.9,54.6,54.5z"/>
			<path opacity="0.59" fill="#807C7D" d="M58.5,57c-0.3,0.4-1.4-0.5-1.2-1.1C57.4,55.4,58.7,56.7,58.5,57z"/>
			<path opacity="0.59" fill="#807C7D" d="M57,55c0,0.1,0.5-0.2,0.3-0.4C57.2,54.4,57,54.7,57,55z"/>
			<path opacity="0.59" fill="#807C7D" d="M53.9,52.9c0,0.1,0,0.1,0,0.2c0.1,0.3,0.5,0.1,0.5,0.4c0,0.3-0.7,1.4-0.6,1.8
				c0.1,0.3,1,0.1,1.1,0.6c0.1,0.5-0.4,1.1-0.4,1.1l0,0l-0.6-0.4c-0.9-0.6-1.5-1.5-1.5-2.6c0,0,0,0,0,0c0-0.1,0.1-0.9,0.3-0.8
				c0.2,0.1,0.1,0.5,0.1,0.6c0,0.1,0.5-0.7,0.8-1.2c0.1-0.1,0.2-0.2,0.2-0.2C53.8,52.3,53.9,52.6,53.9,52.9z"/>
			<path opacity="0.59" fill="#807C7D" d="M54.2,52.7c0,0.2,0.4-0.2,0.3-0.5C54.5,52,54.2,52.5,54.2,52.7z"/>
			<g opacity="0.59">
				<path fill="#807C7D" d="M53.6,51.5c0,0,0,0.1,0,0.1c0,0-0.1,0-0.1,0c0,0,0-0.1,0-0.1C53.5,51.5,53.5,51.5,53.6,51.5z"/>
				<path fill="#807C7D" d="M55.1,52.4c0.1,0,0.1,0.1,0,0.2c0,0.1-0.1,0.1-0.2,0c-0.1,0-0.1-0.1,0-0.2C55,52.4,55.1,52.3,55.1,52.4z
					"/>
				<path fill="#807C7D" d="M53,52.4c0.1,0,0.1,0.1,0,0.2s-0.1,0.1-0.2,0c-0.1,0-0.1-0.1,0-0.2C52.9,52.4,53,52.4,53,52.4z"/>
			</g>
			<g opacity="0.59">
				<path fill="#807C7D" d="M55.7,55.2c0,0,0,0.1,0,0.1c0,0-0.1,0-0.1,0c0,0,0-0.1,0-0.1C55.6,55.2,55.7,55.2,55.7,55.2z"/>
				<path fill="#807C7D" d="M55.9,56.6c0,0,0,0.1,0,0.1c0,0-0.1,0-0.1,0c0,0,0-0.1,0-0.1C55.8,56.6,55.9,56.6,55.9,56.6z"/>
				<path fill="#807C7D" d="M64.2,59.1c0,0,0,0.1,0,0.1c0,0-0.1,0-0.1,0c0,0,0-0.1,0-0.1C64.1,59.1,64.2,59.1,64.2,59.1z"/>
				<path fill="#807C7D" d="M59.4,54.7c0.1,0,0.1,0.1,0,0.2c0,0.1-0.1,0.1-0.2,0c-0.1,0-0.1-0.1,0-0.2
					C59.3,54.6,59.4,54.6,59.4,54.7z"/>
				<path fill="#807C7D" d="M64.5,58.4c0.1,0,0.1,0.1,0,0.2c0,0.1-0.1,0.1-0.2,0c-0.1,0-0.1-0.1,0-0.2
					C64.3,58.4,64.4,58.4,64.5,58.4z"/>
				<path fill="#807C7D" d="M60.7,57.5c0.1,0,0.1,0.1,0,0.2c0,0.1-0.1,0.1-0.2,0c-0.1,0-0.1-0.1,0-0.2
					C60.5,57.5,60.6,57.4,60.7,57.5z"/>
			</g>
		</g>
		<g>
			<path fill="#581224" d="M49.7,52.3l13.6,9.7l-1.1,1.5c-0.2,0.2-0.5,0.3-0.7,0.1L55,59.3l0,0l-3.4-2.2l0,0l-0.6-0.4
				c-0.9-0.6-1.5-1.5-1.5-2.6c0,0,0,0,0,0L49.2,53L49.7,52.3z"/>
			<polygon fill="#581224" points="45.7,50.8 49.2,53 49.7,52.3 46.4,49.9 			"/>
			<path fill="#581224" d="M54.3,51.9l7.3,5.8c0,0,0,0,0,0l2.6,2.1c0.2,0.2,0.3,0.5,0.1,0.7l-1,1.5l-13.6-9.7l0.5-0.7l1.1-0.3
				c0.6-0.2,1.3-0.1,1.9,0.1c0.2,0.1,0.4,0.2,0.6,0.3l0,0C54,51.7,54.1,51.8,54.3,51.9z"/>
			<polygon fill="#581224" points="47,49 47.2,49.1 47.2,49.1 47.7,49.5 48,49.7 48,49.8 49.7,51.2 50.3,51.6 49.7,52.3 46.4,49.9 
							"/>
			<polygon fill="#581224" points="47.3,49 48.1,49.7 46.7,51.6 45.8,51.1 			"/>
			
				<linearGradient id="SVGID_10_" gradientUnits="userSpaceOnUse" x1="-316.002" y1="258.209" x2="-316.002" y2="251.9609" gradientTransform="matrix(0.58 -0.8146 0.8146 0.58 28.5791 -351.2587)">
				<stop  offset="0" style="stop-color:#000000"/>
				<stop  offset="1" style="stop-color:#B2A512"/>
			</linearGradient>
			<path opacity="0.62" fill="url(#SVGID_10_)" d="M51.6,55.8c0,0-1.8-1.8-1.1-3.4c0.8-1.5,3-0.7,3.7-0.2s2.6,2.1,2.6,2.1
				s-2.7-2.1-3.3-2C53,52.4,52.7,53,52,53.9C51.4,54.9,51.6,55.8,51.6,55.8z"/>
			<path opacity="0.55" fill="#FFF5D5" d="M52.2,54.4l0.9-1.3l7,5.3L60,58.7c0,0-6.5-4.5-6.8-4.7C52.8,53.8,52.2,54.4,52.2,54.4z"/>
			<polygon opacity="0.55" fill="#FFF5D5" points="64.1,59.8 54.9,52.9 54.5,52.1 64.1,59.7 			"/>
			
				<linearGradient id="SVGID_11_" gradientUnits="userSpaceOnUse" x1="-317.3746" y1="250.976" x2="-315.5466" y2="250.976" gradientTransform="matrix(0.58 -0.8146 0.8146 0.58 28.5791 -351.2587)">
				<stop  offset="0" style="stop-color:#F6A64E"/>
				<stop  offset="1" style="stop-color:#EF7F2B"/>
			</linearGradient>
			<polygon fill="url(#SVGID_11_)" points="49.2,53 48.7,52.6 49.7,51.2 50.3,51.6 			"/>
			<path opacity="0.53" fill="#7A1C23" d="M48,49.8l-1.2,1.7l0.3,0.2l0.2-0.2l2.1,1.4c0,0-0.2,1.5,1.1,2.9c1,1.2,11.8,7.7,11.8,7.7
				l0.7-1.1c0,0-10.6-7.1-11.5-8c-0.8-0.8-1.9-2-1.9-2l-1.7-1.1L48,49.8z"/>
			
				<linearGradient id="SVGID_12_" gradientUnits="userSpaceOnUse" x1="-315.8359" y1="251.2231" x2="-315.8359" y2="248.636" gradientTransform="matrix(0.58 -0.8146 0.8146 0.58 28.5791 -351.2587)">
				<stop  offset="0" style="stop-color:#000000"/>
				<stop  offset="1" style="stop-color:#B2A512"/>
			</linearGradient>
			<polygon opacity="0.62" fill="url(#SVGID_12_)" points="48.1,50.7 48.1,50 50,51.7 49.8,51.9 			"/>
			
				<linearGradient id="SVGID_13_" gradientUnits="userSpaceOnUse" x1="-315.61" y1="248.3175" x2="-315.61" y2="247.4551" gradientTransform="matrix(0.58 -0.8146 0.8146 0.58 28.5791 -351.2587)">
				<stop  offset="0" style="stop-color:#000000"/>
				<stop  offset="1" style="stop-color:#B2A512"/>
			</linearGradient>
			<polygon opacity="0.62" fill="url(#SVGID_13_)" points="47,49.5 47.3,49.1 47.9,49.7 47.6,50.1 			"/>
			<polygon opacity="0.53" fill="#7A1C23" points="46.7,51.4 45.9,51 46.5,50.2 47.1,50.8 			"/>
			<polygon fill="#FFF5D5" points="48,49.8 49.7,51.2 49.6,51.3 48.1,50 48,49.9 47.9,49.9 			"/>
			<polygon fill="#FFF5D5" points="47.3,49 48.1,49.7 48,49.8 48,49.7 47.5,49.3 47.3,49.1 47.2,49.1 			"/>
			<path opacity="0.2" fill="#FFF5D5" d="M51.7,54.8L63,62.4l0.5-0.7l-11.2-8.1C52.3,53.5,51.6,54.2,51.7,54.8z"/>
			<path opacity="0.59" fill="#807C7D" d="M62.3,58.9c-0.2,0.3-0.7,0.1-0.6,0.8c0.1,0.7,1.4,0.8,0.9,1.4c-0.1,0.1-0.1,0.2-0.2,0.2
				c-0.6,0.5-2,0.9-2.1,0.1c-0.2-1-0.2-1.5-0.5-1.7c-0.2-0.2-0.7,1-1,0.6c-0.2-0.4,0.5-1,0.5-1.3c0,0,0-0.1-0.1-0.1
				c-0.1,0-0.1-0.1-0.2-0.1c-0.2,0-0.4,0.2-0.8-0.2c-0.2-0.3-0.6-0.7-1-1.1c-0.3-0.3-0.6-0.6-0.9-0.7c-0.2,0-0.3,0-0.4,0.1
				c-0.5,0.5-0.2,1.8-0.8,1.6c-0.6-0.2-1.9-1.1-1.8-0.8c0.1,0.4,1.6,1.4,1.6,1.4l0,0l6.6,4.3c0.2,0.1,0.5,0.1,0.7-0.1l2.1-3
				c0.2-0.2,0.1-0.5-0.1-0.7l-2.6-2.1C61.6,57.8,62.5,58.6,62.3,58.9z M56,57.4c0.1-0.6,1.4,0.8,1.2,1.1C57,58.8,55.9,57.9,56,57.4z
				 M62.6,59.9c-0.3,0.4-1,0.1-0.8-0.5C62,58.8,62.8,59.6,62.6,59.9z"/>
			<path opacity="0.59" fill="#807C7D" d="M55.5,57.3c-0.3,0.4-1.4-0.5-1.2-1.1C54.5,55.7,55.7,57,55.5,57.3z"/>
			<path opacity="0.59" fill="#807C7D" d="M54.1,55.3c0,0.1,0.5-0.2,0.3-0.4C54.2,54.7,54.1,55,54.1,55.3z"/>
			<path opacity="0.59" fill="#807C7D" d="M51,53.2c0,0.1,0,0.1,0,0.2c0.1,0.3,0.5,0.1,0.5,0.4c0,0.3-0.7,1.4-0.6,1.8
				c0.1,0.3,1,0.1,1.1,0.6c0.1,0.5-0.4,1.1-0.4,1.1l0,0l-0.6-0.4c-0.9-0.6-1.5-1.5-1.5-2.6c0,0,0,0,0,0c0-0.1,0.1-0.9,0.3-0.8
				c0.2,0.1,0.1,0.5,0.1,0.6c0,0.1,0.5-0.7,0.8-1.2c0.1-0.1,0.2-0.2,0.2-0.2C50.9,52.6,50.9,52.9,51,53.2z"/>
			<path opacity="0.59" fill="#807C7D" d="M51.3,53c0,0.2,0.4-0.2,0.3-0.5C51.6,52.3,51.3,52.8,51.3,53z"/>
			<g opacity="0.59">
				<path fill="#807C7D" d="M50.6,51.8c0,0,0,0.1,0,0.1c0,0-0.1,0-0.1,0c0,0,0-0.1,0-0.1C50.5,51.8,50.6,51.8,50.6,51.8z"/>
				<path fill="#807C7D" d="M52.2,52.7c0.1,0,0.1,0.1,0,0.2s-0.1,0.1-0.2,0c-0.1,0-0.1-0.1,0-0.2C52,52.7,52.1,52.7,52.2,52.7z"/>
				<path fill="#807C7D" d="M50.1,52.7c0.1,0,0.1,0.1,0,0.2c0,0.1-0.1,0.1-0.2,0c-0.1,0-0.1-0.1,0-0.2C49.9,52.7,50,52.7,50.1,52.7z
					"/>
			</g>
			<g opacity="0.59">
				<path fill="#807C7D" d="M52.8,55.5c0,0,0,0.1,0,0.1c0,0-0.1,0-0.1,0c0,0,0-0.1,0-0.1C52.7,55.5,52.7,55.5,52.8,55.5z"/>
				<path fill="#807C7D" d="M53,56.9c0,0,0,0.1,0,0.1c0,0-0.1,0-0.1,0c0,0,0-0.1,0-0.1C52.9,56.9,52.9,56.9,53,56.9z"/>
				<path fill="#807C7D" d="M61.3,59.5c0,0,0,0.1,0,0.1c0,0-0.1,0-0.1,0c0,0,0-0.1,0-0.1C61.2,59.4,61.3,59.4,61.3,59.5z"/>
				<path fill="#807C7D" d="M56.5,55c0.1,0,0.1,0.1,0,0.2c0,0.1-0.1,0.1-0.2,0s-0.1-0.1,0-0.2C56.3,54.9,56.4,54.9,56.5,55z"/>
				<path fill="#807C7D" d="M61.5,58.7c0.1,0,0.1,0.1,0,0.2c0,0.1-0.1,0.1-0.2,0c-0.1,0-0.1-0.1,0-0.2
					C61.4,58.7,61.5,58.7,61.5,58.7z"/>
				<path fill="#807C7D" d="M57.7,57.8c0.1,0,0.1,0.1,0,0.2c0,0.1-0.1,0.1-0.2,0c-0.1,0-0.1-0.1,0-0.2
					C57.6,57.8,57.7,57.7,57.7,57.8z"/>
			</g>
		</g>
		<g>
			<path fill="#581224" d="M55.5,63.6L69,73.3l-1.1,1.5c-0.2,0.2-0.5,0.3-0.7,0.1l-6.6-4.3l0,0l-3.4-2.2l0,0L56.6,68
				c-0.9-0.6-1.5-1.5-1.5-2.6c0,0,0,0,0,0l-0.1-1.1L55.5,63.6z"/>
			<polygon fill="#581224" points="51.4,62.1 55,64.3 55.5,63.6 52.1,61.2 			"/>
			<path fill="#581224" d="M60,63.3l7.3,5.8c0,0,0,0,0,0l2.6,2.1c0.2,0.2,0.3,0.5,0.1,0.7l-1,1.5l-13.6-9.7l0.5-0.7l1.1-0.3
				c0.6-0.2,1.3-0.1,1.9,0.1c0.2,0.1,0.4,0.2,0.6,0.3l0,0C59.7,63.1,59.9,63.2,60,63.3z"/>
			<polygon fill="#581224" points="52.7,60.3 52.9,60.4 53,60.5 53.4,60.8 53.7,61.1 53.7,61.1 55.4,62.5 56,62.9 55.5,63.6 
				52.1,61.2 			"/>
			<polygon fill="#581224" points="53,60.3 53.8,61 52.4,62.9 51.5,62.4 			"/>
			
				<linearGradient id="SVGID_14_" gradientUnits="userSpaceOnUse" x1="-321.9084" y1="269.4213" x2="-321.9084" y2="263.1732" gradientTransform="matrix(0.58 -0.8146 0.8146 0.58 28.5791 -351.2587)">
				<stop  offset="0" style="stop-color:#000000"/>
				<stop  offset="1" style="stop-color:#B2A512"/>
			</linearGradient>
			<path opacity="0.62" fill="url(#SVGID_14_)" d="M57.3,67.1c0,0-1.8-1.8-1.1-3.4c0.8-1.5,3-0.7,3.7-0.2c0.7,0.5,2.6,2.1,2.6,2.1
				s-2.7-2.1-3.3-2c-0.6,0.1-0.9,0.7-1.5,1.7C57.1,66.2,57.3,67.1,57.3,67.1z"/>
			<path opacity="0.55" fill="#FFF5D5" d="M57.9,65.7l0.9-1.3l7,5.3L65.7,70c0,0-6.5-4.5-6.8-4.7C58.5,65.1,57.9,65.7,57.9,65.7z"/>
			<polygon opacity="0.55" fill="#FFF5D5" points="69.8,71.1 60.6,64.2 60.2,63.4 69.8,71 			"/>
			
				<linearGradient id="SVGID_15_" gradientUnits="userSpaceOnUse" x1="-323.2809" y1="262.1883" x2="-321.4529" y2="262.1883" gradientTransform="matrix(0.58 -0.8146 0.8146 0.58 28.5791 -351.2587)">
				<stop  offset="0" style="stop-color:#F6A64E"/>
				<stop  offset="1" style="stop-color:#EF7F2B"/>
			</linearGradient>
			<polygon fill="url(#SVGID_15_)" points="55,64.3 54.4,64 55.4,62.5 56,62.9 			"/>
			<path opacity="0.53" fill="#7A1C23" d="M53.7,61.1l-1.2,1.7l0.3,0.2l0.2-0.2l2.1,1.4c0,0-0.2,1.5,1.1,2.9
				c1,1.2,11.8,7.7,11.8,7.7l0.7-1.1c0,0-10.6-7.1-11.5-8c-0.8-0.8-1.9-2-1.9-2l-1.7-1.1L53.7,61.1z"/>
			
				<linearGradient id="SVGID_16_" gradientUnits="userSpaceOnUse" x1="-321.7422" y1="262.4355" x2="-321.7422" y2="259.8483" gradientTransform="matrix(0.58 -0.8146 0.8146 0.58 28.5791 -351.2587)">
				<stop  offset="0" style="stop-color:#000000"/>
				<stop  offset="1" style="stop-color:#B2A512"/>
			</linearGradient>
			<polygon opacity="0.62" fill="url(#SVGID_16_)" points="53.8,62 53.8,61.3 55.7,63 55.5,63.3 			"/>
			
				<linearGradient id="SVGID_17_" gradientUnits="userSpaceOnUse" x1="-321.5163" y1="259.5298" x2="-321.5163" y2="258.6675" gradientTransform="matrix(0.58 -0.8146 0.8146 0.58 28.5791 -351.2587)">
				<stop  offset="0" style="stop-color:#000000"/>
				<stop  offset="1" style="stop-color:#B2A512"/>
			</linearGradient>
			<polygon opacity="0.62" fill="url(#SVGID_17_)" points="52.7,60.9 53,60.4 53.6,61 53.3,61.4 			"/>
			<polygon opacity="0.53" fill="#7A1C23" points="52.4,62.7 51.6,62.3 52.2,61.5 52.8,62.1 			"/>
			<polygon fill="#FFF5D5" points="53.7,61.1 55.4,62.5 55.3,62.6 53.8,61.3 53.7,61.3 53.7,61.2 			"/>
			<polygon fill="#FFF5D5" points="53,60.3 53.8,61 53.7,61.1 53.7,61.1 53.2,60.6 53,60.4 52.9,60.4 			"/>
			<path opacity="0.2" fill="#FFF5D5" d="M57.4,66.1l11.3,7.6l0.5-0.7L58,64.9C58,64.9,57.3,65.6,57.4,66.1z"/>
			<path opacity="0.59" fill="#807C7D" d="M61.3,68.6C61,69,59.9,68.1,60,67.6C60.2,67,61.5,68.3,61.3,68.6z"/>
			<path opacity="0.59" fill="#807C7D" d="M59.8,66.7c0,0.1,0.5-0.2,0.3-0.4C60,66,59.8,66.4,59.8,66.7z"/>
			<path opacity="0.59" fill="#807C7D" d="M56.7,64.5c0,0.1,0,0.1,0,0.2c0.1,0.3,0.5,0.1,0.5,0.4c0,0.3-0.7,1.4-0.6,1.8
				c0.1,0.3,1,0.1,1.1,0.6c0.1,0.5-0.4,1.1-0.4,1.1l0,0L56.6,68c-0.9-0.6-1.5-1.5-1.5-2.6c0,0,0,0,0,0c0-0.1,0.1-0.9,0.3-0.8
				c0.2,0.1,0.1,0.5,0.1,0.6c0,0.1,0.5-0.7,0.8-1.2c0.1-0.1,0.2-0.2,0.2-0.2C56.6,63.9,56.6,64.2,56.7,64.5z"/>
			<path opacity="0.59" fill="#807C7D" d="M57,64.3c0,0.2,0.4-0.2,0.3-0.5C57.3,63.6,57,64.1,57,64.3z"/>
			<g opacity="0.59">
				<path fill="#807C7D" d="M56.3,63.2c0,0,0,0.1,0,0.1c0,0-0.1,0-0.1,0c0,0,0-0.1,0-0.1C56.3,63.1,56.3,63.1,56.3,63.2z"/>
				<path fill="#807C7D" d="M57.9,64c0.1,0,0.1,0.1,0,0.2c0,0.1-0.1,0.1-0.2,0c-0.1,0-0.1-0.1,0-0.2C57.7,64,57.8,64,57.9,64z"/>
				<path fill="#807C7D" d="M55.8,64c0.1,0,0.1,0.1,0,0.2c0,0.1-0.1,0.1-0.2,0c-0.1,0-0.1-0.1,0-0.2C55.6,64,55.7,64,55.8,64z"/>
			</g>
			<g opacity="0.59">
				<path fill="#807C7D" d="M58.5,66.8c0,0,0,0.1,0,0.1c0,0-0.1,0-0.1,0c0,0,0-0.1,0-0.1C58.4,66.8,58.4,66.8,58.5,66.8z"/>
				<path fill="#807C7D" d="M58.7,68.2c0,0,0,0.1,0,0.1c0,0-0.1,0-0.1,0c0,0,0-0.1,0-0.1C58.6,68.2,58.6,68.2,58.7,68.2z"/>
				<path fill="#807C7D" d="M67,70.8c0,0,0,0.1,0,0.1s-0.1,0-0.1,0c0,0,0-0.1,0-0.1C66.9,70.8,67,70.7,67,70.8z"/>
				<path fill="#807C7D" d="M62.2,66.3c0.1,0,0.1,0.1,0,0.2c0,0.1-0.1,0.1-0.2,0c-0.1,0-0.1-0.1,0-0.2C62,66.2,62.1,66.2,62.2,66.3z
					"/>
				<path fill="#807C7D" d="M67.3,70c0.1,0,0.1,0.1,0,0.2c0,0.1-0.1,0.1-0.2,0c-0.1,0-0.1-0.1,0-0.2C67.1,70,67.2,70,67.3,70z"/>
				<path fill="#807C7D" d="M63.5,69.1c0.1,0,0.1,0.1,0,0.2c0,0.1-0.1,0.1-0.2,0c-0.1,0-0.1-0.1,0-0.2
					C63.3,69.1,63.4,69.1,63.5,69.1z"/>
			</g>
		</g>
		<g>
			<path fill="#581224" d="M52.1,63.9l13.6,9.7l-1.1,1.5c-0.2,0.2-0.5,0.3-0.7,0.1l-6.6-4.3l0,0l-3.4-2.2l0,0l-0.6-0.4
				c-0.9-0.6-1.5-1.5-1.5-2.6c0,0,0,0,0,0l-0.1-1.1L52.1,63.9z"/>
			<polygon fill="#581224" points="48.1,62.4 51.6,64.6 52.1,63.9 48.7,61.5 			"/>
			<path fill="#581224" d="M56.6,63.5l7.3,5.8c0,0,0,0,0,0l2.6,2.1c0.2,0.2,0.3,0.5,0.1,0.7l-1,1.5l-13.6-9.7l0.5-0.7l1.1-0.3
				c0.6-0.2,1.3-0.1,1.9,0.1c0.2,0.1,0.4,0.2,0.6,0.3l0,0C56.4,63.4,56.5,63.4,56.6,63.5z"/>
			<polygon fill="#581224" points="49.4,60.6 49.6,60.7 49.6,60.7 50,61.1 50.3,61.3 50.4,61.4 52.1,62.8 52.6,63.2 52.1,63.9 
				48.7,61.5 			"/>
			<polygon fill="#581224" points="49.7,60.6 50.4,61.3 49.1,63.2 48.1,62.7 			"/>
			
				<linearGradient id="SVGID_18_" gradientUnits="userSpaceOnUse" x1="-324.0826" y1="266.8704" x2="-324.0826" y2="260.6223" gradientTransform="matrix(0.58 -0.8146 0.8146 0.58 28.5791 -351.2587)">
				<stop  offset="0" style="stop-color:#000000"/>
				<stop  offset="1" style="stop-color:#B2A512"/>
			</linearGradient>
			<path opacity="0.62" fill="url(#SVGID_18_)" d="M53.9,67.4c0,0-1.8-1.8-1.1-3.4c0.8-1.5,3-0.7,3.7-0.2c0.7,0.5,2.6,2.1,2.6,2.1
				s-2.7-2.1-3.3-2c-0.6,0.1-0.9,0.7-1.5,1.7C53.8,66.5,53.9,67.4,53.9,67.4z"/>
			<path opacity="0.55" fill="#FFF5D5" d="M54.6,66l0.9-1.3l7,5.3l-0.2,0.3c0,0-6.5-4.5-6.8-4.7C55.2,65.4,54.6,66,54.6,66z"/>
			<polygon opacity="0.55" fill="#FFF5D5" points="66.5,71.4 57.2,64.5 56.9,63.7 66.5,71.3 			"/>
			
				<linearGradient id="SVGID_19_" gradientUnits="userSpaceOnUse" x1="-325.4551" y1="259.6375" x2="-323.6271" y2="259.6375" gradientTransform="matrix(0.58 -0.8146 0.8146 0.58 28.5791 -351.2587)">
				<stop  offset="0" style="stop-color:#F6A64E"/>
				<stop  offset="1" style="stop-color:#EF7F2B"/>
			</linearGradient>
			<polygon fill="url(#SVGID_19_)" points="51.6,64.6 51,64.2 52.1,62.8 52.6,63.2 			"/>
			<path opacity="0.53" fill="#7A1C23" d="M50.4,61.4l-1.2,1.7l0.3,0.2l0.2-0.2l2.1,1.4c0,0-0.2,1.5,1.1,2.9
				c1,1.2,11.8,7.7,11.8,7.7l0.7-1.1c0,0-10.6-7.1-11.5-8C53,65.2,52,64,52,64l-1.7-1.1L50.4,61.4z"/>
			
				<linearGradient id="SVGID_20_" gradientUnits="userSpaceOnUse" x1="-323.9164" y1="259.8845" x2="-323.9164" y2="257.2975" gradientTransform="matrix(0.58 -0.8146 0.8146 0.58 28.5791 -351.2587)">
				<stop  offset="0" style="stop-color:#000000"/>
				<stop  offset="1" style="stop-color:#B2A512"/>
			</linearGradient>
			<polygon opacity="0.62" fill="url(#SVGID_20_)" points="50.5,62.3 50.5,61.6 52.4,63.3 52.2,63.5 			"/>
			
				<linearGradient id="SVGID_21_" gradientUnits="userSpaceOnUse" x1="-323.6905" y1="256.9789" x2="-323.6905" y2="256.1165" gradientTransform="matrix(0.58 -0.8146 0.8146 0.58 28.5791 -351.2587)">
				<stop  offset="0" style="stop-color:#000000"/>
				<stop  offset="1" style="stop-color:#B2A512"/>
			</linearGradient>
			<polygon opacity="0.62" fill="url(#SVGID_21_)" points="49.3,61.2 49.6,60.7 50.3,61.3 50,61.7 			"/>
			<polygon opacity="0.53" fill="#7A1C23" points="49.1,63 48.3,62.6 48.9,61.8 49.5,62.4 			"/>
			<polygon fill="#FFF5D5" points="50.4,61.4 52.1,62.8 52,62.9 50.5,61.6 50.4,61.6 50.3,61.5 			"/>
			<polygon fill="#FFF5D5" points="49.7,60.6 50.4,61.3 50.4,61.4 50.3,61.3 49.9,60.9 49.6,60.7 49.6,60.7 			"/>
			<path opacity="0.2" fill="#FFF5D5" d="M54,66.4L65.3,74l0.5-0.7l-11.2-8.1C54.7,65.2,53.9,65.8,54,66.4z"/>
			<path opacity="0.59" fill="#807C7D" d="M57.9,68.9c-0.3,0.4-1.4-0.5-1.2-1.1C56.8,67.3,58.1,68.6,57.9,68.9z"/>
			<path opacity="0.59" fill="#807C7D" d="M56.5,67c0,0.1,0.5-0.2,0.3-0.4C56.6,66.3,56.4,66.7,56.5,67z"/>
			<path opacity="0.59" fill="#807C7D" d="M53.3,64.8c0,0.1,0,0.1,0,0.2c0.1,0.3,0.5,0.1,0.5,0.4c0,0.3-0.7,1.4-0.6,1.8
				c0.1,0.3,1,0.1,1.1,0.6c0.1,0.5-0.4,1.1-0.4,1.1l0,0l-0.6-0.4c-0.9-0.6-1.5-1.5-1.5-2.6c0,0,0,0,0,0c0-0.1,0.1-0.9,0.3-0.8
				c0.2,0.1,0.1,0.5,0.1,0.6c0,0.1,0.5-0.7,0.8-1.2c0.1-0.1,0.2-0.2,0.2-0.2C53.2,64.2,53.3,64.5,53.3,64.8z"/>
			<path opacity="0.59" fill="#807C7D" d="M53.7,64.6c0,0.2,0.4-0.2,0.3-0.5C54,63.9,53.6,64.4,53.7,64.6z"/>
			<g opacity="0.59">
				<path fill="#807C7D" d="M53,63.4c0,0,0,0.1,0,0.1c0,0-0.1,0-0.1,0c0,0,0-0.1,0-0.1C52.9,63.4,53,63.4,53,63.4z"/>
				<path fill="#807C7D" d="M54.5,64.3c0.1,0,0.1,0.1,0,0.2c0,0.1-0.1,0.1-0.2,0c-0.1,0-0.1-0.1,0-0.2
					C54.4,64.3,54.5,64.3,54.5,64.3z"/>
				<path fill="#807C7D" d="M52.4,64.3c0.1,0,0.1,0.1,0,0.2c0,0.1-0.1,0.1-0.2,0c-0.1,0-0.1-0.1,0-0.2
					C52.3,64.3,52.4,64.3,52.4,64.3z"/>
			</g>
			<g opacity="0.59">
				<path fill="#807C7D" d="M55.1,67.1c0,0,0,0.1,0,0.1c0,0-0.1,0-0.1,0c0,0,0-0.1,0-0.1C55.1,67.1,55.1,67.1,55.1,67.1z"/>
				<path fill="#807C7D" d="M55.3,68.5c0,0,0,0.1,0,0.1c0,0-0.1,0-0.1,0c0,0,0-0.1,0-0.1C55.3,68.5,55.3,68.5,55.3,68.5z"/>
				<path fill="#807C7D" d="M63.7,71.1c0,0,0,0.1,0,0.1c0,0-0.1,0-0.1,0s0-0.1,0-0.1C63.6,71,63.6,71,63.7,71.1z"/>
				<path fill="#807C7D" d="M58.8,66.6c0.1,0,0.1,0.1,0,0.2c0,0.1-0.1,0.1-0.2,0c-0.1,0-0.1-0.1,0-0.2
					C58.7,66.5,58.8,66.5,58.8,66.6z"/>
				<path fill="#807C7D" d="M63.9,70.3c0.1,0,0.1,0.1,0,0.2s-0.1,0.1-0.2,0c-0.1,0-0.1-0.1,0-0.2C63.8,70.3,63.9,70.3,63.9,70.3z"/>
				<path fill="#807C7D" d="M60.1,69.4c0.1,0,0.1,0.1,0,0.2c0,0.1-0.1,0.1-0.2,0c-0.1,0-0.1-0.1,0-0.2C60,69.4,60.1,69.3,60.1,69.4z
					"/>
			</g>
		</g>
		<g>
			<path fill="#581224" d="M49.2,64.2l13.6,9.7l-1.1,1.5c-0.2,0.2-0.5,0.3-0.7,0.1l-6.6-4.3l0,0L51,69l0,0l-0.6-0.4
				c-0.9-0.6-1.5-1.5-1.5-2.6c0,0,0,0,0,0l-0.1-1.1L49.2,64.2z"/>
			<polygon fill="#581224" points="45.2,62.7 48.7,64.9 49.2,64.2 45.8,61.8 			"/>
			<path fill="#581224" d="M53.7,63.9l7.3,5.8c0,0,0,0,0,0l2.6,2.1c0.2,0.2,0.3,0.5,0.1,0.7l-1,1.5l-13.6-9.7l0.5-0.7l1.1-0.3
				c0.6-0.2,1.3-0.1,1.9,0.1c0.2,0.1,0.4,0.2,0.6,0.3l0,0C53.4,63.7,53.6,63.7,53.7,63.9z"/>
			<polygon fill="#581224" points="46.5,60.9 46.6,61 46.7,61.1 47.1,61.4 47.4,61.6 47.5,61.7 49.1,63.1 49.7,63.5 49.2,64.2 
				45.8,61.8 			"/>
			<polygon fill="#581224" points="46.7,60.9 47.5,61.6 46.1,63.5 45.2,63 			"/>
			
				<linearGradient id="SVGID_22_" gradientUnits="userSpaceOnUse" x1="-326.0331" y1="264.6537" x2="-326.0331" y2="258.4056" gradientTransform="matrix(0.58 -0.8146 0.8146 0.58 28.5791 -351.2587)">
				<stop  offset="0" style="stop-color:#000000"/>
				<stop  offset="1" style="stop-color:#B2A512"/>
			</linearGradient>
			<path opacity="0.62" fill="url(#SVGID_22_)" d="M51,67.7c0,0-1.8-1.8-1.1-3.4c0.8-1.5,3-0.7,3.7-0.2c0.7,0.5,2.6,2.1,2.6,2.1
				s-2.7-2.1-3.3-2c-0.6,0.1-0.9,0.7-1.5,1.7C50.9,66.8,51,67.7,51,67.7z"/>
			<path opacity="0.55" fill="#FFF5D5" d="M51.6,66.3l0.9-1.3l7,5.3l-0.2,0.3c0,0-6.5-4.5-6.8-4.7C52.3,65.7,51.6,66.3,51.6,66.3z"
				/>
			<polygon opacity="0.55" fill="#FFF5D5" points="63.5,71.7 54.3,64.8 53.9,64 63.6,71.6 			"/>
			
				<linearGradient id="SVGID_23_" gradientUnits="userSpaceOnUse" x1="-327.4057" y1="257.4208" x2="-325.5777" y2="257.4208" gradientTransform="matrix(0.58 -0.8146 0.8146 0.58 28.5791 -351.2587)">
				<stop  offset="0" style="stop-color:#F6A64E"/>
				<stop  offset="1" style="stop-color:#EF7F2B"/>
			</linearGradient>
			<polygon fill="url(#SVGID_23_)" points="48.7,64.9 48.1,64.5 49.1,63.1 49.7,63.5 			"/>
			<path opacity="0.53" fill="#7A1C23" d="M47.5,61.7l-1.2,1.7l0.3,0.2l0.2-0.2l2.1,1.4c0,0-0.2,1.5,1.1,2.9
				c1,1.2,11.8,7.7,11.8,7.7l0.7-1.1c0,0-10.6-7.1-11.5-8c-0.8-0.8-1.9-2-1.9-2l-1.7-1.1L47.5,61.7z"/>
			
				<linearGradient id="SVGID_24_" gradientUnits="userSpaceOnUse" x1="-325.867" y1="257.6679" x2="-325.867" y2="255.0808" gradientTransform="matrix(0.58 -0.8146 0.8146 0.58 28.5791 -351.2587)">
				<stop  offset="0" style="stop-color:#000000"/>
				<stop  offset="1" style="stop-color:#B2A512"/>
			</linearGradient>
			<polygon opacity="0.62" fill="url(#SVGID_24_)" points="47.6,62.6 47.5,61.9 49.5,63.6 49.3,63.9 			"/>
			
				<linearGradient id="SVGID_25_" gradientUnits="userSpaceOnUse" x1="-325.6411" y1="254.7622" x2="-325.6411" y2="253.8999" gradientTransform="matrix(0.58 -0.8146 0.8146 0.58 28.5791 -351.2587)">
				<stop  offset="0" style="stop-color:#000000"/>
				<stop  offset="1" style="stop-color:#B2A512"/>
			</linearGradient>
			<polygon opacity="0.62" fill="url(#SVGID_25_)" points="46.4,61.5 46.7,61 47.3,61.6 47,62 			"/>
			<polygon opacity="0.53" fill="#7A1C23" points="46.1,63.3 45.4,62.9 45.9,62.1 46.6,62.7 			"/>
			<polygon fill="#FFF5D5" points="47.5,61.7 49.1,63.1 49,63.2 47.5,61.9 47.4,61.9 47.4,61.8 			"/>
			<polygon fill="#FFF5D5" points="46.7,60.9 47.5,61.6 47.5,61.7 47.4,61.6 46.9,61.2 46.7,61 46.6,61 			"/>
			<path opacity="0.2" fill="#FFF5D5" d="M51.1,66.7l11.3,7.6l0.5-0.7l-11.2-8.1C51.7,65.5,51,66.1,51.1,66.7z"/>
			<path opacity="0.59" fill="#807C7D" d="M61.7,70.8c-0.2,0.3-0.7,0.1-0.6,0.8c0.1,0.7,1.4,0.8,0.9,1.4c-0.1,0.1-0.1,0.2-0.2,0.2
				c-0.6,0.5-2,0.9-2.1,0.1c-0.2-1-0.2-1.5-0.5-1.7c-0.2-0.2-0.7,1-1,0.6c-0.2-0.4,0.5-1,0.5-1.3c0,0,0-0.1-0.1-0.1
				c-0.1,0-0.1-0.1-0.2-0.1c-0.2,0-0.4,0.2-0.8-0.2c-0.2-0.3-0.6-0.7-1-1.1c-0.3-0.3-0.6-0.6-0.9-0.7c-0.2,0-0.3,0-0.4,0.1
				c-0.5,0.5-0.2,1.8-0.8,1.6c-0.6-0.2-1.9-1.1-1.8-0.8c0.1,0.4,1.6,1.4,1.6,1.4l0,0l6.6,4.3c0.2,0.1,0.5,0.1,0.7-0.1l2.1-3
				c0.2-0.2,0.1-0.5-0.1-0.7L61,69.6C61.1,69.7,61.9,70.5,61.7,70.8z M55.5,69.3c0.1-0.6,1.4,0.8,1.2,1.1
				C56.4,70.7,55.3,69.8,55.5,69.3z M62.1,71.8c-0.3,0.4-1,0.1-0.8-0.5C61.4,70.7,62.3,71.5,62.1,71.8z"/>
			<path opacity="0.59" fill="#807C7D" d="M55,69.2c-0.3,0.4-1.4-0.5-1.2-1.1C53.9,67.6,55.2,68.9,55,69.2z"/>
			<path opacity="0.59" fill="#807C7D" d="M53.5,67.3c0,0.1,0.5-0.2,0.3-0.4C53.7,66.6,53.5,67,53.5,67.3z"/>
			<path opacity="0.59" fill="#807C7D" d="M50.4,65.1c0,0.1,0,0.1,0,0.2c0.1,0.3,0.5,0.1,0.5,0.4c0,0.3-0.7,1.4-0.6,1.8
				c0.1,0.3,1,0.1,1.1,0.6C51.5,68.5,51,69,51,69l0,0l-0.6-0.4c-0.9-0.6-1.5-1.5-1.5-2.6c0,0,0,0,0,0c0-0.1,0.1-0.9,0.3-0.8
				c0.2,0.1,0.1,0.5,0.1,0.6c0,0.1,0.5-0.7,0.8-1.2c0.1-0.1,0.2-0.2,0.2-0.2C50.3,64.5,50.4,64.8,50.4,65.1z"/>
			<path opacity="0.59" fill="#807C7D" d="M50.7,64.9c0,0.2,0.4-0.2,0.3-0.5C51,64.2,50.7,64.7,50.7,64.9z"/>
			<g opacity="0.59">
				<path fill="#807C7D" d="M50.1,63.7c0,0,0,0.1,0,0.1c0,0-0.1,0-0.1,0c0,0,0-0.1,0-0.1C50,63.7,50,63.7,50.1,63.7z"/>
				<path fill="#807C7D" d="M51.6,64.6c0.1,0,0.1,0.1,0,0.2c0,0.1-0.1,0.1-0.2,0c-0.1,0-0.1-0.1,0-0.2S51.5,64.6,51.6,64.6z"/>
				<path fill="#807C7D" d="M49.5,64.6c0.1,0,0.1,0.1,0,0.2c0,0.1-0.1,0.1-0.2,0c-0.1,0-0.1-0.1,0-0.2
					C49.4,64.6,49.4,64.6,49.5,64.6z"/>
			</g>
			<g opacity="0.59">
				<path fill="#807C7D" d="M52.2,67.4c0,0,0,0.1,0,0.1c0,0-0.1,0-0.1,0c0,0,0-0.1,0-0.1C52.1,67.4,52.2,67.4,52.2,67.4z"/>
				<path fill="#807C7D" d="M52.4,68.8c0,0,0,0.1,0,0.1c0,0-0.1,0-0.1,0c0,0,0-0.1,0-0.1C52.3,68.8,52.4,68.8,52.4,68.8z"/>
				<path fill="#807C7D" d="M60.7,71.4c0,0,0,0.1,0,0.1c0,0-0.1,0-0.1,0c0,0,0-0.1,0-0.1C60.6,71.3,60.7,71.3,60.7,71.4z"/>
				<path fill="#807C7D" d="M55.9,66.9c0.1,0,0.1,0.1,0,0.2c0,0.1-0.1,0.1-0.2,0c-0.1,0-0.1-0.1,0-0.2
					C55.8,66.8,55.8,66.8,55.9,66.9z"/>
				<path fill="#807C7D" d="M61,70.6c0.1,0,0.1,0.1,0,0.2c0,0.1-0.1,0.1-0.2,0c-0.1,0-0.1-0.1,0-0.2C60.8,70.6,60.9,70.6,61,70.6z"
					/>
				<path fill="#807C7D" d="M57.2,69.7c0.1,0,0.1,0.1,0,0.2c0,0.1-0.1,0.1-0.2,0c-0.1,0-0.1-0.1,0-0.2S57.1,69.6,57.2,69.7z"/>
			</g>
		</g>
		<g>
			<path fill="#581224" d="M54.9,76.3L68.5,86l-1.1,1.5c-0.2,0.2-0.5,0.3-0.7,0.1l-6.6-4.3l0,0l-3.4-2.2l0,0L56,80.7
				c-0.9-0.6-1.5-1.5-1.5-2.6c0,0,0,0,0,0L54.4,77L54.9,76.3z"/>
			<polygon fill="#581224" points="50.9,74.9 54.4,77 54.9,76.3 51.5,73.9 			"/>
			<path fill="#581224" d="M59.4,76l7.3,5.8c0,0,0,0,0,0l2.6,2.1c0.2,0.2,0.3,0.5,0.1,0.7l-1,1.5l-13.6-9.7l0.5-0.7l1.1-0.3
				c0.6-0.2,1.3-0.1,1.9,0.1c0.2,0.1,0.4,0.2,0.6,0.3l0,0C59.2,75.8,59.3,75.9,59.4,76z"/>
			<polygon fill="#581224" points="52.2,73 52.4,73.1 52.4,73.2 52.8,73.5 53.1,73.8 53.2,73.8 54.9,75.2 55.4,75.6 54.9,76.3 
				51.5,73.9 			"/>
			<polygon fill="#581224" points="52.5,73 53.2,73.8 51.9,75.7 50.9,75.1 			"/>
			
				<linearGradient id="SVGID_26_" gradientUnits="userSpaceOnUse" x1="-332.594" y1="276.3616" x2="-332.594" y2="270.1135" gradientTransform="matrix(0.58 -0.8146 0.8146 0.58 28.5791 -351.2587)">
				<stop  offset="0" style="stop-color:#000000"/>
				<stop  offset="1" style="stop-color:#B2A512"/>
			</linearGradient>
			<path opacity="0.62" fill="url(#SVGID_26_)" d="M56.7,79.8c0,0-1.8-1.8-1.1-3.4c0.8-1.5,3-0.7,3.7-0.2c0.7,0.5,2.6,2.1,2.6,2.1
				s-2.7-2.1-3.3-2c-0.6,0.1-0.9,0.7-1.5,1.7C56.6,78.9,56.7,79.8,56.7,79.8z"/>
			<path opacity="0.55" fill="#FFF5D5" d="M57.4,78.5l0.9-1.3l7,5.3l-0.2,0.3c0,0-6.5-4.5-6.8-4.7C58,77.8,57.4,78.5,57.4,78.5z"/>
			<polygon opacity="0.55" fill="#FFF5D5" points="69.3,83.9 60,76.9 59.7,76.2 69.3,83.8 			"/>
			
				<linearGradient id="SVGID_27_" gradientUnits="userSpaceOnUse" x1="-333.9665" y1="269.1286" x2="-332.1385" y2="269.1286" gradientTransform="matrix(0.58 -0.8146 0.8146 0.58 28.5791 -351.2587)">
				<stop  offset="0" style="stop-color:#F6A64E"/>
				<stop  offset="1" style="stop-color:#EF7F2B"/>
			</linearGradient>
			<polygon fill="url(#SVGID_27_)" points="54.4,77 53.8,76.7 54.9,75.2 55.4,75.6 			"/>
			<path opacity="0.53" fill="#7A1C23" d="M53.2,73.8L52,75.5l0.3,0.2l0.2-0.2l2.1,1.4c0,0-0.2,1.5,1.1,2.9c1,1.2,11.8,7.7,11.8,7.7
				l0.7-1.1c0,0-10.6-7.1-11.5-8c-0.8-0.8-1.9-2-1.9-2l-1.7-1.1L53.2,73.8z"/>
			
				<linearGradient id="SVGID_28_" gradientUnits="userSpaceOnUse" x1="-332.4279" y1="269.3757" x2="-332.4279" y2="266.7886" gradientTransform="matrix(0.58 -0.8146 0.8146 0.58 28.5791 -351.2587)">
				<stop  offset="0" style="stop-color:#000000"/>
				<stop  offset="1" style="stop-color:#B2A512"/>
			</linearGradient>
			<polygon opacity="0.62" fill="url(#SVGID_28_)" points="53.3,74.8 53.3,74 55.2,75.8 55,76 			"/>
			
				<linearGradient id="SVGID_29_" gradientUnits="userSpaceOnUse" x1="-332.2019" y1="266.4701" x2="-332.2019" y2="265.6077" gradientTransform="matrix(0.58 -0.8146 0.8146 0.58 28.5791 -351.2587)">
				<stop  offset="0" style="stop-color:#000000"/>
				<stop  offset="1" style="stop-color:#B2A512"/>
			</linearGradient>
			<polygon opacity="0.62" fill="url(#SVGID_29_)" points="52.1,73.6 52.4,73.2 53.1,73.7 52.7,74.1 			"/>
			<polygon opacity="0.53" fill="#7A1C23" points="51.8,75.5 51.1,75 51.6,74.3 52.3,74.8 			"/>
			<polygon fill="#FFF5D5" points="53.2,73.8 54.9,75.2 54.8,75.4 53.3,74.1 53.2,74 53.1,73.9 			"/>
			<polygon fill="#FFF5D5" points="52.5,73 53.2,73.8 53.2,73.8 53.1,73.8 52.7,73.4 52.4,73.2 52.4,73.1 			"/>
			<path opacity="0.2" fill="#FFF5D5" d="M56.8,78.8l11.3,7.6l0.5-0.7l-11.2-8.1C57.5,77.6,56.7,78.3,56.8,78.8z"/>
			<path opacity="0.59" fill="#807C7D" d="M67.5,82.9c-0.2,0.3-0.7,0.1-0.6,0.8c0.1,0.7,1.4,0.8,0.9,1.4c-0.1,0.1-0.1,0.2-0.2,0.2
				c-0.6,0.5-2,0.9-2.1,0.1c-0.2-1-0.2-1.5-0.5-1.7c-0.2-0.2-0.7,1-1,0.6c-0.2-0.4,0.5-1,0.5-1.3c0,0,0-0.1-0.1-0.1
				c-0.1,0-0.1-0.1-0.2-0.1c-0.2,0-0.4,0.2-0.8-0.2c-0.2-0.3-0.6-0.7-1-1.1c-0.3-0.3-0.6-0.6-0.9-0.7c-0.2,0-0.3,0-0.4,0.1
				c-0.5,0.5-0.2,1.8-0.8,1.6c-0.6-0.2-1.9-1.1-1.8-0.8c0.1,0.4,1.6,1.4,1.6,1.4l0,0l6.6,4.3c0.2,0.1,0.5,0.1,0.7-0.1l2.1-3
				c0.2-0.2,0.1-0.5-0.1-0.7l-2.6-2.1C66.8,81.8,67.6,82.7,67.5,82.9z M61.2,81.4c0.1-0.6,1.4,0.8,1.2,1.1
				C62.2,82.9,61.1,82,61.2,81.4z M67.8,83.9c-0.3,0.4-1,0.1-0.8-0.5C67.1,82.9,68,83.6,67.8,83.9z"/>
			<path opacity="0.59" fill="#807C7D" d="M60.7,81.4c-0.3,0.4-1.4-0.5-1.2-1.1C59.6,79.7,60.9,81.1,60.7,81.4z"/>
			<path opacity="0.59" fill="#807C7D" d="M59.3,79.4c0,0.1,0.5-0.2,0.3-0.4C59.4,78.7,59.2,79.1,59.3,79.4z"/>
			<path opacity="0.59" fill="#807C7D" d="M56.1,77.2c0,0.1,0,0.1,0,0.2c0.1,0.3,0.5,0.1,0.5,0.4c0,0.3-0.7,1.4-0.6,1.8
				c0.1,0.3,1,0.1,1.1,0.6c0.1,0.5-0.4,1.1-0.4,1.1l0,0L56,80.7c-0.9-0.6-1.5-1.5-1.5-2.6c0,0,0,0,0,0c0-0.1,0.1-0.9,0.3-0.8
				c0.2,0.1,0.1,0.5,0.1,0.6c0,0.1,0.5-0.7,0.8-1.2c0.1-0.1,0.2-0.2,0.2-0.2C56,76.6,56.1,76.9,56.1,77.2z"/>
			<path opacity="0.59" fill="#807C7D" d="M56.5,77c0,0.2,0.4-0.2,0.3-0.5C56.8,76.3,56.4,76.8,56.5,77z"/>
			<g opacity="0.59">
				<path fill="#807C7D" d="M55.8,75.9c0,0,0,0.1,0,0.1c0,0-0.1,0-0.1,0c0,0,0-0.1,0-0.1C55.7,75.9,55.8,75.9,55.8,75.9z"/>
				<path fill="#807C7D" d="M57.3,76.7c0.1,0,0.1,0.1,0,0.2c0,0.1-0.1,0.1-0.2,0c-0.1,0-0.1-0.1,0-0.2
					C57.2,76.7,57.3,76.7,57.3,76.7z"/>
				<path fill="#807C7D" d="M55.2,76.8c0.1,0,0.1,0.1,0,0.2c0,0.1-0.1,0.1-0.2,0c-0.1,0-0.1-0.1,0-0.2
					C55.1,76.7,55.2,76.7,55.2,76.8z"/>
			</g>
			<g opacity="0.59">
				<path fill="#807C7D" d="M57.9,79.6c0,0,0,0.1,0,0.1c0,0-0.1,0-0.1,0c0,0,0-0.1,0-0.1C57.9,79.6,57.9,79.5,57.9,79.6z"/>
				<path fill="#807C7D" d="M58.1,81c0,0,0,0.1,0,0.1c0,0-0.1,0-0.1,0c0,0,0-0.1,0-0.1C58,81,58.1,81,58.1,81z"/>
				<path fill="#807C7D" d="M66.5,83.5c0,0,0,0.1,0,0.1c0,0-0.1,0-0.1,0c0,0,0-0.1,0-0.1S66.4,83.5,66.5,83.5z"/>
				<path fill="#807C7D" d="M61.6,79c0.1,0,0.1,0.1,0,0.2c0,0.1-0.1,0.1-0.2,0c-0.1,0-0.1-0.1,0-0.2C61.5,79,61.6,79,61.6,79z"/>
				<path fill="#807C7D" d="M66.7,82.8c0.1,0,0.1,0.1,0,0.2c0,0.1-0.1,0.1-0.2,0c-0.1,0-0.1-0.1,0-0.2
					C66.6,82.7,66.6,82.7,66.7,82.8z"/>
				<path fill="#807C7D" d="M62.9,81.8c0.1,0,0.1,0.1,0,0.2c0,0.1-0.1,0.1-0.2,0c-0.1,0-0.1-0.1,0-0.2
					C62.8,81.8,62.8,81.8,62.9,81.8z"/>
			</g>
		</g>
		<g>
			<path fill="#581224" d="M51.6,76.6l13.6,9.7L64,87.8c-0.2,0.2-0.5,0.3-0.7,0.1l-6.6-4.3l0,0l-3.4-2.2l0,0L52.7,81
				c-0.9-0.6-1.5-1.5-1.5-2.6c0,0,0,0,0,0l-0.1-1.1L51.6,76.6z"/>
			<polygon fill="#581224" points="47.5,75.2 51.1,77.3 51.6,76.6 48.2,74.2 			"/>
			<path fill="#581224" d="M56.1,76.3l7.3,5.8c0,0,0,0,0,0l2.6,2.1c0.2,0.2,0.3,0.5,0.1,0.7l-1,1.5l-13.6-9.7l0.5-0.7l1.1-0.3
				c0.6-0.2,1.3-0.1,1.9,0.1c0.2,0.1,0.4,0.2,0.6,0.3l0,0C55.8,76.1,56,76.2,56.1,76.3z"/>
			<polygon fill="#581224" points="48.9,73.3 49,73.4 49.1,73.5 49.5,73.8 49.8,74.1 49.8,74.1 51.5,75.5 52.1,75.9 51.6,76.6 
				48.2,74.2 			"/>
			<polygon fill="#581224" points="49.1,73.3 49.9,74 48.5,75.9 47.6,75.4 			"/>
			
				<linearGradient id="SVGID_30_" gradientUnits="userSpaceOnUse" x1="-334.7682" y1="273.8107" x2="-334.7682" y2="267.5626" gradientTransform="matrix(0.58 -0.8146 0.8146 0.58 28.5791 -351.2587)">
				<stop  offset="0" style="stop-color:#000000"/>
				<stop  offset="1" style="stop-color:#B2A512"/>
			</linearGradient>
			<path opacity="0.62" fill="url(#SVGID_30_)" d="M53.4,80.1c0,0-1.8-1.8-1.1-3.4c0.8-1.5,3-0.7,3.7-0.2c0.7,0.5,2.6,2.1,2.6,2.1
				s-2.7-2.1-3.3-2c-0.6,0.1-0.9,0.7-1.5,1.7C53.2,79.2,53.4,80.1,53.4,80.1z"/>
			<path opacity="0.55" fill="#FFF5D5" d="M54,78.7l0.9-1.3l7,5.3L61.8,83c0,0-6.5-4.5-6.8-4.7C54.7,78.1,54,78.7,54,78.7z"/>
			<polygon opacity="0.55" fill="#FFF5D5" points="65.9,84.1 56.7,77.2 56.3,76.4 66,84 			"/>
			
				<linearGradient id="SVGID_31_" gradientUnits="userSpaceOnUse" x1="-336.1407" y1="266.5777" x2="-334.3127" y2="266.5777" gradientTransform="matrix(0.58 -0.8146 0.8146 0.58 28.5791 -351.2587)">
				<stop  offset="0" style="stop-color:#F6A64E"/>
				<stop  offset="1" style="stop-color:#EF7F2B"/>
			</linearGradient>
			<polygon fill="url(#SVGID_31_)" points="51.1,77.3 50.5,77 51.5,75.5 52.1,75.9 			"/>
			<path opacity="0.53" fill="#7A1C23" d="M49.8,74.1l-1.2,1.7l0.3,0.2l0.2-0.2l2.1,1.4c0,0-0.2,1.5,1.1,2.9
				c1,1.2,11.8,7.7,11.8,7.7l0.7-1.1c0,0-10.6-7.1-11.5-8c-0.8-0.8-1.9-2-1.9-2l-1.7-1.1L49.8,74.1z"/>
			
				<linearGradient id="SVGID_32_" gradientUnits="userSpaceOnUse" x1="-334.602" y1="266.8248" x2="-334.602" y2="264.2377" gradientTransform="matrix(0.58 -0.8146 0.8146 0.58 28.5791 -351.2587)">
				<stop  offset="0" style="stop-color:#000000"/>
				<stop  offset="1" style="stop-color:#B2A512"/>
			</linearGradient>
			<polygon opacity="0.62" fill="url(#SVGID_32_)" points="50,75.1 49.9,74.3 51.9,76.1 51.7,76.3 			"/>
			
				<linearGradient id="SVGID_33_" gradientUnits="userSpaceOnUse" x1="-334.3761" y1="263.9192" x2="-334.3761" y2="263.0568" gradientTransform="matrix(0.58 -0.8146 0.8146 0.58 28.5791 -351.2587)">
				<stop  offset="0" style="stop-color:#000000"/>
				<stop  offset="1" style="stop-color:#B2A512"/>
			</linearGradient>
			<polygon opacity="0.62" fill="url(#SVGID_33_)" points="48.8,73.9 49.1,73.5 49.7,74 49.4,74.4 			"/>
			<polygon opacity="0.53" fill="#7A1C23" points="48.5,75.8 47.8,75.3 48.3,74.6 49,75.1 			"/>
			<polygon fill="#FFF5D5" points="49.8,74.1 51.5,75.5 51.4,75.7 49.9,74.4 49.8,74.3 49.8,74.2 			"/>
			<polygon fill="#FFF5D5" points="49.1,73.3 49.9,74 49.8,74.1 49.8,74.1 49.3,73.7 49.1,73.5 49,73.4 			"/>
			<path opacity="0.2" fill="#FFF5D5" d="M53.5,79.1l11.3,7.6l0.5-0.7l-11.2-8.1C54.1,77.9,53.4,78.6,53.5,79.1z"/>
			<path opacity="0.59" fill="#807C7D" d="M57.4,81.6c-0.3,0.4-1.4-0.5-1.2-1.1C56.3,80,57.6,81.4,57.4,81.6z"/>
			<path opacity="0.59" fill="#807C7D" d="M55.9,79.7c0,0.1,0.5-0.2,0.3-0.4C56.1,79,55.9,79.4,55.9,79.7z"/>
			<path opacity="0.59" fill="#807C7D" d="M52.8,77.5c0,0.1,0,0.1,0,0.2c0.1,0.3,0.5,0.1,0.5,0.4c0,0.3-0.7,1.4-0.6,1.8
				c0.1,0.3,1,0.1,1.1,0.6c0.1,0.5-0.4,1.1-0.4,1.1l0,0L52.7,81c-0.9-0.6-1.5-1.5-1.5-2.6c0,0,0,0,0,0c0-0.1,0.1-0.9,0.3-0.8
				c0.2,0.1,0.1,0.5,0.1,0.6c0,0.1,0.5-0.7,0.8-1.2c0.1-0.1,0.2-0.2,0.2-0.2C52.7,76.9,52.7,77.2,52.8,77.5z"/>
			<path opacity="0.59" fill="#807C7D" d="M53.1,77.3c0,0.2,0.4-0.2,0.3-0.5C53.4,76.6,53.1,77.1,53.1,77.3z"/>
			<g opacity="0.59">
				<path fill="#807C7D" d="M52.4,76.2c0,0,0,0.1,0,0.1c0,0-0.1,0-0.1,0c0,0,0-0.1,0-0.1C52.4,76.2,52.4,76.1,52.4,76.2z"/>
				<path fill="#807C7D" d="M54,77c0.1,0,0.1,0.1,0,0.2c0,0.1-0.1,0.1-0.2,0c-0.1,0-0.1-0.1,0-0.2C53.9,77,53.9,77,54,77z"/>
				<path fill="#807C7D" d="M51.9,77.1c0.1,0,0.1,0.1,0,0.2c0,0.1-0.1,0.1-0.2,0c-0.1,0-0.1-0.1,0-0.2C51.8,77,51.8,77,51.9,77.1z"
					/>
			</g>
			<g opacity="0.59">
				<path fill="#807C7D" d="M54.6,79.9c0,0,0,0.1,0,0.1c0,0-0.1,0-0.1,0c0,0,0-0.1,0-0.1C54.5,79.8,54.6,79.8,54.6,79.9z"/>
				<path fill="#807C7D" d="M54.8,81.3c0,0,0,0.1,0,0.1c0,0-0.1,0-0.1,0c0,0,0-0.1,0-0.1C54.7,81.3,54.8,81.2,54.8,81.3z"/>
				<path fill="#807C7D" d="M63.1,83.8c0,0,0,0.1,0,0.1c0,0-0.1,0-0.1,0c0,0,0-0.1,0-0.1C63,83.8,63.1,83.8,63.1,83.8z"/>
				<path fill="#807C7D" d="M58.3,79.3c0.1,0,0.1,0.1,0,0.2c0,0.1-0.1,0.1-0.2,0c-0.1,0-0.1-0.1,0-0.2
					C58.2,79.3,58.2,79.2,58.3,79.3z"/>
				<path fill="#807C7D" d="M63.4,83.1c0.1,0,0.1,0.1,0,0.2c0,0.1-0.1,0.1-0.2,0c-0.1,0-0.1-0.1,0-0.2C63.2,83,63.3,83,63.4,83.1z"
					/>
				<path fill="#807C7D" d="M59.6,82.1c0.1,0,0.1,0.1,0,0.2c0,0.1-0.1,0.1-0.2,0c-0.1,0-0.1-0.1,0-0.2
					C59.4,82.1,59.5,82.1,59.6,82.1z"/>
			</g>
		</g>
		<g>
			<path fill="#581224" d="M48.6,76.9l13.6,9.7l-1.1,1.5c-0.2,0.2-0.5,0.3-0.7,0.1L53.8,84l0,0l-3.4-2.2l0,0l-0.6-0.4
				c-0.9-0.6-1.5-1.5-1.5-2.6c0,0,0,0,0,0l-0.1-1.1L48.6,76.9z"/>
			<polygon fill="#581224" points="44.6,75.5 48.1,77.6 48.6,76.9 45.3,74.5 			"/>
			<path fill="#581224" d="M53.2,76.6l7.3,5.8c0,0,0,0,0,0l2.6,2.1c0.2,0.2,0.3,0.5,0.1,0.7l-1,1.5l-13.6-9.7l0.5-0.7l1.1-0.3
				c0.6-0.2,1.3-0.1,1.9,0.1c0.2,0.1,0.4,0.2,0.6,0.3l0,0C52.9,76.4,53,76.5,53.2,76.6z"/>
			<polygon fill="#581224" points="45.9,73.6 46.1,73.7 46.1,73.8 46.6,74.1 46.9,74.4 46.9,74.4 48.6,75.8 49.1,76.2 48.6,76.9 
				45.3,74.5 			"/>
			<polygon fill="#581224" points="46.2,73.6 47,74.3 45.6,76.3 44.6,75.7 			"/>
			
				<linearGradient id="SVGID_34_" gradientUnits="userSpaceOnUse" x1="-336.7188" y1="271.594" x2="-336.7188" y2="265.3459" gradientTransform="matrix(0.58 -0.8146 0.8146 0.58 28.5791 -351.2587)">
				<stop  offset="0" style="stop-color:#000000"/>
				<stop  offset="1" style="stop-color:#B2A512"/>
			</linearGradient>
			<path opacity="0.62" fill="url(#SVGID_34_)" d="M50.5,80.4c0,0-1.8-1.8-1.1-3.4c0.8-1.5,3-0.7,3.7-0.2c0.7,0.5,2.6,2.1,2.6,2.1
				s-2.7-2.1-3.3-2c-0.6,0.1-0.9,0.7-1.5,1.7C50.3,79.5,50.5,80.4,50.5,80.4z"/>
			<path opacity="0.55" fill="#FFF5D5" d="M51.1,79l0.9-1.3l7,5.3l-0.2,0.3c0,0-6.5-4.5-6.8-4.7C51.7,78.4,51.1,79,51.1,79z"/>
			<polygon opacity="0.55" fill="#FFF5D5" points="63,84.5 53.7,77.5 53.4,76.8 63,84.4 			"/>
			
				<linearGradient id="SVGID_35_" gradientUnits="userSpaceOnUse" x1="-338.0912" y1="264.361" x2="-336.2632" y2="264.361" gradientTransform="matrix(0.58 -0.8146 0.8146 0.58 28.5791 -351.2587)">
				<stop  offset="0" style="stop-color:#F6A64E"/>
				<stop  offset="1" style="stop-color:#EF7F2B"/>
			</linearGradient>
			<polygon fill="url(#SVGID_35_)" points="48.1,77.6 47.5,77.3 48.6,75.8 49.1,76.2 			"/>
			<path opacity="0.53" fill="#7A1C23" d="M46.9,74.4l-1.2,1.7l0.3,0.2l0.2-0.2l2.1,1.4c0,0-0.2,1.5,1.1,2.9
				c1,1.2,11.8,7.7,11.8,7.7l0.7-1.1c0,0-10.6-7.1-11.5-8c-0.8-0.8-1.9-2-1.9-2l-1.7-1.1L46.9,74.4z"/>
			
				<linearGradient id="SVGID_36_" gradientUnits="userSpaceOnUse" x1="-336.5526" y1="264.6081" x2="-336.5526" y2="262.021" gradientTransform="matrix(0.58 -0.8146 0.8146 0.58 28.5791 -351.2587)">
				<stop  offset="0" style="stop-color:#000000"/>
				<stop  offset="1" style="stop-color:#B2A512"/>
			</linearGradient>
			<polygon opacity="0.62" fill="url(#SVGID_36_)" points="47,75.4 47,74.6 48.9,76.4 48.7,76.6 			"/>
			
				<linearGradient id="SVGID_37_" gradientUnits="userSpaceOnUse" x1="-336.3267" y1="261.7025" x2="-336.3267" y2="260.8401" gradientTransform="matrix(0.58 -0.8146 0.8146 0.58 28.5791 -351.2587)">
				<stop  offset="0" style="stop-color:#000000"/>
				<stop  offset="1" style="stop-color:#B2A512"/>
			</linearGradient>
			<polygon opacity="0.62" fill="url(#SVGID_37_)" points="45.8,74.2 46.1,73.8 46.8,74.3 46.5,74.7 			"/>
			<polygon opacity="0.53" fill="#7A1C23" points="45.6,76.1 44.8,75.6 45.4,74.9 46,75.4 			"/>
			<polygon fill="#FFF5D5" points="46.9,74.4 48.6,75.8 48.5,76 47,74.7 46.9,74.6 46.8,74.5 			"/>
			<polygon fill="#FFF5D5" points="46.2,73.6 47,74.3 46.9,74.4 46.9,74.4 46.4,74 46.1,73.8 46.1,73.7 			"/>
			<path opacity="0.2" fill="#FFF5D5" d="M50.5,79.4l11.3,7.6l0.5-0.7l-11.2-8.1C51.2,78.2,50.5,78.9,50.5,79.4z"/>
			<path opacity="0.59" fill="#807C7D" d="M54.4,82c-0.3,0.4-1.4-0.5-1.2-1.1C53.3,80.3,54.6,81.7,54.4,82z"/>
			<path opacity="0.59" fill="#807C7D" d="M53,80c0,0.1,0.5-0.2,0.3-0.4C53.1,79.3,52.9,79.7,53,80z"/>
			<path opacity="0.59" fill="#807C7D" d="M49.9,77.8c0,0.1,0,0.1,0,0.2c0.1,0.3,0.5,0.1,0.5,0.4c0,0.3-0.7,1.4-0.6,1.8
				c0.1,0.3,1,0.1,1.1,0.6c0.1,0.5-0.4,1.1-0.4,1.1l0,0l-0.6-0.4c-0.9-0.6-1.5-1.5-1.5-2.6c0,0,0,0,0,0c0-0.1,0.1-0.9,0.3-0.8
				c0.2,0.1,0.1,0.5,0.1,0.6c0,0.1,0.5-0.7,0.8-1.2c0.1-0.1,0.2-0.2,0.2-0.2C49.8,77.2,49.8,77.5,49.9,77.8z"/>
			<path opacity="0.59" fill="#807C7D" d="M50.2,77.6c0,0.2,0.4-0.2,0.3-0.5C50.5,76.9,50.2,77.4,50.2,77.6z"/>
			<g opacity="0.59">
				<path fill="#807C7D" d="M49.5,76.5c0,0,0,0.1,0,0.1c0,0-0.1,0-0.1,0c0,0,0-0.1,0-0.1C49.4,76.5,49.5,76.5,49.5,76.5z"/>
				<path fill="#807C7D" d="M51.1,77.3c0.1,0,0.1,0.1,0,0.2s-0.1,0.1-0.2,0c-0.1,0-0.1-0.1,0-0.2C50.9,77.3,51,77.3,51.1,77.3z"/>
				<path fill="#807C7D" d="M49,77.4c0.1,0,0.1,0.1,0,0.2c0,0.1-0.1,0.1-0.2,0c-0.1,0-0.1-0.1,0-0.2S48.9,77.3,49,77.4z"/>
			</g>
			<g opacity="0.59">
				<path fill="#807C7D" d="M51.7,80.2c0,0,0,0.1,0,0.1c0,0-0.1,0-0.1,0c0,0,0-0.1,0-0.1C51.6,80.1,51.6,80.1,51.7,80.2z"/>
				<path fill="#807C7D" d="M51.8,81.6c0,0,0,0.1,0,0.1c0,0-0.1,0-0.1,0s0-0.1,0-0.1C51.8,81.6,51.8,81.6,51.8,81.6z"/>
				<path fill="#807C7D" d="M60.2,84.1c0,0,0,0.1,0,0.1c0,0-0.1,0-0.1,0c0,0,0-0.1,0-0.1C60.1,84.1,60.1,84.1,60.2,84.1z"/>
				<path fill="#807C7D" d="M55.4,79.6c0.1,0,0.1,0.1,0,0.2c0,0.1-0.1,0.1-0.2,0c-0.1,0-0.1-0.1,0-0.2
					C55.2,79.6,55.3,79.6,55.4,79.6z"/>
				<path fill="#807C7D" d="M60.4,83.4c0.1,0,0.1,0.1,0,0.2s-0.1,0.1-0.2,0c-0.1,0-0.1-0.1,0-0.2C60.3,83.3,60.4,83.3,60.4,83.4z"/>
				<path fill="#807C7D" d="M56.6,82.4c0.1,0,0.1,0.1,0,0.2c0,0.1-0.1,0.1-0.2,0c-0.1,0-0.1-0.1,0-0.2
					C56.5,82.4,56.6,82.4,56.6,82.4z"/>
			</g>
		</g>
		<polygon fill="#D29A75" points="45,95.3 42.3,38.7 60.9,51.9 58.9,95.3 		"/>
		<polygon opacity="0.35" fill="#B97D53" points="44.3,40.1 46.2,93.9 51.5,93.9 52.8,82.5 53.4,93.9 57.3,93.9 60.9,51.9 
			58.9,95.3 45,95.3 42.3,38.7 		"/>
		<polygon opacity="9.000000e-02" fill="#791523" points="60,93.6 68.5,92.3 68.7,88.4 60.3,88.4 		"/>
		<polygon opacity="9.000000e-02" fill="#791523" points="69.1,77.5 60.6,81.1 60.9,75.6 69.2,75.7 		"/>
		<polygon opacity="9.000000e-02" fill="#791523" points="61.3,68.6 69.6,65.7 69.7,64 61.5,64 		"/>
		<polygon opacity="9.000000e-02" fill="#791523" points="61.7,58.7 70.1,54.7 70.1,53.7 62,53.7 		"/>
		<path opacity="0.59" fill="#807C7D" d="M60.3,42.1C60.3,42.1,60.3,42.1,60.3,42.1c-0.1,0-0.2-0.1-0.4-0.1c0,0,0,0-0.1,0
			c-0.2,0-0.5-0.1-0.7-0.1c0,0,0,0,0,0c-0.2,0-0.4,0-0.6,0l0,0c-0.2,0-0.3,0-0.4,0.1c-0.2,0.2-0.5,0.5-0.8,0.7
			c-0.1,0-0.1,0.1-0.2,0.1c0,0-0.1,0.1-0.1,0.1c0,0,0,0,0,0c0,0,0,0,0,0c-0.1,0-0.2,0.1-0.2,0.1c-0.1,0-0.2-0.1-0.4-0.1
			c-0.1,0-0.1-0.1-0.2-0.1c-0.2-0.1-0.3-0.2-0.5-0.4c0,0-0.1,0-0.1-0.1c-0.1-0.1-0.2-0.1-0.2-0.2c-0.1-0.1-0.3-0.2-0.4-0.3
			c0,0-0.1,0-0.1-0.1c0,0,0,0,0,0c0,0,0,0-0.1,0c0,0,0,0,0,0c-0.2-0.1-0.3-0.1-0.4-0.2c-0.1,0-0.1,0-0.2,0c-0.1,0-0.2,0.1-0.3,0.1
			c0,0-0.1,0.1-0.2,0.2c-0.1,0-0.1,0.1-0.2,0.1c-0.1,0.1-0.2,0.1-0.3,0.2c-0.1,0-0.2,0.1-0.2,0.1c-0.1,0-0.3,0.1-0.4,0
			c-0.1,0-0.1,0-0.2-0.1c-0.2,0-0.4-0.1-0.7-0.1c0,0,0,0,0,0c-0.1,0-0.2,0-0.2,0l0,0c-0.2,0-0.3-0.1-0.5-0.1c0,0,0,0,0,0
			c-0.3,0-0.5-0.1-0.7-0.1c-0.3-0.1-0.5-0.1-0.6-0.1c0,0,0,0,0,0s0,0,0,0c0.1,0,0.4-0.1,0.7-0.2c0.1,0,0.2,0,0.3-0.1
			c0.2,0,0.3,0,0.5-0.1c0.1,0,0.1,0,0.2,0c0,0,0.1,0,0.1,0l0,0c0.1,0,0.2,0,0.2,0c0.1,0,0.3,0,0.4,0c0.1,0,0.2,0,0.4-0.1
			c0.1,0,0.2-0.1,0.3-0.1c0.1,0,0.2-0.1,0.3-0.1c0.1,0,0.2-0.1,0.3-0.1c0.1,0,0.2,0,0.3,0c0,0,0,0,0,0c0.2,0,0.4,0,0.6,0
			c0.2,0,0.4,0,0.6,0c0,0,0.1,0,0.1,0c0.2,0,0.3,0,0.4,0.1c0,0,0,0,0.1,0l0.1,0.1l0,0l1.1-0.3c0.6-0.2,1.3-0.1,1.9,0.1
			c0.2,0.1,0.4,0.2,0.6,0.3c0.1,0.1,0.3,0.2,0.4,0.3l0.2,0.2l0,0L60.3,42.1z"/>
		<polygon fill="#DAB092" points="42.3,38.7 43.4,38.7 62.1,52.1 59.9,95.3 58.9,95.3 60.9,51.9 		"/>
		<polygon fill="#DAB092" points="60.9,50.8 71.5,50.9 71.4,53.7 60.8,53.7 		"/>
		<polygon fill="#DAB092" points="60.7,61.9 71,61.7 70.7,64 60.6,64 		"/>
		<polygon fill="#DAB092" points="60.1,73.3 70.2,73.5 70.2,75.7 60.1,75.6 		"/>
		<polygon fill="#DAB092" points="59.6,85.8 69.7,86 69.7,88.4 59.5,88.4 		"/>
	</g>
	<g>
		<path fill="#581224" d="M51.3,79.4l-0.1,16.6l-1.9,0c-0.3,0-0.5-0.2-0.5-0.5l-0.3-7.8l0,0l-0.2-4.1l0,0l0-0.8
			c0-1.1,0.4-2.1,1.2-2.7c0,0,0,0,0,0l0.9-0.7L51.3,79.4z"/>
		<polygon fill="#581224" points="50.2,75.3 50.5,79.4 51.3,79.4 51.3,75.3 		"/>
		<path fill="#581224" d="M53.1,96.1l-1.4,0l-0.3,0l0-1.1l0-1.6l0-2.2l0,0l0-0.3l0-1.6l0-0.3l0-0.3l0-1.1l0,0l0-4.8l0-0.1l0-0.4
			l0-0.1l0-1l0-0.2l0-0.6l0-0.1l0-0.3l0-0.5l0,0l0.4,0l0.3,0l0.2,0l0,0l0.8,0.7c0.5,0.4,0.9,1,1,1.6c0.1,0.2,0.1,0.4,0.1,0.7
			c0,0.2,0,0.3,0,0.5l0,0.3l0,0.7l-0.3,6.2l-0.1,2.1l0,0l-0.2,3.2l0,0.1C53.6,95.9,53.3,96.1,53.1,96.1z"/>
		<path fill="#581224" d="M52.2,79.4l-0.2,0l-0.3,0l-0.4,0l0,0l0-0.2c0,0,0,0,0,0l0-0.4l0-0.2l0-0.5l0-0.3c0,0,0,0,0,0l0-0.6l0-0.6
			l0-1.1l0-0.2l0,0l1.1,0l0,0.2l0,0.1l0,0.6l0,0l0,0.3l0,0.1l0,0l0,0l-0.1,2.2l0,0.4l0,0.1L52.2,79.4z"/>
		<polygon fill="#581224" points="52.6,75.5 52.5,76.6 50.1,76.6 50,75.5 		"/>
		<path opacity="0.2" fill="#CC6132" d="M49.5,82.9c0,0,0.4-2.6,2.1-2.8c1.7-0.3,2.3,2,2.3,2.9c0,0.8-0.2,3.4-0.2,3.4
			s0.1-3.4-0.3-3.8c-0.4-0.4-1.1-0.3-2.2-0.2C50.2,82.3,49.5,82.9,49.5,82.9z"/>
		<path opacity="0.55" fill="#FFF5D5" d="M51,82.6l1.6,0l-0.3,8.8l-0.3,0c0,0-0.1-7.9-0.1-8.3S51,82.6,51,82.6z"/>
		<polygon fill="#EF7F2B" points="52.2,79.4 52,79.4 51.7,79.4 51.3,79.4 51.3,79.4 51.1,79.4 51.1,79.4 50.6,79.4 50.5,79.4 
			50.4,78.7 50.6,78.7 51.1,78.7 51.2,78.7 51.3,78.7 51.3,78.7 51.4,78.7 51.7,78.7 51.7,78.7 52,78.7 52,78.7 52.2,78.7 
			52.2,79.1 52.2,79.2 52.2,79.4 		"/>
		<path opacity="0.53" fill="#7A1C23" d="M52.4,76.6l-2.1,0l0,0.3l0.2,0l0.1,2.5c0,0-1.3,0.7-1.7,2.5c-0.4,1.5,0.5,14.1,0.5,14.1
			l1.3,0c0,0-0.3-12.8-0.1-14c0.2-1.2,0.6-2.7,0.6-2.7l-0.1-2.1L52.4,76.6z"/>
		<polygon opacity="0.2" fill="#CC6132" points="51.7,77.2 52.3,76.7 52,79.3 51.7,79.3 		"/>
		<polygon opacity="0.2" fill="#CC6132" points="52,75.6 52.5,75.6 52.4,76.4 51.9,76.4 		"/>
		<polygon opacity="0.53" fill="#7A1C23" points="50.3,76.4 50.2,75.6 51.1,75.6 51,76.4 		"/>
		<polygon fill="#FFF5D5" points="52.4,76.6 52.2,78.7 52,78.7 52.2,76.8 52.2,76.6 52.3,76.6 		"/>
		<polygon fill="#FFF5D5" points="52.6,75.5 52.5,76.6 52.4,76.6 52.4,76.5 52.4,75.9 52.5,75.6 52.5,75.3 		"/>
		<path opacity="0.2" fill="#FFF5D5" d="M50.4,82.4l0.3,13.6l0.9,0l0.2-13.8C51.8,82.2,50.8,82,50.4,82.4z"/>
		<path opacity="0.59" fill="#807C7D" d="M50.6,87.1c-0.5,0-0.4-1.4,0.2-1.6C51.3,85.2,50.9,87.1,50.6,87.1z"/>
		<path opacity="0.59" fill="#807C7D" d="M48.7,84.8c-0.5,0-0.4-0.8,0.2-1C49.4,83.6,49.1,84.8,48.7,84.8z"/>
		<path opacity="0.59" fill="#807C7D" d="M51.4,84.7c-0.1,0.1,0.5,0.3,0.5,0C52,84.5,51.6,84.5,51.4,84.7z"/>
		<path opacity="0.59" fill="#807C7D" d="M50.7,81.9c-0.1,0.1,0.5,0.3,0.5,0C51.4,81.6,51,81.7,50.7,81.9z"/>
		<path opacity="0.59" fill="#807C7D" d="M49.4,81.7c-0.1,0.1,0.5,0.3,0.5,0C50,81.4,49.6,81.4,49.4,81.7z"/>
		<path opacity="0.59" fill="#807C7D" d="M51.3,80.9c0,0-0.1,0.1-0.1,0.1c-0.2,0.2,0.2,0.4,0,0.6c-0.2,0.2-1.7-0.8-2.2,0
			c-0.7,1.3,0.9,1.4,0.6,1.7c-0.4,0.4-1.1,0.3-1.1,0.3l0,0l0-0.8c0-1.1,0.4-2.1,1.2-2.7c0,0,0,0,0,0c0.1,0,0.8-0.4,0.8-0.2
			c0,0.2-0.4,0.3-0.5,0.4c-0.1,0.1,0.9-0.1,1.4,0c0.2,0,0.3,0,0.3,0.1C51.8,80.5,51.5,80.7,51.3,80.9z"/>
		<path opacity="0.59" fill="#807C7D" d="M51.7,81.1c-0.2,0.1,0.4,0.2,0.6,0C52.4,80.9,51.8,80.9,51.7,81.1z"/>
		<g opacity="0.59">
			<path fill="#807C7D" d="M52.2,79.9C52.2,79.9,52.2,79.9,52.2,79.9c-0.1,0.1-0.1,0-0.1,0C52.1,79.8,52.1,79.8,52.2,79.9
				C52.2,79.8,52.2,79.8,52.2,79.9z"/>
			<path fill="#807C7D" d="M52.4,81.6c0,0.1-0.1,0.1-0.1,0.1c-0.1,0-0.1-0.1-0.1-0.1c0-0.1,0.1-0.1,0.1-0.1
				C52.3,81.5,52.4,81.6,52.4,81.6z"/>
			<path fill="#807C7D" d="M50.4,81.8c0,0.1-0.1,0.1-0.1,0.1c-0.1,0-0.1-0.1-0.1-0.1c0-0.1,0.1-0.1,0.1-0.1
				C50.4,81.6,50.4,81.7,50.4,81.8z"/>
			<path fill="#807C7D" d="M51.2,79.9c0,0.1-0.1,0.1-0.1,0.1c-0.1,0-0.1-0.1-0.1-0.1c0-0.1,0.1-0.1,0.1-0.1
				C51.1,79.8,51.2,79.9,51.2,79.9z"/>
		</g>
		<g opacity="0.59">
			<path fill="#807C7D" d="M50.4,83.7C50.4,83.8,50.4,83.8,50.4,83.7c-0.1,0.1-0.1,0-0.1,0C50.3,83.7,50.3,83.7,50.4,83.7
				C50.4,83.7,50.4,83.7,50.4,83.7z"/>
			<path fill="#807C7D" d="M49.6,82.7C49.6,82.8,49.6,82.8,49.6,82.7c-0.1,0.1-0.1,0-0.1,0C49.5,82.7,49.5,82.7,49.6,82.7
				C49.6,82.7,49.6,82.7,49.6,82.7z"/>
			<path fill="#807C7D" d="M49.4,84.7C49.4,84.8,49.4,84.8,49.4,84.7c-0.1,0.1-0.1,0-0.1,0C49.3,84.7,49.3,84.7,49.4,84.7
				C49.4,84.7,49.4,84.7,49.4,84.7z"/>
			<path fill="#807C7D" d="M52.1,93C52.1,93,52.1,93,52.1,93C52,93,52,93,52,93C52,92.9,52,92.9,52.1,93
				C52.1,92.9,52.1,92.9,52.1,93z"/>
			<path fill="#807C7D" d="M52.4,93.7C52.4,93.8,52.4,93.8,52.4,93.7c-0.1,0.1-0.1,0-0.1,0C52.3,93.7,52.3,93.7,52.4,93.7
				C52.4,93.7,52.4,93.7,52.4,93.7z"/>
			<path fill="#807C7D" d="M53.6,90.3C53.6,90.4,53.5,90.4,53.6,90.3c-0.1,0.1-0.1,0-0.1,0C53.4,90.3,53.4,90.2,53.6,90.3
				C53.5,90.2,53.6,90.3,53.6,90.3z"/>
			<path fill="#807C7D" d="M53,86.5c0,0.1-0.1,0.1-0.1,0.1c-0.1,0-0.1-0.1-0.1-0.1c0-0.1,0.1-0.1,0.1-0.1C53,86.3,53,86.4,53,86.5z"
				/>
			<path fill="#807C7D" d="M52.9,92.8c0,0.1-0.1,0.1-0.1,0.1c-0.1,0-0.1-0.1-0.1-0.1c0-0.1,0.1-0.1,0.1-0.1
				C52.8,92.6,52.9,92.7,52.9,92.8z"/>
			<path fill="#807C7D" d="M51.5,89.1c0,0.1-0.1,0.1-0.1,0.1c-0.1,0-0.1-0.1-0.1-0.1c0-0.1,0.1-0.1,0.1-0.1
				C51.4,89,51.5,89,51.5,89.1z"/>
			<path fill="#807C7D" d="M53.3,92.8c0,0.1-0.1,0.1-0.1,0.1c-0.1,0-0.1-0.1-0.1-0.1c0-0.1,0.1-0.1,0.1-0.1
				C53.2,92.6,53.3,92.7,53.3,92.8z"/>
		</g>
		<path opacity="0.59" fill="#807C7D" d="M48.6,89c0,0,0.1-0.9,0.3-0.9c0.2,0,0.8,0.8,0.8,1c0,0.2-0.3,0.9-0.5,1.1S48.7,90,48.7,90
			L48.6,89z"/>
		<path opacity="0.59" fill="#807C7D" d="M51.9,94.8c0,0,0.5-0.7,0.7-0.7c0.2,0,0.7,0.3,0.7,0.5c0,0.2-0.3,0.9-0.5,1.1
			c-0.2,0.2-0.6-0.2-0.6-0.2L51.9,94.8z"/>
		<path opacity="0.59" fill="#807C7D" d="M49.7,92c-0.2,0.2,0.1,0.3,0.3,0.2C50.1,92.1,49.9,91.8,49.7,92z"/>
		<path opacity="0.59" fill="#807C7D" d="M53.3,88.7c-0.2,0.2,0.1,0.3,0.3,0.2C53.7,88.8,53.5,88.5,53.3,88.7z"/>
		<path opacity="0.59" fill="#807C7D" d="M52.9,93.2c-0.2,0.2,0.1,0.3,0.3,0.2C53.3,93.2,53.1,93,52.9,93.2z"/>
		<path opacity="0.59" fill="#807C7D" d="M51.2,91.2c-0.1,0.1-0.3-0.2-0.4,0c-0.2,0.2,0.3,0.5,0.4,0.5c0.1,0,0.4-0.1,0.4-0.3
			C51.6,91.3,51.4,91,51.2,91.2z"/>
		<path opacity="0.59" fill="#807C7D" d="M53.2,93.5c-0.1,0.1-0.3-0.2-0.4,0c-0.2,0.2,0.3,0.5,0.4,0.5c0.1,0,0.4-0.1,0.4-0.3
			C53.6,93.6,53.4,93.3,53.2,93.5z"/>
		<path opacity="0.59" fill="#807C7D" d="M49.3,87.5c-0.1,0.1-0.3-0.2-0.4,0s0.3,0.5,0.4,0.5c0.1,0,0.4-0.1,0.4-0.3
			C49.7,87.6,49.5,87.3,49.3,87.5z"/>
		<path opacity="0.59" fill="#807C7D" d="M50.6,91.7c-0.2,0.2-0.2,0.6,0,0.6c0.2,0,0.2,0,0.5-0.2S50.8,91.5,50.6,91.7z"/>
		<path opacity="0.59" fill="#807C7D" d="M49.6,89.7c-0.2,0.2-0.2,0.6,0,0.6c0.2,0,0.2,0,0.5-0.2C50.4,90,49.8,89.5,49.6,89.7z"/>
		<path opacity="0.59" fill="#807C7D" d="M51.4,95.4c-0.2,0.2-0.2,0.6,0,0.6c0.2,0,0.2,0,0.5-0.2C52.2,95.6,51.6,95.2,51.4,95.4z"/>
		<path opacity="0.59" fill="#807C7D" d="M49.5,94.5c0-0.3-0.6,0.3-0.5,0.5C49.2,95.1,49.5,95,49.5,94.5z"/>
		<path opacity="0.59" fill="#807C7D" d="M52.1,94.1c0-0.3-0.6,0.3-0.5,0.5C51.8,94.7,52.1,94.6,52.1,94.1z"/>
		<path opacity="0.59" fill="#807C7D" d="M49.6,94.5c0,0.2,0.4,0.1,0.4-0.1S49.6,94.4,49.6,94.5z"/>
	</g>
</g>
</svg>
