<?xml version="1.0" encoding="utf-8"?>
<!-- Generator: Adobe Illustrator 23.0.2, SVG Export Plug-In . SVG Version: 6.00 Build 0)  -->
<svg version="1.1" id="Calque_1" xmlns="http://www.w3.org/2000/svg" xmlns:xlink="http://www.w3.org/1999/xlink" x="0px" y="0px"
	 viewBox="0 0 74.7 67.5" enable-background="new 0 0 74.7 67.5" xml:space="preserve">
<g>
	<g>
		<g>
			<path fill="#80D2D6" d="M56.1,44h9.8c0,0,4,10.4-4.9,10.4C52.1,54.4,56.1,44,56.1,44z"/>
			<polygon fill="#80D2D6" points="57.3,53.5 57.2,54.5 64.8,54.5 64.7,53.5 			"/>
			<path fill="#841819" d="M56.3,49.3c0,0-1.5,3.8,4.4,3.7c6.6-0.1,5.3-3.7,5.3-3.7H56.3z"/>
			<g>
				<rect x="58.3" y="43.1" fill="#80D2D6" width="5.5" height="0.9"/>
				<path fill="#5E130F" d="M64.3,40.7c-2.2-0.3-4.4-0.3-6.7,0l0.2,2.1h6.2L64.3,40.7z"/>
				<path opacity="0.25" fill="#EBDF9F" d="M59.1,42.6H58l-0.2-1.8c1-0.1,2.1-0.2,3.1-0.2c0.1,0,0.2,0,0.2,0c-0.7,0-1.5,0.1-2.2,0.2
					L59.1,42.6z M62.6,40.7c0.4,0,0.8,0.1,1.1,0.2l-0.1,1.8H64l0.2-1.8C63.6,40.7,63.1,40.7,62.6,40.7z"/>
				<rect x="57.6" y="42.8" fill="#853B13" width="6.9" height="0.4"/>
				
					<rect x="58.2" y="42.4" transform="matrix(-1.836970e-16 1 -1 -1.836970e-16 101.2944 -15.2835)" opacity="0.25" fill="#EBDF9F" width="0.2" height="1.2"/>
				
					<rect x="63.9" y="42.7" transform="matrix(-1.836970e-16 1 -1 -1.836970e-16 107.0535 -21.0426)" opacity="0.25" fill="#EBDF9F" width="0.2" height="0.7"/>
				
					<rect x="61.9" y="41.6" transform="matrix(-1.836970e-16 1 -1 -1.836970e-16 104.9869 -18.976)" opacity="0.4" fill="#AC1737" width="0.2" height="2.7"/>
				<polygon opacity="0.4" fill="#AC1737" points="61.5,40.6 61.7,42.6 60.3,42.8 63.3,42.8 62.8,42.6 62.9,40.7 				"/>
			</g>
			<path opacity="0.1" fill="#4DAAA4" d="M61.3,45.2c-0.3,2.8-0.3,5.4,0.2,7.7H64c1-2.3,1.1-4.9,0.6-7.7H61.3z"/>
			<polygon opacity="0.3" fill="#4DAAA4" points="62,53.7 62,54.3 64.3,54.3 64.2,53.7 			"/>
		</g>
		<polygon fill="#5E130F" points="50.6,67.5 49.1,67.5 47.9,8.3 49.4,8.3 		"/>
		<g>
			<path fill="#F3D7BC" d="M54.1,22.8l-4,0.5l-3.4,0.4c-0.1,1.9,0.6,3.1,2.4,3.4l1.5-0.2l2-0.3C54.3,26,54.7,24.6,54.1,22.8z"/>
			
				<linearGradient id="SVGID_1_" gradientUnits="userSpaceOnUse" x1="34.7793" y1="46.5091" x2="38.6199" y2="46.5091" gradientTransform="matrix(0.9914 -0.1312 0.1312 0.9914 8.4703 -13.9895)">
				<stop  offset="0.1954" style="stop-color:#FFEFBC"/>
				<stop  offset="0.7619" style="stop-color:#E8A699"/>
				<stop  offset="0.8277" style="stop-color:#E9A99A"/>
				<stop  offset="0.8795" style="stop-color:#ECB39F"/>
				<stop  offset="0.9266" style="stop-color:#F1C4A7"/>
				<stop  offset="0.9707" style="stop-color:#F9DBB2"/>
				<stop  offset="1" style="stop-color:#FFEFBC"/>
			</linearGradient>
			<path fill="url(#SVGID_1_)" d="M52.9,27.3c-1.4,0.3-2.3,0.5-3.8,0.5l0.1-0.7l3.5-0.5L52.9,27.3z"/>
			<path fill="#E1C7B2" d="M57.2,22.8L57.2,22.8l-0.1-0.1l0,0c-0.1-0.1-0.2-0.2-0.3-0.2c-0.1,0-0.2-0.1-0.3-0.1c-0.2,0-0.3,0-0.5,0
				c-0.3,0-0.5,0.1-0.7,0.2c-0.2,0.1-0.4,0.2-0.6,0.4c-0.2,0.1-0.4,0.3-0.5,0.4c0,0.1,0,0.2,0.1,0.3l0.1,0c0.4-0.2,0.8-0.4,1.2-0.5
				c0.2,0,0.4-0.1,0.6-0.1c0.1,0,0.2,0,0.2,0c0,0,0,0,0,0c0,0.1,0.1,0.3,0,0.5c0,0.2-0.2,0.4-0.3,0.6c-0.3,0.4-0.6,0.7-1,1
				c-0.1-0.1-0.3-0.1-0.4-0.2c-0.2,0-0.3,0-0.5,0c0,0.1-0.1,0.2-0.1,0.3l0.1,0c0.2,0,0.3,0,0.5,0c0.1,0,0.3,0.1,0.4,0.2l0.1,0.1
				l0.1-0.1l0,0c0.5-0.3,1-0.6,1.4-1c0.2-0.2,0.4-0.5,0.5-0.8C57.3,23.6,57.4,23.2,57.2,22.8z"/>
			<path opacity="0.32" fill="#FFF7CC" d="M49.9,26.8l-0.8,0.1C47.7,26.6,47,25.7,47,24l1.3-0.2C48.4,25.5,48.9,26.4,49.9,26.8z"/>
			<path opacity="0.5" fill="#FFF7CC" d="M52.1,26.9l0.3,0l0.1,0.4c-0.2,0.1-0.4,0.1-0.5,0.2c0.1,0,0.1-0.1,0.2-0.1L52.1,26.9z
				 M49.9,27.6l0-0.4l-0.5,0.1l0,0.4c0.3,0,0.6,0,0.9,0C50.2,27.6,50.1,27.6,49.9,27.6z"/>
			<path opacity="0.5" fill="#FFF7CC" d="M57.1,23.7c0.1-0.2,0.1-0.4,0-0.6c0-0.2-0.2-0.4-0.4-0.5c-0.2-0.1-0.4-0.1-0.6,0
				c-0.3,0.1-0.7,0.2-1,0.3c0.3-0.1,0.6-0.1,0.8-0.1c0.2,0,0.4,0,0.5,0.1c0.2,0.1,0.3,0.2,0.4,0.4C57,23.4,57.1,23.5,57.1,23.7z"/>
		</g>
		<g>
			<path fill="#F3D7BC" d="M54.4,26l-4,0.2L47,26.4c-0.2,1.9,0.4,3.1,2.1,3.5l1.5-0.1l2-0.1C54.4,29.1,54.9,27.8,54.4,26z"/>
			
				<linearGradient id="SVGID_2_" gradientUnits="userSpaceOnUse" x1="43.436" y1="38.6648" x2="47.2767" y2="38.6648" gradientTransform="matrix(0.9985 -5.530000e-02 5.530000e-02 0.9985 3.5384 -5.8704)">
				<stop  offset="0.1954" style="stop-color:#FFEFBC"/>
				<stop  offset="0.7619" style="stop-color:#E8A699"/>
				<stop  offset="0.8277" style="stop-color:#E9A99A"/>
				<stop  offset="0.8795" style="stop-color:#ECB39F"/>
				<stop  offset="0.9266" style="stop-color:#F1C4A7"/>
				<stop  offset="0.9707" style="stop-color:#F9DBB2"/>
				<stop  offset="1" style="stop-color:#FFEFBC"/>
			</linearGradient>
			<path fill="url(#SVGID_2_)" d="M52.9,30.4c-1.5,0.2-2.4,0.3-3.8,0.2l0.1-0.7l3.5-0.2L52.9,30.4z"/>
			<path fill="#E1C7B2" d="M57.6,26.2L57.6,26.2l-0.1-0.1l0,0c-0.1-0.1-0.2-0.2-0.3-0.2c-0.1-0.1-0.2-0.1-0.3-0.1
				c-0.2,0-0.3,0-0.5,0c-0.3,0-0.5,0.1-0.8,0.2c-0.2,0.1-0.5,0.2-0.7,0.3c-0.2,0.1-0.4,0.2-0.5,0.4c0,0.1,0,0.2,0,0.3l0.1,0
				c0.4-0.2,0.8-0.3,1.3-0.4c0.2,0,0.4,0,0.6,0c0.1,0,0.2,0,0.2,0.1c0,0,0,0,0,0c0,0.1,0,0.3,0,0.5c-0.1,0.2-0.2,0.4-0.4,0.6
				c-0.3,0.4-0.7,0.7-1.1,1c-0.1-0.1-0.3-0.2-0.4-0.2c-0.2,0-0.3-0.1-0.5,0c0,0.1-0.1,0.2-0.1,0.3l0.1,0c0.2,0,0.3,0,0.5,0.1
				c0.1,0.1,0.3,0.2,0.4,0.3l0.1,0.1l0.1-0.1l0,0c0.5-0.3,1-0.5,1.5-0.9c0.2-0.2,0.4-0.4,0.6-0.7C57.6,27,57.7,26.6,57.6,26.2z"/>
			<path opacity="0.32" fill="#FFF7CC" d="M50,29.6l-0.8,0c-1.4-0.3-2.1-1.3-1.9-3l1.3-0.1C48.6,28.2,49,29.2,50,29.6z"/>
			<path opacity="0.5" fill="#FFF7CC" d="M52.2,29.9l0.3,0l0.1,0.4c-0.2,0-0.4,0.1-0.5,0.1c0.1,0,0.1,0,0.2-0.1L52.2,29.9z
				 M49.9,30.4l0-0.4l-0.5,0l0,0.4c0.3,0,0.6,0.1,0.9,0.1C50.2,30.5,50,30.5,49.9,30.4z"/>
			<path opacity="0.3" fill="#E8A699" d="M52.1,30.3"/>
			<path opacity="0.5" fill="#FFF7CC" d="M57.4,27.1c0.1-0.2,0.1-0.4,0.1-0.6c0-0.2-0.1-0.4-0.3-0.5c-0.2-0.1-0.4-0.1-0.6-0.1
				c-0.3,0-0.7,0.1-1,0.2c0.3,0,0.6,0,0.8,0c0.2,0,0.4,0,0.5,0.1c0.2,0.1,0.3,0.3,0.3,0.4C57.3,26.8,57.3,26.9,57.4,27.1z"/>
		</g>
		<g>
			<path fill="#F3D7BC" d="M54.7,29.2h-4h-3.4c-0.3,1.9,0.2,3.2,1.9,3.6h1.5h2C54.5,32.3,55,31.1,54.7,29.2z"/>
			<path fill="#F3D7BC" d="M52.9,33.5c-1.5,0.1-2.4,0.1-3.8,0l0.2-0.7h3.5L52.9,33.5z"/>
			<path fill="#E1C7B2" d="M57.8,29.6L57.8,29.6l-0.1-0.1l0,0c-0.1-0.1-0.2-0.2-0.2-0.2c-0.1-0.1-0.2-0.1-0.3-0.1
				c-0.2,0-0.3-0.1-0.5,0c-0.3,0-0.5,0.1-0.8,0.1c-0.2,0.1-0.5,0.2-0.7,0.3c-0.2,0.1-0.4,0.2-0.6,0.3c0,0.1,0,0.2,0,0.3l0.1,0
				c0.4-0.2,0.8-0.3,1.3-0.3c0.2,0,0.4,0,0.6,0c0.1,0,0.2,0,0.2,0.1c0,0,0,0,0,0c0,0.1,0,0.3,0,0.5c-0.1,0.2-0.2,0.4-0.4,0.6
				c-0.3,0.3-0.7,0.6-1.1,0.9c-0.1-0.1-0.2-0.2-0.4-0.2c-0.2-0.1-0.3-0.1-0.5-0.1c0,0.1-0.1,0.2-0.2,0.3l0.1,0c0.2,0,0.3,0,0.5,0.1
				c0.1,0.1,0.3,0.2,0.4,0.3l0.1,0.1l0.1-0.1l0,0c0.5-0.2,1-0.5,1.5-0.9c0.2-0.2,0.5-0.4,0.6-0.7C57.8,30.4,57.9,30,57.8,29.6z"/>
			<path opacity="0.32" fill="#FFF7CC" d="M50,32.6h-0.8c-1.4-0.4-2-1.4-1.8-3.1h1.4C48.7,31.1,49.1,32.1,50,32.6z"/>
			<path opacity="0.5" fill="#FFF7CC" d="M52.2,33h0.3l0,0.4c-0.2,0-0.4,0.1-0.6,0.1c0.1,0,0.1,0,0.2-0.1L52.2,33z M49.9,33.4l0-0.4
				h-0.5l0,0.4c0.3,0.1,0.6,0.1,0.9,0.1C50.1,33.4,50,33.4,49.9,33.4z"/>
			<path opacity="0.5" fill="#FFF7CC" d="M57.6,30.4c0.1-0.2,0.1-0.4,0.1-0.6c0-0.2-0.1-0.4-0.3-0.5c-0.2-0.1-0.4-0.1-0.6-0.1
				c-0.3,0-0.7,0.1-1,0.2c0.3,0,0.6,0,0.8,0c0.2,0,0.4,0.1,0.5,0.2c0.2,0.1,0.2,0.3,0.3,0.4C57.5,30.1,57.5,30.3,57.6,30.4z"/>
		</g>
		<g>
			<path fill="#F3D7BC" d="M64.2,33.6c-1.7,0.3-3.6,0.3-5.6,0l-0.3-8.4h6.2L64.2,33.6z"/>
			<path opacity="0.32" fill="#FFF7CC" d="M59.7,33.5c-0.3,0-0.6-0.1-0.9-0.1l-0.3-8h1L59.7,33.5z"/>
			<polygon fill="#E1C7B2" points="66.5,26.7 64.4,27 64.4,27.7 64.4,27.7 66,27.6 65.6,31.5 64.3,31.6 64.3,31.6 64.3,31.9 
				65.9,32.3 66.2,32.3 66.3,31.9 67,27.2 67.1,26.6 			"/>
			<polygon opacity="0.5" fill="#FFF7CC" points="64.6,27 66.9,26.8 66.5,29.9 66.6,27.1 64.6,27.3 			"/>
		</g>
		<g>
			<rect x="48.9" y="5.7" fill="#8BD5D8" width="3.8" height="0.6"/>
			<path fill="#8BD5D8" d="M53.8,6.5c-2-0.3-4-0.4-6,0l0.4,6.2c1.7,0.1,3.4,0.1,5.2,0L53.8,6.5z"/>
			<polygon fill="#F2DD99" points="52.6,11 49.2,11 49,8.4 52.8,8.4 			"/>
			<polygon fill="#E7855E" points="52.1,9.9 49.8,9.9 49.7,9.2 52.1,9.2 			"/>
			<polygon fill="#E7855E" points="51.5,10.3 50.3,10.3 50.3,10.1 51.5,10.1 			"/>
			<path fill="#E7855E" d="M52.5,8.6l-3.3,0l0,0l0,0c0.1,0.7,0.1,1.5,0.2,2.2c1,0,2,0,2.9,0l0,0l0,0L52.5,8.6L52.5,8.6L52.5,8.6z
				 M52.3,10.8c-1,0-1.9,0-2.8,0c-0.1-0.7-0.1-1.4-0.2-2.1l3.2,0L52.3,10.8z"/>
			<path opacity="0.27" fill="#FFF7CC" d="M50.8,6.5c-0.9,0-1.8,0.1-2.6,0.2l0.4,5c0.4,0,0.8,0,1.2,0l-0.2-4.9
				c0.6-0.1,1.2-0.2,1.8-0.2c0.6,0,1.2,0.1,1.9,0.2L53,11.7c0.1,0,0.1,0,0.2,0l0.4-5C52.6,6.6,51.7,6.5,50.8,6.5z"/>
			<polygon opacity="0.27" fill="#FFF7CC" points="48.6,11.9 48.6,12.4 49.7,12.5 49.7,12 			"/>
			<polygon opacity="0.27" fill="#FFF7CC" points="49.1,5.8 49.1,6.2 50,6.1 50,5.8 			"/>
			<path opacity="0.3" fill="#8BD5D8" d="M52.2,6.2"/>
			<path fill="#853B13" d="M53.2,4c-1.6-0.2-3.1-0.2-4.7,0l0.1,1.5H53L53.2,4z"/>
			<path opacity="0.25" fill="#EBDF9F" d="M49.5,5.3h-0.8l-0.1-1.3c0.7-0.1,1.5-0.1,2.2-0.1c0.1,0,0.1,0,0.2,0c-0.5,0-1,0.1-1.6,0.2
				L49.5,5.3z M52,4c0.3,0,0.5,0.1,0.8,0.1l-0.1,1.3h0.2l0.1-1.3C52.7,4,52.4,4,52,4z"/>
			<rect x="48.5" y="5.5" fill="#853B13" width="4.9" height="0.3"/>
			
				<rect x="48.9" y="5.2" transform="matrix(-1.836970e-16 1 -1 -1.836970e-16 54.5678 -43.3315)" opacity="0.25" fill="#EBDF9F" width="0.2" height="0.9"/>
		</g>
		<g>
			<rect x="55.6" y="5.7" fill="#8BD5D8" width="3.8" height="0.6"/>
			<path fill="#8BD5D8" d="M60.5,6.5c-2-0.3-4-0.4-6,0l0.4,6.2c1.7,0.1,3.4,0.1,5.2,0L60.5,6.5z"/>
			<polygon fill="#F2DD99" points="59.2,11 55.9,11 55.7,8.4 59.5,8.4 			"/>
			<polygon fill="#E7855E" points="58.7,9.9 56.4,9.9 56.3,9.2 58.8,9.2 			"/>
			<polygon fill="#E7855E" points="58.1,10.3 57,10.3 56.9,10.1 58.1,10.1 			"/>
			<path fill="#E7855E" d="M59.2,8.6l-3.3,0l0,0l0,0c0.1,0.7,0.1,1.5,0.2,2.2c1,0,2,0,2.9,0l0,0l0,0L59.2,8.6L59.2,8.6L59.2,8.6z
				 M59,10.8c-1,0-1.9,0-2.8,0C56.1,10.1,56,9.4,56,8.7l3.2,0L59,10.8z"/>
			<path opacity="0.27" fill="#FFF7CC" d="M57.5,6.5c-0.9,0-1.8,0.1-2.6,0.2l0.4,5c0.4,0,0.8,0,1.2,0l-0.2-4.9
				c0.6-0.1,1.2-0.2,1.8-0.2c0.6,0,1.2,0.1,1.9,0.2l-0.2,4.9c0.1,0,0.1,0,0.2,0l0.4-5C59.2,6.6,58.3,6.5,57.5,6.5z"/>
			<polygon opacity="0.27" fill="#FFF7CC" points="55.2,11.9 55.3,12.4 56.4,12.5 56.4,12 			"/>
			<polygon opacity="0.27" fill="#FFF7CC" points="55.7,5.8 55.7,6.2 56.7,6.1 56.7,5.8 			"/>
			<path fill="#853B13" d="M59.8,4c-1.6-0.2-3.1-0.2-4.7,0l0.1,1.5h4.4L59.8,4z"/>
			<path opacity="0.25" fill="#EBDF9F" d="M56.2,5.3h-0.8l-0.1-1.3C56,4,56.8,3.9,57.5,3.9c0.1,0,0.1,0,0.2,0c-0.5,0-1,0.1-1.6,0.2
				L56.2,5.3z M58.7,4c0.3,0,0.5,0.1,0.8,0.1l-0.1,1.3h0.2l0.1-1.3C59.4,4,59,4,58.7,4z"/>
			<rect x="55.1" y="5.5" fill="#853B13" width="4.9" height="0.3"/>
			
				<rect x="55.5" y="5.2" transform="matrix(-1.836970e-16 1 -1 -1.836970e-16 61.2164 -49.9801)" opacity="0.25" fill="#EBDF9F" width="0.2" height="0.9"/>
		</g>
		<g>
			<rect x="62.2" y="5.7" fill="#8BD5D8" width="3.8" height="0.6"/>
			<path fill="#8BD5D8" d="M67.1,6.5c-2-0.3-4-0.4-6,0l0.4,6.2c1.7,0.1,3.4,0.1,5.2,0L67.1,6.5z"/>
			<polygon fill="#F2DD99" points="65.9,11 62.5,11 62.3,8.4 66.1,8.4 			"/>
			<polygon fill="#E7855E" points="65.4,9.9 63.1,9.9 63,9.2 65.4,9.2 			"/>
			<polygon fill="#E7855E" points="64.8,10.3 63.6,10.3 63.6,10.1 64.8,10.1 			"/>
			<path fill="#E7855E" d="M65.8,8.6l-3.3,0l0,0l0,0c0.1,0.7,0.1,1.5,0.2,2.2c1,0,2,0,2.9,0l0,0l0,0L65.8,8.6L65.8,8.6L65.8,8.6z
				 M65.6,10.8c-1,0-1.9,0-2.8,0c-0.1-0.7-0.1-1.4-0.2-2.1l3.2,0L65.6,10.8z"/>
			<path opacity="0.27" fill="#FFF7CC" d="M64.1,6.5c-0.9,0-1.8,0.1-2.6,0.2l0.4,5c0.4,0,0.8,0,1.2,0l-0.2-4.9
				c0.6-0.1,1.2-0.2,1.8-0.2c0.6,0,1.2,0.1,1.9,0.2l-0.2,4.9c0.1,0,0.1,0,0.2,0l0.4-5C65.9,6.6,65,6.5,64.1,6.5z"/>
			<polygon opacity="0.27" fill="#FFF7CC" points="61.9,11.9 61.9,12.4 63,12.5 63,12 			"/>
			<polygon opacity="0.27" fill="#FFF7CC" points="62.4,5.8 62.4,6.2 63.3,6.1 63.3,5.8 			"/>
			<path fill="#853B13" d="M66.5,4c-1.6-0.2-3.1-0.2-4.7,0l0.1,1.5h4.4L66.5,4z"/>
			<path opacity="0.25" fill="#EBDF9F" d="M62.8,5.3h-0.8l-0.1-1.3c0.7-0.1,1.5-0.1,2.2-0.1c0.1,0,0.1,0,0.2,0c-0.5,0-1,0.1-1.6,0.2
				L62.8,5.3z M65.3,4c0.3,0,0.5,0.1,0.8,0.1L66,5.3h0.2l0.1-1.3C66,4,65.7,4,65.3,4z"/>
			<rect x="61.8" y="5.5" fill="#853B13" width="4.9" height="0.3"/>
			
				<rect x="62.2" y="5.2" transform="matrix(-1.836970e-16 1 -1 -1.836970e-16 67.865 -56.6287)" opacity="0.25" fill="#EBDF9F" width="0.2" height="0.9"/>
		</g>
		<polygon fill="#5E130F" points="71.5,67.5 70,67.5 71.4,8.3 72.9,8.3 		"/>
		<polygon fill="#AE532F" points="46.1,67.5 44.4,67.5 43.3,8.3 44.8,8.3 		"/>
		<polygon fill="#AE532F" points="67.8,67.5 66.2,67.5 66.7,8.3 68.2,8.3 		"/>
		<g>
			<path fill="#8B9D25" d="M53.6,45.4L53.3,48l0.6,6.5H46l0.6-6.5l-0.3-2.7H53.6z M47.9,47.1L47.9,47.1c0.1,0.1,0.2,0.1,0.3,0.1
				c1,0.1,2.1,0.1,3.2,0c0.3,0,0.5-0.2,0.7-0.4c0.1-0.2,0.1-0.3,0-0.5c-0.1-0.2-0.2-0.3-0.4-0.3c-1.1-0.1-2.3,0-3.5,0.1
				C47.7,46.2,47.5,46.8,47.9,47.1z"/>
			<path opacity="0.4" fill="#AC1737" d="M47.3,48c0.9-0.1,1.8-0.1,2.7-0.1c0.9,0,1.8,0,2.7,0.1c-0.9,0.1-1.8,0.1-2.7,0.1
				C49.1,48.1,48.2,48.1,47.3,48z"/>
			<polygon opacity="0.2" fill="#FFF7CC" points="46.5,45.5 46.9,47.9 46.3,54.4 47.2,48.4 51,48.3 47.1,48 47.1,45.8 53.2,45.5 			
				"/>
			<polygon fill="#FFEFBC" points="49.9,49.8 50.4,49.5 50.7,50 51.2,49.9 51.2,50.5 51.8,50.7 51.5,51.2 51.9,51.6 51.4,51.9 
				51.6,52.5 51,52.6 50.8,53.1 50.3,52.9 49.9,53.3 49.6,52.9 49,53.1 48.9,52.6 48.3,52.5 48.5,51.9 48,51.6 48.4,51.2 48.1,50.7 
				48.6,50.5 48.6,49.9 49.2,50 49.5,49.5 			"/>
		</g>
		<g>
			<polygon fill="#AE532F" points="68.8,14.1 42.4,14.1 42.2,12.6 68.9,12.6 			"/>
			<polygon fill="#5E130F" points="74.5,14.1 68.7,14.1 68.8,12.6 74.7,12.6 			"/>
		</g>
		<polygon opacity="0.4" fill="#EBDF9F" points="42.5,12.8 42.5,13.8 47,13.8 47.3,13.1 67.3,13.1 67.3,13.8 68.4,13.8 68.5,12.8 		
			"/>
		<g>
			<polygon fill="#AE532F" points="68.8,35 42.4,35 42.2,33.5 68.9,33.5 			"/>
			<polygon fill="#5E130F" points="74.5,35 68.7,35 68.8,33.5 74.7,33.5 			"/>
		</g>
		<polygon opacity="0.4" fill="#EBDF9F" points="42.5,33.7 42.5,34.8 47,34.8 47.3,34 67.3,34 67.3,34.8 68.4,34.8 68.5,33.7 		"/>
		<g>
			<polygon fill="#AE532F" points="68.8,55.9 42.4,55.9 42.2,54.4 68.9,54.4 			"/>
			<polygon fill="#5E130F" points="74.5,55.9 68.7,55.9 68.8,54.4 74.7,54.4 			"/>
		</g>
		<polygon opacity="0.4" fill="#EBDF9F" points="42.5,54.6 42.5,55.7 47,55.7 47.3,54.9 67.3,54.9 67.3,55.7 68.4,55.7 68.5,54.6 		
			"/>
	</g>
	<g>
		<polygon fill="#5E130F" points="7.9,67.1 6.1,0 0,0 1.6,67.2 		"/>
		<polygon fill="#AE532F" points="7.9,67.1 38.7,67.1 40.5,0 6.1,0 		"/>
		
			<linearGradient id="SVGID_3_" gradientUnits="userSpaceOnUse" x1="-77.3266" y1="60.6997" x2="-46.1325" y2="60.6997" gradientTransform="matrix(-1 0 0 1 -38.4046 0)">
			<stop  offset="0" style="stop-color:#F5EACA"/>
			<stop  offset="0.4142" style="stop-color:#B8C1B1"/>
			<stop  offset="0.8404" style="stop-color:#759595"/>
		</linearGradient>
		<polygon fill="url(#SVGID_3_)" points="7.8,61.3 38.9,61.3 38.9,60.1 7.7,60.1 		"/>
		<polygon fill="#8E4930" points="8.3,60.1 38.3,60.1 39,5.1 7.6,5.1 		"/>
		<polygon opacity="0.59" fill="#5E130F" points="7.6,5.1 39,5.1 38.6,22.4 34.9,22.3 34.9,9.7 11.3,9.9 11.4,22.3 8,22.4 		"/>
		<polygon opacity="0.59" fill="#5E130F" points="7.6,23.6 39,23.6 38.9,42 35.1,41.8 34.6,28.3 11.7,27.7 11.3,41.8 7.9,42 		"/>
		<polygon opacity="0.59" fill="#5E130F" points="7.5,42.7 38.9,42.7 38.7,61 35,60.9 34.4,48.5 11.5,47.9 11.2,60.9 7.8,61 		"/>
		
			<linearGradient id="SVGID_4_" gradientUnits="userSpaceOnUse" x1="-77.4184" y1="54.879" x2="-47.2928" y2="65.8492" gradientTransform="matrix(-1 0 0 1 -38.4046 0)">
			<stop  offset="0.1676" style="stop-color:#BCB48E"/>
			<stop  offset="0.2567" style="stop-color:#B2AB87"/>
			<stop  offset="0.407" style="stop-color:#989173"/>
			<stop  offset="0.6" style="stop-color:#6D6852"/>
			<stop  offset="0.8259" style="stop-color:#323026"/>
			<stop  offset="1" style="stop-color:#000000"/>
		</linearGradient>
		<polygon fill="url(#SVGID_4_)" points="38.7,60.3 38.7,60.9 8,60.8 8,60.3 		"/>
		
			<linearGradient id="SVGID_5_" gradientUnits="userSpaceOnUse" x1="-78.8339" y1="15.8858" x2="-39.2883" y2="54.1858" gradientTransform="matrix(-1 0 0 1 -38.4046 0)">
			<stop  offset="0" style="stop-color:#F5EACA"/>
			<stop  offset="0.4142" style="stop-color:#B8C1B1"/>
			<stop  offset="0.8404" style="stop-color:#759595"/>
		</linearGradient>
		<path fill="url(#SVGID_5_)" d="M38.8,22.3l0,1.4H7.9l0-1.4H38.8z M38.6,42.9l0-1.4H8.1l0,1.4H38.6z"/>
		
			<linearGradient id="SVGID_6_" gradientUnits="userSpaceOnUse" x1="-78.4339" y1="16.0105" x2="-39.8133" y2="53.4147" gradientTransform="matrix(-1 0 0 1 -38.4046 0)">
			<stop  offset="0.1676" style="stop-color:#BCB48E"/>
			<stop  offset="0.2567" style="stop-color:#B2AB87"/>
			<stop  offset="0.407" style="stop-color:#989173"/>
			<stop  offset="0.6" style="stop-color:#6D6852"/>
			<stop  offset="0.8259" style="stop-color:#323026"/>
			<stop  offset="1" style="stop-color:#000000"/>
		</linearGradient>
		<path fill="url(#SVGID_6_)" d="M8.3,42.2l0-0.5h30.1l0,0.5H8.3z M8,23l0-0.5h30.6l0,0.5H8z"/>
		<g>
			<polygon fill="#809D2B" points="35.1,60.1 30.8,60.1 30.5,47.4 35.3,47.4 			"/>
			<polygon fill="#C1CE37" points="36.7,60.1 32.4,60.1 32.2,47.4 37,47.4 			"/>
			<polygon fill="#FFEFBC" points="36,57.6 33.2,57.6 33,51.8 36.2,51.8 			"/>
			<polygon opacity="0.3" fill="#A1CFA0" points="32.6,47.4 32.8,59.3 32.4,60.1 36.7,60.1 33.5,59.5 33.8,47.4 			"/>
		</g>
		<g>
			<polygon fill="#CE6C3B" points="27.2,60.1 22.9,60.1 22.7,47.4 27.4,47.4 			"/>
			<polygon fill="#F2AD4F" points="28.9,60.1 24.6,60.1 24.3,47.4 29.1,47.4 			"/>
			<polygon fill="#D8633E" points="28.1,57.6 25.3,57.6 25.1,51.8 28.3,51.8 			"/>
			<polygon opacity="0.3" fill="#E2A76A" points="24.7,47.4 24.9,59.3 24.6,60.1 28.9,60.1 25.6,59.5 25.9,47.4 			"/>
		</g>
		<g>
			<polygon fill="#CE6C3B" points="21.6,60.1 17.3,60.1 17,47.4 21.8,47.4 			"/>
			<polygon fill="#F2AD4F" points="23.2,60.1 18.9,60.1 18.7,47.4 23.5,47.4 			"/>
			<polygon fill="#D8633E" points="22.5,57.6 19.7,57.6 19.5,51.8 22.7,51.8 			"/>
			<polygon opacity="0.3" fill="#E2A76A" points="19.1,47.4 19.2,59.3 18.9,60.1 23.2,60.1 20,59.5 20.3,47.4 			"/>
		</g>
		<g>
			<polygon fill="#CE6C3B" points="14.9,60.1 10.6,60.1 10.4,47.4 15.1,47.4 			"/>
			<polygon fill="#F2AD4F" points="16.6,60.1 12.3,60.1 12,47.4 16.8,47.4 			"/>
			<polygon fill="#D8633E" points="15.8,57.6 13,57.6 12.8,51.8 16,51.8 			"/>
			<polygon opacity="0.3" fill="#E2A76A" points="12.4,47.4 12.6,59.3 12.3,60.1 16.6,60.1 13.3,59.5 13.6,47.4 			"/>
		</g>
		<g>
			<polygon fill="#EB725F" points="22,21.7 25.5,21.7 25.6,11.7 21.9,11.7 			"/>
			
				<linearGradient id="SVGID_7_" gradientUnits="userSpaceOnUse" x1="269.7371" y1="16.6378" x2="273.4542" y2="16.6378" gradientTransform="matrix(-1 0 0 1 295.3278 0)">
				<stop  offset="7.539680e-02" style="stop-color:#F5EACA"/>
				<stop  offset="0.3434" style="stop-color:#B8C1B1"/>
				<stop  offset="0.619" style="stop-color:#759595"/>
				<stop  offset="0.6926" style="stop-color:#7A9A97"/>
				<stop  offset="0.7855" style="stop-color:#8AA89B"/>
				<stop  offset="0.8889" style="stop-color:#A4BFA3"/>
				<stop  offset="0.9991" style="stop-color:#C8DFAE"/>
				<stop  offset="1" style="stop-color:#C8DFAE"/>
			</linearGradient>
			<path fill="url(#SVGID_7_)" d="M22,21.7h3.5l-0.3,0.6h-2.9L22,21.7z M21.9,11.7h3.7L25.3,11h-3.2L21.9,11.7z"/>
			<polygon opacity="0.3" fill="#E4887E" points="23.7,11.2 23.7,22.3 22.9,22.3 22.8,21.7 22.8,11.7 23,11.2 			"/>
		</g>
		<g>
			<polygon fill="#EB725F" points="9.9,40.9 13.3,40.9 13.5,32.6 9.7,32.6 			"/>
			
				<linearGradient id="SVGID_8_" gradientUnits="userSpaceOnUse" x1="281.8776" y1="36.7124" x2="285.5948" y2="36.7124" gradientTransform="matrix(-1 0 0 1 295.3278 0)">
				<stop  offset="7.539680e-02" style="stop-color:#F5EACA"/>
				<stop  offset="0.3434" style="stop-color:#B8C1B1"/>
				<stop  offset="0.619" style="stop-color:#759595"/>
				<stop  offset="0.6926" style="stop-color:#7A9A97"/>
				<stop  offset="0.7855" style="stop-color:#8AA89B"/>
				<stop  offset="0.8889" style="stop-color:#A4BFA3"/>
				<stop  offset="0.9991" style="stop-color:#C8DFAE"/>
				<stop  offset="1" style="stop-color:#C8DFAE"/>
			</linearGradient>
			<path fill="url(#SVGID_8_)" d="M9.9,40.9h3.5l-0.3,0.6h-2.9L9.9,40.9z M9.7,32.6h3.7l-0.3-0.7H10L9.7,32.6z"/>
			<polygon opacity="0.3" fill="#E4887E" points="11.5,32.1 11.5,41.5 10.8,41.5 10.7,40.9 10.6,32.6 10.8,32.1 			"/>
		</g>
		<g>
			<polygon fill="#EB725F" points="13.8,40.9 17.3,40.9 17.4,32.6 13.7,32.6 			"/>
			
				<linearGradient id="SVGID_9_" gradientUnits="userSpaceOnUse" x1="277.9352" y1="36.7124" x2="281.6523" y2="36.7124" gradientTransform="matrix(-1 0 0 1 295.3278 0)">
				<stop  offset="7.539680e-02" style="stop-color:#F5EACA"/>
				<stop  offset="0.3434" style="stop-color:#B8C1B1"/>
				<stop  offset="0.619" style="stop-color:#759595"/>
				<stop  offset="0.6926" style="stop-color:#7A9A97"/>
				<stop  offset="0.7855" style="stop-color:#8AA89B"/>
				<stop  offset="0.8889" style="stop-color:#A4BFA3"/>
				<stop  offset="0.9991" style="stop-color:#C8DFAE"/>
				<stop  offset="1" style="stop-color:#C8DFAE"/>
			</linearGradient>
			<path fill="url(#SVGID_9_)" d="M13.8,40.9h3.5L17,41.5h-2.9L13.8,40.9z M13.7,32.6h3.7l-0.3-0.7h-3.2L13.7,32.6z"/>
			<polygon opacity="0.3" fill="#E4887E" points="15.5,32.1 15.5,41.5 14.7,41.5 14.6,40.9 14.6,32.6 14.8,32.1 			"/>
		</g>
		<g>
			<polygon fill="#EB725F" points="17.7,40.9 21.2,40.9 21.3,32.6 17.6,32.6 			"/>
			
				<linearGradient id="SVGID_10_" gradientUnits="userSpaceOnUse" x1="273.9927" y1="36.7124" x2="277.7099" y2="36.7124" gradientTransform="matrix(-1 0 0 1 295.3278 0)">
				<stop  offset="7.539680e-02" style="stop-color:#F5EACA"/>
				<stop  offset="0.3434" style="stop-color:#B8C1B1"/>
				<stop  offset="0.619" style="stop-color:#759595"/>
				<stop  offset="0.6926" style="stop-color:#7A9A97"/>
				<stop  offset="0.7855" style="stop-color:#8AA89B"/>
				<stop  offset="0.8889" style="stop-color:#A4BFA3"/>
				<stop  offset="0.9991" style="stop-color:#C8DFAE"/>
				<stop  offset="1" style="stop-color:#C8DFAE"/>
			</linearGradient>
			<path fill="url(#SVGID_10_)" d="M17.7,40.9h3.5l-0.3,0.6H18L17.7,40.9z M17.6,32.6h3.7l-0.3-0.7h-3.2L17.6,32.6z"/>
			<polygon opacity="0.3" fill="#E4887E" points="19.4,32.1 19.4,41.5 18.6,41.5 18.6,40.9 18.5,32.6 18.7,32.1 			"/>
		</g>
		<g>
			<polygon fill="#EB725F" points="21.7,40.9 25.2,40.9 25.3,32.6 21.6,32.6 			"/>
			
				<linearGradient id="SVGID_11_" gradientUnits="userSpaceOnUse" x1="270.0503" y1="36.7124" x2="273.7675" y2="36.7124" gradientTransform="matrix(-1 0 0 1 295.3278 0)">
				<stop  offset="7.539680e-02" style="stop-color:#F5EACA"/>
				<stop  offset="0.3434" style="stop-color:#B8C1B1"/>
				<stop  offset="0.619" style="stop-color:#759595"/>
				<stop  offset="0.6926" style="stop-color:#7A9A97"/>
				<stop  offset="0.7855" style="stop-color:#8AA89B"/>
				<stop  offset="0.8889" style="stop-color:#A4BFA3"/>
				<stop  offset="0.9991" style="stop-color:#C8DFAE"/>
				<stop  offset="1" style="stop-color:#C8DFAE"/>
			</linearGradient>
			<path fill="url(#SVGID_11_)" d="M21.7,40.9h3.5l-0.3,0.6H22L21.7,40.9z M21.6,32.6h3.7L25,31.9h-3.2L21.6,32.6z"/>
			<polygon opacity="0.3" fill="#E4887E" points="23.4,32.1 23.4,41.5 22.6,41.5 22.5,40.9 22.5,32.6 22.7,32.1 			"/>
		</g>
		<g>
			<polygon fill="#ED9C55" points="17.9,21.7 21.4,21.7 21.5,14.1 17.8,14.1 			"/>
			
				<linearGradient id="SVGID_12_" gradientUnits="userSpaceOnUse" x1="273.83" y1="17.8473" x2="277.5472" y2="17.8473" gradientTransform="matrix(-1 0 0 1 295.3278 0)">
				<stop  offset="7.539680e-02" style="stop-color:#F5EACA"/>
				<stop  offset="0.3434" style="stop-color:#B8C1B1"/>
				<stop  offset="0.619" style="stop-color:#759595"/>
				<stop  offset="0.6926" style="stop-color:#7A9A97"/>
				<stop  offset="0.7855" style="stop-color:#8AA89B"/>
				<stop  offset="0.8889" style="stop-color:#A4BFA3"/>
				<stop  offset="0.9991" style="stop-color:#C8DFAE"/>
				<stop  offset="1" style="stop-color:#C8DFAE"/>
			</linearGradient>
			<path fill="url(#SVGID_12_)" d="M17.9,21.7h3.5l-0.3,0.6h-2.9L17.9,21.7z M17.8,14.1h3.7l-0.3-0.7h-3.2L17.8,14.1z"/>
			<polygon opacity="0.3" fill="#E2A76A" points="19.6,13.6 19.6,22.3 18.8,22.3 18.7,21.7 18.7,14.1 18.9,13.6 			"/>
		</g>
		<g>
			<polygon fill="#ED9C55" points="27.5,21.7 31,21.7 31.1,14.1 27.4,14.1 			"/>
			
				<linearGradient id="SVGID_13_" gradientUnits="userSpaceOnUse" x1="264.2426" y1="17.8473" x2="267.9597" y2="17.8473" gradientTransform="matrix(-1 0 0 1 295.3278 0)">
				<stop  offset="7.539680e-02" style="stop-color:#F5EACA"/>
				<stop  offset="0.3434" style="stop-color:#B8C1B1"/>
				<stop  offset="0.619" style="stop-color:#759595"/>
				<stop  offset="0.6926" style="stop-color:#7A9A97"/>
				<stop  offset="0.7855" style="stop-color:#8AA89B"/>
				<stop  offset="0.8889" style="stop-color:#A4BFA3"/>
				<stop  offset="0.9991" style="stop-color:#C8DFAE"/>
				<stop  offset="1" style="stop-color:#C8DFAE"/>
			</linearGradient>
			<path fill="url(#SVGID_13_)" d="M27.5,21.7H31l-0.3,0.6h-2.9L27.5,21.7z M27.4,14.1h3.7l-0.3-0.7h-3.2L27.4,14.1z"/>
			<polygon opacity="0.3" fill="#E2A76A" points="29.2,13.6 29.2,22.3 28.4,22.3 28.3,21.7 28.3,14.1 28.5,13.6 			"/>
		</g>
		<g>
			<polygon fill="#ED9C55" points="31.7,21.7 35.2,21.7 35.3,14.1 31.6,14.1 			"/>
			
				<linearGradient id="SVGID_14_" gradientUnits="userSpaceOnUse" x1="259.9907" y1="17.8473" x2="263.7078" y2="17.8473" gradientTransform="matrix(-1 0 0 1 295.3278 0)">
				<stop  offset="7.539680e-02" style="stop-color:#F5EACA"/>
				<stop  offset="0.3434" style="stop-color:#B8C1B1"/>
				<stop  offset="0.619" style="stop-color:#759595"/>
				<stop  offset="0.6926" style="stop-color:#7A9A97"/>
				<stop  offset="0.7855" style="stop-color:#8AA89B"/>
				<stop  offset="0.8889" style="stop-color:#A4BFA3"/>
				<stop  offset="0.9991" style="stop-color:#C8DFAE"/>
				<stop  offset="1" style="stop-color:#C8DFAE"/>
			</linearGradient>
			<path fill="url(#SVGID_14_)" d="M31.7,21.7h3.5l-0.3,0.6H32L31.7,21.7z M31.6,14.1h3.7l-0.3-0.7h-3.2L31.6,14.1z"/>
			<polygon opacity="0.3" fill="#E2A76A" points="33.4,13.6 33.4,22.3 32.6,22.3 32.6,21.7 32.5,14.1 32.7,13.6 			"/>
		</g>
		<g>
			<polygon fill="#DCE080" points="13.7,21.7 17.2,21.7 17.3,16.4 13.6,16.4 			"/>
			
				<linearGradient id="SVGID_15_" gradientUnits="userSpaceOnUse" x1="278.0161" y1="19.0128" x2="281.7333" y2="19.0128" gradientTransform="matrix(-1 0 0 1 295.3278 0)">
				<stop  offset="7.539680e-02" style="stop-color:#F5EACA"/>
				<stop  offset="0.3434" style="stop-color:#B8C1B1"/>
				<stop  offset="0.619" style="stop-color:#759595"/>
				<stop  offset="0.6926" style="stop-color:#7A9A97"/>
				<stop  offset="0.7855" style="stop-color:#8AA89B"/>
				<stop  offset="0.8889" style="stop-color:#A4BFA3"/>
				<stop  offset="0.9991" style="stop-color:#C8DFAE"/>
				<stop  offset="1" style="stop-color:#C8DFAE"/>
			</linearGradient>
			<path fill="url(#SVGID_15_)" d="M13.7,21.7h3.5l-0.3,0.6H14L13.7,21.7z M13.6,16.4h3.7L17,15.8h-3.2L13.6,16.4z"/>
			<polygon opacity="0.3" fill="#A1CFA0" points="15.4,15.9 15.4,22.3 14.6,22.3 14.6,21.7 14.5,16.4 14.7,15.9 			"/>
		</g>
		<g>
			<polygon fill="#DCE080" points="9.7,21.7 13.2,21.7 13.3,16.4 9.6,16.4 			"/>
			
				<linearGradient id="SVGID_16_" gradientUnits="userSpaceOnUse" x1="282.0012" y1="19.0128" x2="285.7183" y2="19.0128" gradientTransform="matrix(-1 0 0 1 295.3278 0)">
				<stop  offset="7.539680e-02" style="stop-color:#F5EACA"/>
				<stop  offset="0.3434" style="stop-color:#B8C1B1"/>
				<stop  offset="0.619" style="stop-color:#759595"/>
				<stop  offset="0.6926" style="stop-color:#7A9A97"/>
				<stop  offset="0.7855" style="stop-color:#8AA89B"/>
				<stop  offset="0.8889" style="stop-color:#A4BFA3"/>
				<stop  offset="0.9991" style="stop-color:#C8DFAE"/>
				<stop  offset="1" style="stop-color:#C8DFAE"/>
			</linearGradient>
			<path fill="url(#SVGID_16_)" d="M9.7,21.7h3.5l-0.3,0.6H10L9.7,21.7z M9.6,16.4h3.7l-0.3-0.7H9.9L9.6,16.4z"/>
			<polygon opacity="0.3" fill="#A1CFA0" points="11.4,15.9 11.4,22.3 10.6,22.3 10.6,21.7 10.5,16.4 10.7,15.9 			"/>
		</g>
		<g>
			<polygon fill="#DCE080" points="11.3,15.2 14.8,15.2 14.9,9.9 11.2,9.9 			"/>
			
				<linearGradient id="SVGID_17_" gradientUnits="userSpaceOnUse" x1="280.42" y1="12.5221" x2="284.1371" y2="12.5221" gradientTransform="matrix(-1 0 0 1 295.3278 0)">
				<stop  offset="7.539680e-02" style="stop-color:#F5EACA"/>
				<stop  offset="0.3434" style="stop-color:#B8C1B1"/>
				<stop  offset="0.619" style="stop-color:#759595"/>
				<stop  offset="0.6926" style="stop-color:#7A9A97"/>
				<stop  offset="0.7855" style="stop-color:#8AA89B"/>
				<stop  offset="0.8889" style="stop-color:#A4BFA3"/>
				<stop  offset="0.9991" style="stop-color:#C8DFAE"/>
				<stop  offset="1" style="stop-color:#C8DFAE"/>
			</linearGradient>
			<path fill="url(#SVGID_17_)" d="M11.3,15.2h3.5l-0.3,0.6h-2.9L11.3,15.2z M11.2,9.9h3.7l-0.3-0.7h-3.2L11.2,9.9z"/>
			<polygon opacity="0.3" fill="#A1CFA0" points="13,9.4 13,15.8 12.2,15.8 12.2,15.2 12.1,9.9 12.3,9.4 			"/>
		</g>
		<g>
			<polygon fill="#DCE080" points="32.8,40.9 36.3,40.9 36.4,35.7 32.7,35.7 			"/>
			
				<linearGradient id="SVGID_18_" gradientUnits="userSpaceOnUse" x1="258.9189" y1="38.2464" x2="262.6361" y2="38.2464" gradientTransform="matrix(-1 0 0 1 295.3278 0)">
				<stop  offset="7.539680e-02" style="stop-color:#F5EACA"/>
				<stop  offset="0.3434" style="stop-color:#B8C1B1"/>
				<stop  offset="0.619" style="stop-color:#759595"/>
				<stop  offset="0.6926" style="stop-color:#7A9A97"/>
				<stop  offset="0.7855" style="stop-color:#8AA89B"/>
				<stop  offset="0.8889" style="stop-color:#A4BFA3"/>
				<stop  offset="0.9991" style="stop-color:#C8DFAE"/>
				<stop  offset="1" style="stop-color:#C8DFAE"/>
			</linearGradient>
			<path fill="url(#SVGID_18_)" d="M32.8,40.9h3.5L36,41.5h-2.9L32.8,40.9z M32.7,35.7h3.7L36.1,35H33L32.7,35.7z"/>
			<polygon opacity="0.3" fill="#A1CFA0" points="34.5,35.2 34.5,41.5 33.7,41.5 33.7,40.9 33.6,35.7 33.8,35.2 			"/>
		</g>
		<g>
			<polygon fill="#DCE080" points="28.8,40.9 32.3,40.9 32.4,35.7 28.7,35.7 			"/>
			
				<linearGradient id="SVGID_19_" gradientUnits="userSpaceOnUse" x1="262.9039" y1="38.2464" x2="266.6211" y2="38.2464" gradientTransform="matrix(-1 0 0 1 295.3278 0)">
				<stop  offset="7.539680e-02" style="stop-color:#F5EACA"/>
				<stop  offset="0.3434" style="stop-color:#B8C1B1"/>
				<stop  offset="0.619" style="stop-color:#759595"/>
				<stop  offset="0.6926" style="stop-color:#7A9A97"/>
				<stop  offset="0.7855" style="stop-color:#8AA89B"/>
				<stop  offset="0.8889" style="stop-color:#A4BFA3"/>
				<stop  offset="0.9991" style="stop-color:#C8DFAE"/>
				<stop  offset="1" style="stop-color:#C8DFAE"/>
			</linearGradient>
			<path fill="url(#SVGID_19_)" d="M28.8,40.9h3.5L32,41.5h-2.9L28.8,40.9z M28.7,35.7h3.7L32.2,35H29L28.7,35.7z"/>
			<polygon opacity="0.3" fill="#A1CFA0" points="30.5,35.2 30.5,41.5 29.7,41.5 29.7,40.9 29.6,35.7 29.8,35.2 			"/>
		</g>
		<g>
			<polygon fill="#DCE080" points="30.4,34.4 33.9,34.4 34,29.2 30.3,29.2 			"/>
			
				<linearGradient id="SVGID_20_" gradientUnits="userSpaceOnUse" x1="261.3228" y1="31.7557" x2="265.0399" y2="31.7557" gradientTransform="matrix(-1 0 0 1 295.3278 0)">
				<stop  offset="7.539680e-02" style="stop-color:#F5EACA"/>
				<stop  offset="0.3434" style="stop-color:#B8C1B1"/>
				<stop  offset="0.619" style="stop-color:#759595"/>
				<stop  offset="0.6926" style="stop-color:#7A9A97"/>
				<stop  offset="0.7855" style="stop-color:#8AA89B"/>
				<stop  offset="0.8889" style="stop-color:#A4BFA3"/>
				<stop  offset="0.9991" style="stop-color:#C8DFAE"/>
				<stop  offset="1" style="stop-color:#C8DFAE"/>
			</linearGradient>
			<path fill="url(#SVGID_20_)" d="M30.4,34.4h3.5L33.6,35h-2.9L30.4,34.4z M30.3,29.2H34l-0.3-0.7h-3.2L30.3,29.2z"/>
			<polygon opacity="0.3" fill="#A1CFA0" points="32.1,28.7 32.1,35 31.3,35 31.2,34.4 31.2,29.2 31.4,28.7 			"/>
		</g>
		<polygon opacity="0.39" fill="#5E130F" points="38.7,63.2 38.7,61.3 7.8,61.3 7.9,63.2 		"/>
	</g>
</g>
</svg>
