<?xml version="1.0" encoding="utf-8"?>
<!-- Generator: Adobe Illustrator 23.0.2, SVG Export Plug-In . SVG Version: 6.00 Build 0)  -->
<svg version="1.1" id="Calque_1" xmlns="http://www.w3.org/2000/svg" xmlns:xlink="http://www.w3.org/1999/xlink" x="0px" y="0px"
	 viewBox="0 0 73.8 75.3" enable-background="new 0 0 73.8 75.3" xml:space="preserve">
<title>chauffage</title>
<ellipse fill="#FDDAB0" cx="4.9" cy="65.5" rx="1.8" ry="2.7"/>
<path fill="#9C5C5D" d="M2.5,14l-1,0.3c-0.6,0.2-1.3-0.2-1.4-0.8C0,13.2,0,13,0.1,12.8c0.7-2,0.7-4.1,0-6.1
	c-0.2-0.6,0.1-1.3,0.7-1.5c0.2-0.1,0.4-0.1,0.7,0l1,0.3c0.7,0.2,1.1,0.8,1.1,1.4v5.6C3.6,13.2,3.1,13.8,2.5,14z"/>
<ellipse fill="#EE6765" cx="4.6" cy="9.7" rx="3.1" ry="2.2"/>
<rect x="5.7" y="7.7" fill="#E8C8A1" width="66.5" height="4.2"/>
<rect x="5.7" y="63.5" fill="#E8C8A1" width="66.5" height="4.2"/>
<path fill="#FDDAB0" d="M9,6.2v62.8c0,2.8,2.2,5,5,5V1.3C11.2,1.3,9,3.5,9,6.2z"/>
<path fill="#D9BB97" d="M14,1.2L14,1.2v72.8l0,0c2.8,0,5-2.2,5-5V6.2C19,3.5,16.8,1.2,14,1.2z"/>
<path fill="#E8C8A1" d="M15,74.3c0,0.6-0.4,1-1,1l0,0c-0.6,0-1-0.4-1-1V1c0-0.6,0.4-1,1-1l0,0c0.6,0,1,0.4,1,1V74.3z"/>
<path fill="#FDDAB0" d="M21.5,6.2v62.8c0,2.8,2.2,5,5,5V1.3C23.7,1.3,21.5,3.5,21.5,6.2z"/>
<path fill="#D9BB97" d="M26.5,1.2L26.5,1.2v72.8l0,0c2.8,0,5-2.2,5-5V6.2C31.5,3.5,29.3,1.2,26.5,1.2z"/>
<path fill="#E8C8A1" d="M27.5,74.3c0,0.6-0.4,1-1,1l0,0c-0.6,0-1-0.4-1-1V1c0-0.6,0.4-1,1-1l0,0c0.6,0,1,0.4,1,1V74.3z"/>
<path fill="#FDDAB0" d="M34,6.2v62.8c0,2.8,2.2,5,5,5V1.3C36.2,1.3,34,3.5,34,6.2z"/>
<path fill="#D9BB97" d="M39,1.2L39,1.2v72.8l0,0c2.8,0,5-2.2,5-5V6.2C44,3.5,41.8,1.2,39,1.2z"/>
<path fill="#E8C8A1" d="M40,74.3c0,0.6-0.4,1-1,1l0,0c-0.6,0-1-0.4-1-1V1c0-0.6,0.4-1,1-1l0,0c0.6,0,1,0.4,1,1V74.3z"/>
<path fill="#FDDAB0" d="M46.5,6.2v62.8c0,2.8,2.2,5,5,5V1.3C48.7,1.3,46.5,3.5,46.5,6.2z"/>
<path fill="#D9BB97" d="M51.5,1.2L51.5,1.2v72.8l0,0c2.8,0,5-2.2,5-5V6.2C56.5,3.5,54.2,1.2,51.5,1.2z"/>
<path fill="#E8C8A1" d="M52.5,74.3c0,0.6-0.4,1-1,1l0,0c-0.6,0-1-0.4-1-1V1c0-0.6,0.4-1,1-1l0,0c0.6,0,1,0.4,1,1V74.3z"/>
<path fill="#FDDAB0" d="M59,6.2v62.8c0,2.8,2.2,5,5,5V1.3C61.2,1.3,59,3.5,59,6.2z"/>
<path fill="#D9BB97" d="M64,1.2L64,1.2v72.8l0,0c2.8,0,5-2.2,5-5V6.2C69,3.5,66.8,1.2,64,1.2z"/>
<path fill="#E8C8A1" d="M65,74.3c0,0.6-0.4,1-1,1l0,0c-0.6,0-1-0.4-1-1V1c0-0.6,0.4-1,1-1l0,0c0.6,0,1,0.4,1,1V74.3z"/>
<rect x="70.6" y="6.5" fill="#E8C8A1" width="3.2" height="6.6"/>
<rect x="70.6" y="6.5" fill="#FDDAB0" width="3.2" height="2.1"/>
<rect x="70.6" y="10.9" fill="#D9BB97" width="3.2" height="2.1"/>
<rect x="4.6" y="6.5" fill="#E8C8A1" width="3.2" height="6.6"/>
<rect x="4.6" y="6.5" fill="#FDDAB0" width="3.2" height="2.1"/>
<rect x="4.6" y="10.9" fill="#D9BB97" width="3.2" height="2.1"/>
<rect x="4.6" y="62.3" fill="#E8C8A1" width="3.2" height="6.6"/>
<rect x="4.6" y="62.3" fill="#FDDAB0" width="3.2" height="2.1"/>
<rect x="4.6" y="66.7" fill="#D9BB97" width="3.2" height="2.1"/>
<rect x="70.6" y="62.3" fill="#E8C8A1" width="3.2" height="6.6"/>
<rect x="70.6" y="62.3" fill="#FDDAB0" width="3.2" height="2.1"/>
<rect x="70.6" y="66.7" fill="#D9BB97" width="3.2" height="2.1"/>
<path opacity="5.000000e-02" fill="#1D1D1B" enable-background="new    " d="M59,52.4v11.1h-2.5V53c-3.3,0.7-6.7,1.3-10,1.7v8.8H44
	V55c-3.3,0.3-6.7,0.5-10,0.5v8.1h-2.5v-8.1c-3.3-0.1-6.7-0.4-10-0.8v8.9H19v-9.3c-3.4-0.6-6.7-1.4-10-2.3v11.6H7.8v-1.2H4.6v0.6
	c-1.5,1-1.8,3-0.8,4.4c0.2,0.3,0.5,0.6,0.8,0.8v0.7h3.2v-1.2H9v1.4c0,2.4,1.7,4.4,4,4.9v0.4c0,0.6,0.4,1,1,1s1-0.4,1-1V74
	c2.3-0.5,4-2.5,4-4.9v-1.5h2.5v1.4c0,2.4,1.7,4.4,4,4.9v0.4c0,0.6,0.4,1,1,1s1-0.4,1-1V74c2.3-0.5,4-2.5,4-4.9v-1.5H34v1.4
	c0,2.4,1.7,4.4,4,4.9v0.4c0,0.6,0.4,1,1,1s1-0.4,1-1V74c2.3-0.5,4-2.5,4-4.9v-1.5h2.5v1.4c0,2.4,1.7,4.4,4,4.9v0.4c0,0.6,0.4,1,1,1
	s1-0.4,1-1V74c2.3-0.5,4-2.5,4-4.9v-1.5H59v1.4c0,2.4,1.7,4.4,4,4.9v0.4c0,0.6,0.4,1,1,1s1-0.4,1-1V74c2.3-0.5,4-2.5,4-4.9v-1.5h1.6
	v1.2h3.2v-6.6h-3.3v1.2H69v-14C65.7,50.6,62.3,51.6,59,52.4z"/>
</svg>
