<svg width="304" height="293" viewBox="0 0 304 293" fill="none" xmlns="http://www.w3.org/2000/svg">
<g clip-path="url(#clip0)">
<path d="M119.9 93.8L140.9 44.4L146.1 74.7L119.9 93.8Z" fill="#000100"/>
<path d="M273 155.3C288.4 135.7 296.7 115.2 297.8 93.8C297.9 91.8 298 89.8 297.9 87.8C298 81.8 297 75 297 75C296.9 74.3 296.8 73.6 296.7 72.9C256.4 49.2 224.3 38.1 200.2 39.7C189.8 40.8 167.1 54.2 162.4 58.5C162.4 58.5 157.8 62.9 152.5 67.4L130.2 88L112.8 109L95.9 138.5L97.4 146.1L199.5 174L228.9 165.1L227.9 148.5" fill="#B0C364"/>
<path d="M234.4 177.2C234.4 177.2 251.1 188.2 254.4 193.7C254.5 197.7 251.4 207.6 251.4 207.6L222.9 200.7C222.9 200.8 232.4 189.1 234.4 177.2Z" fill="#3F3B49"/>
<path d="M256.5 197.5C256.3 197.5 256.2 197.5 256 197.4L248.7 194.9C247.9 194.6 247.5 193.8 247.8 193.1C248.1 192.3 248.9 191.9 249.6 192.2L256.9 194.7C257.7 195 258.1 195.8 257.8 196.5C257.6 197.2 257.1 197.5 256.5 197.5Z" fill="#352B24"/>
<path d="M257.4 205.1C257.3 205.1 257.1 205.1 257 205L248.5 202.4C247.7 202.2 247.3 201.4 247.5 200.6C247.7 199.8 248.5 199.4 249.3 199.6L257.8 202.2C258.6 202.4 259 203.2 258.8 204C258.6 204.7 258.1 205.1 257.4 205.1Z" fill="#352B24"/>
<path d="M0 109.9C4 177.8 30.7 235 80.2 281.7C77.8 275.2 76.2 265.9 75.4 253.7C74.7 233.2 75.6 213.6 78.2 194.9C80.5 178.4 84.1 162.7 89 147.7C85.5 124.7 80.5 107.5 73.8 96.3C40.4 83.4 15.8 88 0 109.9Z" fill="#3F3B49"/>
<path d="M96.8 139.4C90.2 153.8 84.6 169 80.2 184.8C75.2 202.8 71.6 221.7 69.4 241.5C68.5 253.3 68.7 262.3 70 268.6C70.9 272.8 72.2 275.7 74.1 277.4C82.3 282.6 91.3 285.5 101.2 286.3C108.3 286.7 116.3 287.1 125.1 287.5L150 287.6C155.8 287.6 161.5 287.5 167.1 287.4C173.1 287.2 178.9 287 184.6 286.8C195 286 203.8 283.9 211.1 280.6C219.2 276.9 225.4 271.7 229.7 265C238.7 235.4 238.4 200.6 228.8 160.5C228.8 160.3 226.5 151.5 226.5 151.5" fill="#B0C365"/>
<path d="M57.2 225.1C57.1 225.1 57 225.1 57 225.1C56.2 225 55.7 224.2 55.8 223.4L61.2 189.9L40.9 179.6C40.2 179.2 39.9 178.4 40.3 177.7C40.7 177 41.5 176.7 42.2 177.1L61.7 187L66.2 158.9C66.3 158.1 67.1 157.6 67.9 157.7C68.7 157.8 69.2 158.6 69.1 159.4L64.4 188.4L73.3 192.9C74 193.3 74.3 194.1 73.9 194.8C73.5 195.5 72.7 195.8 72 195.4L63.9 191.3L58.7 223.9C58.6 224.6 57.9 225.1 57.2 225.1ZM31.9 152.5C31.6 152.5 31.4 152.4 31.1 152.3C30.4 151.9 30.2 151 30.6 150.3L44.4 127.9L15.6 115.9C14.9 115.6 14.5 114.8 14.8 114C15.1 113.3 16 112.9 16.7 113.2L46 125.4L59.9 102.7C60.3 102 61.2 101.8 61.9 102.2C62.6 102.6 62.8 103.5 62.4 104.2L48.7 126.5L70.5 135.5C71.2 135.8 71.6 136.6 71.3 137.4C71 138.1 70.2 138.5 69.4 138.2L47.1 129L33.1 151.8C32.8 152.2 32.4 152.5 31.9 152.5Z" fill="#D9CFC9"/>
<g opacity="0.4">
<path opacity="0.4" d="M83 119.2C85.3 127.4 87.3 136.9 88.9 147.7C84 162.7 80.4 178.4 78.1 194.9C75.5 213.6 74.6 233.2 75.3 253.7C76.1 265.9 77.7 275.2 80.1 281.7C76.1 277.9 72.2 274 68.5 270.1C46.1 214.7 50.4 156.7 83 119.2Z" fill="#221D1B"/>
</g>
<path d="M219.938 262.582C228.884 262.419 235.712 239.055 235.189 210.398C234.667 181.74 226.992 158.64 218.047 158.803C209.102 158.966 202.274 182.33 202.796 210.988C203.318 239.646 210.993 262.745 219.938 262.582Z" fill="#EEEAEA"/>
<path d="M164.9 206.3L187.3 221.4C187.3 221.4 197.7 216.8 200.7 214.2C201.8 208.9 188.7 190.8 188.7 190.8C188.7 190.8 185.2 199.5 164.9 206.3Z" fill="#3F3B49"/>
<path d="M200 217.9C199.9 217.8 199.8 217.8 199.7 217.7L194.7 212.2C194.2 211.6 194.2 210.7 194.8 210.2C195.4 209.7 196.3 209.7 196.8 210.3L201.8 215.8C202.3 216.4 202.3 217.3 201.7 217.8C201.2 218.2 200.5 218.3 200 217.9Z" fill="#352B24"/>
<path d="M195.2 223.2C195.1 223.1 195 223.1 194.9 223L188.8 216.8C188.2 216.2 188.2 215.3 188.8 214.8C189.4 214.2 190.3 214.2 190.8 214.8L196.9 221C197.5 221.6 197.5 222.5 196.9 223C196.5 223.5 195.7 223.6 195.2 223.2Z" fill="#352B24"/>
<g opacity="0.15">
<path opacity="0.15" d="M96.8 139.4C90.2 153.8 84.6 169 80.2 184.8C75.2 202.8 71.6 221.7 69.4 241.5C68.5 253.3 68.7 262.3 70 268.6C70.9 272.8 72.2 275.7 74.1 277.4C82.3 282.6 91.3 285.5 101.2 286.3C108.3 286.7 116.3 287.1 125.1 287.5L150 287.6C155.8 287.6 161.5 287.5 167.1 287.4C173.1 287.2 178.9 287 184.6 286.8C195 286 203.8 283.9 211.1 280.6C219.2 276.9 225.4 271.7 229.7 265C230.6 262.1 231.4 259.1 232.1 256.1C227.3 262.9 219.8 270.1 212.7 274.9C202.6 281.7 164.2 281.9 142.4 281.2C120.6 280.5 101.8 275.4 94 256.1C86.2 236.8 107.5 151.3 115.1 135.1C115.1 135.1 147.6 69.9 162.1 61.6C176.6 53.3 128.6 87 128.6 87L98.6 132.5L96.8 139.4Z" fill="#221D1B"/>
</g>
<path d="M150 291.4L125.1 291.3C116.1 291 108 290.6 101 290.1C90.5 289.2 80.8 286 72.1 280.6L71.6 280.2C69.1 277.9 67.4 274.4 66.3 269.4C64.9 262.7 64.7 253.5 65.6 241.2C67.8 221.1 71.4 201.9 76.5 183.8C81 167.6 88.2 147 92.3 137.2C108.7 97.6 147.7 65.9 149.4 64.5C151 63.2 153.4 63.5 154.7 65.1C156 66.7 155.7 69.1 154.1 70.4C153.7 70.7 114.9 102.3 99.2 140.1C95.2 149.7 88.2 169.9 83.7 185.9C78.8 203.6 75.2 222.5 73 242C72.1 253.3 72.3 262 73.5 267.9C74.3 271.8 75.4 273.6 76.3 274.5C83.8 279.2 92.3 281.9 101.4 282.7C108.3 283.1 116.3 283.5 125.1 283.8L149.9 283.9C155.6 283.9 161.3 283.8 166.9 283.7C172.8 283.5 178.6 283.3 184.4 283.1C194.2 282.3 202.7 280.4 209.5 277.2C216.7 273.9 222.3 269.3 226.2 263.4C234.8 234.9 234.5 200.8 225.2 162C225.1 161.9 225.1 161.7 225.1 161.5C225 161 224.8 160.4 224.7 159.8C224 157.2 222.6 152.1 221.6 148.7V148.6L228.8 146.7C228.8 146.8 228.8 146.8 228.8 146.9C230.2 151.5 231.2 155.2 231.9 158C232.2 159 232.3 159.5 232.4 159.8C242.1 200.4 242.4 236.2 233.2 266.2L232.8 267.1C228.1 274.4 221.3 280.1 212.6 284.1C204.9 287.6 195.6 289.8 184.8 290.6C178.9 290.8 173.1 291 167.1 291.2C161.6 291.4 155.8 291.4 150 291.4Z" fill="#3F3B49"/>
<path d="M134.3 280.6L122.7 281.5C119.7 284.2 117.5 287.2 116.3 290.8C116 291.5 115.8 292.2 115.7 293H143.4C143.3 292.2 143.1 291.4 143 290.7C141.7 285 138.8 281.6 134.3 280.6ZM207.1 283C199.8 286.5 190.7 288.7 179.7 289.6C173.6 289.9 167.4 290.1 161.1 290.4V292.7L258.5 292.8C258.6 285.9 256.8 281.8 253.3 280.7C238.2 279.9 222.8 280.6 207.1 283Z" fill="#3F3B49"/>
<path d="M99.5 121.1C104.3 123.6 130.7 152.2 136.3 157.6C153.2 173.8 182.8 205.6 218.4 208C243.4 209.7 250.8 195.7 254.4 183.5C255.4 180.1 259.1 152.9 259.1 152.9C254.3 148.8 238.6 159.9 238.6 159.9L218.5 158.5L196 157L141 146.2L99.5 121.1Z" fill="#610E2D"/>
<path d="M227.8 148.1C226.1 148.7 223.8 149.2 220.5 149.2C210 149.2 188.7 143 177 137.6L167.3 132.8L111 104.8C111 104.8 104.7 112.1 102.2 116.2C99 121.4 99.5 121.1 99.5 121.1C99.5 121.1 123.7 142.7 130.5 150.5C135.3 156 140.3 160.7 148 167.9C166.2 185 192.9 210.1 229.6 206.9C246.7 205.4 251.9 190.1 254.2 181.2C256.2 173.4 255 152.9 255 152.9C249.4 150.7 250 154 242 149.5L238.7 147.6C238 147.2 237.4 146.9 236.9 146.5L233.8 144.7L227.8 148.1Z" fill="#842836"/>
<path d="M168.1 132.1C168.1 132.1 205.4 155.8 222.3 152.4C228.3 151.2 231.6 149.8 233.3 148.5C236.4 146.1 234.4 144.1 234.4 144.1L233 142.2C233 142.2 233.1 142.9 232.7 143.8C232.3 144.9 231.2 146.5 228.5 147.5C226.8 148.1 224.5 148.6 221.2 148.6C210.7 148.6 189.4 139.5 177.7 134.1C176.8 133.7 176 133.3 175.2 133C171.7 131.3 169.5 130.2 169.5 130.2L111 104.7L108.9 106.8L168.1 132.1Z" fill="#610E2D"/>
<path d="M260.4 165.3L261.3 163.4L240 152.8L239 154.8L260.4 165.3Z" fill="#E8CB8A"/>
<path d="M250.2 176L251.6 174.4L235.8 160.4L234.3 162L250.2 176Z" fill="#E8CB8A"/>
<path d="M226.131 160.795L224.093 161.624L238.487 197.009L240.525 196.18L226.131 160.795Z" fill="#E8CB8A"/>
<path d="M218.232 161.074L211.928 199.965L214.1 200.317L220.404 161.426L218.232 161.074Z" fill="#E8CB8A"/>
<path d="M206.723 157.54L188.25 190.176L190.165 191.26L208.638 158.624L206.723 157.54Z" fill="#E8CB8A"/>
<path d="M192.658 151.987L169.763 175.195L171.329 176.74L194.224 153.532L192.658 151.987Z" fill="#E8CB8A"/>
<path d="M153.8 165.8L180.2 147.8L178.9 146L152.6 164L153.8 165.8Z" fill="#E8CB8A"/>
<path d="M141 154.4L168.1 139.9L167.2 137.9L140.1 152.4L141 154.4Z" fill="#E8CB8A"/>
<path d="M160.8 135.5C165.9 138.6 178.3 148.3 195.9 157C200.5 159.3 205.3 161.3 209.9 162.8C216.5 164.9 222.8 166 228.1 165.1C233.1 164.3 236.4 162.3 238.6 159.9C243.2 155.1 242.8 148.9 242.8 148.9L242.6 148.8L239.3 146.9L237.5 145.8L234.4 144C234.4 144 234.6 146.3 232.3 148.3C231 149.4 229.1 150.4 225.9 150.9C209.5 153.4 169 131.5 169 131.5L109.8 105.6L107.4 108.4C107.4 108.4 148 127.7 160.8 135.5Z" fill="#E8CB8A"/>
<path d="M100.1 120.2C117.8 128.2 168.5 189.2 207.7 201.2C260.8 217.5 253.9 152.5 253.9 152.5L251.7 151.4C251.7 151.4 259.7 205.9 213.2 197.1C174.8 189.9 117.6 125.5 100.9 118.1L100.1 120.2Z" fill="#E8CB8A"/>
<path d="M245 179.4L240.9 183.4L232.3 166.9L233.7 166.1L245 179.4Z" fill="#F7A73C"/>
<path d="M224.6 167.8H221.8V195L227.6 194.8L224.6 167.8Z" fill="#F7A73C"/>
<path d="M212.4 166.4L210.5 165.7L199.2 189.7L204.9 192L212.4 166.4Z" fill="#F7A73C"/>
<path d="M239.9 150.5C240.5 148.5 240.5 147.1 240.5 147H238.3C238.3 147 238.3 148.2 237.8 149.9L239.9 150.5Z" fill="#136C38"/>
<path d="M221.2 160.8C220.2 160.7 219.2 160.6 218 160.4L218.4 158.3C219.4 158.5 220.4 158.6 221.3 158.7C222.4 158.8 223.4 158.8 224.4 158.7L224.5 160.9C224.1 160.9 223.7 160.9 223.4 160.9C222.7 160.9 222 160.9 221.2 160.8ZM230.2 157.7C232.1 157 233.7 156 235 154.7L236.5 156.2C235 157.8 233.1 158.9 230.9 159.7L230.2 157.7ZM206 156.6L206.8 154.6C208.9 155.4 210.8 156.2 212.6 156.7L211.9 158.8C210.1 158.2 208.2 157.4 206 156.6ZM194.6 151.4L195.6 149.5C197.5 150.4 199.3 151.3 201.2 152.2L200.3 154.2C198.4 153.2 196.5 152.3 194.6 151.4ZM183.5 145.6L184.5 143.7C186.3 144.7 188.1 145.6 190 146.6L189 148.5C187.2 147.6 185.3 146.6 183.5 145.6ZM172.7 139.5L173.8 137.6C175.4 138.5 177.2 139.6 179.2 140.7L178.1 142.6C176.1 141.5 174.3 140.4 172.7 139.5Z" fill="#136C38"/>
<path d="M167.3 136.3L168.4 134.5C166.7 133.4 165.7 132.8 165.7 132.8L164.6 134.6C164.5 134.6 165.6 135.2 167.3 136.3Z" fill="#136C38"/>
<path d="M264.2 166.8C264.6 166.7 263.9 166.9 264.2 166.8V166.8Z" fill="#E9DDC5"/>
<path d="M269.1 154.4C272.9 155.7 271 158.4 275.7 157.4C270.4 160.3 266.6 163.9 263.5 167.1C257.3 169.2 252.7 170.3 248.1 171C247.6 171.1 247.1 171.1 246.7 171.2C246.6 171.2 246.5 171.2 246.5 171.2C246.4 171.2 246.3 171.2 246.2 171.2C244.9 171.3 243.7 171.4 242.5 171.4L239.3 165.9C245 163.4 257.1 159 259.3 152.8C261.4 154.7 265.6 153.1 269.1 154.4Z" fill="#E9DDC5"/>
<path d="M242.3 172.9C241.8 172.9 241.3 172.6 241.1 172.2L237.9 166.7C237.7 166.3 237.7 165.9 237.8 165.5C237.9 165.1 238.3 164.8 238.7 164.6C245.5 162.2 252.1 159.5 256.6 153.2C257.1 152.6 258 152.4 258.6 152.9C259.2 153.4 259.4 154.3 258.9 154.9C254.3 161.4 247.8 164.4 241.3 166.8L243.2 170.1C244.1 170.1 245 170 245.9 169.9C246 169.9 246.1 169.9 246.3 169.9C246.4 169.9 246.4 169.9 246.5 169.9C246.9 169.9 247.4 169.8 247.9 169.7H248C248 169.6 247.9 169.6 247.9 169.5C247.6 168.8 248 167.9 248.8 167.7C258.2 164.3 264.5 160.8 273 154.3C273.6 153.8 274.5 153.9 275 154.6C275.5 155.2 275.4 156.1 274.7 156.6C274.2 157 273.8 157.3 273.4 157.6C274.1 158 274.3 158.9 273.9 159.6C267.8 169.7 249.2 172.5 248.4 172.6C247.9 172.7 247.4 172.7 246.9 172.8C246.8 172.8 246.8 172.8 246.7 172.8H246.4C244.8 172.8 243.5 172.9 242.3 172.9ZM269.6 160.1C265.3 163.1 261.4 165.3 257 167.3C261.4 165.9 266.4 163.6 269.6 160.1Z" fill="#3F3B49"/>
<path d="M220.8 144.1C233 150 247.8 154.1 247.8 154.1C293.2 161.7 295.7 101.6 295.7 101.6" fill="#B0C364"/>
<path d="M188.6 85.2C183.6 85.2 178.8 82.3 175.4 77.1C173.9 74.8 173.7 72.2 175.1 70.1C178.3 65.1 188.5 65.4 191.9 65.9C194.1 66.2 195.5 68.2 195.2 70.4C194.9 72.6 192.9 74 190.7 73.7C187.9 73.3 184.7 73.6 182.9 74.1C184.6 76.2 186.6 77.4 188.5 77.4C190.7 77.4 192.4 79.2 192.4 81.3C192.6 83.4 190.9 85.2 188.6 85.2C188.7 85.2 188.7 85.2 188.6 85.2Z" fill="#3F3B49"/>
<path d="M218.8 65.5C219.8 66.3 220.9 66.6 222.1 66.4C223.3 66.2 224.3 65.5 225 64.4C225.7 63.3 225.9 62.2 225.7 60.9C225.6 60.3 225.4 59.7 225.1 59.2C224.8 58.7 224.4 58.2 223.9 57.8C222.9 57 221.7 56.8 220.5 57C219.9 57.1 219.3 57.3 218.9 57.7C218.4 58 218 58.4 217.7 58.9C217 60 216.7 61.2 216.9 62.5C217.1 63.7 217.7 64.7 218.8 65.5Z" fill="#000100"/>
<path d="M255.5 158.7C252.8 158.7 250 158.5 247.2 158L246.8 157.9C246.2 157.7 231.7 153.7 219.3 147.8C211.7 144.8 199.1 134.3 204.9 116C205.5 113.9 207.8 112.8 209.8 113.4C211.9 114 213 116.3 212.4 118.3C207.3 134.5 221.7 140.3 222.3 140.5L222.6 140.6C233.6 145.9 247 149.8 248.8 150.3C258.9 152 267.4 150 274.1 144.6C290.4 131.4 291.9 101.8 291.9 101.5C292 99.3 293.8 97.6 296 97.7C298.2 97.8 299.9 99.6 299.8 101.8C299.7 103.2 298.2 135.2 279.1 150.7C272.3 156 264.5 158.7 255.5 158.7Z" fill="#3F3B49"/>
<path d="M273 159.2C272.1 159.2 271.3 158.9 270.6 158.4C268.9 157.1 268.6 154.6 269.9 152.9C284.7 134.1 292.8 114.1 293.9 93.7C294 91.8 294.1 89.9 294 88C294.1 82.2 293.2 75.8 293.2 75.7C293.2 75.6 293.2 75.5 293.2 75.4C254.5 52.8 223.4 42.2 200.6 43.7C191.9 44.6 159.9 66.2 155.3 70.3C153.7 71.8 151.2 71.6 149.7 70C148.2 68.4 148.4 65.9 150 64.4C154.7 60.1 188 37 199.9 35.7C224.8 34 258 45.4 298.8 69.4L300.4 70.3L300.7 72.1C300.8 72.9 301 73.6 301.1 74.4C301.1 74.6 302.2 81.5 302 87.8C302 89.7 302 91.9 301.9 94C300.7 116.1 292.1 137.5 276.2 157.6C275.4 158.7 274.2 159.2 273 159.2Z" fill="#3F3B49"/>
<path d="M300.7 92.2C299.1 97.2 297.3 101.4 295.4 104.7C290.9 101.2 288.1 94.2 287 83.7C292.3 76.6 296.8 74.1 300.5 76.2C301.8 76.9 302.9 78.1 304 79.8C302.9 84.4 301.9 88.5 300.7 92.2Z" fill="#000100"/>
<path d="M189.9 15.4C174.9 13.9 147.5 28.9 141 44.4C134.5 59.9 126.9 101.9 124.4 110C121.9 118.1 146.5 115.9 146.5 115.9L150.2 98.6L150.5 116.2H177L179.4 94.8L182.7 116.2H189.8C189.8 116.2 195.1 85.1 195.6 77.2C196.1 69.3 196.9 64.8 196.9 64.8L200.2 66.8L218.4 52.2L214.6 47.6L223.3 52C223.3 52 234.5 46.3 240.2 46.6C245.9 46.9 251.5 46.1 251.5 46.1C251.5 46.1 240.3 20.4 189.9 15.4Z" fill="#332B24"/>
<path d="M163.6 71.5L161.1 116.1H165.1L163.6 71.5Z" fill="#000100"/>
<path d="M165.6 90.8C165.6 91.3 165.4 92.2 165.2 92.5C164.8 93.1 164.3 93.1 163.7 93.1C163.2 93.1 162.4 93.2 162.1 92.8C161.7 92.4 161.8 91.5 161.8 90.8C161.8 90.2 161.8 89.4 162.2 89C162.6 88.6 163.2 88.5 163.8 88.5C164.4 88.5 165 88.5 165.3 89C165.4 89.4 165.6 90.3 165.6 90.8Z" fill="#F9DE9A"/>
<path opacity="0.39" d="M164.3 90.5C164.576 90.5 164.8 90.2761 164.8 90C164.8 89.7239 164.576 89.5 164.3 89.5C164.024 89.5 163.8 89.7239 163.8 90C163.8 90.2761 164.024 90.5 164.3 90.5Z" fill="white"/>
<path d="M165.1 105.1C165.1 105.6 164.9 106.5 164.7 106.8C164.3 107.4 163.8 107.4 163.2 107.4C162.7 107.4 161.9 107.5 161.6 107.1C161.2 106.7 161.3 105.8 161.3 105.1C161.3 104.5 161.3 103.7 161.7 103.3C162.1 102.9 162.7 102.8 163.3 102.8C163.9 102.8 164.5 102.8 164.8 103.3C164.9 103.7 165.1 104.5 165.1 105.1Z" fill="#F9DE9A"/>
<path opacity="0.39" d="M163.8 104.7C164.076 104.7 164.3 104.476 164.3 104.2C164.3 103.924 164.076 103.7 163.8 103.7C163.524 103.7 163.3 103.924 163.3 104.2C163.3 104.476 163.524 104.7 163.8 104.7Z" fill="white"/>
<path d="M140.3 70L135.9 116.2H139.9C139.9 116.2 139.6 107.5 139.5 104.6C139.4 99.8 139.4 89.1 139.5 85.2C139.6 81.7 140.3 70 140.3 70Z" fill="#000100"/>
<path d="M140.3 101.9C140.3 102.4 140.1 103.3 139.9 103.6C139.5 104.2 139 104.2 138.4 104.2C137.9 104.2 137.1 104.3 136.8 103.9C136.4 103.5 136.5 102.6 136.5 101.9C136.5 101.3 136.5 100.5 136.9 100.1C137.3 99.7 137.9 99.6 138.5 99.6C139.1 99.6 139.7 99.6 140 100.1C140.1 100.6 140.3 101.4 140.3 101.9Z" fill="#F9DE9A"/>
<path opacity="0.39" d="M139 101.6C139.276 101.6 139.5 101.376 139.5 101.1C139.5 100.824 139.276 100.6 139 100.6C138.724 100.6 138.5 100.824 138.5 101.1C138.5 101.376 138.724 101.6 139 101.6Z" fill="white"/>
<path d="M140.9 84.1C140.9 84.6 140.7 85.5 140.5 85.8C140.1 86.4 139.6 86.4 139 86.4C138.5 86.4 137.7 86.5 137.4 86.1C137 85.7 137.1 84.8 137.1 84.1C137.1 83.5 137.1 82.7 137.5 82.3C137.9 81.9 138.5 81.8 139.1 81.8C139.7 81.8 140.3 81.8 140.6 82.3C140.8 82.7 140.9 83.5 140.9 84.1Z" fill="#F9DE9A"/>
<path opacity="0.39" d="M139.7 83.7C139.976 83.7 140.2 83.4762 140.2 83.2C140.2 82.9239 139.976 82.7 139.7 82.7C139.424 82.7 139.2 82.9239 139.2 83.2C139.2 83.4762 139.424 83.7 139.7 83.7Z" fill="white"/>
<path d="M233.1 7.5C233.1 7.5 230.5 9.3 231.9 13.6C233.3 17.9 236.4 21.2 236.4 21.2C236.4 21.2 228 17.3 227.1 14.9C226.2 12.5 226.9 8 226.9 8L233.1 7.5Z" fill="url(#paint0_radial)"/>
<path d="M233.1 7.00003C233.1 7.00003 229.3 8.30003 230.8 13.1C232.3 17.9 236.4 20.6 236.4 20.6C236.4 20.6 216.3 12.7 216.1 9.60003C215.8 6.70003 233.1 7.00003 233.1 7.00003Z" fill="#E8C57E"/>
<path d="M139.5 46.7C171.7 48.6 197.4 47.4 217 45.7C225.2 45 232.1 44.2 237.6 43.4C247.1 42.1 246.1 41.1 246.1 41.1L247.3 38.8C241.5 27.9 237.6 22.1 237.6 22.1C235.1 22.8 232.2 23.4 229.2 23.9C227.7 24.2 226.3 24.4 224.7 24.6C202 27.8 178 28 162.6 27.8C157 27.7 154.2 27 154.2 27C142.9 33.2 139.5 46.7 139.5 46.7Z" fill="#F9DE9A"/>
<path d="M194.6 44L210.8 43.9L209.6 30.5L209.2 30.2L194.6 44Z" fill="#3A110E"/>
<path d="M209.2 30.2L195.2 30.6L194.6 44L210.2 43.7L209.2 30.2Z" fill="#AB3245"/>
<path d="M173.2 43.3L189.7 43.9L190.1 30.8L189.5 30.4L173.2 43.3Z" fill="#3A110E"/>
<path d="M207.2 32.1L197 32.4L196.6 42H207.9L207.2 32.1Z" fill="#AB3245"/>
<path d="M189.5 30.4L188.7 43.6L173.2 43.3L175.2 30.7L189.5 30.4Z" fill="#AB3245"/>
<path d="M153.9 41.9L154.8 42.5L168.9 43.4L170.7 31.9V31.1L153.9 41.9Z" fill="#3A110E"/>
<path d="M186.3 32.1L185.7 41.6L173.9 42L175.4 32.3L186.3 32.1Z" fill="#AB3245"/>
<path d="M170.7 31.1L157.4 30.6L153.9 41.9L168.4 42.7L170.7 31.1Z" fill="#AB3245"/>
<path d="M167 32.7L157.2 32.3L154.7 40.6L165.4 41.2L167 32.7Z" fill="#AB3245"/>
<path d="M153.9 41.9L154.7 40.9L165.6 41.4L168.4 42.7L165.9 40.8L167.4 32.7L170.7 31.1L167 32.3H157.2L167 32.7L165.4 41.2L154.7 40.6L153.9 41.9Z" fill="#E5BDC5"/>
<path d="M173.9 42L185.7 42.2L188.7 43.6L186 41.8L186.7 32.3L189.5 30.4L186.3 32.1L175.4 32.3L186.3 32.1L185.7 41.6L173.9 42Z" fill="#E5BDC5"/>
<path d="M210.2 43.7L207.9 42L207.2 32.1L197 32.4L195.2 30.6L197.5 32L207.2 31.7L209.2 30.2L207.5 32.1L208.2 41.6L210.2 43.7Z" fill="#E5BDC5"/>
<path d="M228.4 23.3C229.1 23.7 229.8 24.2 230.4 24.8C230.5 24.9 230.5 24.9 230.6 25C231.5 25.9 232.3 27 232.9 28.1C233 28.1 233 28.2 233 28.3C236.2 33.9 236.8 41.5 235.9 43.4C235.8 43.7 235.6 43.8 235.4 43.9C233.5 44.1 231.9 44.3 231.9 44.3C231.9 44.3 231.9 44.3 232 44.3C232.3 44.5 233.8 45.2 236.2 45.6C237.3 45.8 238.7 45.9 240.2 45.9C242.2 45.8 244.6 45.4 247.1 44.4C247.1 44.4 247.1 44.4 247.2 44.3C247.3 44.2 247.4 44.1 247.5 43.9C248.1 42.8 249.4 40.1 249.1 36.5C249.1 36.4 249.1 36.2 249.1 36.1C249 35 248.8 33.9 248.3 32.7C247.9 31.7 247.4 30.7 246.8 29.8C246.7 29.7 246.6 29.5 246.6 29.4C245.8 28.3 244.9 27.2 243.8 26.2C243.7 26.1 243.6 26 243.5 25.9C242.6 25 241.6 24.2 240.5 23.4C240.3 23.3 240.2 23.2 240 23C239.1 22.3 238.2 21.7 237.2 21C237 20.9 236.8 20.7 236.6 20.6C234.8 19.4 233 18.2 231.3 17.1C231.1 17 230.9 16.8 230.7 16.7C229.6 16 228.6 15.3 227.7 14.6C227.5 14.5 227.4 14.3 227.2 14.2C226 13.3 225 12.3 224.2 11.3C224.1 11.2 224 11 223.9 10.9C223.5 10.4 223.5 10 223.8 9.70001C223.9 9.60001 224.1 9.50001 224.3 9.40001C224.7 9.20001 225.2 9.10001 225.7 9.00001C226 8.90001 226.2 8.90001 226.5 8.80001C228.8 8.40001 232 8.20001 234.5 7.50001C234.9 7.40001 235.3 7.30001 235.6 7.10001C236 7.00001 236.3 6.80001 236.6 6.60001C238.8 5.20001 241.2 2.90001 240.4 2.20001C239.2 1.20001 235.2 1.10001 230 0.200012C224.9 -0.699988 214.7 2.30001 212.5 4.40001C206.2 10.4 219.6 18.1 228.4 23.3Z" fill="#F9DE9A"/>
<g opacity="0.6">
<g opacity="0.6">
<path opacity="0.6" d="M239.4 37.1C241.3 37.2 243.1 37.1 244.8 37C246.4 36.9 247.7 36.7 249 36.5C249 36.4 249 36.2 249 36.1C246.5 36.5 243.2 36.8 239.5 36.7L239.4 37.1Z" fill="white"/>
</g>
<g opacity="0.6">
<path opacity="0.6" d="M235.9 31.6V32C241.4 31.6 244.7 30.6 246.6 29.8C246.5 29.7 246.4 29.5 246.4 29.4C244.5 30.3 241.2 31.2 235.9 31.6Z" fill="white"/>
</g>
<g opacity="0.6">
<path opacity="0.6" d="M232.8 27.9V28.3C232.8 28.3 232.8 28.3 232.9 28.3C233.7 28.2 239.4 27.7 243.5 26.3C243.4 26.2 243.3 26.1 243.2 26C238.9 27.4 232.9 27.9 232.8 27.9Z" fill="white"/>
</g>
<g opacity="0.6">
<path opacity="0.6" d="M230.3 24.6V25C230.3 25 230.4 25 230.5 25C231.6 24.9 237.4 23.9 240.2 23.5C240 23.4 239.9 23.3 239.7 23.1C236.6 23.6 230.8 24.6 230.3 24.6Z" fill="white"/>
</g>
<g opacity="0.6">
<path opacity="0.6" d="M226.5 21.4V21.8L236.9 21C236.7 20.9 236.5 20.7 236.3 20.6L226.5 21.4Z" fill="white"/>
</g>
<g opacity="0.6">
<path opacity="0.6" d="M237.5 43.7C237.5 43.7 240.4 44.9 245.3 44.5C245.9 44.5 246.5 44.4 247.1 44.3C247.2 44.2 247.3 44.1 247.4 43.9C241.4 44.8 237.7 43.4 237.7 43.4L237.5 43.7Z" fill="white"/>
</g>
<g opacity="0.6">
<path opacity="0.6" d="M220.6 17.5V17.9L231 17.1C230.8 17 230.6 16.8 230.4 16.7L220.6 17.5Z" fill="white"/>
</g>
<g opacity="0.6">
<path opacity="0.6" d="M216.5 15.1V15.5L227.5 14.7C227.3 14.6 227.2 14.4 227 14.3L216.5 15.1Z" fill="white"/>
</g>
<g opacity="0.6">
<path opacity="0.6" d="M212.1 9.90004C214.6 11 220.5 11.4 224 11.5C223.9 11.4 223.8 11.2 223.7 11.1C220.2 11 214.7 10.7 212.4 9.60004L212.1 9.90004Z" fill="white"/>
</g>
<g opacity="0.6">
<path opacity="0.6" d="M213.1 5.40004C216 7.90004 220.7 9.20004 223.5 9.80004C223.6 9.70004 223.8 9.60004 224 9.50004C221.3 8.90004 216.3 7.60004 213.4 5.10004L213.1 5.40004Z" fill="white"/>
</g>
<g opacity="0.6">
<path opacity="0.6" d="M218.7 4.10002C220.6 6.70002 223.3 8.20002 225.5 9.10002C225.8 9.00002 226 9.00002 226.3 8.90002C224.1 8.20002 221.1 6.70002 219 3.90002L218.7 4.10002Z" fill="white"/>
</g>
<g opacity="0.6">
<path opacity="0.6" d="M223.6 4.70002C227.5 6.80002 231.4 7.50002 234.3 7.60002C234.7 7.50002 235.1 7.40002 235.4 7.20002C232.6 7.20002 228.2 6.70002 223.8 4.30002L223.6 4.70002Z" fill="white"/>
</g>
</g>
<path d="M228.4 23.3C235.6 27.6 237.1 40.8 235.9 43.4L232 44.3C232 44.3 232 44.3 232.1 44.3C232.4 44.4 234.4 45.1 236.2 45.6C238 46.1 239.8 46.4 240.2 45.9C241.1 44.8 241.6 36.8 234.3 27.6C227 18.3 214.6 15.7 213.2 10.8C211.4 4.5 216.8 5 226.2 4.9C235.6 4.9 240.3 2.3 240.3 2.3C239.1 1.3 234 0.400003 228.8 0.100003C225 -0.0999974 215.5 0.900003 211.9 4C205.2 9.5 219.6 18.1 228.4 23.3Z" fill="url(#paint1_radial)"/>
<path d="M231.1 2.80002C231.1 3.00002 231.8 3.00002 232.7 3.00002C233.6 2.90002 234.3 2.80002 234.3 2.60002C234.3 2.40002 233.6 2.40002 232.7 2.40002C231.8 2.40002 231.1 2.60002 231.1 2.80002Z" fill="#F9DE9A"/>
<path d="M221.8 4.90001C221.8 4.90001 209.6 3.50001 204.4 11.4C197.3 22.1 227.1 20.3 232.7 25.8C232.7 25.8 216 16.6 213.6 11.8C209.9 4.30001 221.8 4.90001 221.8 4.90001Z" fill="url(#paint2_radial)"/>
<path d="M218.4 5.10001C218.4 5.10001 211.8 5.00001 207.7 9.80001C203.6 14.6 211.9 18 218.7 19.8C225.5 21.6 230.8 24 230.8 24C230.8 24 224.7 19 218.4 14.5C213.2 10.7 214.2 6.40001 218.4 5.10001Z" fill="#E8C57E"/>
<path d="M246.8 43.6C246.8 43.6 250.8 35.9 245.7 29.5C240.6 23.1 227.1 14.9 227.1 14.9C227.1 14.9 241.7 25.2 244.4 31.2C247.1 37.2 241.5 41.3 241.5 41.3L241.2 44.8L246.8 43.6Z" fill="#FFEDC5"/>
<path d="M161.8 100.5L164.5 101V93.9L161.8 94.9V100.5Z" fill="#2BB3B4"/>
<path d="M137.1 97.8L139.8 98.3V91.2L137.2 92.1L137.1 97.8Z" fill="#2BB3B4"/>
<path d="M230.2 64C230.2 64 226.6 56.4 221.3 56C214.6 55.4 211.4 58.8 209.1 59C205.7 59.3 200.5 57 199.9 57.1C198.9 57.2 207.2 62 210.1 62.2C213 62.5 216.2 57.3 221.6 58.1C226.6 58.8 230.2 64 230.2 64Z" fill="#3A110E"/>
<path d="M232.2 68.2C232.2 68.2 229.9 65.8 229.4 65.8C228.9 65.8 224.5 66.9 218.2 66.2C212.8 65.5 204.9 61 204.9 61C204.9 61 207.9 67 216.6 68.7C225.1 70.3 228.7 66.7 229.3 66.7C230.3 66.6 232.2 68.2 232.2 68.2Z" fill="#2BB3B4"/>
</g>
<defs>
<radialGradient id="paint0_radial" cx="0" cy="0" r="1" gradientUnits="userSpaceOnUse" gradientTransform="translate(234.451 11.7345) rotate(175.827) scale(7.37633)">
<stop stop-color="#3D6B88"/>
<stop offset="1" stop-color="#1E1A3D"/>
</radialGradient>
<radialGradient id="paint1_radial" cx="0" cy="0" r="1" gradientUnits="userSpaceOnUse" gradientTransform="translate(225.368 23.1162) scale(19.5704)">
<stop stop-color="#312D66"/>
<stop offset="1" stop-color="#1E1A3D"/>
</radialGradient>
<radialGradient id="paint2_radial" cx="0" cy="0" r="1" gradientUnits="userSpaceOnUse" gradientTransform="translate(228.108 11.0352) rotate(175.827) scale(17.4581)">
<stop stop-color="#3D6B88"/>
<stop offset="1" stop-color="#1E1A3D"/>
</radialGradient>
<clipPath id="clip0">
<rect width="303.9" height="293" fill="white"/>
</clipPath>
</defs>
</svg>
