<svg width="65" height="36" viewBox="0 0 65 36" fill="none" xmlns="http://www.w3.org/2000/svg">
<g clip-path="url(#clip0)">
<path d="M1.9 0H62.3C63.3 0 64.2 0.8 64.2 1.9V17.8C64.2 18.8 63.4 19.7 62.3 19.7H1.9C0.9 19.7 0 18.9 0 17.8V1.9C0 0.8 0.8 0 1.9 0Z" fill="#FCD9AF"/>
<path d="M64.3 11.2V17.9C64.3 18.9 63.5 19.8 62.4 19.8H1.9C0.9 19.8 0 19 0 17.9V11.2C21.3 8.2 42.9 8.2 64.3 11.2Z" fill="#FCEFE0"/>
<path d="M62.4 17.9H1.9C0.9 17.9 0 17.1 0 16V17.9C0 18.9 0.8 19.8 1.9 19.8H62.4C63.4 19.8 64.3 19 64.3 17.9V16C64.3 17 63.4 17.9 62.4 17.9Z" fill="#FCD9AF"/>
<path d="M60.6 12H3.7V12.7H60.6V12Z" fill="#3C3C3B"/>
<path d="M60.6 13.4H3.7V14.1H60.6V13.4Z" fill="#3C3C3B"/>
<path d="M60.6 14.8H3.7V15.5H60.6V14.8Z" fill="#3C3C3B"/>
<path d="M60.6 16.3H3.7V17H60.6V16.3Z" fill="#3C3C3B"/>
<path d="M33.9 10.4C33.9 10.7 33.7 10.9 33.4 10.9H30.4C30.1 10.9 29.9 10.7 29.9 10.4C29.9 10.1 30.1 9.89999 30.4 9.89999H33.4C33.7 9.89999 33.9 10.1 33.9 10.4Z" fill="#EC6865"/>
<path d="M64.3 1.9V2.7H0V1.9C0 0.8 0.8 0 1.9 0H62.4C63.4 0 64.3 0.8 64.3 1.9Z" fill="#FCEFE0"/>
<path d="M12.6 12H3.7V12.7H12.6V12Z" fill="#3C3C3B"/>
<path d="M12.4 1.39999H3.7V2.09999H12.4V1.39999Z" fill="#3C3C3B"/>
<path d="M22 1.39999H13.3V2.09999H22V1.39999Z" fill="#3C3C3B"/>
<path d="M31.6 1.39999H22.9V2.09999H31.6V1.39999Z" fill="#3C3C3B"/>
<path d="M41.3 1.39999H32.6V2.09999H41.3V1.39999Z" fill="#3C3C3B"/>
<path d="M51 1.39999H42.3V2.09999H51V1.39999Z" fill="#3C3C3B"/>
<path d="M60.6 1.39999H51.9V2.09999H60.6V1.39999Z" fill="#3C3C3B"/>
<path opacity="0.1" d="M0 12.1V17.8C0 18.8 0.8 19.7 1.9 19.7H62.4C63.4 19.7 64.3 18.9 64.3 17.8V12.1C43.2 16.6 21.7 17.7 0 12.1Z" fill="#1D1E1C"/>
<path d="M34.9 23C36 24.3 36.9 25.4 35.3 28.2C34.7 29.2 34.3 30.3 34.3 31.6C34.3 33.2 35.2 34.2 36 35.1C36.3 35.4 36.8 35.4 37.1 35.2C37.4 34.9 37.4 34.5 37.2 34.2C36.1 32.9 35.2 31.8 36.8 29C38.9 25.3 37.4 23.5 36.2 22.1C35.9 21.8 35.4 21.8 35.1 22C34.6 22.2 34.6 22.7 34.9 23ZM33.2 34.1C32.1 32.8 31.2 31.7 32.8 28.9C34.9 25.2 33.4 23.4 32.2 22C31.9 21.7 31.4 21.7 31.1 21.9C30.8 22.2 30.8 22.7 31 22.9C32.1 24.2 33 25.3 31.4 28.1C30.8 29.1 30.4 30.2 30.4 31.5C30.4 33.1 31.3 34.1 32.1 35C32.4 35.3 32.9 35.3 33.2 35.1C33.5 35 33.5 34.5 33.2 34.1ZM29.4 34.1C28.3 32.8 27.4 31.7 29 28.9C31.1 25.2 29.6 23.4 28.4 22C28.1 21.7 27.6 21.7 27.3 21.9C27 22.2 27 22.7 27.2 22.9C28.3 24.2 29.2 25.3 27.6 28.1C27 29.1 26.6 30.2 26.6 31.5C26.6 33.1 27.5 34.1 28.3 35C28.6 35.3 29.1 35.3 29.4 35.1C29.6 35 29.6 34.5 29.4 34.1Z" fill="#289297"/>
</g>
<defs>
<clipPath id="clip0">
<rect width="64.3" height="35.4" fill="white"/>
</clipPath>
</defs>
</svg>
