<?xml version="1.0" encoding="utf-8"?>
<!-- Generator: Adobe Illustrator 23.0.2, SVG Export Plug-In . SVG Version: 6.00 Build 0)  -->
<svg version="1.1" id="Calque_1" xmlns="http://www.w3.org/2000/svg" xmlns:xlink="http://www.w3.org/1999/xlink" x="0px" y="0px"
	 viewBox="0 0 144.5 114.4" enable-background="new 0 0 144.5 114.4" xml:space="preserve">
<g>
	<g>
		<path fill="#3F3B49" d="M143.8,111.3c-4.1-0.3-7.5-1.2-10.2-2.5c-5.8-0.9-11.6-1.2-17.2-0.9c-1.3,0.4-2,1.9-1.9,4.5"/>
	</g>
	<g>
		<g>
			<path fill="#E8DCC4" d="M130.6,54.7C130.5,54.6,130.6,54.9,130.6,54.7L130.6,54.7z"/>
		</g>
	</g>
	<g>
		<g id="Layer0_1_FILL_70_">
			<g>
				<path fill="#3F3B49" d="M44.6,45c1.4,23.9,10.8,44,28.2,60.4c-0.8-2.3-1.4-5.6-1.7-9.9c-0.3-7.2,0.1-14.1,1-20.7
					c0.8-5.8,2.1-11.3,3.8-16.6c-1.2-8.1-3-14.1-5.3-18.1C58.8,35.7,50.2,37.3,44.6,45"/>
			</g>
		</g>
	</g>
	<g>
		<path fill="#AFC265" d="M122,59.2 M87,48.3l-4.6,2.2c-2,3.8-3.2,4.7-6.5,11.2c-2.4,4.7-3,10.1-3.8,15.6c-0.9,6.2-1.3,12.6-1,19.4
			c0.3,4,0.8,7.1,1.7,9.3c0.6,1.4,1.2,2.4,2,3c3.3,1.7,6.9,2.7,10.7,3c2.7,0.1,5.7,0.2,9,0.3l9.4,0c2.2,0,4.3-0.1,6.4-0.1
			c2.2-0.1,4.4-0.2,6.6-0.2c3.9-0.3,7.1-1,9.6-2.2c2.8-1.3,4.9-3.1,6.2-5.4c1.8-10.1-7.2-34.6-13-48.2"/>
	</g>
	<g>
		<g id="Layer0_1_1_STROKES_70_">
			<path fill="#D9CFC9" d="M64.7,85.6C64.7,85.6,64.7,85.6,64.7,85.6c-0.4-0.1-0.5-0.3-0.5-0.6l1.9-11.8L59,69.5
				c-0.2-0.1-0.3-0.4-0.2-0.7c0.1-0.2,0.4-0.3,0.7-0.2l6.9,3.5l1.6-9.9c0-0.3,0.3-0.5,0.6-0.4c0.3,0,0.5,0.3,0.4,0.6l-1.6,10.2
				l3.1,1.6c0.2,0.1,0.4,0.4,0.2,0.7c-0.1,0.3-0.4,0.4-0.7,0.2l-2.8-1.4l-1.8,11.5C65.2,85.4,65,85.6,64.7,85.6z M55.8,60
				c-0.1,0-0.2,0-0.3-0.1c-0.2-0.1-0.3-0.5-0.2-0.7l4.8-7.9l-10.1-4.2c-0.3-0.1-0.4-0.4-0.3-0.7c0.1-0.3,0.4-0.4,0.7-0.3l10.3,4.3
				l4.9-8c0.1-0.2,0.5-0.3,0.7-0.2c0.2,0.1,0.3,0.5,0.2,0.7l-4.8,7.9l7.7,3.2c0.3,0.1,0.4,0.4,0.3,0.7c-0.1,0.3-0.4,0.4-0.7,0.3
				l-7.8-3.2l-4.9,8C56.2,59.9,56,60,55.8,60z"/>
		</g>
	</g>
	<g opacity="0.4">
		<path fill="#211C1A" d="M73.8,48.3c0.8,2.9,1.5,6.2,2.1,10c-1.7,5.3-3,10.8-3.8,16.6c-0.9,6.6-1.2,13.5-1,20.7
			c0.3,4.3,0.9,7.6,1.7,9.9c-1.4-1.3-2.8-2.7-4.1-4.1C60.8,81.9,62.3,61.5,73.8,48.3z"/>
	</g>
	<g>
		
			<ellipse transform="matrix(0.9911 -0.133 0.133 0.9911 -10.1176 15.9442)" fill="#EDE9E9" cx="114.3" cy="83.7" rx="12.3" ry="19.1"/>
	</g>
	<g>
		<g>
			<path fill="#3F3B49" d="M122.1,63.8c0,0,6.4-3,8.6-3c1.1,0.8,3,3.7,3,3.7l-7.9,7.6C125.8,72.1,124.8,66.8,122.1,63.8z"/>
		</g>
		<g>
			<path fill="#352B24" d="M129.5,63c-0.1,0-0.3-0.1-0.4-0.2c-0.2-0.2-0.1-0.5,0.1-0.7l2.2-1.8c0.2-0.2,0.5-0.1,0.7,0.1
				c0.2,0.2,0.1,0.5-0.1,0.7l-2.2,1.8C129.8,62.9,129.6,63,129.5,63z"/>
		</g>
		<g>
			<path fill="none" stroke="#352B24" stroke-width="1.0139" stroke-linecap="round" stroke-linejoin="round" d="M133.9,61.9"/>
		</g>
		<g>
			<path fill="none" stroke="#352B24" stroke-width="1.0139" stroke-linecap="round" stroke-linejoin="round" d="M131.4,64"/>
		</g>
	</g>
	<g>
		<path fill="#3F3B49" d="M100.7,77.1l7.6,6.7c0,0,3.6-1,4.6-1.8c0.4-1.8-4-9.1-4-9.1S107.7,75.8,100.7,77.1z"/>
	</g>
	<g>
		<path fill="#352B24" d="M113,83.4c-0.2,0-0.3-0.1-0.4-0.2l-1.7-2.3c-0.2-0.2-0.1-0.5,0.1-0.7c0.2-0.2,0.5-0.1,0.7,0.1l1.7,2.3
			c0.2,0.2,0.1,0.5-0.1,0.7C113.2,83.4,113.1,83.4,113,83.4z"/>
	</g>
	<g>
		<path fill="#352B24" d="M111.3,85c-0.1,0-0.3-0.1-0.4-0.2l-2.1-2.6c-0.2-0.2-0.1-0.5,0.1-0.7c0.2-0.2,0.5-0.1,0.7,0.1l2.1,2.6
			c0.2,0.2,0.1,0.5-0.1,0.7C111.5,85,111.4,85,111.3,85z"/>
	</g>
	<g opacity="0.15">
		<path fill="#211C1A" d="M80.9,40.5C80.9,40.5,81,40.5,80.9,40.5c0.2-0.1,0.4-0.2,0.6-0.3L81,38.8C82.4,34,85.1,30.4,89,28
			c0,0,0.1,0,0.1-0.1"/>
	</g>
	<g>
		<path fill="#3F3B49" d="M100.8,108.6l-4.1,0.3c-1.1,0.9-1.8,2-2.3,3.3c-0.1,0.2-0.2,0.5-0.2,0.8l9.7,0c0-0.3-0.1-0.5-0.2-0.8
			C103.4,110.1,102.4,108.9,100.8,108.6 M126.4,109.4c-2.6,1.2-5.8,2-9.6,2.3c-2.1,0.1-4.3,0.2-6.6,0.3l0,0.8l34.3,0
			c0-2.4-0.6-3.9-1.8-4.3C137.4,108.3,131.9,108.6,126.4,109.4z"/>
	</g>
	<g>
		<path fill="#B0C264" d="M91.1,53.4"/>
	</g>
	<g>
		<path fill="none" stroke="#3F3B49" stroke-width="2.7108" stroke-linecap="round" stroke-miterlimit="10" d="M91.1,53.4"/>
	</g>
	<g>
		<path fill="#B0C264" d="M81.7,50c0,0-1.3-0.6-2-6.7c-0.6-5.3,0.6-15,1.1-16.1c1.3-3.1,6.1-7.6,6.1-7.6l3.4-1.8l8.2-1.6l7.9,0.9
			l8.7,1.5l4.8,2.6l3.6,11.7l0.1,12.5l-3.6,8l-1.5,3.9l-3.4-2.9"/>
	</g>
	<g>
		<path fill="#3F3B49" d="M117.8,58.2c-0.2,0-0.5-0.1-0.7-0.2c-8.1-4.6-7.4-14.1-7.4-14.5c0.1-0.7,0.7-1.3,1.5-1.2
			c0.7,0.1,1.3,0.7,1.2,1.5l0,0c0,0.3-0.6,8.2,6,11.9c0.7,0.4,0.9,1.2,0.5,1.8C118.7,57.9,118.3,58.2,117.8,58.2z"/>
	</g>
	<g>
		<g>
			<path fill="#E8DCC4" d="M113.5,53.9C113.5,53.8,113.5,54.1,113.5,53.9L113.5,53.9z"/>
		</g>
		<g>
			<path fill="#E8DCC4" d="M107.5,53.6c1.4-1.6,2.7-2.7,3.1-4.7c0.6,2.3,1.8,4,2.9,5.4c0,2.7-0.4,4.7-0.9,6.7
				c-0.1,0.2-0.1,0.4-0.2,0.6c0,0,0,0.1,0,0.1c0,0,0,0.1,0,0.1c-0.2,0.6-0.7,2.4-0.9,3l-3.3,0c-2.2-2-3.8-4.5-4.9-7.5
				C104.7,56.3,106.1,55.1,107.5,53.6z"/>
		</g>
	</g>
	<g>
		<g id="Layer0_2_1_STROKES_76_">
			<path fill="#3F3B49" d="M111.4,65.2C111.4,65.2,111.4,65.2,111.4,65.2l-3.3-0.1c-0.1,0-0.2,0-0.3-0.1c-2.4-2.2-3.7-4.2-4.8-7.1
				c-0.1-0.3,0-0.5,0.3-0.6c0.3-0.1,0.5,0,0.6,0.3c1,2.7,2.2,4.6,4.4,6.6l2.8,0.1c0.2-0.5,0.4-1.3,0.5-1.8c0.1-0.4,0.2-0.7,0.3-0.9
				l0-0.1c0,0,0-0.1,0-0.1c0,0,0,0,0,0c0.1-0.2,0.1-0.4,0.2-0.6c0.6-2.1,0.9-3.9,0.9-6.5c0-0.3,0.2-0.5,0.5-0.5
				c0.3,0,0.5,0.2,0.5,0.5c0,2.7-0.4,4.6-1,6.7c-0.1,0.2-0.1,0.4-0.2,0.6c0,0.1,0,0.1-0.1,0.2l0,0.1c-0.1,0.2-0.2,0.5-0.3,0.9
				c-0.3,1.1-0.5,1.9-0.7,2.3C111.8,65,111.6,65.2,111.4,65.2z M110.1,61.1C110.1,61.1,110,61.1,110.1,61.1c-0.3,0-0.5-0.3-0.5-0.5
				l0.1-1.4c0.3-3.4,0.4-5.9,0.2-10.1c0-0.3,0.2-0.5,0.5-0.5c0.3,0,0.5,0.2,0.5,0.5c0.3,4.2,0.1,6.8-0.2,10.2l-0.1,1.4
				C110.5,60.9,110.3,61.1,110.1,61.1z"/>
		</g>
	</g>
	<g>
		<path d="M104.5,22.3c0-0.3,0-0.5-0.2-0.8c-0.2-0.2-0.4-0.4-0.7-0.4c-0.1,0-0.3,0-0.4,0c-0.1,0-0.2,0.1-0.4,0.2
			c-0.2,0.2-0.4,0.4-0.4,0.7c0,0.2,0,0.3,0,0.4c0,0.1,0.1,0.3,0.2,0.4c0.2,0.2,0.4,0.4,0.7,0.4c0.3,0,0.6,0,0.8-0.2
			C104.3,22.8,104.4,22.6,104.5,22.3 M97.7,24.3c0.3,0.4,0.7,0.6,1.1,0.7c0.5,0.1,0.9,0,1.3-0.3c0.4-0.3,0.6-0.7,0.7-1.1
			c0-0.2,0-0.5,0-0.7c0-0.2-0.1-0.4-0.3-0.6c-0.3-0.4-0.7-0.6-1.2-0.7c-0.2,0-0.5,0-0.7,0c-0.2,0-0.4,0.1-0.6,0.3
			c-0.4,0.3-0.7,0.7-0.7,1.2C97.3,23.5,97.4,23.9,97.7,24.3z"/>
	</g>
	<g opacity="0.15">
		<path fill="#211C1A" d="M126.8,107.5c-3.4,2.4-17.8,2.6-26.1,2.4c-8.2-0.2-15.6-1.9-19.5-8.7s-0.5-36.9,1.4-42.7
			c2-5.7,8.5-5.7,7.8-6.8L87,46.3l-0.4-0.1c-1.6-3.3-3.6-8.7-2.7-13.5c1.4-7.8,0.6-11.6,6.2-14.2s-2-0.3-2-0.3l-7.2,7.2l-2.3,8.5
			l1.2,8.9l2.8,5.7c-1.6,2.6-3.5,5.3-6.7,11.7c-2.3,4.5-3,10.4-3.8,16c-0.9,6.3-1.3,13-1,20c0.3,4.1,0.8,7.3,1.7,9.5
			c0.6,1.5,1.2,2.5,2,3.1c3.3,1.8,6.9,2.8,10.7,3.1c2.7,0.1,5.7,0.2,9,0.3l9.4,0c2.2,0,4.3-0.1,6.4-0.1c2.2-0.1,4.4-0.2,6.6-0.3
			c3.9-0.3,7.1-1.1,9.6-2.3c2.8-1.3,4.9-3.2,6.2-5.5c0.2-1,0.3-2.1,0.4-3.1C131.6,103.2,129.1,105.8,126.8,107.5z"/>
	</g>
	<g>
		<path fill="#3F3B49" d="M117.8,58.2c-0.3,0-0.7-0.1-0.9-0.4c-0.5-0.5-0.5-1.4,0-1.9c7.6-7.8,5.8-19.6,5.1-23
			c-1.5-7.1-2.3-10.1-5.8-12.2c-7.9-3-19-4.6-26.4-1.5c-0.8,0.5-7.8,5.4-9.5,13.6c-1.1,5.8,0.6,11.9,5.1,18.3
			c0.4,0.6,0.3,1.5-0.3,1.9c-0.6,0.4-1.5,0.3-1.9-0.3c-5-7-6.8-13.9-5.5-20.4c2-9.8,10.4-15.2,10.8-15.4l0.2-0.1
			c8.1-3.5,20.2-1.8,28.6,1.4l0.2,0.1c4.8,2.8,5.7,7,7.2,14.1c3.2,14.9-3.6,23.3-5.8,25.5C118.5,58.1,118.2,58.2,117.8,58.2z"/>
	</g>
	<g>
		<path fill="#3F3B49" d="M97.4,58.7c-2.6,0-7.5-1.4-11-11.1c-0.3-0.7,0.1-1.5,0.8-1.7c0.7-0.3,1.5,0.1,1.7,0.8
			c4,10.8,9.1,9.3,9.4,9.2l0.2,0c4.3-0.9,7.4-2.9,9.3-6c3.8-6.1,1.6-14.6,1.5-14.7c-0.2-0.7,0.2-1.5,1-1.7c0.7-0.2,1.5,0.2,1.7,1
			c0.1,0.4,2.6,9.7-1.8,16.8c-2.3,3.7-6,6.2-11,7.2C98.7,58.5,98.2,58.7,97.4,58.7z"/>
	</g>
	<g>
		<path fill="#3F3B49" d="M94.5,113.5c-3.4-0.1-6.4-0.2-9.1-0.3c-4-0.3-7.7-1.3-11.2-3.1L74,110c-1-0.7-1.8-1.9-2.5-3.6
			c-0.9-2.3-1.5-5.5-1.8-9.7c-0.3-6.9,0.1-13.5,1-19.7c0.1-0.6,0.2-1.3,0.3-1.9c0.7-4.8,1.4-9.8,3.7-14.1c2-3.9,3.2-5.8,4.3-7.5
			c0.7-1.1,1.4-2.2,2.2-3.7l2.4,1.3c-0.8,1.6-1.5,2.7-2.3,3.8c-1.1,1.7-2.2,3.6-4.2,7.3c-2,3.9-2.7,8.4-3.4,13.2
			c-0.1,0.6-0.2,1.3-0.3,1.9c-0.9,6-1.2,12.5-1,19.1c0.3,3.8,0.8,6.8,1.6,8.8c0.4,1.1,0.9,1.9,1.5,2.3c3.1,1.6,6.5,2.5,10,2.8
			c2.6,0.1,5.7,0.2,9,0.3l9.3,0c2.2,0,4.3-0.1,6.4-0.1c2.2-0.1,4.4-0.2,6.5-0.2c3.6-0.3,6.7-1,9.1-2.1c2.5-1.1,4.3-2.6,5.4-4.6
			c1.4-8.9-5.7-30.2-12.9-47.2l2.6-1.1c3.6,8.5,15.2,37.2,13,49l0,0.2l-0.1,0.2c-1.4,2.6-3.7,4.6-6.8,6c-2.7,1.2-6.1,2-10.1,2.3
			c-2.2,0.1-4.4,0.2-6.6,0.3c-2.1,0.1-4.3,0.1-6.4,0.1L94.5,113.5z"/>
	</g>
	<g>
		<path fill="#352B24" d="M131,65.1c-0.1,0-0.3-0.1-0.4-0.2c-0.2-0.2-0.2-0.5,0.1-0.7l2.5-2.2c0.2-0.2,0.5-0.2,0.7,0.1
			c0.2,0.2,0.2,0.5-0.1,0.7l-2.5,2.2C131.2,65,131.1,65.1,131,65.1z"/>
	</g>
	<g>
		<path fill="#E9E38E" d="M92,17.2c0,0.2,0,0.3,0,0.5c-0.2,5.2-4.5,9.3-9.7,9.3c-5.2,0-9.5-4.1-9.8-9.3c0-0.2,0-0.3,0-0.5
			c0-5.4,4.4-9.8,9.8-9.8C87.6,7.5,92,11.8,92,17.2z"/>
	</g>
	<g>
		<path fill="#DAD070" d="M76.3,17.2c0-4.7,3.4-8.7,7.8-9.6c-0.6-0.1-1.3-0.2-1.9-0.2c-5.4,0-9.8,4.4-9.8,9.8s4.4,9.8,9.8,9.8
			c0.7,0,1.3-0.1,1.9-0.2C79.7,25.9,76.3,22,76.3,17.2z"/>
	</g>
	<g>
		<path fill="#E9E38E" d="M105.3,18.2c0,0-16.2,6.4-21.4,14.5c-2,2.1-4.8,8.2-6.7,8v-5.8c0-10.1,10.8-20.5,20.9-20.7
			c0.1,0,0.1,0,0.2,0c0.1,0,0.2,0,0.3,0c5.2,0,15.6,1.2,19.2,4.4c1,0.8-1.4,2.1-1.4,2.1L105.3,18.2z"/>
	</g>
	<g>
		<path fill="#DAD070" d="M101.3,14.3c-6.3,0.2-17.1,5.8-17.5,12.1l-0.6,6.1c-0.2,2.2-6,8.1-6,8.1C76.7,29.3,77.3,17.4,96,14.3
			C99.7,14.1,101.3,14.3,101.3,14.3z"/>
	</g>
	<g>
		<path fill="#D69CA6" d="M79.1,45.7c0.1,0.2,0.4,0.2,0.4,0c0.4-1.4,2-5.6,3.9-9.3c2.5-4.6,5.1-7,7.4-9.3c1.7-1.7,4-4.1,8.4-6.5
			c2.1-1.2,7-3,7-3l3.7-1.5c0.9-0.2,1.4-0.7,0.5-1.1l-5.9-1.2c-1-0.1-3,0.4-4,0.8c-1.3,0.5-3,1.4-4.4,2.2c-1.4,0.8-1.9,1-3,1.8
			c-1.1,0.8-3,2.5-4,3.4l-1.7,1.6c-1.7,1.5-3.3,3.2-4.7,5.1c-1,1.3-2.3,3.2-2.8,4.1c-0.5,1.1-1.9,4.7-2.8,7c-0.4,0.9-0.3,2,0.1,2.9
			L79.1,45.7z"/>
	</g>
	<g>
		<path fill="#D69CA6" d="M103.8,16.8l1.4-4.1c0.4-1.3,1.5-2.2,2.8-2.6l6.5-1.6l-1.3,3.7c-0.4,1-1.2,1.8-2.2,2.2L103.8,16.8z"/>
	</g>
	<g>
		<path fill="#D69CA6" d="M107.3,16.1l-2.7-3.5c-0.8-1.1-2.1-1.7-3.5-1.6l-6.7,0.5l2.4,3.1c0.7,0.9,1.7,1.4,2.8,1.4L107.3,16.1z"/>
	</g>
	<g>
		<ellipse fill="#D69CA6" cx="104.8" cy="16.1" rx="1.9" ry="0.8"/>
	</g>
	<g>
		<g id="Layer0_6_FILL_43_">
			<g>
				<path d="M114.4,31.3c-1,1.4-2.3,2.6-3.7,3.5c-4-1.3-6.8-3.5-8.4-6.7c4-1.8,7.7-2.3,10.9-1.5c1.1,0.3,2.1,0.7,3.1,1.3
					C115.8,29.1,115.2,30.3,114.4,31.3z"/>
			</g>
		</g>
	</g>
</g>
<g>
	<g>
		<g>
			<g>
				<path fill="#3F3B49" d="M81.4,68.1c0,0,4.6,5.4,5.1,7.5c-0.5,1.2-2.8,3.8-2.8,3.8l-9.4-5.7C74.3,73.7,79.2,71.4,81.4,68.1z"/>
			</g>
			<g>
				<path fill="#352B24" d="M84.1,75c0-0.1,0-0.3,0.1-0.4c0.2-0.2,0.5-0.3,0.7-0.1l2.3,1.7c0.2,0.2,0.3,0.5,0.1,0.7
					c-0.2,0.2-0.5,0.3-0.7,0.1l-2.3-1.7C84.2,75.2,84.1,75.1,84.1,75z"/>
			</g>
			<g>
				<path fill="#352B24" d="M83.1,77.2c0-0.1,0-0.3,0.1-0.4c0.2-0.2,0.5-0.3,0.7-0.1l2.7,1.9c0.2,0.2,0.3,0.5,0.1,0.7
					c-0.2,0.2-0.5,0.3-0.7,0.1l-2.7-1.9C83.2,77.4,83.1,77.3,83.1,77.2z"/>
			</g>
		</g>
		<g>
			<g>
				<path fill="#E8DCC4" d="M86,55.6C85.9,55.5,86,55.7,86,55.6L86,55.6z"/>
			</g>
		</g>
		<g>
			<g id="Layer0_1_FILL_15_">
				<g>
					<path fill="#3F3B49" d="M0,45.9c1.4,23.9,10.8,44,28.2,60.4c-0.8-2.3-1.4-5.6-1.7-9.9c-0.3-7.2,0.1-14.1,1-20.7
						c0.8-5.8,2.1-11.3,3.8-16.6c-1.2-8.1-3-14.1-5.3-18.1C14.2,36.6,5.6,38.2,0,45.9"/>
				</g>
			</g>
		</g>
		<g>
			<path fill="#AFC265" d="M77.4,60 M42.4,49.2l-4.6,2.2c-2,3.8-3.2,4.7-6.5,11.2c-2.4,4.7-3,10.1-3.8,15.6
				c-0.9,6.2-1.3,12.6-1,19.4c0.3,4,0.8,7.1,1.7,9.3c0.6,1.4,1.2,2.4,2,3c3.3,1.7,6.9,2.7,10.7,3c2.7,0.1,5.7,0.2,9,0.3l9.4,0
				c2.2,0,4.3-0.1,6.4-0.1c2.2-0.1,4.4-0.2,6.6-0.2c3.9-0.3,7.1-1,9.6-2.2c2.8-1.3,4.9-3.1,6.2-5.4c1.8-10.1-7.2-34.6-13-48.2"/>
		</g>
		<g>
			<g id="Layer0_1_1_STROKES_15_">
				<path fill="#D9CFC9" d="M20.4,91.4C20.4,91.4,20.4,91.4,20.4,91.4c-0.4-0.1-0.5-0.3-0.5-0.6l1.9-11.8l-7.2-3.6
					c-0.2-0.1-0.3-0.4-0.2-0.7c0.1-0.2,0.4-0.3,0.7-0.2L22,78l1.6-9.9c0-0.3,0.3-0.5,0.6-0.4c0.3,0,0.5,0.3,0.4,0.6l-1.6,10.2
					l3.1,1.6c0.2,0.1,0.4,0.4,0.2,0.7s-0.4,0.3-0.7,0.2l-2.8-1.4L20.9,91C20.9,91.3,20.7,91.4,20.4,91.4z M11.5,65.9
					c-0.1,0-0.2,0-0.3-0.1c-0.2-0.1-0.3-0.5-0.2-0.7l4.8-7.9L5.8,53c-0.3-0.1-0.4-0.4-0.3-0.7c0.1-0.3,0.4-0.4,0.7-0.3l10.3,4.3
					l4.9-8c0.1-0.2,0.5-0.3,0.7-0.2c0.2,0.1,0.3,0.5,0.2,0.7l-4.8,7.9l7.7,3.2c0.3,0.1,0.4,0.4,0.3,0.7c-0.1,0.3-0.4,0.4-0.7,0.3
					l-7.8-3.2l-4.9,8C11.8,65.8,11.7,65.9,11.5,65.9z"/>
			</g>
		</g>
		<g opacity="0.4">
			<path fill="#211C1A" d="M29.2,49.2c0.8,2.9,1.5,6.2,2.1,10c-1.7,5.3-3,10.8-3.8,16.6c-0.9,6.6-1.2,13.5-1,20.7
				c0.3,4.3,0.9,7.6,1.7,9.9c-1.4-1.3-2.8-2.7-4.1-4.1C16.2,82.7,17.7,62.4,29.2,49.2z"/>
		</g>
		<g>
			
				<ellipse transform="matrix(0.9911 -0.133 0.133 0.9911 -10.6278 10.0197)" fill="#EDE9E9" cx="69.7" cy="84.6" rx="12.3" ry="19.1"/>
		</g>
		<g>
			<path fill="#3F3B49" d="M56.1,77.9l7.6,6.7c0,0,3.6-1,4.6-1.8c0.4-1.8-4-9.1-4-9.1S63.1,76.7,56.1,77.9z"/>
		</g>
		<g>
			<path fill="#352B24" d="M68.4,84.3c-0.2,0-0.3-0.1-0.4-0.2l-1.7-2.3c-0.2-0.2-0.1-0.5,0.1-0.7c0.2-0.2,0.5-0.1,0.7,0.1l1.7,2.3
				c0.2,0.2,0.1,0.5-0.1,0.7C68.6,84.3,68.5,84.3,68.4,84.3z"/>
		</g>
		<g>
			<path fill="#352B24" d="M66.7,85.9c-0.1,0-0.3-0.1-0.4-0.2l-2.1-2.6c-0.2-0.2-0.1-0.5,0.1-0.7c0.2-0.2,0.5-0.1,0.7,0.1l2.1,2.6
				c0.2,0.2,0.1,0.5-0.1,0.7C66.9,85.9,66.8,85.9,66.7,85.9z"/>
		</g>
		<g opacity="0.15">
			<path fill="#211C1A" d="M36.3,41.4C36.3,41.3,36.4,41.3,36.3,41.4c0.2-0.1,0.4-0.2,0.6-0.3l-0.6-1.4c1.4-4.8,4.1-8.4,8.1-10.8
				c0,0,0.1,0,0.1-0.1"/>
		</g>
		<g>
			<path fill="#3F3B49" d="M56.2,109.4l-4.1,0.3c-1.1,0.9-1.8,2-2.3,3.3c-0.1,0.2-0.2,0.5-0.2,0.8l9.7,0c0-0.3-0.1-0.5-0.2-0.8
				C58.8,111,57.8,109.8,56.2,109.4"/>
		</g>
		<g>
			<path fill="#3F3B49" d="M98.1,109.5c-5.3-0.3-10.8,0-16.3,0.8c-2.6,1.2-5.8,2-9.6,2.3c-2.1,0.1-4.3,0.2-6.6,0.3l0,0.8l34.3,0"/>
		</g>
		<g>
			<path fill="#B0C264" d="M46.5,54.2"/>
		</g>
		<g>
			<path fill="none" stroke="#3F3B49" stroke-width="2.7108" stroke-linecap="round" stroke-miterlimit="10" d="M46.5,54.2"/>
		</g>
		<g>
			<path fill="#B0C264" d="M37.1,50.8c0,0-1.3-0.6-2-6.7c-0.6-5.3-4.5-4.8-6.2-6.7c-2-2.3-1.3-4.1,3.1-3.9c2,0.1,3.7-4.4,4.2-5.5
				c1.3-3.1,6.1-7.6,6.1-7.6l3.4-1.8L54,17l7.9,0.9l8.7,1.5l4.8,2.6l3.6,11.7L79,46.1l-3.6,8l-1.5,3.9l-3.4-2.9"/>
		</g>
		<g>
			<path fill="#3F3B49" d="M73.2,59.1c-0.2,0-0.5-0.1-0.7-0.2c-8.1-4.6-7.4-14.1-7.4-14.5c0.1-0.7,0.7-1.3,1.5-1.2
				c0.7,0.1,1.3,0.7,1.2,1.5c0,0.4-0.5,8.2,6,11.9c0.7,0.4,0.9,1.2,0.5,1.8C74.2,58.8,73.7,59.1,73.2,59.1z"/>
		</g>
		<g>
			<path fill="#3F3B49" d="M31.4,40.6c-0.5,0-0.9-0.1-1.4-0.2c-1.6-0.5-2.9-1.7-3.7-3.6c-0.6-1.4-0.2-2.4,0.2-3
				c1.4-2,5.1-1.9,5.8-1.9c0.7,0,1.3,0.7,1.3,1.4c0,0.7-0.7,1.4-1.4,1.3c-1.5-0.1-3.2,0.3-3.5,0.7c0,0,0,0.2,0.1,0.4
				c0.6,1.3,1.4,1.8,1.9,2c0.7,0.2,1.2,0,1.5-0.1c0.6-0.4,1.5-0.3,1.9,0.3c0.4,0.6,0.3,1.5-0.3,1.9C33.1,40.4,32.3,40.6,31.4,40.6z"
				/>
		</g>
		<g>
			<g>
				<path fill="#E8DCC4" d="M68.9,54.8C68.9,54.6,68.9,54.9,68.9,54.8L68.9,54.8z"/>
			</g>
			<g>
				<path fill="#E8DCC4" d="M62.9,54.5c1.4-1.6,2.7-2.7,3.1-4.7c0.6,2.3,1.8,4,2.9,5.4c0,2.7-0.4,4.7-0.9,6.7
					c-0.1,0.2-0.1,0.4-0.2,0.6c0,0,0,0.1,0,0.1c0,0,0,0.1,0,0.1c-0.2,0.6-0.7,2.4-0.9,3l-3.3,0c-2.2-2-3.8-4.5-4.9-7.5
					C60.1,57.2,61.5,56,62.9,54.5z"/>
			</g>
		</g>
		<g>
			<g id="Layer0_2_1_STROKES_74_">
				<path fill="#3F3B49" d="M66.8,66C66.8,66,66.8,66,66.8,66l-3.3-0.1c-0.1,0-0.2-0.1-0.3-0.1c-2.4-2.2-3.7-4.2-4.8-7.1
					c-0.1-0.3,0-0.5,0.3-0.6c0.3-0.1,0.5,0,0.6,0.3c1,2.7,2.2,4.6,4.4,6.6l2.8,0.1c0.2-0.5,0.4-1.2,0.5-1.8c0.1-0.4,0.2-0.8,0.3-0.9
					l0-0.1c0,0,0-0.1,0-0.1c0,0,0,0,0-0.1c0.1-0.2,0.1-0.4,0.2-0.6c0.6-2.1,0.9-3.9,0.9-6.5c0-0.3,0.2-0.5,0.5-0.5
					c0.3,0,0.5,0.2,0.5,0.5c0,2.7-0.4,4.6-1,6.7c-0.1,0.2-0.1,0.4-0.2,0.6c0,0.1,0,0.1-0.1,0.2l0,0.1c-0.1,0.2-0.2,0.6-0.3,0.9
					c-0.3,1.1-0.5,1.9-0.7,2.2C67.2,65.9,67,66,66.8,66z M65.5,61.9C65.5,61.9,65.4,61.9,65.5,61.9c-0.3,0-0.5-0.3-0.5-0.5l0.1-1.4
					c0.2-3.4,0.4-5.9,0.2-10.1c0-0.3,0.2-0.5,0.5-0.5c0.3,0,0.5,0.2,0.5,0.5c0.3,4.2,0.1,6.8-0.2,10.2L66,61.5
					C65.9,61.7,65.7,61.9,65.5,61.9z"/>
			</g>
		</g>
		<g>
			<path fill="#3F3B49" d="M52.8,59.5c-2.6,0-7.5-1.4-11-11.1c-0.3-0.7,0.1-1.5,0.8-1.7s1.5,0.1,1.7,0.8c4,10.8,9.1,9.3,9.4,9.2
				l0.2,0c4.3-0.9,7.4-2.9,9.3-6c3.8-6.1,1.6-14.6,1.5-14.7c-0.2-0.7,0.2-1.5,1-1.7c0.7-0.2,1.5,0.2,1.7,1c0.1,0.4,2.6,9.7-1.8,16.8
				c-2.3,3.7-6,6.2-11,7.2C54.1,59.4,53.6,59.5,52.8,59.5z"/>
		</g>
		<g>
			<g id="Layer0_6_FILL_15_">
				<g>
					<path d="M69.8,32.2c-1,1.4-2.3,2.6-3.7,3.5c-4-1.3-6.8-3.5-8.4-6.7c4-1.8,7.7-2.3,10.9-1.5c1.1,0.3,2.1,0.7,3.1,1.3
						C71.2,30,70.6,31.1,69.8,32.2z"/>
				</g>
			</g>
		</g>
		<g>
			<path d="M59.9,23.2c0-0.3,0-0.5-0.2-0.8c-0.2-0.2-0.4-0.4-0.7-0.4c-0.1,0-0.3,0-0.4,0c-0.1,0-0.2,0.1-0.4,0.2
				c-0.2,0.2-0.4,0.4-0.4,0.7c0,0.2,0,0.3,0,0.4c0,0.1,0.1,0.3,0.2,0.4c0.2,0.2,0.4,0.4,0.7,0.4c0.3,0,0.6,0,0.8-0.2
				C59.7,23.7,59.8,23.4,59.9,23.2 M53.1,25.2c0.3,0.4,0.7,0.6,1.1,0.7c0.5,0.1,0.9,0,1.3-0.3c0.4-0.3,0.6-0.7,0.7-1.1
				c0-0.2,0-0.5,0-0.7c0-0.2-0.1-0.4-0.3-0.6c-0.3-0.4-0.7-0.6-1.2-0.7c-0.2,0-0.5,0-0.7,0c-0.2,0-0.4,0.1-0.6,0.3
				c-0.4,0.3-0.7,0.7-0.7,1.2C52.7,24.3,52.8,24.8,53.1,25.2z"/>
		</g>
		<g opacity="0.15">
			<path fill="#211C1A" d="M82.2,108.3c-3.4,2.4-17.8,2.6-26.1,2.4c-8.2-0.2-15.6-1.9-19.5-8.7c-4-6.8-0.5-36.9,1.4-42.7
				c2-5.7,8.5-5.7,7.8-6.8l-3.4-5.5L42,47.1c-1.6-3.3-3.6-8.7-2.7-13.5c1.4-7.8,0.6-11.6,6.2-14.2s-2-0.3-2-0.3l-7.2,7.2L34,34.7
				l1.2,8.9l2.8,5.7c-1.6,2.6-3.5,5.3-6.7,11.7c-2.3,4.5-3,10.4-3.8,16c-0.9,6.3-1.3,13-1,20c0.3,4.1,0.8,7.3,1.7,9.5
				c0.6,1.5,1.2,2.5,2,3.1c3.3,1.8,6.9,2.8,10.7,3.1c2.7,0.1,5.7,0.2,9,0.3l9.4,0c2.2,0,4.3-0.1,6.4-0.1c2.2-0.1,4.4-0.2,6.6-0.3
				c3.9-0.3,7.1-1.1,9.6-2.3c2.8-1.3,4.9-3.2,6.2-5.5c0.2-1,0.3-2.1,0.4-3.1C87,104.1,84.5,106.6,82.2,108.3z"/>
		</g>
		<g>
			<path fill="#3F3B49" d="M73.2,59.1c-0.3,0-0.7-0.1-0.9-0.4c-0.5-0.5-0.5-1.4,0-1.9c7.6-7.8,5.8-19.6,5.1-23
				c-1.5-7.1-2.3-10.1-5.8-12.2c-7.9-3-19-4.6-26.4-1.5c-0.8,0.5-7.8,5.4-9.5,13.6c-1.1,5.8,0.6,11.9,5.1,18.3
				c0.4,0.6,0.3,1.5-0.3,1.9c-0.6,0.4-1.5,0.3-1.9-0.3c-5-7-6.8-13.9-5.5-20.4c2-9.8,10.4-15.2,10.8-15.4l0.2-0.1
				c8.1-3.5,20.2-1.8,28.6,1.4l0.2,0.1c4.8,2.8,5.7,7,7.2,14.1c3.2,14.9-3.6,23.3-5.8,25.5C73.9,58.9,73.6,59.1,73.2,59.1z"/>
		</g>
		<g>
			<path fill="#3F3B49" d="M49.9,114.4c-3.4-0.1-6.4-0.2-9.1-0.3c-4-0.3-7.7-1.3-11.2-3.1l-0.2-0.1c-1-0.7-1.8-1.9-2.5-3.6
				c-0.9-2.3-1.5-5.5-1.8-9.7c-0.3-6.9,0.1-13.5,1-19.7c0.1-0.6,0.2-1.3,0.3-1.9c0.7-4.8,1.4-9.8,3.7-14.1c2-3.9,3.2-5.8,4.3-7.5
				c0.7-1.1,1.4-2.2,2.2-3.7L39,52c-0.8,1.6-1.5,2.7-2.3,3.8c-1.1,1.7-2.2,3.6-4.2,7.3c-2,3.9-2.7,8.4-3.4,13.2
				c-0.1,0.6-0.2,1.3-0.3,1.9c-0.9,6-1.2,12.5-1,19.1c0.3,3.8,0.8,6.8,1.6,8.8c0.4,1.1,0.9,1.9,1.5,2.3c3.1,1.6,6.5,2.5,10,2.8
				c2.6,0.1,5.7,0.2,9,0.3l9.3,0c2.2,0,4.3-0.1,6.4-0.1c2.2-0.1,4.4-0.2,6.5-0.2c3.6-0.3,6.7-1,9.1-2.1c2.5-1.1,4.3-2.6,5.4-4.6
				c1.4-8.9-5.7-30.2-12.9-47.2l2.6-1.1c3.6,8.5,15.2,37.2,13,49l0,0.2l-0.1,0.2c-1.4,2.6-3.7,4.6-6.8,6c-2.7,1.2-6.1,2-10.1,2.3
				c-2.2,0.1-4.4,0.2-6.6,0.3c-2.1,0.1-4.3,0.1-6.4,0.1L49.9,114.4z"/>
		</g>
	</g>
	<path fill="#48342F" d="M39.1,34.3c1.5-2.5,2.8-4.6,2.2-11.3c0,0,15.1-1,21.6-1.7c7.8-0.9,25.4-5,17.7-17.1c0,0,0.9,5.4-3,4.9
		C73.8,8.5,61.3-3.1,50,0.8S38.6,11.5,38.6,11.5s-11.4-0.2-12.1,5.9c-0.7,6,7,26.5,7,26.5S37.7,36.7,39.1,34.3z"/>
</g>
</svg>
