<?xml version="1.0" encoding="utf-8"?>
<!-- Generator: Adobe Illustrator 23.0.2, SVG Export Plug-In . SVG Version: 6.00 Build 0)  -->
<svg version="1.1" id="Calque_1" xmlns="http://www.w3.org/2000/svg" xmlns:xlink="http://www.w3.org/1999/xlink" x="0px" y="0px"
	 viewBox="0 0 80.7 52" enable-background="new 0 0 80.7 52" xml:space="preserve">
<g>
	<polygon fill="#3B120E" points="34.8,22 36.1,21.7 34.7,50.8 32.2,50.8 30.4,21.9 	"/>
	<polygon fill="#3B120E" points="59.4,22 58.1,21.7 57.8,50.8 60.2,50.8 63.8,21.9 	"/>
	<g>
		<polygon fill="#B1ACB5" points="50.6,19.5 37.8,11.9 37.7,11.2 51.4,19.5 		"/>
		<polygon fill="#B1ACB5" points="42.6,19.5 55.7,11.7 55.7,11.2 41.7,19.5 		"/>
		<polygon fill="#B1ACB5" points="49.6,32.1 49.7,33.3 50.2,51.3 51.7,51.3 52.7,34.1 52.8,32.1 		"/>
		<polygon fill="#B1ACB5" points="40.3,32.1 40.4,34.4 41.4,51.3 42.9,51.3 43.5,33.9 43.5,32.1 		"/>
		<polygon fill="#948A9C" points="52.4,51.3 52.7,51.3 54.1,34.5 54.3,32.1 53.4,32.1 53.3,34.3 		"/>
		<polygon fill="#B1ACB5" points="35.4,29.9 38.5,51.3 39.9,51.3 39.2,32.1 54.3,32.1 52.7,51.3 54.1,51.3 57.6,29.9 		"/>
		<polygon fill="#948A9C" points="39.2,32.1 39.3,34.5 39.9,51.3 40.3,51.1 40,34.4 40,32.1 		"/>
		
			<linearGradient id="SVGID_1_" gradientUnits="userSpaceOnUse" x1="17.4899" y1="31.3285" x2="17.4899" y2="29.8695" gradientTransform="matrix(-1 0 0 1 63.9604 0)">
			<stop  offset="0" style="stop-color:#C1919C"/>
			<stop  offset="1" style="stop-color:#948A9C"/>
		</linearGradient>
		<polygon opacity="0.86" fill="url(#SVGID_1_)" points="57.3,31.3 35.5,30.8 35.4,29.9 57.6,30.2 		"/>
		<polygon fill="#B1ACB5" points="54.4,30.1 54.1,30.1 54.6,11.2 55.7,11.2 		"/>
		<polygon fill="#B1ACB5" points="38.9,11.2 39.1,29.9 38.7,29.9 37.7,11.2 		"/>
		<path fill="#F2D2B1" d="M34.6,8.4l2.7,21.5l1.4,0l-0.4-8.4l16.7,0L54.4,30l1.5,0.1l3-21.7H34.6z M52.3,11.2l-5.5,3.2l-5.3-3.2
			H52.3z M55.7,11.2l-0.5,8.3l-6.6-4L55.7,11.2z M41.7,19.5l4.9-2.9l4.8,2.9H41.7z M37.7,11.2l7.1,4.3l-6.7,3.9L37.7,11.2z"/>
		<polygon opacity="0.15" fill="#9A1915" points="55.5,30.2 58.5,8.8 47.2,8.8 57.2,9.5 55.2,30.2 		"/>
		
			<linearGradient id="SVGID_2_" gradientUnits="userSpaceOnUse" x1="10.1763" y1="34.5475" x2="10.1763" y2="32.1342" gradientTransform="matrix(-1 0 0 1 63.9604 0)">
			<stop  offset="0" style="stop-color:#C1919C"/>
			<stop  offset="1" style="stop-color:#948A9C"/>
		</linearGradient>
		<polygon opacity="0.86" fill="url(#SVGID_2_)" points="53.4,32.1 53.3,34.3 54.1,34.5 54.3,32.1 		"/>
		
			<linearGradient id="SVGID_3_" gradientUnits="userSpaceOnUse" x1="12.7486" y1="34.1394" x2="12.7486" y2="32.1342" gradientTransform="matrix(-1 0 0 1 63.9604 0)">
			<stop  offset="0" style="stop-color:#C1919C"/>
			<stop  offset="1" style="stop-color:#948A9C"/>
		</linearGradient>
		<polygon opacity="0.86" fill="url(#SVGID_3_)" points="49.6,32.1 49.7,33.3 52.7,34.1 52.8,32.1 		"/>
		
			<linearGradient id="SVGID_4_" gradientUnits="userSpaceOnUse" x1="22.0497" y1="34.3577" x2="22.0497" y2="32.1342" gradientTransform="matrix(-1 0 0 1 63.9604 0)">
			<stop  offset="0" style="stop-color:#C1919C"/>
			<stop  offset="1" style="stop-color:#948A9C"/>
		</linearGradient>
		<polygon opacity="0.86" fill="url(#SVGID_4_)" points="43.5,32.1 40.3,32.1 40.4,34.4 43.5,33.9 		"/>
		
			<linearGradient id="SVGID_5_" gradientUnits="userSpaceOnUse" x1="24.3511" y1="34.5475" x2="24.3511" y2="32.1342" gradientTransform="matrix(-1 0 0 1 63.9604 0)">
			<stop  offset="0" style="stop-color:#C1919C"/>
			<stop  offset="1" style="stop-color:#948A9C"/>
		</linearGradient>
		<polygon opacity="0.86" fill="url(#SVGID_5_)" points="39.2,32.1 39.3,34.5 40,34.4 40,32.1 		"/>
		<polygon opacity="0.37" fill="#F2D2B1" points="39.2,51.3 36.6,35 35.9,33.3 38.5,51.3 		"/>
		<polygon fill="#3B120E" points="34.9,29.9 34.3,27.4 59.3,27.8 58.5,30.2 		"/>
	</g>
	<g>
		<polygon fill="#B1ACB5" points="5.8,14.8 14.2,8.1 15.3,8.1 5.9,15.6 		"/>
		<polygon fill="#B1ACB5" points="4.5,8.1 16.2,15.6 15.1,15.6 4.8,9.3 		"/>
		<polygon fill="#B1ACB5" points="19.1,26.7 16.2,8.1 17.8,8.1 19.9,27 		"/>
		<polygon fill="#B1ACB5" points="6.4,28.7 5.6,28.7 0,6.8 1.1,6.4 		"/>
		<path fill="#F2D2B1" d="M19.9,6.4H1.1l5.3,22.3l1.7-0.2L6.3,17.6h12.6l1.1,9.4l1.3-0.3L19.9,6.4z M15.3,8.1L11.7,11L7.2,8.1H15.3z
			 M4.5,8.1l6,3.9l-4.6,3.6L4.5,8.1z M8.2,15.6l3.6-2.8l4.4,2.8H8.2z M12.9,11.9l4.8-3.8l0.9,7.5L12.9,11.9z"/>
		
			<linearGradient id="SVGID_6_" gradientUnits="userSpaceOnUse" x1="596.4883" y1="50.0859" x2="596.4883" y2="30.2471" gradientTransform="matrix(1 0 0 1 -572.3835 0)">
			<stop  offset="0" style="stop-color:#C1919C"/>
			<stop  offset="1" style="stop-color:#948A9C"/>
		</linearGradient>
		<polygon fill="url(#SVGID_6_)" points="26,30.2 24.4,50.1 22.5,50.1 22.2,30.4 		"/>
		<polygon fill="#B1ACB5" points="16.3,50.1 15.6,50.1 12.6,30.9 10,30.9 10.1,31.9 11.3,50.1 9.5,50.1 6.6,33.3 5.9,28.6 
			12.2,28.6 12.2,28.6 13.8,28.6 13.8,28.7 14.1,30.2 14.2,30.9 14.1,30.9 		"/>
		<polygon fill="#B1ACB5" points="28,30.9 27.1,50.1 28,50.1 29.6,30.9 		"/>
		<polygon fill="#F2D2B1" points="13.8,28.6 16.3,50.1 17.6,50.1 17.6,30.9 29.6,30.9 28,50.1 29.3,50.1 32.9,28.6 		"/>
		<polygon fill="#F2D2B1" points="10.1,32.2 8.7,33.1 10.3,50.1 11.3,50.1 		"/>
		<polygon fill="#F2D2B1" points="25.9,31.5 24.5,32.5 23.8,50.1 24.4,50.1 		"/>
		<polygon fill="#BF6040" points="5.1,28.6 4.2,26.2 34.4,26.6 33.4,28.9 		"/>
		<polygon fill="#3B120E" points="13.1,28.7 12.3,26.3 4.2,26.2 5.1,28.6 		"/>
		<polygon opacity="0.7" fill="#684427" points="13.1,26.6 13.5,28.2 27.5,28.3 28,26.9 		"/>
		
			<linearGradient id="SVGID_7_" gradientUnits="userSpaceOnUse" x1="591.7262" y1="33.2868" x2="591.7262" y2="28.6379" gradientTransform="matrix(1 0 0 1 -572.3835 0)">
			<stop  offset="0" style="stop-color:#C1919C"/>
			<stop  offset="1" style="stop-color:#948A9C"/>
		</linearGradient>
		<polygon opacity="0.86" fill="url(#SVGID_7_)" points="32.8,28.9 32.7,29.8 14.1,30.2 14,30.2 12.4,30.9 10,30.9 10.1,31.9 
			6.6,33.3 5.9,28.6 13.1,28.7 13.8,28.7 		"/>
		<polygon opacity="6.000000e-02" fill="#9A1915" points="1.8,7.1 3.4,7.1 6.8,25.8 6.2,25.8 		"/>
		
			<linearGradient id="SVGID_8_" gradientUnits="userSpaceOnUse" x1="590.7254" y1="20.0578" x2="590.7254" y2="17.5666" gradientTransform="matrix(1 0 0 1 -572.3835 0)">
			<stop  offset="0" style="stop-color:#C1919C"/>
			<stop  offset="1" style="stop-color:#948A9C"/>
		</linearGradient>
		<polygon opacity="0.86" fill="url(#SVGID_8_)" points="18.1,20.1 19,18.9 18.9,17.6 17.7,17.6 		"/>
		
			<linearGradient id="SVGID_9_" gradientUnits="userSpaceOnUse" x1="589.5729" y1="12.2547" x2="589.5729" y2="8.107" gradientTransform="matrix(1 0 0 1 -572.3835 0)">
			<stop  offset="0" style="stop-color:#C1919C"/>
			<stop  offset="1" style="stop-color:#948A9C"/>
		</linearGradient>
		<polygon opacity="0.86" fill="url(#SVGID_9_)" points="16.8,12.3 18,10.4 17.8,8.1 16.3,9.2 		"/>
	</g>
	<g>
		<polygon fill="#77292C" points="68,52 70,52 74.8,24.6 75.1,23.1 70,23.1 69.9,24.7 		"/>
		<polygon fill="#3B120E" points="68,52 67.5,52 68.7,22.8 70,23.1 		"/>
		<polygon fill="#77292C" points="18.8,23.1 19.5,27.1 22.2,52 24.2,52 24.1,27 23.8,23.1 		"/>
		<polygon fill="#3B120E" points="24.2,52 24.8,52 25.2,22.8 23.8,23.1 		"/>
		<polygon opacity="0.59" fill="#3B120E" points="70,23.1 69.9,24.7 74.8,24.6 75.1,23.1 		"/>
		<polygon opacity="0.59" fill="#3B120E" points="18.8,23.1 19.5,27.1 19.5,27.1 24.1,27 23.8,23.1 		"/>
		<polygon fill="#BF6040" points="80.7,19.6 79.6,22.4 13.6,22.4 12.2,19.6 		"/>
		<polygon fill="#3B120E" points="78.1,22.4 77.6,23.2 15.7,23.2 14.7,22.4 		"/>
		<polygon opacity="0.42" fill="#F8DFC6" points="16,21.7 14.7,20.2 35.4,20.2 35.4,21.7 		"/>
	</g>
	<g>
		<g>
			<g>
				<polygon fill="#17331C" points="66.2,1.6 63.4,11.1 63.6,9 66,1.6 				"/>
				<g>
					<path fill="#821811" d="M68.9,1.9c0-0.2-0.1-0.4-0.1-0.4s-1.2-0.9-1.4-0.9c-0.2,0-0.7,0.2-0.7,0.2l1.1,1.3L68.9,1.9z"/>
					<path fill="#C81517" d="M69,1.9c0,0-0.7,1.6-1.8,2.1c-1.1,0.5-0.5-3.5-0.5-3.5s0.9,1.2,1.6,1.3C69,1.9,69,1.9,69,1.9z"/>
					<path fill="#C81517" d="M67.9,1.5c0,0,0.6,0.3,0.9,0.1c0.3-0.2-1.5-0.9-1.5-0.9s0.9,0.5,0.9,0.7C68.2,1.5,67.9,1.5,67.9,1.5z"
						/>
				</g>
				<g>
					<path fill="#F7B89E" d="M64.3,1c0,0-0.5,0.3-1,0.3c-0.5,0-0.6,0-0.6,0s0.3,1.1,0.9,1.2C64,2.6,64.3,1,64.3,1z"/>
					<path fill="#FDE3C8" d="M64.3,1.6c0,0,0.6-0.7,0.4-1c-0.2-0.3-0.4,0-0.4,0S64.2,0,63.8,0c-0.4,0-0.4,0.2-0.4,0.2
						s-0.8-0.2-1.1,0c-0.3,0.2,0,0.6,0,0.6s-0.4,0.3-0.4,0.5c0,0.2,0.5,0.2,0.5,0.2s0.8,0.3,1,0.2c0.2-0.1,0.5-0.3,0.5-0.3L64.3,1.6
						L64.3,1.6z"/>
					<path fill="#F9C8AD" d="M64.3,0.9c0,0-0.3,0.3-0.7,0.3c-0.4,0-0.6-0.2-0.6-0.2s0,0.4-0.2,0.5c-0.2,0.1-0.5-0.2-0.5-0.2
						s0.3,0.2,0.4,0c0.1-0.2,0.1-0.6,0.1-0.6s0.2,0.2,0.4,0c0.3-0.1,0.4-0.2,0.4-0.2s-0.2,0.2-0.1,0.4S64.3,0.9,64.3,0.9z"/>
				</g>
				<g>
					<path fill="#821811" d="M65,4.2c0.8,0,1.1-1.2,1.3-1.8c0.3-0.6,0.5-1,0.5-1s-2-1-2.6-0.7c-0.6,0.3,0.2,1.6,0.2,1.6L65,4.2z"/>
					<path fill="#C81517" d="M65,4.2c0,0,0.4-0.3,0.2-1.2c-0.2-0.9-0.9-2.1-0.7-2.3c0.2-0.1,1,0.2,1,0.2s-1.4-0.6-1.8-0.3
						c-0.4,0.3,0,2.6,0.1,3C64,4.1,65,4.2,65,4.2z"/>
					<path fill="#C81517" d="M65.5,3l0.7-1.5c0,0-0.4,0-0.9-0.1c-0.5-0.2-0.5-0.2-0.5-0.2S65.5,2.4,65.5,3z"/>
					<path fill="#C81517" d="M65.9,1.1c0,0-0.2,0-0.6-0.1c-0.4-0.1-0.6-0.2-0.6-0.2s0.1,0.3,0.4,0.3c0.3,0.1,0.7,0.2,0.7,0.1
						C65.9,1.2,65.9,1.1,65.9,1.1z"/>
				</g>
				<g>
					<path fill="#821811" d="M67.4,4.7c-0.5-0.6,0.2-1.6,0.4-2.2C68,2,68.2,1.5,68.2,1.5s2.1,0.7,2.3,1.3c0.2,0.6-1.4,1-1.4,1
						L67.4,4.7z"/>
					<path fill="#C81517" d="M67.4,4.7c0,0-0.1-0.5,0.8-1c0.8-0.5,2.2-0.8,2.2-1.1c0-0.2-0.8-0.6-0.8-0.6s1.4,0.6,1.4,1
						c0.1,0.5-1.9,1.8-2.3,2C68.2,5.3,67.4,4.7,67.4,4.7z"/>
					<path fill="#C81517" d="M68,3.5L68.7,2c0,0,0.3,0.3,0.7,0.5c0.5,0.2,0.5,0.2,0.5,0.2S68.4,3.1,68,3.5z"/>
					<path fill="#C81517" d="M69.1,2c0,0,0.1,0.1,0.5,0.3c0.3,0.2,0.6,0.3,0.6,0.3s-0.2,0.1-0.5,0c-0.2-0.1-0.6-0.3-0.6-0.4
						C69.1,2,69.1,2,69.1,2z"/>
				</g>
				<g>
					<path fill="#821811" d="M63.9,2.2c0-0.2-0.3-0.3-0.3-0.3S62,1.4,61.8,1.4c-0.2,0.1-0.7,0.5-0.7,0.5l1.6,0.9L63.9,2.2z"/>
					<path fill="#C81517" d="M64,2.2c0,0-0.1,1.9-1.1,2.8c-0.9,0.9-1.8-3.4-1.8-3.4s1.4,0.9,2.1,0.7C64,2.2,64,2.2,64,2.2z"/>
					<path fill="#C81517" d="M62.8,2.1c0,0,0.7,0,0.9-0.2c0.2-0.3-1.9-0.4-1.9-0.4s1.1,0.2,1.2,0.4C63.1,2.1,62.8,2.1,62.8,2.1z"/>
				</g>
				<path fill="#17331C" d="M67.7,5.5c0,0-2.3,3.1-2.8,3.8c-0.5,0.7-1.7,6.1-1.7,6.1L62.6,15c0,0,2.1-6.3,2.2-6.5
					c0.1-0.2,2.5-3.2,2.5-3.2L67.7,5.5z"/>
				<path fill="#17331C" d="M68.2,4.8c0,0-2.7,3.5-2.9,3.9c-0.2,0.4-1.8,6.1-1.8,6.1l-0.6-0.1c0,0,1.9-5.7,2.3-6.5
					c0.4-0.8,2.6-3.6,2.6-3.6L68.2,4.8z"/>
				<path fill="#17331C" d="M66.9,3.8c0,0-2,5.5-2.4,6.6c-0.3,1.1-1.9,4.7-1.9,4.7l-0.4,0.2c0,0,2.4-6.5,2.7-7.3
					c0.3-0.8,1.7-4.2,1.7-4.2L66.9,3.8z"/>
				<path fill="#17331C" d="M65.1,4.4c0,0-0.8,5.4-0.8,5.9c0,0.4-2,5-2,5L62.2,15c0,0,1.9-6.4,2-7c0.1-0.6,0.6-3.7,0.6-3.7L65.1,4.4
					z"/>
				<path fill="#17331C" d="M63.1,4.7c0,0,1.4,3.5,1.5,4c0.1,0.5-0.5,1.6-0.5,1.6l-1.2-5.5L63.1,4.7z"/>
				<g>
					<path fill="#821811" d="M67.1,3.5c0.2-0.1,0.4-0.1,0.4-0.1s1.5,0.6,1.6,0.8C69.3,4.4,69.4,5,69.4,5l-1.8-0.3L67.1,3.5z"/>
					<path fill="#C81517" d="M67.1,3.4c0,0-1.2,1.5-1.1,2.8c0.1,1.3,3.7-1.5,3.7-1.5S68,4.6,67.6,4C67.1,3.4,67.1,3.4,67.1,3.4z"/>
					<path fill="#C81517" d="M68.1,4.1c0,0-0.6-0.4-0.5-0.8c0-0.3,1.7,0.8,1.7,0.8s-1-0.5-1.1-0.4C67.8,3.9,68.1,4.1,68.1,4.1z"/>
				</g>
				<g>
					<path fill="#F7B89E" d="M67.3,7.9c0,0-0.5-0.4-0.7-0.8c-0.2-0.4-0.3-0.5-0.3-0.5s-0.9,0.7-0.8,1.2C65.7,8.3,67.3,7.9,67.3,7.9z
						"/>
					<path fill="#FDE3C8" d="M66.7,8.1c0,0,0.9,0.3,1.1-0.1c0.2-0.3-0.2-0.3-0.2-0.3s0.5-0.3,0.4-0.6c-0.1-0.3-0.4-0.2-0.4-0.2
						s-0.2-0.8-0.5-1c-0.3-0.2-0.6,0.2-0.6,0.2s-0.5-0.3-0.6-0.2c-0.2,0.1,0,0.5,0,0.5s0.1,0.8,0.2,1c0.1,0.2,0.5,0.3,0.5,0.3l0,0.4
						L66.7,8.1z"/>
					<path fill="#F9C8AD" d="M67.4,7.9c0,0-0.4-0.2-0.5-0.5c-0.2-0.3,0-0.6,0-0.6s-0.4,0.1-0.5,0c-0.1-0.1,0-0.5,0-0.5
						s0,0.3,0.2,0.4c0.2,0,0.6-0.2,0.6-0.2S67,6.7,67.2,6.9c0.2,0.2,0.4,0.2,0.4,0.2s-0.3-0.1-0.4,0.1C67,7.5,67.4,7.9,67.4,7.9z"/>
				</g>
				<g>
					<path fill="#F7B89E" d="M66.9,4.4c0,0-0.5-0.4-0.7-0.8c-0.2-0.4-0.3-0.5-0.3-0.5S65,3.8,65.1,4.3C65.2,4.9,66.9,4.4,66.9,4.4z"
						/>
					<path fill="#FDE3C8" d="M66.3,4.7c0,0,0.9,0.3,1.1-0.1c0.2-0.3-0.2-0.3-0.2-0.3s0.5-0.3,0.4-0.6c-0.1-0.3-0.4-0.2-0.4-0.2
						s-0.2-0.8-0.5-1c-0.3-0.2-0.6,0.2-0.6,0.2s-0.5-0.3-0.6-0.2s0,0.5,0,0.5s0.1,0.8,0.2,1c0.1,0.2,0.5,0.3,0.5,0.3l0,0.4L66.3,4.7
						z"/>
					<path fill="#F9C8AD" d="M66.9,4.4c0,0-0.4-0.2-0.5-0.5c-0.2-0.3,0-0.6,0-0.6s-0.4,0.1-0.5,0c-0.1-0.1,0-0.5,0-0.5
						s0,0.3,0.2,0.4c0.2,0,0.6-0.2,0.6-0.2s-0.1,0.2,0.1,0.4c0.2,0.2,0.4,0.2,0.4,0.2s-0.3-0.1-0.4,0.1C66.6,4,66.9,4.4,66.9,4.4z"
						/>
				</g>
				<g>
					<path fill="#821811" d="M64.2,6.6c1,0.1,2.1-1.2,2.3-1.6c0.2-0.3,0-0.8-1-1.3c-1-0.4-1.6-0.1-1.6,0.2c0,0.3,0.3,0.9,0.3,0.9
						L64.2,6.6z"/>
					<path fill="#C81517" d="M66.6,5.1c0,0-0.8-0.1-1.8-0.5c-1-0.5-1.2-0.7-1.2-0.7S63.5,6,63.9,6.6C64.3,7.2,65.2,7.3,66.6,5.1z"/>
					<path fill="#C81517" d="M66.4,4.9c0,0,0.1-0.3-0.4-0.6c-0.5-0.4-1.3-0.5-1.3-0.5s0.6,0.2,0.9,0.5C65.9,4.5,65,4.4,65,4.4
						S66,4.9,66.4,4.9z"/>
					<path fill="#C81517" d="M65.2,4.2c0,0-0.8-0.3-1-0.3c-0.2,0.1,0.4,0.4,0.4,0.4s-0.1-0.2,0.2-0.2C65,4.1,65.2,4.2,65.2,4.2z"/>
				</g>
				<g>
					<path fill="#F7B89E" d="M63.8,5.5c0,0-0.5,0.3-1,0.3c-0.5,0-0.6,0-0.6,0s0.3,1.1,0.9,1.2C63.6,7.2,63.8,5.5,63.8,5.5z"/>
					<path fill="#FDE3C8" d="M63.8,6.2c0,0,0.6-0.7,0.4-1c-0.2-0.3-0.4,0-0.4,0s-0.1-0.6-0.5-0.6C63,4.5,63,4.8,63,4.8
						s-0.8-0.2-1.1,0c-0.3,0.2,0,0.6,0,0.6S61.4,5.8,61.4,6c0,0.2,0.5,0.2,0.5,0.2s0.8,0.3,1,0.2c0.2-0.1,0.5-0.3,0.5-0.3L63.8,6.2
						L63.8,6.2z"/>
					<path fill="#F9C8AD" d="M63.8,5.5c0,0-0.3,0.3-0.7,0.3c-0.4,0-0.6-0.2-0.6-0.2s0,0.4-0.2,0.5c-0.2,0.1-0.5-0.2-0.5-0.2
						s0.3,0.2,0.4,0c0.1-0.2,0.1-0.6,0.1-0.6s0.2,0.2,0.4,0C63.1,5.1,63.2,5,63.2,5S63,5.2,63.2,5.4C63.3,5.6,63.8,5.5,63.8,5.5z"/>
				</g>
			</g>
		</g>
		<path fill="#3B3E1B" d="M65.1,9.3c0,0,3.9-0.1,3.4-0.6C68,8.1,67.2,9,67.2,9h-0.4c0,0,1.4-1.5,0.8-2.1c-0.6-0.6-1,2-1,2l-0.4,0
			c0,0,0.4-2-0.6-2c-1,0,0.3,2,0.3,2L65.1,9.3z"/>
		<path fill="#3B3E1B" d="M59.2,9.4l-1.1-1.1c0,0,0.1-2.3-0.5-2.3c-0.6,0,0.2,2.1,0.2,2.1l-0.4-0.4c0,0,0-2-0.6-2
			c-0.7,0,0.4,2,0.4,2s-0.9-1.3-1.4-0.9C55.3,7.2,57,7.8,57,7.8l0.4,0.4c0,0-1.3-0.3-1.5,0.2c-0.2,0.5,1.9,0.1,1.9,0.1l0.8,0.4
			c0,0-1.8,0-1.8,0.4c0,0.4,2-0.1,2-0.1l0.4,0.2l0.3,0L59.2,9.4z"/>
		<g>
			<g>
				<polygon fill="#17331C" points="58,1.9 60.7,11.4 59.8,9.5 57.8,1.9 				"/>
				<g>
					<path fill="#821811" d="M60.4,0.7c-0.1-0.2-0.3-0.2-0.3-0.2s-1.5-0.2-1.7-0.1C58.3,0.5,57.9,1,57.9,1l1.6,0.5L60.4,0.7z"/>
					<path fill="#C81517" d="M60.5,0.7c0,0,0.3,1.7-0.4,2.7s-2.3-2.7-2.3-2.7s1.4,0.6,2.1,0.3C60.5,0.7,60.5,0.7,60.5,0.7z"/>
					<path fill="#C81517" d="M59.4,0.9c0,0,0.7-0.1,0.8-0.4c0.1-0.3-1.7,0-1.7,0s1,0,1.1,0.1C59.7,0.8,59.4,0.9,59.4,0.9z"/>
				</g>
				<g>
					<path fill="#F7B89E" d="M56,2.3c0,0-0.3,0.5-0.7,0.8c-0.4,0.3-0.5,0.3-0.5,0.3s0.8,0.8,1.4,0.6C56.7,3.8,56,2.3,56,2.3z"/>
					<path fill="#FDE3C8" d="M56.4,2.8c0,0,0.2-0.9-0.2-1.1C55.8,1.6,55.8,2,55.8,2s-0.4-0.4-0.7-0.3c-0.3,0.1-0.2,0.4-0.2,0.4
						S54.1,2.3,54,2.7c-0.1,0.3,0.3,0.6,0.3,0.6s-0.2,0.5-0.1,0.6c0.1,0.2,0.5-0.1,0.5-0.1s0.8-0.2,1-0.3c0.1-0.2,0.2-0.5,0.2-0.5
						l0.4,0L56.4,2.8z"/>
					<path fill="#F9C8AD" d="M56,2.2c0,0-0.1,0.4-0.4,0.6C55.3,3,55,2.9,55,2.9s0.2,0.4,0.1,0.5s-0.5,0-0.5,0s0.4,0,0.4-0.2
						c0-0.2-0.3-0.6-0.3-0.6s0.2,0.1,0.4-0.2c0.2-0.2,0.2-0.4,0.2-0.4s0,0.3,0.2,0.4C55.7,2.6,56,2.2,56,2.2z"/>
				</g>
				<g>
					<path fill="#821811" d="M58.4,4.7c0.7-0.4,0.2-1.6,0.2-2.2c-0.1-0.6-0.1-1.1-0.1-1.1s-2.2,0.2-2.6,0.7
						c-0.4,0.5,1.1,1.3,1.1,1.3L58.4,4.7z"/>
					<path fill="#C81517" d="M58.4,4.7c0,0,0.2-0.5-0.5-1.1C57.3,2.9,56,2.2,56.1,2s1-0.4,1-0.4s-1.5,0.2-1.7,0.6s1.3,2.2,1.7,2.5
						C57.5,5,58.4,4.7,58.4,4.7z"/>
					<path fill="#C81517" d="M58.1,3.4l-0.2-1.7c0,0-0.4,0.2-0.9,0.3c-0.5,0.1-0.6,0.1-0.6,0.1S57.8,2.8,58.1,3.4z"/>
					<path fill="#C81517" d="M57.5,1.6c0,0-0.2,0.1-0.5,0.2c-0.4,0.1-0.6,0.1-0.6,0.1s0.2,0.2,0.5,0.1c0.3-0.1,0.7-0.2,0.7-0.3
						C57.5,1.6,57.5,1.6,57.5,1.6z"/>
				</g>
				<g>
					<path fill="#821811" d="M60.7,4c-0.8-0.2-0.7-1.4-0.8-2c-0.1-0.6-0.2-1.1-0.2-1.1s2.2-0.4,2.7,0c0.5,0.4-0.6,1.5-0.6,1.5
						L60.7,4z"/>
					<path fill="#C81517" d="M60.7,4c0,0-0.3-0.4,0.1-1.2c0.5-0.8,1.4-1.8,1.3-2c-0.1-0.2-1-0.1-1-0.1s1.5-0.2,1.8,0.2
						s-0.6,2.5-0.9,2.9C61.7,4,60.7,4,60.7,4z"/>
					<path fill="#C81517" d="M60.6,2.6l-0.2-1.7c0,0,0.4,0.1,0.9,0.1c0.5,0,0.6,0,0.6,0S60.7,2,60.6,2.6z"/>
					<path fill="#C81517" d="M60.7,0.7c0,0,0.2,0.1,0.6,0.1c0.4,0,0.6,0,0.6,0s-0.1,0.2-0.4,0.2c-0.3,0-0.7,0-0.7-0.1
						C60.7,0.8,60.7,0.7,60.7,0.7z"/>
				</g>
				<g>
					<path fill="#821811" d="M56.3,3.5c-0.1-0.2-0.4-0.1-0.4-0.1s-1.6,0.4-1.7,0.5c-0.1,0.2-0.3,0.7-0.3,0.7l1.9,0L56.3,3.5z"/>
					<path fill="#C81517" d="M56.4,3.4c0,0,0.9,1.7,0.6,2.9c-0.3,1.3-3.4-2-3.4-2s1.7,0.1,2.2-0.4S56.4,3.4,56.4,3.4z"/>
					<path fill="#C81517" d="M55.3,4c0,0,0.6-0.3,0.7-0.7c0-0.3-1.8,0.6-1.8,0.6s1-0.4,1.2-0.3C55.6,3.8,55.3,4,55.3,4z"/>
				</g>
				<path fill="#17331C" d="M61.4,4.5c0,0-0.3,3.8-0.4,4.7c-0.1,0.9,1.8,6.1,1.8,6.1l-0.7,0c0,0-1.6-6.4-1.6-6.6c0-0.2,0.5-4,0.5-4
					L61.4,4.5z"/>
				<path fill="#17331C" d="M61.4,3.6c0,0-0.5,4.4-0.4,4.8c0.1,0.5,1.7,6.1,1.7,6.1l-0.6,0.2c0,0-1.4-5.8-1.5-6.7
					C60.6,7.2,61,3.7,61,3.7L61.4,3.6z"/>
				<path fill="#17331C" d="M59.8,3.4c0,0,1.2,5.7,1.5,6.8c0.3,1.1,0.9,4.9,0.9,4.9L62,15.5c0,0-1.4-6.8-1.6-7.6
					c-0.2-0.8-0.8-4.5-0.8-4.5L59.8,3.4z"/>
				<path fill="#17331C" d="M58.5,4.8c0,0,2.2,5.1,2.5,5.4c0.3,0.3,1,5.3,1,5.3l-0.3-0.2c0,0-1.9-6.4-2.1-7
					c-0.2-0.6-1.5-3.5-1.5-3.5L58.5,4.8z"/>
				<path fill="#17331C" d="M57,6.1c0,0,3.1,2.3,3.4,2.7c0.4,0.4,0.4,1.6,0.4,1.6l-4-4.2L57,6.1z"/>
				<g>
					<path fill="#821811" d="M59.8,3c0.1-0.2,0.3-0.3,0.3-0.3s1.6-0.3,1.8-0.1c0.2,0.1,0.6,0.6,0.6,0.6l-1.7,0.7L59.8,3z"/>
					<path fill="#C81517" d="M59.7,3c0,0-0.2,1.9,0.6,2.9c0.8,1.1,2.4-3.1,2.4-3.1s-1.5,0.7-2.2,0.4C59.7,3,59.7,3,59.7,3z"/>
					
						<linearGradient id="SVGID_10_" gradientUnits="userSpaceOnUse" x1="331.2357" y1="-30.1611" x2="333.1369" y2="-30.1611" gradientTransform="matrix(0.9963 8.580000e-02 -8.580000e-02 0.9963 -272.546 4.3293)">
						<stop  offset="0" style="stop-color:#C81517"/>
						<stop  offset="1" style="stop-color:#A71916"/>
					</linearGradient>
					<path fill="url(#SVGID_10_)" d="M60.9,3.1c0,0-0.7-0.1-0.9-0.4C59.9,2.4,62,2.6,62,2.6s-1.1,0-1.2,0.2
						C60.6,3,60.9,3.1,60.9,3.1z"/>
				</g>
				<g>
					<path fill="#F7B89E" d="M62.3,6.6c0,0-0.6-0.1-1-0.3C60.9,6,60.8,6,60.8,6s-0.4,1,0,1.5C61.1,7.9,62.3,6.6,62.3,6.6z"/>
					<path fill="#FDE3C8" d="M62,7.2c0,0,0.9-0.2,0.9-0.6c0-0.4-0.4-0.2-0.4-0.2s0.3-0.5,0-0.8c-0.3-0.2-0.4,0-0.4,0S61.5,5,61.1,5
						c-0.4,0-0.4,0.5-0.4,0.5s-0.5,0-0.6,0.2c-0.1,0.2,0.3,0.4,0.3,0.4s0.5,0.7,0.7,0.7c0.2,0.1,0.6,0,0.6,0l0.2,0.4L62,7.2z"/>
					<path fill="#F9C8AD" d="M62.4,6.6c0,0-0.4,0.1-0.7-0.2C61.4,6.3,61.3,6,61.3,6s-0.3,0.3-0.5,0.3c-0.2-0.1-0.2-0.4-0.2-0.4
						s0.2,0.3,0.3,0.2c0.2-0.1,0.4-0.5,0.4-0.5s0,0.2,0.3,0.3c0.3,0,0.5,0,0.5,0S61.9,6,61.9,6.2C61.9,6.5,62.4,6.6,62.4,6.6z"/>
				</g>
				<g>
					<path fill="#F7B89E" d="M60.1,3.9c0,0-0.6-0.1-1-0.3c-0.4-0.3-0.5-0.3-0.5-0.3s-0.4,1,0,1.5C58.9,5.1,60.1,3.9,60.1,3.9z"/>
					<path fill="#FDE3C8" d="M59.7,4.5c0,0,0.9-0.2,0.9-0.6c0-0.4-0.4-0.2-0.4-0.2s0.3-0.5,0-0.8c-0.3-0.2-0.4,0-0.4,0
						s-0.6-0.6-0.9-0.6c-0.4,0-0.4,0.5-0.4,0.5S58,2.8,57.9,3s0.3,0.4,0.3,0.4s0.5,0.7,0.7,0.7c0.2,0.1,0.6,0,0.6,0l0.2,0.4
						L59.7,4.5z"/>
					<path fill="#F9C8AD" d="M60.2,3.9c0,0-0.4,0.1-0.7-0.2c-0.3-0.2-0.3-0.5-0.3-0.5s-0.3,0.3-0.5,0.3c-0.2-0.1-0.2-0.4-0.2-0.4
						s0.2,0.3,0.3,0.2c0.2-0.1,0.4-0.5,0.4-0.5s0,0.2,0.3,0.3c0.3,0,0.5,0,0.5,0s-0.3,0.1-0.3,0.3C59.6,3.8,60.2,3.9,60.2,3.9z"/>
				</g>
				<g>
					<path fill="#821811" d="M59,7.1c0.9-0.4,1.2-2.1,1.1-2.5c0-0.4-0.5-0.7-1.5-0.6c-1.1,0.1-1.4,0.7-1.2,1s0.8,0.6,0.8,0.6L59,7.1
						z"/>
					<path fill="#C81517" d="M60.3,4.6c0,0-0.7,0.3-1.8,0.5c-1.1,0.1-1.4,0-1.4,0s1,1.9,1.6,2.2C59.3,7.6,60.2,7.3,60.3,4.6z"/>
					<path fill="#C81517" d="M60,4.6c0,0-0.1-0.3-0.7-0.4c-0.6-0.1-1.4,0.3-1.4,0.3s0.6-0.1,1,0c0.4,0.1-0.5,0.4-0.5,0.4
						S59.6,4.8,60,4.6z"/>
					<path fill="#C81517" d="M58.5,4.6c0,0-0.8,0.1-1,0.2c-0.2,0.2,0.5,0.1,0.5,0.1s-0.2-0.1,0-0.2C58.3,4.6,58.5,4.6,58.5,4.6z"/>
				</g>
				<g>
					<path fill="#F7B89E" d="M58.1,6.4c0,0-0.3,0.5-0.7,0.8c-0.4,0.3-0.5,0.3-0.5,0.3s0.8,0.8,1.4,0.6C58.7,8,58.1,6.4,58.1,6.4z"/>
					<path fill="#FDE3C8" d="M58.4,7c0,0,0.2-0.9-0.2-1.1c-0.4-0.1-0.3,0.2-0.3,0.2s-0.4-0.4-0.7-0.3C56.8,6,57,6.2,57,6.2
						S56.2,6.5,56,6.8c-0.1,0.3,0.3,0.6,0.3,0.6S56.1,7.9,56.3,8c0.1,0.2,0.5-0.1,0.5-0.1s0.8-0.2,1-0.3C57.9,7.4,58,7.1,58,7.1
						l0.4,0L58.4,7z"/>
					<path fill="#F9C8AD" d="M58.1,6.3c0,0-0.1,0.4-0.4,0.6C57.3,7.1,57,7,57,7s0.2,0.4,0.1,0.5c-0.1,0.2-0.5,0-0.5,0s0.4,0,0.4-0.2
						c0-0.2-0.3-0.6-0.3-0.6s0.2,0.1,0.4-0.2c0.2-0.2,0.2-0.4,0.2-0.4s0,0.3,0.2,0.4C57.7,6.7,58.1,6.3,58.1,6.3z"/>
				</g>
			</g>
		</g>
		<polygon fill="#74637C" points="62.7,19.7 63.5,9.3 57.5,9.3 58.7,19.7 		"/>
		<polygon fill="#523D5A" points="62.7,19.7 64.4,19.7 66.1,9.3 63.5,9.3 		"/>
		<polygon fill="#523D5A" points="63.1,14.4 60.5,14.4 60.5,9.3 60.2,9.3 60.2,14.6 63.1,14.6 		"/>
		<rect x="60.2" y="16.4" fill="#523D5A" width="0.2" height="3.3"/>
		<polygon fill="#523D5A" points="58.2,14.9 59.7,14.9 59.7,15.1 58.2,15.1 		"/>
	</g>
	<g>
		<path fill="#74637C" d="M36.7,12.6H20c0,0,1,7,8.6,7C36.2,19.6,36.7,12.6,36.7,12.6z"/>
		<polygon fill="#74637C" points="33.1,19.7 31.4,19.2 25.5,19.2 24.1,19.7 		"/>
		<path opacity="0.2" fill="#754B5D" d="M33.4,12.6c0,0,0,4-3.2,5.3c-3.2,1.3-5.3,0.4-5.3,0.4s4.8,1.7,8-0.2
			c3.2-1.9,3.2-5.5,3.2-5.5H33.4z"/>
		<path opacity="0.18" fill="#F4D9C3" d="M21.5,13.1h2.4c0,0,0,3.6,1.2,4.7l-1-0.2C24.1,17.6,21.8,15.9,21.5,13.1z"/>
	</g>
</g>
</svg>
