<?xml version="1.0" encoding="utf-8"?>
<!-- Generator: Adobe Illustrator 23.0.3, SVG Export Plug-In . SVG Version: 6.00 Build 0)  -->
<svg version="1.1" id="Calque_1" xmlns="http://www.w3.org/2000/svg" xmlns:xlink="http://www.w3.org/1999/xlink" x="0px" y="0px"
	 viewBox="0 0 152 43.6" style="enable-background:new 0 0 152 43.6;" xml:space="preserve">
<style type="text/css">
	.st0{fill:#3F3B49;}
	.st1{fill:#990000;}
	.st2{fill:#A4B45C;}
	.st3{fill:#B4CE5C;}
	.st4{fill:#CD5227;}
	.st5{fill:#A14225;}
	.st6{fill:#7F6568;}
	.st7{fill:#B5D05C;}
	.st8{fill:#A5B65D;}
	.st9{fill:#D5D6CA;}
	.st10{fill:#EEEDD8;}
	.st11{fill:#FCCC8F;}
	.st12{fill:#7595AE;}
	.st13{fill:#93ACBF;}
	.st14{fill:#F8B56F;}
</style>
<g>
	<g>
		<g>
			<path class="st0" d="M119.3,31.3H112v-2.5h7.3V31.3z M107.1,31.3h-7.3v-2.5h7.3V31.3z M94.9,31.3h-7.3v-2.5h7.3V31.3z M82.7,31.3
				h-7.3v-2.5h7.3V31.3z M70.5,31.3h-7.3v-2.5h7.3V31.3z"/>
		</g>
	</g>
	<path class="st1" d="M135,6c-6.9,0-12.5,5.6-12.5,12.5c0,8.9,9.3,18.6,11.9,21c0.3,0.3,0.9,0.3,1.3,0c2.5-2.5,11.9-12.1,11.9-21
		C147.5,11.6,142,6,135,6z M135,26.9c-4.7,0-8.4-3.8-8.4-8.4s3.8-8.4,8.4-8.4s8.4,3.8,8.4,8.4C143.5,23.2,139.7,26.9,135,26.9z"/>
	<path class="st2" d="M120.6,41.6l-2.3,2h15.6c1.1-0.7,2.3-1.4,3.4-2H120.6z"/>
	<path class="st3" d="M152,43.6l-2.8-2h-12.1c-1.2,0.7-2.3,1.3-3.4,2H152z"/>
	<g>
		<g>
			<g>
				<g>
					<g>
						<polygon class="st4" points="48.8,13.2 49.5,5.7 51.3,5.7 51.3,3.4 40.5,3.1 40.5,5.7 42.8,5.8 44,13.6 						"/>
					</g>
					<g>
						<polygon class="st5" points="51.3,3.4 51.3,4.9 42.5,4.5 41.6,3.1 						"/>
					</g>
				</g>
			</g>
			<path class="st6" d="M7.9,27.7l-0.3,6l-1-1.3c-0.2-0.3-0.6,0-0.5,0.3l1.3,3.6l-0.2,5.3h2.5V27.7H7.9z"/>
			<g>
				<path class="st7" d="M15.7,12l-0.5-9.7l-1.7-1.1C9.1-1.7,3.2,0.8,2.1,5.9L0,16.4l5.6,14.1l7.6-2.1L15.7,12z"/>
				<polygon class="st8" points="15.2,2.3 11.4,0.4 4.6,18.8 0,16.4 5.6,30.5 13.2,28.4 15.7,12 				"/>
			</g>
			<g>
				<polygon class="st4" points="59.2,21.1 53.7,10.5 14,11.2 8.8,22.1 				"/>
				<path class="st5" d="M14,11.2L8.8,22.1l36.7-0.7c-7.1-3.6-14.5-6.9-21.7-10.4L14,11.2z"/>
				<path class="st9" d="M10.8,22.5l1.1,19.1h9.8c-2.3-6.4-4.8-12.7-6.6-19.2L10.8,22.5z"/>
				<path class="st10" d="M59,21l-43.9,1.3c1.8,6.5,4.4,12.8,6.6,19.2h35.1L59,21z"/>
				<polygon class="st9" points="30.7,41.6 32,21.6 32.9,23.8 33.5,41.6 				"/>
				<polygon class="st6" points="60.2,22 8.4,22.8 8.5,21.4 60.2,20.4 				"/>
				<g>
					<polygon class="st10" points="15.3,41.6 14.5,21.3 23.5,10.4 32,21.6 30.7,41.6 					"/>
					<polygon class="st6" points="34.3,22.4 23.2,9.8 12.3,22.8 13.9,24 23.4,12.4 32.9,23.8 					"/>
				</g>
				<g>
					<path class="st11" d="M38.9,24.8c0.1,0.2,0.8,9.8,0.8,9.8l12.6-0.7l1.4-9.1H38.9z"/>
					<path class="st12" d="M40.4,33.7c-0.4-4.9-0.5-7.1-0.6-8.2h13l-1.1,7.6L40.4,33.7z"/>
					<g>
						<path class="st13" d="M42.6,25.5c-0.9,0.6-1.8,1.1-2.7,1.6c0,0.5,0.1,1.1,0.1,1.7c1.7-1.1,3.3-2.2,4.9-3.4H42.6z"/>
						<path class="st13" d="M46,25.5c-1.9,1.5-3.9,3-5.9,4.5c0,0.2,0,0.4,0,0.6c2.2-1.6,4.3-3.4,6.6-5.1H46z"/>
						<path class="st13" d="M52.7,25.9c-4.1,2.5-8.2,5-12.4,7.2c0,0.2,0,0.4,0,0.7l0.6,0c3.9-2.1,7.7-4.4,11.5-6.6L52.7,25.9z"/>
						<path class="st13" d="M52.4,28.1c-3.1,2-6.3,3.6-9.5,5.5l1.7-0.1c2.6-1.3,5.2-2.7,7.6-4.3L52.4,28.1z"/>
					</g>
					<polygon class="st11" points="45.7,25.1 45.7,33.7 46.5,33.7 46.8,25.1 					"/>
					<polygon class="st11" points="52.7,28.9 39.8,28.9 39.8,29.7 52.7,29.9 					"/>
					<polygon class="st6" points="53,33.7 39.1,34.3 39.3,35.6 52.8,35.2 					"/>
				</g>
				<circle class="st11" cx="23.3" cy="19.1" r="2.3"/>
				<path class="st12" d="M24.7,19.1c0,0.8-0.7,1.5-1.5,1.5c-0.8,0-1.5-0.7-1.5-1.5c0-0.8,0.7-1.5,1.5-1.5
					C24.1,17.6,24.7,18.3,24.7,19.1z"/>
				<path class="st13" d="M23.9,17.8c-0.2-0.1-0.4-0.1-0.6-0.1c-0.8,0-1.5,0.7-1.5,1.5c0,0.1,0,0.2,0,0.3
					C22.5,18.9,23.2,18.3,23.9,17.8z"/>
				<path class="st13" d="M24.5,18.3c-0.8,0.6-1.5,1.3-2.3,1.9c0.2,0.2,0.4,0.3,0.6,0.4c0.7-0.5,1.3-1,2-1.5
					C24.7,18.7,24.6,18.5,24.5,18.3z"/>
				<g>
					<polygon class="st6" points="18.7,41.6 17.5,24.5 28.2,24 27.1,41.6 					"/>
					<polygon class="st11" points="19.6,41.6 18.5,25.5 27.2,25 26.2,41.6 					"/>
					<polygon class="st14" points="26.2,41.6 20.6,37 20,25.4 18.5,25.5 19.6,41.6 					"/>
					<polygon class="st6" points="25.5,31.8 24.7,31.8 24.5,33.6 25.5,33.6 					"/>
				</g>
				<polygon class="st9" points="52.8,35.2 45.7,38 39.3,35.6 				"/>
			</g>
		</g>
		<path class="st8" d="M7.1,41.6l-2.3,2h24.6c1.1-0.7,2.3-1.4,3.4-2H7.1z"/>
		<path class="st7" d="M61.7,43.6l-2.8-2H32.8c-1.2,0.7-2.3,1.3-3.4,2H61.7z"/>
	</g>
</g>
</svg>
