<?xml version="1.0" encoding="utf-8"?>
<!-- Generator: Adobe Illustrator 23.0.2, SVG Export Plug-In . SVG Version: 6.00 Build 0)  -->
<svg version="1.1" id="Calque_1" xmlns="http://www.w3.org/2000/svg" xmlns:xlink="http://www.w3.org/1999/xlink" x="0px" y="0px"
	 viewBox="0 0 65.8 66.7" enable-background="new 0 0 65.8 66.7" xml:space="preserve">
<title>escalier</title>
<g>
	<g>
		<path fill="#D8C3A4" d="M12.4,59.2c-10,1.9-13.9,4.5-11.8,6.1c2.1,1.5,25.8,1.5,31.8,1.3S42,63.8,47.8,64c5.8,0.2,7.9,1.8,11.9,2
			c2.6,0.1,8-3.4,5.3-4.8s-15.8-2.8-27.5-2.8S16,58.5,12.4,59.2z"/>
		<polygon fill="#77292C" points="37,0.4 49.2,60.4 44.7,60.3 33.9,3 		"/>
		<polygon fill="#DE572F" points="49.2,60.4 51.5,60.5 38.8,0.4 37,0.4 		"/>
		<polygon fill="#77292C" points="45.4,58.2 22.3,59.1 13.8,1.9 37.2,1.9 		"/>
		<polygon fill="#591A10" points="44.7,60.3 45.7,53.2 19.2,53.2 20.5,60.4 		"/>
		<polygon fill="#DE572F" points="47.9,50.7 47.9,53.2 19.2,53.2 18.8,49.9 20.9,49.9 36.7,50.1 41.6,50.2 		"/>
		<polygon fill="#F8F09D" points="47.9,50.7 18.9,50.7 18.8,49.9 41.6,50.2 		"/>
		<polygon fill="#591A10" points="41.6,50.2 43,43.1 19.9,43.1 20.9,49.9 		"/>
		<polygon fill="#591A10" points="40.1,41.3 41.4,34.2 18.5,34.2 19.6,41.3 		"/>
		<polygon fill="#DE572F" points="43.8,32.8 42.9,35.3 18.6,35.3 18.2,32.8 		"/>
		<polygon fill="#DE572F" points="45.5,40.9 45,43.2 34.9,43.2 19.9,43.1 19.9,43.1 19.5,40.9 		"/>
		<polygon fill="#591A10" points="37.3,32.8 38.6,26.9 15.5,26.9 16.5,32.8 		"/>
		<polygon fill="#591A10" points="36.3,25 37.6,19.1 14.5,19.1 15.5,25 		"/>
		<polygon fill="#591A10" points="35,17.5 36.2,11.6 13.2,11.6 14.2,17.5 		"/>
		<polygon fill="#DE572F" points="38.7,9.7 38.2,11.7 26.3,11.7 15.3,11.7 13.2,11.7 12.8,9.7 		"/>
		<polygon fill="#591A10" points="33.4,9.7 34.7,3.8 11.6,3.8 12.6,9.7 		"/>
		<polygon fill="#DE572F" points="41.1,25 40.6,27 30.5,27 17.5,26.9 15.5,26.9 15.1,25 		"/>
		<polygon fill="#DE572F" points="40.1,17.1 39.6,19.2 28.3,19.1 16.4,19.1 14.5,19.1 14.1,17.1 		"/>
		<polygon fill="#DE572F" points="37.2,1.9 36.7,3.9 24.2,3.9 14.1,3.8 11.6,3.8 11.2,1.9 		"/>
		<polygon fill="#77292C" points="10.6,3 15.9,61.3 19.5,61.3 19.9,59.1 11.9,0 		"/>
		<polygon fill="#DE572F" points="19.5,61.3 22.6,61.2 14.6,0 11.9,0 		"/>
		<polygon opacity="0.54" fill="#791523" enable-background="new    " points="23.6,3.9 15.1,3.8 14.8,1.9 23.1,1.9 		"/>
		<polygon opacity="0.54" fill="#791523" enable-background="new    " points="25,11.7 16.1,11.7 15.8,9.7 24.5,9.7 		"/>
		<polygon opacity="0.54" fill="#791523" enable-background="new    " points="26.7,19.1 17,19.1 16.8,17.1 26.2,17.1 		"/>
		<polygon opacity="0.54" fill="#791523" enable-background="new    " points="28,27 18,27 17.8,25 27.5,25 		"/>
		<polygon opacity="0.54" fill="#791523" enable-background="new    " points="30,35.3 19.2,35.3 18.9,32.8 29.5,32.8 		"/>
		<polygon opacity="0.54" fill="#791523" enable-background="new    " points="31.9,43.2 20.2,43.1 19.9,40.9 31.4,40.9 		"/>
		<polygon opacity="0.54" fill="#791523" enable-background="new    " points="42.1,53.2 41.8,55.5 22,56.8 21.5,53.2 21.1,49.9 
			34.5,50.1 35.2,53.2 		"/>
		<polygon opacity="0.54" fill="#791523" enable-background="new    " points="42.2,43.2 41.8,45.2 24.2,46.6 24.7,50 21.2,49.9 
			20.4,43.2 		"/>
		<polygon opacity="0.54" fill="#791523" enable-background="new    " points="40.5,35.3 40.3,36.8 19.8,38.1 19.5,35.3 		"/>
		<polygon opacity="0.54" fill="#791523" enable-background="new    " points="37.8,28.8 38.1,27 18.5,27 18.7,29.6 		"/>
		<polygon opacity="0.54" fill="#791523" enable-background="new    " points="37.5,19.2 37.1,21 18.1,22.6 17.6,19.1 		"/>
		<polygon opacity="0.54" fill="#791523" enable-background="new    " points="36.2,11.7 35.7,14.2 17,15.1 16.6,11.7 		"/>
		<polygon opacity="0.54" fill="#791523" enable-background="new    " points="34.8,4 34.2,6.8 16,7.7 15.5,3.8 		"/>
		<polygon opacity="0.16" fill="#EFDB7E" enable-background="new    " points="12.4,2.6 15.2,5.5 21.5,61.3 19.5,61.3 		"/>
		<g opacity="0.52">
			<polygon opacity="0.62" fill="#E4B46B" enable-background="new    " points="36.7,3.5 37.2,2.2 26.6,2.4 25.8,3.5 			"/>
			<polygon opacity="0.62" fill="#E4B46B" enable-background="new    " points="38.2,11.3 38.6,10.1 28,10.2 27.2,11.3 			"/>
			<polygon opacity="0.62" fill="#E4B46B" enable-background="new    " points="39.2,18.8 39.6,17.5 29,17.6 28.2,18.8 			"/>
			<polygon opacity="0.62" fill="#E4B46B" enable-background="new    " points="42.5,34.6 43,33.4 32.3,33.5 31.5,34.6 			"/>
			<polygon opacity="0.62" fill="#E4B46B" enable-background="new    " points="44.3,42.7 44.8,41.4 34.2,41.5 33.4,42.7 			"/>
		</g>
	</g>
</g>
</svg>
