<?xml version="1.0" encoding="utf-8"?>
<!-- Generator: Adobe Illustrator 23.0.2, SVG Export Plug-In . SVG Version: 6.00 Build 0)  -->
<svg version="1.1" id="Calque_1" xmlns="http://www.w3.org/2000/svg" xmlns:xlink="http://www.w3.org/1999/xlink" x="0px" y="0px"
	 viewBox="0 0 77.1 96.1" enable-background="new 0 0 77.1 96.1" xml:space="preserve">
<g>
	<path fill="#A4B0DA" d="M12.3,88.6c-10,1.9-13.9,4.5-11.8,6.1c2.1,1.5,25.8,1.5,31.8,1.3c6-0.2,9.7-2.7,15.4-2.6
		c5.8,0.1,7.9,1.8,11.9,2c2.6,0.1,8-3.4,5.3-4.8c-2.7-1.4-15.8-2.8-27.5-2.8S16,87.9,12.3,88.6z"/>
	<g>
		<polygon fill="#221738" points="40.2,35.6 41.8,34 43.2,11.7 43.6,4.8 40.3,7.2 40.2,15.2 40.2,19.3 		"/>
		<g>
			<polygon fill="#221738" points="51,10.4 16.3,86.9 16.3,89.8 21.6,89.8 56.2,10.4 			"/>
			<polygon fill="#3D3D68" points="44.5,88.9 18.1,88.9 18.1,86.6 44.9,86.6 			"/>
			<polygon fill="#3D3D68" points="48.6,79.9 22.1,79.9 22.1,77.7 49,77.7 			"/>
			<polygon fill="#3D3D68" points="52.7,70.9 26.2,70.9 26.2,68.7 53.1,68.7 			"/>
			<polygon fill="#3D3D68" points="56.7,61.9 30.3,61.9 30.3,59.7 57.2,59.7 			"/>
			<polygon fill="#3D3D68" points="60.8,53 34.4,53 34.4,50.7 61.2,50.7 			"/>
			<polygon fill="#3D3D68" points="64,44 38.4,44 38.4,41.8 64.4,41.8 			"/>
			<polygon fill="#3D3D68" points="67.1,35 42.5,35 42.5,32.8 67.5,32.8 			"/>
			<polygon fill="#3D3D68" points="70.3,26.1 46.6,26.1 46.6,23.8 70.6,23.8 			"/>
			<polygon fill="#3D3D68" points="73.9,17.1 50.7,17.1 50.7,14.8 74.3,14.8 			"/>
			<polygon fill="#221738" points="77.1,11.6 46.6,91.1 42.4,91.1 42.4,88.9 71.7,11.6 			"/>
			<linearGradient id="SVGID_1_" gradientUnits="userSpaceOnUse" x1="42.3905" y1="51.8332" x2="72.4292" y2="51.8332">
				<stop  offset="0" style="stop-color:#33348A"/>
				<stop  offset="1" style="stop-color:#000000"/>
			</linearGradient>
			<polygon opacity="0.62" fill="url(#SVGID_1_)" points="42.4,88.9 44.5,88.9 72.4,14.8 70.4,15.2 			"/>
			
				<linearGradient id="SVGID_2_" gradientUnits="userSpaceOnUse" x1="26.6256" y1="86.9076" x2="26.6256" y2="12.6462" gradientTransform="matrix(-1 0 0 1 60.2244 0)">
				<stop  offset="0" style="stop-color:#33348A"/>
				<stop  offset="1" style="stop-color:#000000"/>
			</linearGradient>
			<polygon opacity="0.62" fill="url(#SVGID_2_)" points="16.3,86.9 17.5,86.9 50.9,12.8 50,12.6 			"/>
		</g>
		<polygon fill="#221738" points="17.5,89.7 19.1,58.6 16.1,58.8 16.2,89.7 		"/>
		<polygon fill="#BF6040" points="41.3,2.3 13.6,60.6 17.6,60.5 44.2,2.3 		"/>
		<polygon fill="#3B120E" points="44.2,2.3 43.5,3.7 18.3,58.7 17.6,60.5 16.1,60.5 13.6,60.6 14.2,63.1 16.1,63.2 17.6,63.3 
			19,59.6 44.2,5.3 		"/>
		<polygon opacity="0.11" fill="#F8BA3D" points="36.7,17.2 34,18.9 14.5,59.7 17.3,59.5 		"/>
		<polygon fill="#221738" points="45,90.6 46.6,58 43.6,58.2 43.7,90.6 		"/>
		<g>
			<polygon opacity="0.65" fill="#6879B9" points="39.5,70.6 39.1,68.9 26.7,68.9 27,70.5 			"/>
			<polygon opacity="0.65" fill="#6879B9" points="38.9,61.5 38.6,60.1 30.6,60 30.8,61.6 			"/>
			<polygon opacity="0.65" fill="#6879B9" points="43.8,52.6 43.5,51.2 35.5,51.1 35.7,52.7 			"/>
			<polygon opacity="0.65" fill="#6879B9" points="39.8,43.7 39.4,42 42,42 42.6,43.7 			"/>
			<polygon opacity="0.65" fill="#6879B9" points="47.2,25.8 46.8,24.1 53.8,24.1 54.5,25.8 			"/>
			<polygon opacity="0.65" fill="#6879B9" points="51,16.8 51,15.1 57.6,15.1 58.3,16.8 			"/>
			<polygon opacity="0.65" fill="#6879B9" points="35.6,79.6 35.2,77.8 22.8,77.8 23,79.5 			"/>
			<polygon opacity="0.65" fill="#6879B9" points="32.4,88.6 32,86.9 19.6,86.9 19.8,88.5 			"/>
		</g>
		<linearGradient id="SVGID_3_" gradientUnits="userSpaceOnUse" x1="41.2671" y1="0" x2="41.2671" y2="0">
			<stop  offset="0" style="stop-color:#BF6040"/>
			<stop  offset="0.9946" style="stop-color:#A2431A"/>
		</linearGradient>
		<path fill="url(#SVGID_3_)" d="M41.3,0"/>
		<polygon fill="#221738" points="63.9,34 65.5,34 67,11.7 67.7,5.3 64,7.2 64,15.2 64,19.3 		"/>
		<polygon fill="#BF6040" points="67.3,3.2 64.6,3.1 41.1,60 43.6,59.9 45.1,59.8 		"/>
		<polygon fill="#3B120E" points="67.3,3.2 45.8,58 45.1,59.7 45.1,59.8 43.6,59.9 41.1,60 41.5,61.9 41.7,62.5 43.6,62.6 
			45.1,62.7 45.4,61.9 46.2,59.7 46.5,59 67.7,5.3 		"/>
		<polygon opacity="0.11" fill="#F8BA3D" points="61.2,16.6 58.1,19 42,59.1 44.8,58.8 		"/>
	</g>
</g>
</svg>
