<?xml version="1.0" encoding="utf-8"?>
<!-- Generator: Adobe Illustrator 23.0.2, SVG Export Plug-In . SVG Version: 6.00 Build 0)  -->
<svg version="1.1" id="Capa_1" xmlns="http://www.w3.org/2000/svg" xmlns:xlink="http://www.w3.org/1999/xlink" x="0px" y="0px"
	 viewBox="0 0 666 666" style="enable-background:new 0 0 666 666;" xml:space="preserve">
<style type="text/css">
	.red-circle-svg{fill:#E67855;}
	.white-icon-svg{fill:#FFFFFF;}
</style>
<circle class="red-circle-svg" cx="333" cy="333" r="333"/>
<g>
	<path class="white-icon-svg" d="M573.4,310.2L342.9,104c-0.4-0.4-0.8-0.7-1.3-1c-5-4.9-13.1-5-18.4-0.3L92.6,308.9c-5.7,5-6.1,13.6-1.1,19.3
		c2.8,3,6.4,4.5,10.2,4.5c3.2,0,6.4-1.1,9.1-3.4l41.5-37.2v7.2v107.6v125.6c0,18.9,15.3,34.3,34.3,34.3c0.3,0,0.5,0,0.8,0
		s0.5,0,0.8,0h71.1c17.7,0,32.2-14.4,32.2-32.2V412.4c0-2.8,2.2-5,5-5h73.4c2.8,0,5,2.2,5,5v122.2c0,17.7,14.4,32.2,32.2,32.2h72.7
		c19.2,0,34.3-18.9,34.3-42.9V411.7v-34.3v-84.2l41.5,37.2c2.7,2.3,5.9,3.4,9.1,3.4c3.8,0,7.4-1.5,10.2-4.5
		C579.5,323.7,579,315.2,573.4,310.2z"/>
</g>
</svg>
