<?xml version="1.0" encoding="utf-8"?>
<!-- Generator: Adobe Illustrator 23.0.3, SVG Export Plug-In . SVG Version: 6.00 Build 0)  -->
<svg version="1.1" id="Calque_1" xmlns="http://www.w3.org/2000/svg" xmlns:xlink="http://www.w3.org/1999/xlink" x="0px" y="0px"
	 viewBox="0 0 124.5 112.3" enable-background="new 0 0 124.5 112.3" xml:space="preserve">
<g>
	<g>
		<g>
			<g id="Layer0_1_FILL_154_">
				<g>
					<path fill="#3F3B49" d="M0,34.3c1.5,26.2,11.8,48.2,30.9,66.2c-0.9-2.5-1.5-6.1-1.9-10.8c-0.3-7.9,2.5-13.3,3.5-20.5
						c0.9-6.3,1.5-7.6,3.4-13.4C34.6,47,31,33.4,28.4,29C15.6,24.1,6.1,25.8,0,34.3"/>
				</g>
			</g>
		</g>
		<g>
			<path fill="#B0C365" d="M84.8,48.8 M49.1,38l-6.2,0.4c-2.2,4-2,5.9-5.7,12.8c-2.7,5-4.4,10.7-5.3,16.5c-1,6.6-3.1,13.9-2.8,21.1
				c0.3,4.3,0.9,7.6,1.8,9.9c0.6,1.5,1.3,2.6,2.2,3.2c3.7,1.9,7.6,2.9,11.7,3.2c3,0.1,6.2,0.3,9.9,0.3l10.3,0c2.4,0,4.7-0.1,7-0.1
				c2.4-0.1,4.8-0.2,7.2-0.3c4.2-0.3,7.7-1.1,10.6-2.3c3.1-1.4,5.3-3.3,6.7-5.8c1-5.4-0.1-16.2-1.4-26.3C94.1,63.5,89.9,51,87.5,45
				c-1.1-2.8-3.5-10.1-6.7-3"/>
		</g>
		<g>
			<g id="Layer0_1_1_STROKES_154_">
				<path fill="#D9CFC9" d="M22.1,78.7C22,78.7,22,78.7,22.1,78.7c-0.4-0.1-0.6-0.3-0.5-0.6l2.1-12.9l-7.8-4
					c-0.3-0.1-0.4-0.5-0.2-0.7c0.1-0.3,0.5-0.4,0.7-0.2l7.5,3.8l1.7-10.8c0-0.3,0.3-0.5,0.6-0.5c0.3,0,0.5,0.3,0.5,0.6l-1.8,11.2
					l6,2.9c0.3,0.1,0.4,0.5,0.3,0.7c-0.1,0.3-0.5,0.4-0.7,0.3l-5.7-2.8l-2,12.6C22.6,78.5,22.3,78.7,22.1,78.7z M12.3,50.7
					c-0.1,0-0.2,0-0.3-0.1c-0.3-0.2-0.3-0.5-0.2-0.8l5.3-8.6L6,36.6c-0.3-0.1-0.4-0.4-0.3-0.7c0.1-0.3,0.4-0.4,0.7-0.3l11.3,4.7
					l5.4-8.8c0.2-0.3,0.5-0.3,0.8-0.2c0.3,0.2,0.3,0.5,0.2,0.8l-5.3,8.6l8.4,3.5c0.3,0.1,0.4,0.4,0.3,0.7c-0.1,0.3-0.4,0.4-0.7,0.3
					l-8.6-3.5l-5.4,8.8C12.7,50.6,12.5,50.7,12.3,50.7z"/>
			</g>
		</g>
		<g opacity="0.4">
			<path fill="#221D1B" d="M32,37.9c0.9,3.2,3.3,13.8,4,18c-1.9,5.8-2.5,7-3.4,13.4c-1,7.2-3.8,12.6-3.5,20.5
				c0.3,4.7,0.9,8.3,1.9,10.8c-1.6-1.5-3-3-4.5-4.5C17.8,74.7,19.4,52.3,32,37.9z"/>
		</g>
		<g opacity="0.15">
			<path fill="#221D1B" d="M39.8,29.3C39.8,29.3,39.8,29.3,39.8,29.3c0.3-0.1,0.5-0.2,0.7-0.3l-0.6-1.5c1.5-5.2,4.5-9.2,8.9-11.8
				c0,0,0.1,0,0.1-0.1"/>
		</g>
		<g>
			<path fill="#B0C364" d="M51,43.4"/>
		</g>
		<g>
			<path fill="none" stroke="#3F3B49" stroke-width="7.9995" stroke-linecap="round" stroke-miterlimit="10" d="M51,43.4"/>
		</g>
		<g>
			<path fill="#B0C364" d="M45.3,42.4c0,0-3.1-4.1-4-10.3c-1-7.1-5.1-4.5-6.8-6.6c-2.1-2.5-1.3-4.5,3.3-4.3c2,0.1,1.9-5.4,2.4-6.7
				c1.4-3.5,5.5-8.4,5.5-8.4l3.5-2l8.3-3L66.1,1l9.3,2.2l5.8,3.5c0,0,4.9,5,5.2,10.9c0,0.8,0.3,1.8,0.4,3c0.1,1,7.3-0.2,7.1,2.9
				c-0.2,3.8-7,2.5-7,3.6c-0.1,3.1-0.3,5.7-0.3,5.7l-4.3,12.8l-4.7,1.1l-4.4-0.3"/>
		</g>
		<g>
			<path fill="#3F3B49" d="M38.5,28.5c-0.5,0-1-0.1-1.5-0.2c-1.8-0.5-3.2-1.9-4-3.9c-0.6-1.5-0.2-2.6,0.2-3.3
				c1.5-2.1,5.6-2.1,6.4-2.1c0.8,0,1.5,0.7,1.4,1.5c0,0.8-0.7,1.5-1.5,1.4c-1.6-0.1-3.5,0.3-3.8,0.8c0,0,0,0.2,0.1,0.4
				c0.6,1.5,1.5,2,2.1,2.2c0.7,0.2,1.4,0,1.6-0.1c0.7-0.5,1.6-0.3,2.1,0.4c0.5,0.7,0.3,1.6-0.4,2.1C40.4,28.3,39.5,28.5,38.5,28.5z"
				/>
		</g>
		<g>
			<path fill="#000100" d="M59.2,11.1c0.3,0.5,0.6,0.8,1.1,0.9c0.5,0.2,1,0.1,1.5-0.2c0.5-0.3,0.8-0.6,0.9-1.1
				c0.1-0.2,0.1-0.5,0.1-0.7c0-0.2-0.1-0.5-0.2-0.7c-0.3-0.5-0.7-0.8-1.2-0.9c-0.3-0.1-0.5-0.1-0.8-0.1c-0.2,0-0.5,0.1-0.7,0.2
				c-0.5,0.3-0.8,0.6-1,1.2C58.9,10.2,58.9,10.7,59.2,11.1z"/>
		</g>
		<g opacity="0.15">
			<path fill="#221D1B" d="M90,100.5c-3.8,2.6-19.5,2.8-28.5,2.6c-9-0.2-17.1-2.1-21.4-9.3s0.2-36.6,2.3-42.7
				c1.1-3.1,6.2-0.7,10.1-0.4c1.1,0.1,2,0,2.9-0.2c0.5-0.1,2.2,4,3.8,4.7c1.6,0.8,2.9,0.6,3.8,0.6c0.7,0,2.7,0.1,2.8-0.3
				c0.2-0.9,0.4-3.3,0.5-4.3c0.2-3.1-8.2-6.4-8.5-6.8c0,0-6.2,2-9.3-4.4c-1.8-2.3-4.7-12.6-4.4-17.8c0.4-5.9,2.1-15.5,8.2-18.1
				c6.2-2.6-4.7,0.9-4.7,0.9l-5.9,7.1l-2.6,9.1l1.3,9.5l2.8,8.1c-1.7,2.8-2.3,5.3-5.8,12.1c-2.5,4.8-4.4,10.9-5.6,17.1
				c-1.4,6.7-3.1,13.1-2.8,20.6c0.3,4.4,0.9,7.9,1.8,10.2c0.6,1.6,1.3,2.7,2.2,3.3c3.7,1.9,7.6,3,11.7,3.3c3,0.1,6.2,0.3,9.9,0.4
				l10.3,0c2.4,0,4.7-0.1,7-0.1c2.4-0.1,4.8-0.2,7.2-0.3c4.2-0.3,7.7-1.1,10.6-2.4c3.1-1.4,5.3-3.4,6.7-5.9c0.2-1.1,0.3-2.2,0.4-3.4
				C95.3,95.9,92.6,98.7,90,100.5z"/>
		</g>
		<g>
			<path fill="#3F3B49" d="M45.6,43.9c-0.5,0-1-0.3-1.3-0.8c-1.5-2.7-2.9-6.2-3.5-8.6c-2.3-9-2.3-16.3-0.2-21.8c2-5,5.4-7.5,7.2-8.9
				C51.2,1.4,56.8,0,63.5,0C64.3,0,65,0.7,65,1.5s-0.7,1.5-1.5,1.5c-6,0-11.1,1.2-13.9,3.3c-3.8,2.8-10.9,8.1-6,27.6
				c0.5,2.2,1.9,5.4,3.2,7.9c0.4,0.7,0.1,1.6-0.6,2C46.1,43.9,45.8,43.9,45.6,43.9z"/>
		</g>
		<g>
			<path fill="#3F3B49" d="M55.3,107L55.3,107c-3.7-0.1-7-0.2-9.9-0.4c-4.3-0.3-8.5-1.4-12.3-3.3l-0.2-0.1c-1.1-0.8-2-2.1-2.7-3.9
				c-1-2.5-1.6-5.9-1.9-10.4l0-0.1c0-24.5,9.4-44,13.4-51.2c0.4-0.7,1.3-1,2-0.6c0.7,0.4,1,1.3,0.6,2c-3.1,5.5-13,25.3-13,49.7
				c0.3,4.1,0.9,7.3,1.7,9.4c0.5,1.2,1,2,1.6,2.5c3.4,1.7,7.1,2.7,11,3c2.9,0.1,6.2,0.3,9.8,0.3l8.2,0c0,0,0,0,0,0
				c0.8,0,1.5,0.7,1.5,1.5c0,0.8-0.7,1.5-1.5,1.5L55.3,107z"/>
		</g>
		<g>
			<path fill="#3F3B49" d="M52.7,102.2l-5.4,0.4c-1.4,1.2-2.4,2.6-2.9,4.3c-0.1,0.3-0.2,0.7-0.3,1l12.7,0c-0.1-0.4-0.1-0.7-0.2-1
				C56,104.3,54.7,102.7,52.7,102.2"/>
		</g>
		<g>
			<path fill="#3F3B49" d="M78.8,102.2l-5.4,0.4c-1.4,1.2-2.4,2.6-2.9,4.3c-0.1,0.3-0.2,0.7-0.3,1l12.7,0c-0.1-0.4-0.1-0.7-0.2-1
				C82.2,104.3,80.9,102.7,78.8,102.2"/>
		</g>
		<g>
			<ellipse fill="#EEEAEA" cx="63.6" cy="79.3" rx="17" ry="21.2"/>
		</g>
		<g>
			<path fill="#3F3B49" d="M71.8,107L71.8,107l-8.3,0c-0.8,0-1.5-0.7-1.5-1.5c0-0.8,0.7-1.5,1.5-1.5c0,0,0,0,0,0l8.2,0
				c3.6-0.1,6.9-0.2,9.8-0.3c3.8-0.2,7.5-1.2,11-3c0.6-0.5,1.1-1.3,1.6-2.5c0.8-2.1,1.4-5.3,1.7-9.4c0-24.4-10-44.2-13-49.7
				c-0.4-0.7-0.1-1.6,0.6-2c0.7-0.4,1.6-0.1,2,0.6c4,7.3,13.4,26.8,13.4,51.2l0,0.1c-0.3,4.5-1,7.9-1.9,10.4
				c-0.7,1.8-1.6,3.1-2.7,3.9l-0.2,0.1c-3.8,1.9-8,3.1-12.3,3.3C78.8,106.8,75.4,106.9,71.8,107L71.8,107z"/>
		</g>
		<g>
			<path fill="#3F3B49" d="M88.9,28.5c-1,0-1.9-0.3-2.6-0.8c-0.7-0.5-0.8-1.4-0.4-2.1c0.5-0.7,1.4-0.8,2.1-0.4
				c0.2,0.2,0.9,0.3,1.6,0.1c0.6-0.2,1.5-0.7,2.1-2.2c0.1-0.2,0.1-0.4,0.1-0.4C91.4,22.3,89.4,22,88,22c-0.8,0-1.5-0.6-1.5-1.4
				s0.6-1.5,1.4-1.5c0.8,0,4.9-0.1,6.4,2.1c0.5,0.6,0.9,1.7,0.2,3.3c-0.8,2-2.3,3.4-4,3.9C89.9,28.4,89.4,28.5,88.9,28.5z"/>
		</g>
		<g>
			<path fill="#3F3B49" d="M81.8,43.9c-0.2,0-0.5-0.1-0.7-0.2c-0.7-0.4-1-1.3-0.6-2c1.3-2.4,2.6-5.7,3.2-7.9c5-19.5-2.1-24.8-6-27.6
				C75,4.1,69.9,2.9,63.9,2.9c-0.8,0-1.5-0.7-1.5-1.5S63.1,0,63.9,0c6.8,0,12.3,1.4,15.7,3.9c1.8,1.4,5.3,3.9,7.2,8.9
				c2.2,5.5,2.1,12.8-0.2,21.8c-0.6,2.5-2,6-3.5,8.6C82.9,43.6,82.4,43.9,81.8,43.9z"/>
		</g>
		<g>
			<g>
				<path fill="#E9DDC5" d="M63.3,40.4c1.7-1.8,0.3-1.7,1.7-1.8c0.7,2.6,3.8,4.9,5.2,6.4c-0.1,3-0.5,4.6-1.1,6.8
					c-0.1,0.2-1.7,3.2-2.2,3.3l-6.3,0c-2.6-2.1-1.6-4-2.9-7.4C56.8,44.3,61.6,42,63.3,40.4z"/>
			</g>
		</g>
		<g>
			<g id="Layer0_2_1_STROKES_156_">
				<path fill="#3F3B49" d="M66.3,56.2h-5.5c-0.1,0-0.2,0-0.3-0.1c-2.3-1.9-3-5.5-3.4-8.4c-0.1-0.6-0.2-1.1-0.3-1.6
					c-0.1-0.3,0.1-0.6,0.4-0.6c0.3-0.1,0.6,0.1,0.6,0.4c0.1,0.5,0.2,1,0.3,1.6c0.4,2.6,1,5.9,2.9,7.6h5.1c1.4-1.3,3.6-6.4,3.6-9.1
					c0-0.3,0.3-0.5,0.6-0.5c0.3,0,0.5,0.3,0.5,0.6c-0.1,3-2.4,8.6-4.2,10.1C66.6,56.1,66.5,56.2,66.3,56.2z M63.6,52
					c-0.3,0-0.5-0.2-0.5-0.5V38.8c0-0.3,0.2-0.5,0.5-0.5s0.5,0.2,0.5,0.5v12.6C64.2,51.7,63.9,52,63.6,52z"/>
			</g>
		</g>
		<g>
			<path fill="#3F3B49" d="M75.4,48.4c-0.7,0-1.2-0.1-1.4-0.2c-6.3-1.4-10.3-5.8-11.5-12.6l0-0.1l0-3.8c0-0.8,0.6-1.4,1.4-1.4
				c0,0,0,0,0,0c0.8,0,1.4,0.6,1.4,1.4l0,3.6c1,5.7,4.2,9.2,9.4,10.3l0.2,0.1c0,0,1.1,0.3,2.6-0.6c1.6-0.9,3.9-3.3,5.8-9.3
				c0.2-0.7,1-1.1,1.8-0.9c0.7,0.2,1.1,1,0.9,1.8c-1.9,5.8-4.5,9.6-7.6,11.1C77.2,48.3,76.2,48.4,75.4,48.4z"/>
		</g>
		<g>
			<path fill="#3F3B49" d="M51.9,48.4c-0.8,0-1.8-0.2-2.9-0.7c-3.1-1.5-5.7-5.2-7.6-11.1c-0.2-0.7,0.2-1.5,0.9-1.8
				c0.7-0.2,1.5,0.2,1.8,0.9c2.1,6.4,4.5,8.6,6.2,9.4c1.3,0.6,2.3,0.4,2.3,0.4l0.2-0.1c3.4-0.7,5.9-2.5,7.5-5.1
				c3.9-6.4,1.6-16.1,1.5-16.2c-0.2-0.7,0.3-1.5,1-1.7c0.7-0.2,1.5,0.3,1.7,1c0.1,0.4,2.7,10.9-1.9,18.3c-2,3.3-5.1,5.4-9.2,6.3
				C53.1,48.3,52.6,48.4,51.9,48.4z"/>
		</g>
		<g>
			<g id="Layer0_6_FILL_160_">
				<g>
					<path fill="#000100" d="M69.7,22.6c-1.2,1.7-3.5,3.1-6,4.1c-4.8-1.5-6.5-4.2-8.4-8c4.8-2.2,9.1-2.8,13-1.8
						c1.3,0.3,2.6,0.8,3.7,1.5C71.4,19.9,70.6,21.3,69.7,22.6z"/>
				</g>
			</g>
		</g>
		<g>
			<path fill="#000100" d="M64.5,11.1c0.3,0.5,0.6,0.8,1.1,0.9c0.5,0.2,1,0.1,1.5-0.2c0.5-0.3,0.8-0.6,0.9-1.1
				c0.1-0.2,0.1-0.5,0.1-0.7c0-0.2-0.1-0.5-0.2-0.7c-0.3-0.5-0.7-0.8-1.2-0.9c-0.3-0.1-0.5-0.1-0.8-0.1c-0.2,0-0.5,0.1-0.7,0.2
				c-0.5,0.3-0.8,0.6-1,1.2C64.1,10.2,64.2,10.7,64.5,11.1z"/>
		</g>
	</g>
	<g>
		<path fill="#4C4740" d="M82.7,75.7l7.3,0l8.4,0c0-1-0.8-1.8-1.8-1.8l-13.6,0L82.7,75.7z M44.3,73.9l-13.6,0.1
			c-1,0-1.8,0.8-1.8,1.8l9.3-0.1l6.5,0L44.3,73.9z"/>
		<path fill="#716C65" d="M83.8,73.8V102c0,0.6-0.5,1.2-1.2,1.2h-38c-0.6,0-1.2-0.5-1.2-1.2l0-28.3H83.8z"/>
		<path fill="#2D2925" d="M64.3,79.8c0,0,3.8-0.5,8.1-0.5c4.5,0,8.1,0.5,8.1,0.5s-1.4,3.6-8.1,3.6C68.2,83.4,64,80.8,64.3,79.8z"/>
	</g>
	<g>
		<g>
			<path fill="#B0C364" d="M38.9,90"/>
		</g>
		<g>
			<path fill="none" stroke="#3F3B49" stroke-width="2.7108" stroke-linecap="round" stroke-miterlimit="10" d="M38.9,90"/>
		</g>
		<g>
			<path fill="#E9464F" d="M37.8,96.8l-20.4,1.2c-0.2,0-0.4,0.2-0.4,0.4l0.7,12c0,0.2,0.2,0.4,0.4,0.4l20.4-1.2
				c0.2,0,0.4-0.2,0.4-0.4l-0.7-12C38.2,96.9,38,96.8,37.8,96.8z"/>
		</g>
		<g>
			<path fill="#DC2E37" d="M37.6,96.8l-19.9,1.1c-0.2,0-0.4,0.2-0.4,0.4l0.1,1.5l20.7-1.2L38,97.2C38,96.9,37.8,96.8,37.6,96.8z"/>
		</g>
		<g>
			<path fill="#FFDB59" d="M29.6,97.2l-3.9,0.2c-0.2,0-0.4,0.2-0.4,0.4l0.7,12.2c0,0.2,0.2,0.4,0.4,0.4l3.9-0.2
				c0.2,0,0.4-0.2,0.4-0.4L30,97.6C30,97.4,29.8,97.2,29.6,97.2z"/>
		</g>
		<g>
			<path fill="#F5BA3E" d="M29.6,97.2l-3.9,0.2c-0.2,0-0.4,0.2-0.4,0.4l0.1,1.5l4.7-0.3L30,97.6C30,97.4,29.8,97.2,29.6,97.2z"/>
		</g>
		<g>
			<path fill="#FFDB59" d="M36.6,89.2c-0.4-1-1.1-1.9-1.7-2.5c-0.2-0.2-0.6-0.3-0.9-0.3c-1.2,0.1-3,1.7-5.4,4.6
				c-0.1,0.1-0.1,0.2-0.1,0.3l0.1,2c0,0.2,0.2,0.4,0.4,0.4l5.9-0.3c1.3-0.1,1.8-0.8,2-1.3C37.2,91.4,37.1,90.3,36.6,89.2z"/>
		</g>
		<g>
			<path fill="#EF9325" d="M36.7,89.9c0,0,0-0.1-0.1-0.1c-0.6-0.8-1.8-0.4-2.8,0c-2.7,1.4-3.7,3.2-3.7,3.3c-0.1,0.1-0.1,0.3,0,0.4
				c0.1,0.1,0.2,0.2,0.3,0.2l4.3-0.2c0.8,0,1.4-0.3,1.8-0.9C37.1,91.9,37.1,91,36.7,89.9z"/>
		</g>
		<g>
			<path fill="#FFDB59" d="M25.9,91.2c-2.7-2.7-4.7-4-5.9-4c-0.4,0-0.7,0.1-0.9,0.4c-0.6,0.7-1.1,1.7-1.5,2.7
				c-0.4,1.2-0.4,2.2-0.1,2.9c0.3,0.5,0.8,1.1,2.2,1.1l5.9-0.3c0.2,0,0.4-0.2,0.4-0.4l-0.1-2C26,91.4,26,91.3,25.9,91.2z"/>
		</g>
		<g>
			<path fill="#EF9325" d="M24.5,93.4c-0.1-0.1-1.3-1.7-4.1-2.8c-1-0.4-2.2-0.6-2.7,0.3c0,0,0,0.1,0,0.1c-0.2,1.1-0.1,2.1,0.4,2.6
				c0.4,0.5,1,0.7,1.9,0.7l4.3-0.2c0.1,0,0.3-0.1,0.3-0.2C24.6,93.7,24.6,93.5,24.5,93.4z"/>
		</g>
		<g>
			<path fill="#F5BA3E" d="M28.8,90.5l-3.2,0.2c-0.2,0-0.4,0.2-0.4,0.4l0.1,2.4c0,0.2,0.2,0.4,0.4,0.4l3.2-0.2
				c0.2,0,0.4-0.2,0.4-0.4l-0.1-2.4C29.2,90.7,29,90.5,28.8,90.5z"/>
		</g>
		<g>
			<path fill="#E9464F" d="M39.2,92.9l-23.7,1.4c-0.2,0-0.4,0.2-0.4,0.4l0.2,3.8c0,0.2,0.2,0.4,0.4,0.4l23.7-1.4
				c0.2,0,0.4-0.2,0.4-0.4l-0.2-3.8C39.6,93,39.4,92.9,39.2,92.9z"/>
		</g>
		<g>
			
				<rect x="24.4" y="93.4" transform="matrix(0.9983 -5.743525e-02 5.743525e-02 0.9983 -5.4591 1.7387)" fill="#FFDB59" width="6.3" height="4.9"/>
		</g>
	</g>
	<g>
		<g>
			<path fill-rule="evenodd" clip-rule="evenodd" fill="#3F3B49" d="M118.7,26l-2.4-1.7l-2.4,0.8l-1.1,2.7l-3.5-0.3l-0.6-2.9
				l-2.3-1.1l-2.7,1.2l-2.3-2.7l1.6-2.4l-0.8-2.4l-2.8-1l0.3-3.5l2.8-0.6l1.2-2.3l-1.2-2.7l2.7-2.3l2.4,1.6l2.5-0.8l1-2.8l3.5,0.3
				l0.6,2.8l2.3,1.2l2.7-1.2l2.3,2.7l-1.6,2.4l0.8,2.5l2.7,1.1l-0.3,3.5l-2.9,0.6l-1.1,2.3l1.2,2.7L118.7,26L118.7,26z M108.2,18.6
				c1.8,2.1,4.9,2.3,6.9,0.6c2.1-1.8,2.3-4.9,0.5-6.9c-1.8-2.1-4.9-2.3-6.9-0.6C106.7,13.4,106.5,16.5,108.2,18.6L108.2,18.6z"/>
		</g>
		<g>
			<path fill-rule="evenodd" clip-rule="evenodd" fill="#E67855" d="M106.7,19.9c-2.5-2.9-2.2-7.4,0.8-9.9c2.9-2.5,7.4-2.2,9.9,0.8
				c2.5,2.9,2.2,7.4-0.8,9.9C113.6,23.2,109.2,22.9,106.7,19.9L106.7,19.9z M106,20.5c-2.9-3.3-2.5-8.4,0.9-11.2
				c3.3-2.9,8.4-2.5,11.2,0.9c2.9,3.3,2.5,8.4-0.9,11.2C113.9,24.3,108.8,23.9,106,20.5L106,20.5z"/>
		</g>
		<g>
			<g>
				<path fill-rule="evenodd" clip-rule="evenodd" fill="#E67855" d="M111.6,39.6l0.8-1.7l2.1-0.4l0.2-2.6l-2-0.8l-0.6-1.8l1.2-1.8
					l-1.7-2l-2,0.9l-1.7-0.9l-0.5-2.1l-2.6-0.2l-0.7,2l-1.8,0.6l-1.8-1.2l-2,1.7l0.9,2L98.7,33l-2.1,0.5L96.4,36l2,0.7l0.6,1.8
					l-1.2,1.8l1.7,2l2-0.9l1.7,0.8l0.4,2.1l2.6,0.2l0.8-2l1.8-0.6l1.8,1.2l2-1.7L111.6,39.6z M109.4,39.9c-2.5,2.1-6.2,1.8-8.3-0.6
					c-2.1-2.5-1.8-6.2,0.7-8.3c2.5-2.1,6.2-1.8,8.3,0.6C112.2,34.1,111.9,37.8,109.4,39.9z"/>
			</g>
			<g>
				<path fill-rule="evenodd" clip-rule="evenodd" fill="#E67855" d="M109,39.4c2.2-1.9,2.4-5.1,0.6-7.3c-1.9-2.2-5.1-2.4-7.3-0.6
					c-2.2,1.8-2.4,5.1-0.6,7.3C103.5,40.9,106.8,41.2,109,39.4z M107.9,38.2c-1.5,1.3-3.8,1.1-5.1-0.4c-1.3-1.5-1.1-3.8,0.4-5.1
					c1.5-1.3,3.8-1.1,5.1,0.4C109.6,34.6,109.4,36.9,107.9,38.2z"/>
			</g>
		</g>
	</g>
	<g>
		<polygon fill="#344B5E" points="57.2,94.5 55.8,94.5 55.8,91.3 57.2,91.3 		"/>
		<path fill="#FFD25F" d="M56.6,98.7L56.6,98.7c-0.8,0-1.5-0.7-1.5-1.5l0-4l2.9,0l0,4C58,98.1,57.4,98.7,56.6,98.7z"/>
		<path opacity="5.000000e-02" d="M56.6,98.7L56.6,98.7c-0.8,0-1.5-0.7-1.5-1.5l0-4l1.5,0L56.6,98.7z"/>
		<path fill="#415A6C" d="M62.2,86.2c0-3.1-2.5-5.7-5.6-5.7s-5.7,2.4-5.7,5.6c0,3.1,2.5,5.7,5.6,5.8C59.6,91.8,62.2,89.3,62.2,86.2z
			"/>
		<path fill="#C7E7F4" d="M56.5,90.5c-2.4,0-4.4-2.1-4.4-4.5c0-2.4,2-4.4,4.5-4.4c2.4,0,4.4,2.1,4.4,4.5C61,88.6,59,90.6,56.5,90.5z
			"/>
		<polygon fill="#F9B74C" points="58,93.3 55.1,93.2 55.1,94.5 58,94.5 		"/>
	</g>
	<g>
		<path fill="#5B5B5B" d="M57.9,59.9l-2.8,1.4l6.2,3.5l-0.3-3.1L57.9,59.9z"/>
		<path fill="#454545" d="M119.5,54.9l0.2-1.2l0.8,0.9l0.3,1.1l-1.1,0.3L119.5,54.9z"/>
		<path fill="#FCBF05" d="M61.7,69.7l58.3-17.3l0.6,2.1L62.3,71.8L61.7,69.7z"/>
		<path fill="#E67855" d="M55.5,61.2l-1.8,0.5c-3.5,1-5.5,4.7-4.5,8.2c1,3.5,4.7,5.5,8.2,4.5l6.3-1.8l-2.3-8.1L55.5,61.2z"/>
		<path fill="#E67855" d="M61.3,64.4l2.3,8.1l-6.3,1.8l-3.6-12.7l1.8-0.5L61.3,64.4z"/>
		<path fill="#ECECF1" d="M54.6,64.9c-1.7,0.5-2.8,2.3-2.3,4.1c0.5,1.7,2.3,2.8,4.1,2.3c1.7-0.5,2.8-2.3,2.3-4.1
			S56.3,64.4,54.6,64.9z"/>
		<path fill="#454545" d="M59.5,70.3l1.1-0.3l0.3,1.1l-1.1,0.3L59.5,70.3z"/>
		<path fill="#E2E1E7" d="M58.6,67.1c0.5,1.7-0.5,3.6-2.3,4.1l-1.8-6.3C56.3,64.4,58.1,65.4,58.6,67.1z"/>
	</g>
	<path fill="#A8B8BA" d="M55.1,91.5v0.9c0,0.7,0.6,0.6,1.4,0.6s1.4,0,1.4-0.6v-0.9c0,0-0.3,0.4-1.4,0.4
		C55.4,91.9,55.1,91.5,55.1,91.5z"/>
	<g>
		<g>
			<path fill="#3F3B49" d="M41.4,71.4l10.1,4.8c0,0,3.5-2.2,4.3-3.3c-0.1-2-7-8.4-7-8.4S48.4,68,41.4,71.4z"/>
		</g>
		<g>
			<path fill="#352B24" d="M56.4,74.4c-0.2,0.1-0.4,0.1-0.6,0l-2.5-1.9c-0.2-0.2-0.3-0.5-0.1-0.8c0.2-0.2,0.5-0.3,0.8-0.1l2.5,1.9
				c0.2,0.2,0.3,0.5,0.1,0.8C56.5,74.3,56.5,74.3,56.4,74.4z"/>
		</g>
		<g>
			<path fill="#352B24" d="M55.1,76.6c-0.2,0.1-0.4,0.1-0.6,0l-2.9-2.1c-0.3-0.2-0.3-0.5-0.1-0.8c0.2-0.3,0.5-0.3,0.8-0.1l2.9,2.1
				c0.3,0.2,0.3,0.5,0.1,0.8C55.2,76.5,55.2,76.5,55.1,76.6z"/>
		</g>
	</g>
	<g>
		<g>
			<path fill="#415A6C" d="M56.1,82.9c-1.5,0.3-2.5,1.6-2.7,3.1c0,0.1,0.7,0,0.7-0.2c0.1-0.5,0.2-1,0.5-1.4c0.2-0.4,0.5-0.7,0.8-1
				c0.1-0.1,0.3-0.2,0.4-0.2c0,0,0.3-0.1,0.1-0.1C56.2,83.1,56.6,82.8,56.1,82.9L56.1,82.9z"/>
		</g>
	</g>
	<g>
		<path fill="#CDD6E0" d="M45.1,89.9l0.3,0.7l0.5,0.2l0.7-0.3l0.3-0.8l-0.4-0.8l0.8-0.4L47,87.7l0.8-0.4l0.6-1.5
			c1.1,0,2.2-0.7,2.6-1.8c0.5-1.4-0.2-2.9-1.6-3.4c-1.4-0.5-2.9,0.2-3.4,1.6c-0.4,1.1,0,2.3,0.9,3L45.1,89.9L45.1,89.9z M48.2,83.7
			c-0.5-0.2-0.8-0.8-0.6-1.3c0.2-0.5,0.8-0.8,1.4-0.6c0.5,0.2,0.8,0.8,0.6,1.3C49.4,83.6,48.8,83.9,48.2,83.7z"/>
		<g opacity="5.000000e-02">
			<path d="M48.2,83.7C48.2,83.7,48.2,83.7,48.2,83.7c0.6,0.2,1.2,0,1.4-0.6c0.2-0.5-0.1-1.1-0.6-1.3c0,0,0,0,0,0l0.4-1.1
				c1.4,0.5,2.1,2,1.6,3.4c-0.4,1.1-1.5,1.8-2.6,1.8l-0.6,1.5L47,87.7l0.4,0.8l-0.8,0.4l0.4,0.8l-0.3,0.8l-0.7,0.3l-0.5-0.2
				L48.2,83.7z"/>
		</g>
	</g>
	<path fill="#A8B8BA" d="M49.3,78.4l-0.8,0c-0.6,0-0.6,0.9-0.6,2c0,1.1-0.1,2,0.5,2l0.8,0c0,0-0.3-0.5-0.3-2
		C49,78.8,49.3,78.4,49.3,78.4z"/>
	<g>
		<g transform="translate(0 -1)">
			<path fill="#E29703" d="M64.5,76.2l1.1,9.7l0,0.2c0.1,0.5,0.5,0.9,1,0.8l0.3,0c0.5-0.1,0.9-0.5,0.8-1l0-0.2l-1.1-9.7L64.5,76.2z"
				/>
			<polygon fill="#F3EDBF" points="65.5,84.8 67.7,84.6 67.8,85.7 65.6,85.9 			"/>
			<polygon fill="#FECB46" points="65.7,76.8 66.7,76.7 67.6,83.9 66.5,84 			"/>
			<polygon fill="#E0A470" points="66.6,75.2 64.4,75.5 65.2,72.6 			"/>
			<polygon fill="#F3EDBF" points="64.4,75.5 66.6,75.2 66.7,75.9 64.5,76.2 			"/>
		</g>
		<g>
			<polygon fill="#E29703" points="69.8,87.6 66.3,86.6 71.9,65.8 75.5,66.8 			"/>
			<g>
				<path fill="#EFB855" d="M74,68.6c0.1-0.5-0.2-1-0.6-1.1c-0.5-0.1-1,0.2-1.1,0.6c-0.1,0.5,0.2,1,0.6,1.1
					C73.4,69.4,73.9,69.1,74,68.6"/>
				<polygon fill="#EFB855" points="74.3,70.9 73.5,70.7 73.6,70.1 74.5,70.3 				"/>
				<polygon fill="#EFB855" points="74,72.1 73.1,71.9 73.3,71.3 74.2,71.5 				"/>
				<polygon fill="#EFB855" points="73.7,73.3 72.8,73.1 73,72.5 73.9,72.7 				"/>
				<polygon fill="#EFB855" points="73.4,74.5 72.5,74.2 72.6,73.7 73.5,73.9 				"/>
				<polygon fill="#EFB855" points="73.1,75.7 71.3,75.2 71.4,74.6 73.2,75.1 				"/>
				<polygon fill="#EFB855" points="72.7,76.9 71.8,76.6 72,76 72.9,76.3 				"/>
				<polygon fill="#EFB855" points="72.4,78.1 71.5,77.8 71.7,77.2 72.6,77.5 				"/>
				<polygon fill="#EFB855" points="72.1,79.2 71.2,79 71.4,78.4 72.3,78.7 				"/>
				<polygon fill="#EFB855" points="71.8,80.4 70.9,80.2 71,79.6 71.9,79.8 				"/>
				<polygon fill="#EFB855" points="71.4,81.6 69.7,81.1 69.8,80.5 71.6,81 				"/>
				<polygon fill="#EFB855" points="71.1,82.8 70.2,82.6 70.4,82 71.3,82.2 				"/>
				<polygon fill="#EFB855" points="70.8,84 69.9,83.8 70.1,83.2 71,83.4 				"/>
				<polygon fill="#EFB855" points="70.5,85.2 69.6,84.9 69.7,84.3 70.6,84.6 				"/>
				<polygon fill="#EFB855" points="70.2,86.4 69.3,86.1 69.4,85.5 70.3,85.8 				"/>
			</g>
		</g>
		<g>
			<path fill="#7483BF" d="M70.9,84c0,0,0.1-0.1,0.1-0.1l0.6-0.1c0.1,0,0.2,0.1,0.2,0.2c0,0.1-0.1,0.2-0.2,0.2l-0.6,0.1
				c-0.1,0-0.2-0.1-0.2-0.2C70.9,84.1,70.9,84.1,70.9,84"/>
			<path fill="#444D6E" d="M71.5,72.2L71.5,72.2L71.5,72.2c0.8,0.5,1.3,1.4,1.4,2.3L74,85.2l-2.2,0.2l-1.1-10.7
				C70.6,73.7,70.9,72.8,71.5,72.2"/>
			<path fill="#7483BF" d="M71.9,85.4l1.9-0.2l0.1,0.7c0,0.3-0.2,0.7-0.6,0.7l-0.6,0.1c-0.3,0-0.7-0.2-0.7-0.6L71.9,85.4z"/>
			<polygon fill="#444D6E" points="70.1,79.9 70.6,79.8 71.2,85.1 70.6,85.1 			"/>
			<g>
				<polygon fill="#7483BF" points="71.9,75.9 73,75.8 73.8,83.5 72.7,83.6 				"/>
				<path fill="#7483BF" d="M71.5,72.2c-0.7,0.7-1,1.6-0.9,2.5l0,0c0.3-0.2,0.7-0.3,1.1-0.3c0.4,0,0.8,0,1.1,0.1l0,0
					C72.8,73.5,72.3,72.7,71.5,72.2"/>
			</g>
			<path fill="#444D6E" d="M71.3,71.7c0,0,0.1-0.1,0.1-0.1c0.1,0,0.2,0.1,0.2,0.2l0,0.4c0,0.1-0.1,0.2-0.2,0.2
				c-0.1,0-0.2-0.1-0.2-0.2l0-0.4C71.3,71.7,71.3,71.7,71.3,71.7"/>
		</g>
		<g>
			<polygon fill="#A32016" points="77.9,77.4 76.7,86.4 73.7,86 74.9,77 			"/>
			<g>
				<path fill="#CE3A2A" d="M73.9,86l2.6,0.3L76.4,87c0,0,0,0,0,0l-2.6-0.3L73.9,86z"/>
				<path fill="#CE3A2A" d="M76,75.2l0,0.1c-0.1,0.6-0.4,1.1-0.9,1.5L74.9,77l3,0.4l-0.2-0.2c-0.5-0.5-0.7-1.2-0.6-1.8l0,0L76,75.2z
					"/>
			</g>
			<polygon fill="#A32016" points="76.9,75.3 76.2,75.2 76.3,74.5 77,74.2 			"/>
			<g>
				<path fill="#CE3A2A" d="M76.7,78.8c0,0,0.1,0,0.1,0c0.1,0,0.2,0.1,0.2,0.2l-0.8,5.9c0,0.1-0.1,0.2-0.2,0.2
					c-0.1,0-0.2-0.1-0.2-0.2l0.8-5.9C76.6,78.9,76.6,78.9,76.7,78.8"/>
				<path fill="#CE3A2A" d="M75.4,78.7c0,0,0.1,0,0.1,0c0.1,0,0.2,0.1,0.2,0.2l-0.8,5.9c0,0.1-0.1,0.2-0.2,0.2
					c-0.1,0-0.2-0.1-0.2-0.2l0.8-5.9C75.4,78.7,75.4,78.7,75.4,78.7"/>
			</g>
		</g>
		<g transform="translate(-1)">
			<path fill="#E29703" d="M81.7,74.6c0,0-0.1,0.1-0.2,0l-0.6-0.1c-0.1,0-0.2-0.1-0.2-0.2c0-0.1,0.1-0.2,0.2-0.2l0.6,0.1
				c0.1,0,0.2,0.1,0.2,0.2C81.7,74.5,81.7,74.5,81.7,74.6"/>
			<polygon fill="#FECB46" points="81.8,79 81.1,78.9 81.6,73.3 82.3,73.4 			"/>
			<path fill="#E29703" d="M78.3,79.1l-0.7,7.8c0,0.5,0.3,0.9,0.8,0.9s0.9-0.3,0.9-0.8l0.7-7.8L78.3,79.1z"/>
			<polygon fill="#FECB46" points="80.4,79.3 77.9,79.1 78.3,74.1 80.9,74.3 			"/>
			<polygon fill="#E29703" points="80.9,74.3 78.3,74.1 78.4,73 81,73.3 			"/>
			<polygon fill="#FECB46" points="78.6,85.4 77.7,85.3 78.1,80.6 79,80.7 			"/>
		</g>
	</g>
	<path fill="#A8B8BA" d="M64.2,79.6v6c0,4.5,3.6,4.2,8.1,4.2c4.5,0,8.1,0.2,8.1-4.2v-6c0,0-1.4,1.3-8,1.3
		C65.4,80.9,64.2,79.6,64.2,79.6z"/>
	<g>
		<g>
			<path fill="#808D8E" d="M65.8,85.1c0.6,2.1,2.8,3.2,4.9,3.4c0.2,0,0.8-0.3,0.5-0.3c-2-0.2-4.1-1.2-4.6-3.3
				C66.5,84.8,65.7,84.9,65.8,85.1L65.8,85.1z"/>
		</g>
	</g>
	<g>
		<g>
			<path fill="#3F3B49" d="M83.4,74.4L76,66.1c0,0,1.1-4,2-5.1c2-0.4,10,4.3,10,4.3S84.7,66.7,83.4,74.4z"/>
		</g>
		<g>
			<path fill="#352B24" d="M76.4,60.8c0-0.1,0-0.1,0.1-0.2c0.2-0.2,0.5-0.3,0.8-0.1l2.5,1.8c0.2,0.2,0.3,0.5,0.1,0.8
				c-0.2,0.2-0.5,0.3-0.8,0.1l-2.5-1.8C76.4,61.3,76.3,61,76.4,60.8z"/>
		</g>
		<g>
			<path fill="#352B24" d="M74.6,62.7c0-0.1,0.1-0.1,0.1-0.2c0.2-0.2,0.5-0.3,0.8-0.1l2.8,2.2c0.2,0.2,0.3,0.5,0.1,0.8
				c-0.2,0.2-0.5,0.3-0.8,0.1l-2.8-2.2C74.6,63.1,74.6,62.9,74.6,62.7z"/>
		</g>
	</g>
	<g>
		<polygon fill="#434B60" points="106.7,81 104.8,80.6 104.4,82 100.1,81 100.5,79.5 98.6,79.1 91.4,77.4 85,104.1 107.4,109.5 
			113.9,82.8 		"/>
		<g>
			<polygon fill="#EDEADB" points="110.8,84.7 93.6,80.4 88.1,102.6 105.3,106.9 			"/>
			<g>
				<path fill="#CEC9AF" d="M95.5,87.4l3.4,0.9c0.2,0.1,0.4-0.1,0.5-0.3c0.1-0.2-0.1-0.4-0.3-0.5l-3.4-0.9c-0.2-0.1-0.4,0.1-0.5,0.3
					C95.1,87.1,95.3,87.4,95.5,87.4z"/>
				<path fill="#CEC9AF" d="M100.1,96.7l-6.5-1.6c-0.2-0.1-0.4,0.1-0.5,0.3c-0.1,0.2,0.1,0.4,0.3,0.5l6.5,1.6
					c0.2,0.1,0.4-0.1,0.5-0.3C100.4,96.9,100.3,96.7,100.1,96.7z"/>
				<path fill="#CEC9AF" d="M104.6,94.9l-2.7-0.7c-0.2-0.1-0.4,0.1-0.5,0.3c-0.1,0.2,0.1,0.4,0.3,0.5l2.7,0.7
					c0.2,0.1,0.4-0.1,0.5-0.3C104.9,95.2,104.8,95,104.6,94.9z"/>
				<path fill="#CEC9AF" d="M94.7,90.5l1.9,0.5c0.2,0.1,0.4-0.1,0.5-0.3c0.1-0.2-0.1-0.4-0.3-0.5l-1.9-0.5c-0.2-0.1-0.4,0.1-0.5,0.3
					C94.4,90.2,94.5,90.4,94.7,90.5z"/>
				<path fill="#CEC9AF" d="M100.5,91.9l2.7,0.7c0.2,0.1,0.4-0.1,0.5-0.3c0.1-0.2-0.1-0.4-0.3-0.5l-2.7-0.7
					c-0.2-0.1-0.4,0.1-0.5,0.3C100.1,91.6,100.2,91.8,100.5,91.9z"/>
				<path fill="#CEC9AF" d="M98.3,90.9c0,0.1,0,0.2,0,0.3c0.1,0.1,0.1,0.2,0.2,0.2c0.1,0,0.2,0,0.3,0c0.1-0.1,0.2-0.1,0.2-0.2
					c0-0.1,0-0.2,0-0.3c-0.1-0.2-0.4-0.2-0.5-0.1C98.3,90.7,98.3,90.8,98.3,90.9z"/>
				<path fill="#CEC9AF" d="M96.2,92.9c-0.2-0.1-0.4,0.1-0.5,0.3c-0.1,0.2,0.1,0.4,0.3,0.5l3.8,0.9c0.2,0.1,0.4-0.1,0.5-0.3
					c0.1-0.2-0.1-0.4-0.3-0.5L96.2,92.9z"/>
				<path fill="#CEC9AF" d="M94.1,93.1c0.1,0,0.2,0,0.3,0c0.1-0.1,0.2-0.1,0.2-0.2c0-0.1,0-0.2,0-0.3c-0.1-0.2-0.4-0.2-0.5-0.1
					c-0.1,0.1-0.2,0.1-0.2,0.2c0,0.1,0,0.2,0,0.3C93.9,93.1,94,93.1,94.1,93.1z"/>
				<path fill="#CEC9AF" d="M103.2,100.3l-2.7-0.7c-0.2-0.1-0.4,0.1-0.5,0.3c-0.1,0.2,0.1,0.4,0.3,0.5l2.7,0.7
					c0.2,0.1,0.4-0.1,0.5-0.3C103.6,100.6,103.5,100.3,103.2,100.3z"/>
				<path fill="#CEC9AF" d="M98.7,99.2l-3.8-0.9c-0.2-0.1-0.4,0.1-0.5,0.3c-0.1,0.2,0.1,0.4,0.3,0.5l3.8,0.9
					c0.2,0.1,0.4-0.1,0.5-0.3C99,99.4,98.9,99.2,98.7,99.2z"/>
				<path fill="#CEC9AF" d="M92.6,97.8c-0.1,0.1-0.2,0.1-0.2,0.2c0,0.1,0,0.2,0,0.3c0.1,0.1,0.1,0.2,0.2,0.2c0.1,0,0.2,0,0.3,0
					c0.1-0.1,0.2-0.1,0.2-0.2c0-0.1,0-0.2,0-0.3C93.1,97.7,92.8,97.7,92.6,97.8z"/>
				<path fill="#CEC9AF" d="M105,93c0.1,0,0.2,0,0.3,0c0.1-0.1,0.2-0.1,0.2-0.2c0-0.1,0-0.2,0-0.3c-0.1-0.2-0.4-0.2-0.5-0.1
					c-0.1,0.1-0.2,0.1-0.2,0.2c0,0.1,0,0.2,0,0.3C104.9,92.9,104.9,93,105,93z"/>
				<path fill="#CEC9AF" d="M102.1,97.9c0.1-0.1,0.2-0.1,0.2-0.2c0-0.1,0-0.2,0-0.3c-0.1-0.2-0.4-0.2-0.5-0.1
					c-0.1,0.1-0.2,0.1-0.2,0.2c0,0.1,0,0.2,0,0.3c0.1,0.1,0.1,0.2,0.2,0.2C101.9,97.9,102,97.9,102.1,97.9z"/>
				<path fill="#CEC9AF" d="M103.6,97.7c-0.1,0.1-0.2,0.1-0.2,0.2c0,0.1,0,0.2,0,0.3c0.1,0.1,0.1,0.2,0.2,0.2c0.1,0,0.2,0,0.3,0
					c0.1-0.1,0.2-0.1,0.2-0.2c0-0.1,0-0.2,0-0.3C104,97.6,103.8,97.6,103.6,97.7z"/>
			</g>
		</g>
		
			<rect x="101.4" y="78.1" transform="matrix(0.2346 -0.9721 0.9721 0.2346 0.4491 161.1847)" fill="#303644" width="2.5" height="4.4"/>
		<polygon fill="#7483BF" points="104.8,80.6 104.4,82 100.1,81 100.5,79.5 97.1,78.7 96.5,81.6 107.4,84.3 108.1,81.4 		"/>
	</g>
	<g>
		<path fill="#D7D7D7" d="M75.2,94.4h16.4c0.5,0,0.8,0.4,0.8,0.8v16.3c0,0.5-0.4,0.8-0.8,0.8H75.2c-0.5,0-0.8-0.4-0.8-0.8V95.2
			C74.4,94.8,74.8,94.4,75.2,94.4z"/>
		<path fill="#334E5C" d="M76.4,96.4h14.1v3.7H76.4V96.4z"/>
		<path fill="#AFB6BB" d="M86.3,98.1c0.1,0,0.2-0.1,0.2-0.2c0-0.1,0.1-0.2,0.1-0.2c0-0.1-0.1-0.3-0.2-0.4c-0.1-0.1-0.3-0.1-0.4-0.1
			c-0.2,0-0.3,0-0.5,0.1c-0.1,0.1-0.2,0.2-0.2,0.4c0,0.1,0,0.2,0.1,0.2c0,0.1,0.1,0.1,0.2,0.2c-0.1,0-0.2,0.1-0.3,0.2
			c-0.1,0.1-0.1,0.2-0.1,0.3c0,0.2,0.1,0.3,0.2,0.5c0.1,0.1,0.3,0.1,0.5,0.1c0.2,0,0.4-0.1,0.5-0.2s0.2-0.3,0.2-0.4
			c0-0.1,0-0.2-0.1-0.3C86.4,98.2,86.4,98.2,86.3,98.1L86.3,98.1z M85.8,97.6c0,0,0.1-0.1,0.2-0.1c0.1,0,0.1,0,0.2,0.1
			c0,0,0.1,0.1,0.1,0.2s0,0.1-0.1,0.2c0,0-0.1,0.1-0.2,0.1s-0.1,0-0.2-0.1c0,0-0.1-0.1-0.1-0.2S85.7,97.6,85.8,97.6z M86.1,98.8
			c-0.1,0.1-0.1,0.1-0.2,0.1c-0.1,0-0.2,0-0.2-0.1c-0.1-0.1-0.1-0.1-0.1-0.2c0-0.1,0-0.1,0.1-0.2c0-0.1,0.1-0.1,0.2-0.1
			c0.1,0,0.2,0,0.2,0.1c0.1,0.1,0.1,0.1,0.1,0.2C86.2,98.7,86.2,98.7,86.1,98.8z M87.8,98.1c0.1,0,0.2-0.1,0.2-0.2s0.1-0.2,0.1-0.2
			c0-0.1-0.1-0.3-0.2-0.4c-0.1-0.1-0.3-0.1-0.4-0.1c-0.2,0-0.3,0-0.5,0.1c-0.1,0.1-0.2,0.2-0.2,0.4c0,0.1,0,0.2,0.1,0.2
			c0,0.1,0.1,0.1,0.2,0.2c-0.1,0-0.2,0.1-0.3,0.2s-0.1,0.2-0.1,0.3c0,0.2,0.1,0.3,0.2,0.5c0.1,0.1,0.3,0.1,0.5,0.1
			c0.2,0,0.4-0.1,0.5-0.2c0.1-0.1,0.2-0.3,0.2-0.4c0-0.1,0-0.2-0.1-0.3C88,98.2,87.9,98.2,87.8,98.1L87.8,98.1z M87.3,97.6
			c0,0,0.1-0.1,0.2-0.1c0.1,0,0.1,0,0.2,0.1c0,0,0.1,0.1,0.1,0.2s0,0.1-0.1,0.2c0,0-0.1,0.1-0.2,0.1s-0.1,0-0.2-0.1
			c0,0-0.1-0.1-0.1-0.2S87.2,97.6,87.3,97.6z M87.7,98.8c-0.1,0.1-0.1,0.1-0.2,0.1c-0.1,0-0.2,0-0.2-0.1c-0.1-0.1-0.1-0.1-0.1-0.2
			c0-0.1,0-0.1,0.1-0.2c0-0.1,0.1-0.1,0.2-0.1c0.1,0,0.2,0,0.2,0.1c0.1,0.1,0.1,0.1,0.1,0.2C87.7,98.7,87.7,98.7,87.7,98.8z
			 M89.5,97.4c-0.1-0.2-0.3-0.2-0.5-0.2c-0.2,0-0.3,0.1-0.5,0.2s-0.2,0.3-0.2,0.5c0,0.2,0.1,0.3,0.2,0.5c0.1,0.1,0.3,0.2,0.4,0.2
			c0.1,0,0.3-0.1,0.4-0.2c0,0.2-0.1,0.4-0.1,0.4c-0.1,0.1-0.1,0.1-0.2,0.1c-0.1,0-0.1,0-0.2-0.1c0,0-0.1-0.1-0.1-0.2l-0.4,0
			c0,0.2,0.1,0.3,0.2,0.4c0.1,0.1,0.2,0.1,0.4,0.1c0.2,0,0.4-0.1,0.5-0.2c0.1-0.2,0.2-0.4,0.2-0.8S89.6,97.6,89.5,97.4z M89.1,98.1
			c-0.1,0.1-0.1,0.1-0.2,0.1s-0.1,0-0.2-0.1c-0.1-0.1-0.1-0.2-0.1-0.3c0-0.1,0-0.2,0.1-0.3c0-0.1,0.1-0.1,0.2-0.1s0.1,0,0.2,0.1
			c0.1,0.1,0.1,0.2,0.1,0.3C89.2,98,89.2,98.1,89.1,98.1z"/>
		<path fill="#E2584D" d="M79.8,101.4h-2.8c-0.3,0-0.6,0.3-0.6,0.6v2.8c0,0.3,0.3,0.6,0.6,0.6h2.8c0.3,0,0.6-0.3,0.6-0.6V102
			C80.3,101.7,80.1,101.4,79.8,101.4z M84.6,101.4h-2.8c-0.3,0-0.6,0.3-0.6,0.6v2.8c0,0.3,0.3,0.6,0.6,0.6h2.8
			c0.3,0,0.6-0.3,0.6-0.6V102C85.1,101.7,84.9,101.4,84.6,101.4z M84.6,106.3h-2.8c-0.3,0-0.6,0.3-0.6,0.6v2.8
			c0,0.3,0.3,0.6,0.6,0.6h2.8c0.3,0,0.6-0.3,0.6-0.6v-2.8C85.1,106.5,84.9,106.3,84.6,106.3z M79.8,106.3h-2.8
			c-0.3,0-0.6,0.3-0.6,0.6v2.8c0,0.3,0.3,0.6,0.6,0.6h2.8c0.3,0,0.6-0.3,0.6-0.6v-2.8C80.3,106.5,80.1,106.3,79.8,106.3z"/>
		<path fill="#FFFFFF" d="M77.5,108.4h1.7v-0.6h-1.7V108.4z M82.9,107.4c0,0.2,0.1,0.3,0.3,0.3s0.3-0.1,0.3-0.3s-0.1-0.3-0.3-0.3
			S82.9,107.2,82.9,107.4z M82.3,108v0.6H84V108H82.3z M83.2,108.8c-0.2,0-0.3,0.1-0.3,0.3c0,0.2,0.1,0.3,0.3,0.3s0.3-0.1,0.3-0.3
			C83.4,108.9,83.3,108.8,83.2,108.8z M78.6,102.6h-0.6v0.6h-0.6v0.6h0.6v0.6h0.6v-0.6h0.6v-0.6h-0.6V102.6z M82.8,104.2l0.4-0.4
			l0.4,0.4l0.4-0.4l-0.4-0.4l0.4-0.4l-0.4-0.4l-0.4,0.4l-0.4-0.4l-0.4,0.4l0.4,0.4l-0.4,0.4C82.4,103.8,82.8,104.2,82.8,104.2z"/>
		<path fill="#2BA7D2" d="M86.5,101.4h3.4c0.3,0,0.6,0.3,0.6,0.6v7.6c0,0.3-0.3,0.6-0.6,0.6h-3.4c-0.3,0-0.6-0.3-0.6-0.6V102
			C86,101.7,86.2,101.4,86.5,101.4z"/>
		<path fill="#FFFFFF" d="M87.4,105.1v0.6h1.7v-0.6H87.4z M87.4,106.7h1.7v-0.6h-1.7V106.7z"/>
		<path opacity="0.12" d="M91.6,111.9H75.2c-0.5,0-0.8-0.4-0.8-0.8v0.4c0,0.5,0.4,0.8,0.8,0.8h16.4c0.5,0,0.8-0.4,0.8-0.8v-0.4
			C92.5,111.5,92.1,111.9,91.6,111.9z"/>
		<path fill="#2F4855" d="M76.4,96.4h14.1v0.6H76.4V96.4z"/>
		<path opacity="0.12" fill="#010101" d="M79.5,105h-2.3c-0.5,0-0.8-0.4-0.8-0.8l0,0.7c0,0.6,0.5,0.6,0.6,0.6h2.8
			c0.1,0,0.6-0.1,0.6-0.6l0-0.7C80.3,104.6,79.9,105,79.5,105z"/>
		<path opacity="0.12" fill="#010101" d="M84.3,105H82c-0.5,0-0.8-0.4-0.8-0.8l0,0.7c0,0.6,0.5,0.6,0.6,0.6h2.8
			c0.1,0,0.6-0.1,0.6-0.6l0-0.7C85.1,104.6,84.8,105,84.3,105z"/>
		<path opacity="0.12" fill="#010101" d="M79.5,109.8h-2.3c-0.5,0-0.8-0.4-0.8-0.8l0,0.7c0,0.6,0.5,0.6,0.6,0.6h2.8
			c0.1,0,0.6-0.1,0.6-0.6l0-0.7C80.3,109.4,79.9,109.8,79.5,109.8z"/>
		<path opacity="0.12" fill="#010101" d="M84.3,109.8H82c-0.5,0-0.8-0.4-0.8-0.8l0,0.7c0,0.6,0.5,0.6,0.6,0.6h2.8
			c0.1,0,0.6-0.1,0.6-0.6l0-0.7C85.1,109.4,84.8,109.8,84.3,109.8z"/>
		<path opacity="0.12" fill="#010101" d="M89.7,109.8h-2.8c-0.5,0-0.8-0.4-0.8-0.8l0,0.7c0,0.6,0.5,0.6,0.6,0.6h3.4
			c0.1,0,0.6-0.1,0.6-0.6l0-0.7C90.5,109.4,90.1,109.8,89.7,109.8z"/>
	</g>
</g>
</svg>
