<?xml version="1.0" encoding="utf-8"?>
<!-- Generator: Adobe Illustrator 23.0.2, SVG Export Plug-In . SVG Version: 6.00 Build 0)  -->
<svg version="1.1" id="Calque_1" xmlns="http://www.w3.org/2000/svg" xmlns:xlink="http://www.w3.org/1999/xlink" x="0px" y="0px"
	 viewBox="0 0 71.6 70.4" enable-background="new 0 0 71.6 70.4" xml:space="preserve">
<title>kenotte-conseil</title>
<path fill="#FBBE0E" d="M57.4,9.2c0.7-3.4,4-5.6,7.4-4.9c3.4,0.7,5.6,4,4.9,7.4c-0.3,1.3-1,2.6-2,3.5c-1.4,1.2-2.5,2.8-3,4.6
	c-0.1,0.2-0.1,0.5-0.2,0.7l-0.3,1.4l-5.8-1.2l0.3-1.4c0.1-0.3,0.1-0.5,0.1-0.8c0.2-1.8-0.1-3.7-0.9-5.4
	C57.3,11.9,57.1,10.5,57.4,9.2z"/>
<path fill="#F39518" d="M58.8,18.6l5.9,1.2c-0.1,0.2-0.1,0.5-0.2,0.7l-0.3,1.4l-5.8-1.2l0.3-1.4C58.7,19.1,58.8,18.8,58.8,18.6z"/>
<path fill="#F39518" d="M57.4,9.2C58,6.7,60,4.7,62.5,4.3c-3.3,1-5.1,4.5-4.1,7.8c0.1,0.3,0.2,0.6,0.4,0.9c0.9,1.9,1.2,4.1,0.8,6.2
	l-0.3,1.7l-0.8-0.1l0.3-1.4c0.4-2.1,0.2-4.3-0.7-6.2C57.3,12,57.1,10.5,57.4,9.2z"/>
<path fill="#F39518" d="M64.3,14c0.2,0,0.3,0.2,0.3,0.4c0,0,0,0,0,0l-1.5,7.2c0,0.2-0.3,0.3-0.5,0.3c-0.2,0-0.3-0.2-0.3-0.4
	c0,0,0,0,0,0l1.5-7.2C63.9,14.1,64.1,14,64.3,14C64.3,14,64.3,14,64.3,14z"/>
<path fill="#F39518" d="M61.5,13.4c0.2,0,0.3,0.3,0.3,0.5l-1.5,7.2c0,0.2-0.3,0.3-0.5,0.3c-0.2,0-0.3-0.2-0.3-0.4c0,0,0,0,0,0
	l1.5-7.2C61,13.5,61.2,13.4,61.5,13.4z"/>
<path fill="#F39518" d="M61.2,14.8c0.1,0,0.2,0.1,0.2,0.2c0.3,0.4,0.8,0.2,0.9,0.1c0.2-0.1,0.4,0,0.5,0.1c0.3,0.4,0.9,0.2,1,0.1
	c0.2-0.1,0.4,0,0.5,0.2c0,0,0,0,0,0c0.1,0.2,0,0.4-0.2,0.5c-0.6,0.2-1.2,0.2-1.7-0.2c-0.6,0.2-1.3,0-1.6-0.5
	c-0.1-0.2-0.1-0.4,0.1-0.5C61,14.9,61.1,14.8,61.2,14.8z"/>
<path fill="#77C1DF" d="M58.5,19.3l6.1,1.2c0.2,0.1,0.4,0.3,0.4,0.5c0,0,0,0.1,0,0.1l-0.3,0.5L63.1,25l-0.4,0.8
	c-0.1,0.2-0.3,0.3-0.5,0.2l-3.6-0.7c-0.2,0-0.4-0.2-0.4-0.4L58.2,24L58,20.4v-0.6c0-0.2,0.2-0.5,0.4-0.5
	C58.5,19.3,58.5,19.3,58.5,19.3z"/>
<polygon fill="#2795AE" points="58,20.4 64.7,21.7 63.1,25 58.2,24 "/>
<path fill="#CAE8FB" d="M57.8,21.1l6.8,1.4c0.3,0.1,0.4,0.3,0.4,0.6c0,0,0,0,0,0l-0.2,1c0,0.3-0.3,0.4-0.6,0.4c0,0,0,0,0,0l-6.8-1.4
	C57.2,23,57,22.7,57,22.5l0.2-1C57.3,21.2,57.5,21,57.8,21.1C57.8,21.1,57.8,21.1,57.8,21.1z"/>
<path fill="#F8DD69" d="M65.8,6.5L65.8,6.5c1.5,0.8,2.4,2.3,2.4,3.9c0,0.2-0.2,0.4-0.4,0.4c-0.2,0-0.4-0.2-0.4-0.4c0,0,0,0,0,0
	c0-1.3-0.7-2.5-1.8-3.2c-0.2-0.1-0.3-0.3-0.2-0.5c0,0,0,0,0,0C65.5,6.5,65.7,6.5,65.8,6.5z"/>
<path fill="#F8DD69" d="M65.7,0C65.9,0,66,0.2,66,0.4c0,0,0,0,0,0l-0.4,2.2c0,0.2-0.2,0.4-0.5,0.3s-0.4-0.2-0.3-0.5l0,0l0.4-2.2
	C65.3,0.1,65.5,0,65.7,0C65.7,0,65.7,0,65.7,0z"/>
<path fill="#F8DD69" d="M71.3,2.9c0.1,0,0.2,0.1,0.2,0.2c0.1,0.2,0.1,0.4-0.1,0.5l-1.9,1.2c-0.2,0.1-0.4,0.1-0.5-0.1
	C69,4.5,69,4.3,69.2,4.2L71,3C71.1,2.9,71.2,2.9,71.3,2.9z"/>
<path fill="#F8DD69" d="M59.4,0.4c0.1,0,0.2,0.1,0.2,0.2l1.2,1.9c0.1,0.2,0.1,0.4-0.1,0.5c-0.2,0.1-0.4,0.1-0.5-0.1L59,1
	c-0.1-0.2-0.1-0.4,0.1-0.5C59.2,0.4,59.3,0.4,59.4,0.4z"/>
<g opacity="0.15">
	<path fill="#211D1B" d="M7.2,43.6C7.2,43.6,7.2,43.6,7.2,43.6l0.7-0.3l-0.6-1.5c1.3-5,4.5-9.2,8.9-11.9l0.1-0.1"/>
</g>
<path fill="#AFC163" d="M18.3,57.7"/>
<path fill="none" stroke="#3F3B49" stroke-width="8" stroke-linecap="round" stroke-miterlimit="10" d="M18.3,57.7"/>
<path fill="#AFC163" d="M40.6,60.5l4.4,0.3l5.6-3.4L53.9,47c0,0,0.2-2.6,0.3-5.7c0-1.1,6.8,0.2,7-3.6c0.2-3.1-7-1.9-7.1-2.9
	c-0.1-1.2-0.3-2.2-0.4-3c-0.2-5.9-5.2-10.9-5.2-10.9l-5.8-3.5l-9.3-2.2L25,15.5l-8.3,3l-3.5,2c0,0-4.1,5-5.5,8.4
	c-0.5,1.2-0.4,6.8-2.4,6.7c-4.5-0.2-5.3,1.8-3.2,4.3c1.7,2,5.8-0.6,6.8,6.6c0.5,3.7,1.9,7.2,4,10.3l6.7,5.1l12.1-4.1L40.6,60.5z"/>
<path fill="#3F3B49" d="M5.9,42.8c-0.5,0-1-0.1-1.5-0.2c-1.9-0.6-3.3-2.1-4-3.9c-0.5-1-0.4-2.3,0.2-3.3c1.5-2.1,5.6-2.1,6.4-2.1
	c0.8,0,1.5,0.7,1.4,1.6s-0.7,1.5-1.6,1.4c-1.6-0.1-3.5,0.3-3.8,0.8c0,0.1,0,0.3,0.1,0.4c0.3,1,1.1,1.8,2.1,2.2
	c0.5,0.2,1.1,0.1,1.6-0.1c0.6-0.6,1.5-0.6,2.1,0c0.6,0.6,0.6,1.5,0,2.1c-0.1,0.1-0.3,0.3-0.5,0.3C7.7,42.5,6.8,42.8,5.9,42.8z"/>
<path d="M26.6,25.4c0.2,0.5,0.6,0.8,1.1,1c0.5,0.2,1,0.1,1.5-0.2c0.5-0.3,0.8-0.7,0.9-1.2c0.2-0.5,0.1-1-0.1-1.5
	c-0.2-0.5-0.7-0.8-1.2-0.9c-0.2-0.1-0.5-0.1-0.8-0.1c-0.2,0-0.5,0.1-0.7,0.2c-0.5,0.2-0.8,0.6-1,1.2C26.2,24.4,26.3,25,26.6,25.4z"
	/>
<path fill="#3F3B49" d="M13,58.2c-0.5,0-1-0.3-1.3-0.8c-1.5-2.7-2.6-5.6-3.5-8.6C5.9,39.8,5.8,32.5,8,27c1.5-3.6,4-6.7,7.2-8.9
	c3.3-2.5,8.9-3.9,15.7-3.9c0.8,0.1,1.4,0.8,1.3,1.6c-0.1,0.7-0.6,1.3-1.3,1.3c-6,0-11.1,1.2-13.9,3.3c-3.8,2.9-10.9,8.1-6,27.6
	c0.8,2.7,1.9,5.4,3.3,7.9c0.4,0.7,0.1,1.6-0.6,2C13.5,58.1,13.2,58.2,13,58.2z"/>
<path fill="#3F3B49" d="M56.3,42.8c-0.9,0-1.8-0.2-2.6-0.8c-0.7-0.5-0.8-1.4-0.4-2.1c0.5-0.7,1.4-0.8,2.1-0.4
	c0.5,0.3,1.1,0.3,1.6,0.1c1-0.4,1.8-1.2,2.1-2.2c0.1-0.2,0.1-0.4,0.1-0.4c-0.4-0.5-2.3-0.8-3.8-0.8c-0.8,0-1.5-0.6-1.6-1.4
	s0.6-1.5,1.4-1.6c0.8,0,4.9-0.1,6.4,2.1c0.7,1,0.7,2.2,0.2,3.3c-0.7,1.9-2.2,3.3-4,3.9C57.3,42.7,56.8,42.8,56.3,42.8z"/>
<path fill="#3F3B49" d="M49.2,58.2c-0.8,0-1.5-0.7-1.5-1.5c0-0.2,0.1-0.5,0.2-0.7c1.3-2.5,2.4-5.2,3.2-7.9c5-19.5-2.1-24.8-6-27.6
	c-2.8-2.1-7.9-3.3-13.9-3.3c-0.8,0.1-1.5-0.5-1.6-1.3c-0.1-0.8,0.5-1.5,1.3-1.6c0.1,0,0.2,0,0.2,0c6.8,0,12.3,1.4,15.7,3.9
	c3.2,2.2,5.8,5.3,7.3,8.9c2.2,5.5,2.1,12.8-0.2,21.8c-0.8,3-2,5.9-3.5,8.6C50.3,57.9,49.8,58.2,49.2,58.2z"/>
<path fill="#E7DBC3" d="M30.6,54.7c1.7-1.8,0.4-1.7,1.7-1.8c0.7,2.6,3.8,4.9,5.2,6.4c0,2.3-0.4,4.6-1.1,6.8
	c-0.1,0.2-1.7,3.2-2.2,3.3h-6.3c-2.6-2.2-1.6-4-2.9-7.4C24.2,58.6,28.9,56.3,30.6,54.7z"/>
<g id="Layer0_2_1_STROKES">
	<path fill="#3F3B49" d="M33.7,70.4h-5.5c-0.1,0-0.2,0-0.3-0.1c-2.3-1.9-3-5.5-3.5-8.4c-0.1-0.6-0.2-1.1-0.3-1.6
		c-0.1-0.3,0.1-0.6,0.3-0.7c0.3-0.1,0.6,0.1,0.7,0.3c0,0,0,0.1,0,0.1c0.1,0.5,0.2,1,0.3,1.6c0.4,2.6,1,5.9,2.9,7.6h5.1
		c1.4-1.3,3.6-6.3,3.6-9.1c0-0.3,0.2-0.6,0.5-0.6c0.3,0,0.6,0.2,0.6,0.5c0,0,0,0.1,0,0.1c0,3-2.4,8.6-4.2,10.1
		C34,70.4,33.8,70.4,33.7,70.4z M31,66.2c-0.3,0-0.5-0.2-0.5-0.5l0,0V53.1c0-0.3,0.2-0.5,0.5-0.5c0,0,0,0,0,0c0.3,0,0.5,0.2,0.5,0.5
		v12.6C31.5,66,31.3,66.2,31,66.2z"/>
</g>
<path fill="#3F3B49" d="M42.8,62.7c-0.5,0-1-0.1-1.4-0.2c-6.3-1.4-10.3-5.8-11.5-12.6v-0.1v-3.8c0-0.8,0.6-1.4,1.4-1.4l0,0
	c0.8,0,1.4,0.6,1.4,1.4v3.6c1,5.7,4.2,9.2,9.4,10.3l0.2,0c0.9,0.2,1.9,0,2.6-0.5c1.6-0.9,3.9-3.3,5.8-9.3c0.3-0.7,1.1-1,1.8-0.7
	c0.6,0.3,1,0.9,0.8,1.6c-1.9,5.8-4.5,9.6-7.6,11.1C44.8,62.4,43.8,62.7,42.8,62.7z"/>
<path fill="#3F3B49" d="M19.3,62.7c-1,0-2-0.2-2.9-0.7c-3.1-1.5-5.7-5.2-7.6-11.1c-0.3-0.7,0.1-1.5,0.9-1.8c0.7-0.3,1.5,0.1,1.8,0.9
	c2.1,6.3,4.5,8.6,6.2,9.5c0.7,0.4,1.5,0.5,2.3,0.4l0.2,0c3.1-0.6,5.8-2.4,7.5-5.1c3.9-6.4,1.6-16,1.5-16.1c-0.2-0.7,0.3-1.5,1-1.7
	c0,0,0,0,0,0c0.7-0.2,1.5,0.3,1.7,1c0.1,0.4,2.7,10.9-1.9,18.3c-2.1,3.3-5.4,5.6-9.2,6.3C20.3,62.6,19.8,62.7,19.3,62.7z"/>
<g id="Layer0_6_FILL">
	<path d="M37.1,36.8c-1.6,1.9-3.7,3.3-6,4.1c-4.8-1.5-6.5-4.2-8.4-8c4.8-2.2,9.1-2.8,13-1.8c1.3,0.3,2.6,0.8,3.7,1.5
		C38.8,34.1,38,35.5,37.1,36.8z"/>
</g>
<path d="M31.9,25.4c0.2,0.5,0.6,0.8,1.1,1c0.5,0.1,1,0.1,1.5-0.2c0.7-0.4,1.1-1.1,1-1.9c0-0.3-0.1-0.5-0.2-0.7
	c-0.2-0.5-0.7-0.8-1.2-0.9c-0.2-0.1-0.5-0.1-0.8-0.1c-0.2,0-0.5,0.1-0.7,0.2c-0.5,0.2-0.8,0.7-1,1.2C31.6,24.5,31.6,25,31.9,25.4z"
	/>
</svg>
