<?xml version="1.0" encoding="utf-8"?>
<!-- Generator: Adobe Illustrator 23.0.3, SVG Export Plug-In . SVG Version: 6.00 Build 0)  -->
<svg version="1.1" id="Calque_1" xmlns="http://www.w3.org/2000/svg" xmlns:xlink="http://www.w3.org/1999/xlink" x="0px" y="0px"
	 viewBox="0 0 142.6 100.3" enable-background="new 0 0 142.6 100.3" xml:space="preserve">
<path fill="#E7EDC5" d="M0.3,64.3c-2.8-28.8,17.5-40.6,44.1-45.1c34.7-5.8,42.3,8.9,68.9,11.8c25.8,2.9,43.7,32.3,13.5,52.7
	S5,113.5,0.3,64.3z"/>
<g>
	<g>
		<g>
			<g>
				<path fill="#E9DDC5" d="M92.6,40C92.5,39.8,92.6,40.1,92.6,40L92.6,40z"/>
			</g>
		</g>
		<g>
			<g id="Layer0_1_FILL_253_">
				<g>
					<path fill="#3F3B49" d="M6.6,30.3c1.4,23.9,10.8,44,28.2,60.4c-0.8-2.3-1.4-5.6-1.7-9.9c-0.3-7.2,0.1-14.1,1-20.7
						c0.8-5.8,2.1-11.3,3.8-16.6c-1.2-8.1-3-14.1-5.3-18.1C20.8,20.9,12.2,22.5,6.6,30.3"/>
				</g>
			</g>
		</g>
		<g>
			<path fill="#B0C365" d="M84.1,44.4 M49,33.5l-4.6,2.2c-2,3.8-3.2,4.7-6.5,11.2c-2.4,4.7-3,10.1-3.8,15.6
				c-0.9,6.2-1.3,12.6-1,19.4c0.3,4,0.8,7.1,1.7,9.3c0.6,1.4,1.2,2.4,2,3c3.3,1.7,6.9,2.7,10.7,3c2.7,0.1,5.7,0.2,9,0.3l9.4,0
				c2.2,0,4.3-0.1,6.4-0.1c2.2-0.1,4.4-0.2,6.6-0.2c3.9-0.3,7.1-1,9.6-2.2c2.8-1.3,4.9-3.1,6.2-5.4c1.8-10.1-7.2-34.6-13-48.2"/>
		</g>
		<g>
			<g id="Layer0_1_1_STROKES_254_">
				<path fill="#D9CFC9" d="M27.1,75.8C27,75.8,27,75.8,27.1,75.8c-0.4-0.1-0.5-0.3-0.5-0.6l1.9-11.8l-7.2-3.6
					c-0.2-0.1-0.3-0.4-0.2-0.7c0.1-0.2,0.4-0.3,0.7-0.2l6.9,3.5l1.6-9.9c0-0.3,0.3-0.5,0.6-0.4c0.3,0,0.5,0.3,0.4,0.6l-1.6,10.2
					l3.1,1.6c0.2,0.1,0.4,0.4,0.2,0.7s-0.4,0.3-0.7,0.2l-2.8-1.4l-1.8,11.5C27.5,75.6,27.3,75.8,27.1,75.8z M18.2,50.3
					c-0.1,0-0.2,0-0.3-0.1c-0.2-0.1-0.3-0.5-0.2-0.7l4.8-7.9l-10.1-4.2c-0.3-0.1-0.4-0.4-0.3-0.7c0.1-0.3,0.4-0.4,0.7-0.3l10.3,4.3
					l4.9-8c0.1-0.2,0.5-0.3,0.7-0.2c0.2,0.1,0.3,0.5,0.2,0.7L24,41.1l7.7,3.2c0.3,0.1,0.4,0.4,0.3,0.7c-0.1,0.3-0.4,0.4-0.7,0.3
					L23.5,42l-4.9,8C18.5,50.2,18.3,50.3,18.2,50.3z"/>
			</g>
		</g>
		<g opacity="0.4">
			<path fill="#221D1B" d="M35.8,33.5c0.8,2.9,1.5,6.2,2.1,10c-1.7,5.3-3,10.8-3.8,16.6c-0.9,6.6-1.2,13.5-1,20.7
				c0.3,4.3,0.9,7.6,1.7,9.9c-1.4-1.3-2.8-2.7-4.1-4.1C22.8,67.1,24.4,46.7,35.8,33.5z"/>
		</g>
		<g>
			
				<ellipse transform="matrix(0.9911 -0.133 0.133 0.9911 -8.4891 10.7639)" fill="#EEEAEA" cx="76.3" cy="68.9" rx="12.3" ry="19.1"/>
		</g>
		<g>
			<g>
				<path fill="#3F3B49" d="M85.5,53.4c0,0,6.4-3,8.6-3c1.1,0.8,3,3.7,3,3.7l-7.9,7.6C89.2,61.7,88.1,56.4,85.5,53.4z"/>
			</g>
			<g>
				<path fill="#352B24" d="M92.9,52.5c-0.1,0-0.3-0.1-0.4-0.2c-0.2-0.2-0.1-0.5,0.1-0.7l2.2-1.8c0.2-0.2,0.5-0.1,0.7,0.1
					s0.1,0.5-0.1,0.7l-2.2,1.8C93.1,52.5,93,52.5,92.9,52.5z"/>
			</g>
			<g>
				<path fill="#352B24" d="M94.8,54.1c-0.1,0-0.3-0.1-0.4-0.2c-0.2-0.2-0.2-0.5,0.1-0.7l2.5-2.2c0.2-0.2,0.5-0.2,0.7,0.1
					c0.2,0.2,0.2,0.5-0.1,0.7L95.1,54C95,54.1,94.9,54.1,94.8,54.1z"/>
			</g>
		</g>
		<g>
			<path fill="#3F3B49" d="M62.7,62.3l7.6,6.7c0,0,3.6-1,4.6-1.8c0.4-1.8-4-9.1-4-9.1S69.8,61,62.7,62.3z"/>
		</g>
		<g>
			<path fill="#352B24" d="M75,68.7c-0.2,0-0.3-0.1-0.4-0.2l-1.7-2.3c-0.2-0.2-0.1-0.5,0.1-0.7c0.2-0.2,0.5-0.1,0.7,0.1l1.7,2.3
				c0.2,0.2,0.1,0.5-0.1,0.7C75.2,68.6,75.1,68.7,75,68.7z"/>
		</g>
		<g>
			<path fill="#352B24" d="M73.4,70.3c-0.1,0-0.3-0.1-0.4-0.2l-2.1-2.6c-0.2-0.2-0.1-0.5,0.1-0.7c0.2-0.2,0.5-0.1,0.7,0.1l2.1,2.6
				c0.2,0.2,0.1,0.5-0.1,0.7C73.6,70.2,73.5,70.3,73.4,70.3z"/>
		</g>
		<g opacity="0.15">
			<path fill="#221D1B" d="M42.9,25.7C43,25.7,43,25.7,42.9,25.7c0.2-0.1,0.4-0.2,0.6-0.3L43,24c1.4-4.8,4.1-8.4,8.1-10.8
				c0,0,0.1,0,0.1-0.1"/>
		</g>
		<g>
			<path fill="#3F3B49" d="M62.9,93.8l-4.1,0.3c-1.1,0.9-1.8,2-2.3,3.3c-0.1,0.2-0.2,0.5-0.2,0.8l9.7,0c0-0.3-0.1-0.5-0.2-0.8
				C65.4,95.3,64.4,94.1,62.9,93.8"/>
		</g>
		<g>
			<path fill="#3F3B49" d="M104.7,93.8c-5.3-0.3-10.8,0-16.3,0.8c-2.6,1.2-5.8,2-9.6,2.3c-2.1,0.1-4.3,0.2-6.6,0.3l0,0.8l34.3,0"/>
		</g>
		<g>
			<path fill="#B0C364" d="M53.1,38.6"/>
		</g>
		<g>
			<path fill="none" stroke="#3F3B49" stroke-width="2.7108" stroke-linecap="round" stroke-miterlimit="10" d="M53.1,38.6"/>
		</g>
		<g>
			<path fill="#B0C364" d="M43.8,35.2c0,0-1.3-0.6-2-6.7c-0.6-5.3-4.5-4.8-6.2-6.7c-2-2.3-1.3-4.1,3.1-3.9c2,0.1,3.7-4.4,4.2-5.5
				C44.2,9.2,49,4.8,49,4.8L52.4,3l8.2-1.6l7.9,0.9l8.7,1.5L82,6.3L85.5,18l0.1,12.5l-3.6,8l-1.5,3.9l-3.4-2.9"/>
		</g>
		<g>
			<path fill="#3F3B49" d="M79.9,43.4c-0.2,0-0.5-0.1-0.7-0.2c-8.1-4.6-7.4-14.1-7.4-14.5c0.1-0.7,0.7-1.3,1.5-1.2
				c0.7,0.1,1.3,0.7,1.2,1.5c0,0.4-0.5,8.2,6,11.9c0.7,0.4,0.9,1.2,0.5,1.8C80.8,43.2,80.3,43.4,79.9,43.4z"/>
		</g>
		<g>
			<path fill="#3F3B49" d="M38,25c-0.5,0-0.9-0.1-1.4-0.2C35,24.3,33.7,23,33,21.2c-0.6-1.4-0.2-2.4,0.2-3c1.4-2,5.1-1.9,5.8-1.9
				c0.7,0,1.3,0.7,1.3,1.4c0,0.7-0.7,1.4-1.4,1.3c-1.5-0.1-3.2,0.3-3.5,0.7c0,0,0,0.2,0.1,0.4c0.6,1.3,1.4,1.8,1.9,2
				c0.7,0.2,1.2,0,1.5-0.1c0.6-0.4,1.5-0.3,1.9,0.3c0.4,0.6,0.3,1.5-0.3,1.9C39.8,24.7,38.9,25,38,25z"/>
		</g>
		<g>
			<g>
				<path fill="#E9DDC5" d="M75.5,39.2C75.5,39,75.5,39.3,75.5,39.2L75.5,39.2z"/>
			</g>
			<g>
				<path fill="#E9DDC5" d="M69.5,38.8c1.4-1.6,2.7-2.7,3.1-4.7c0.6,2.3,1.8,4,2.9,5.4c0,2.7-0.4,4.7-0.9,6.7
					c-0.1,0.2-0.1,0.4-0.2,0.6c0,0,0,0.1,0,0.1c0,0,0,0.1,0,0.1c-0.2,0.6-0.7,2.4-0.9,3l-3.3,0c-2.2-2-3.8-4.5-4.9-7.5
					C66.7,41.6,68.1,40.3,69.5,38.8z"/>
			</g>
		</g>
		<g>
			<g id="Layer0_2_1_STROKES_264_">
				<path fill="#3F3B49" d="M73.5,50.4C73.5,50.4,73.5,50.4,73.5,50.4l-3.3-0.1c-0.1,0-0.2-0.1-0.3-0.1c-2.4-2.2-3.7-4.2-4.8-7.1
					c-0.1-0.3,0-0.5,0.3-0.6c0.3-0.1,0.5,0,0.6,0.3c1,2.7,2.2,4.6,4.4,6.6l2.8,0.1c0.2-0.5,0.4-1.2,0.5-1.8c0.1-0.4,0.2-0.8,0.3-0.9
					l0-0.1c0,0,0-0.1,0-0.1c0,0,0,0,0-0.1c0.1-0.2,0.1-0.4,0.2-0.6c0.6-2.1,0.9-3.9,0.9-6.5c0-0.3,0.2-0.5,0.5-0.5
					c0.3,0,0.5,0.2,0.5,0.5c0,2.7-0.4,4.6-1,6.7c-0.1,0.2-0.1,0.4-0.2,0.6c0,0.1,0,0.1-0.1,0.2l0,0.1c-0.1,0.2-0.2,0.6-0.3,0.9
					c-0.3,1.1-0.5,1.9-0.7,2.2C73.8,50.3,73.7,50.4,73.5,50.4z M72.1,46.3C72.1,46.3,72.1,46.3,72.1,46.3c-0.3,0-0.5-0.3-0.5-0.5
					l0.1-1.4c0.2-3.4,0.4-5.9,0.2-10.1c0-0.3,0.2-0.5,0.5-0.5c0.3,0,0.5,0.2,0.5,0.5c0.3,4.2,0.1,6.8-0.2,10.2l-0.1,1.4
					C72.6,46.1,72.4,46.3,72.1,46.3z"/>
			</g>
		</g>
		<g>
			<path fill="#3F3B49" d="M59.4,43.9c-2.6,0-7.5-1.4-11-11.1c-0.3-0.7,0.1-1.5,0.8-1.7s1.5,0.1,1.7,0.8c4,10.8,9.1,9.3,9.4,9.2
				l0.2,0c4.3-0.9,7.4-2.9,9.3-6c3.8-6.1,1.6-14.6,1.5-14.7c-0.2-0.7,0.2-1.5,1-1.7c0.7-0.2,1.5,0.2,1.7,1c0.1,0.4,2.6,9.7-1.8,16.8
				c-2.3,3.7-6,6.2-11,7.2C60.8,43.8,60.2,43.9,59.4,43.9z"/>
		</g>
		<g>
			<g id="Layer0_6_FILL_266_">
				<g>
					<path fill="#000100" d="M76.5,16.5c-1,1.4-2.3,2.6-3.7,3.5c-4-1.3-6.8-3.5-8.4-6.7c4-1.8,7.7-2.3,10.9-1.5
						c1.1,0.3,2.1,0.7,3.1,1.3C77.9,14.3,77.2,15.5,76.5,16.5z"/>
				</g>
			</g>
		</g>
		<g>
			<path fill="#000100" d="M66.5,7.5c0-0.3,0-0.5-0.2-0.8c-0.2-0.2-0.4-0.4-0.7-0.4c-0.1,0-0.3,0-0.4,0c-0.1,0-0.2,0.1-0.4,0.2
				c-0.2,0.2-0.4,0.4-0.4,0.7c0,0.2,0,0.3,0,0.4c0,0.1,0.1,0.3,0.2,0.4c0.1,0.1,0.5-0.7,0.9-0.8C66,7.1,66.5,7.7,66.5,7.5 M59.8,9.5
				c0.1,0.2,0.4-1.2,1.1-1.6c0.8-0.4,2.1,0.3,2,0.2c0-0.2-0.1-0.4-0.3-0.6c-0.3-0.4-0.7-0.6-1.2-0.7c-0.2,0-0.5,0-0.7,0
				c-0.2,0-0.4,0.1-0.6,0.3c-0.4,0.3-0.7,0.7-0.7,1.2C59.4,8.7,59.5,9.1,59.8,9.5z"/>
		</g>
		<g opacity="0.15">
			<path fill="#221D1B" d="M88.8,92.7c-3.4,2.4-17.8,2.6-26.1,2.4c-8.2-0.2-15.6-1.9-19.5-8.7s-0.5-36.9,1.4-42.7
				c2-5.7,8.5-5.7,7.8-6.8L49,31.5l-0.4-0.1c-1.6-3.3-3.6-8.7-2.7-13.5c1.4-7.8,0.6-11.6,6.2-14.2s-2-0.3-2-0.3l-7.2,7.2L40.6,19
				l1.2,8.9l2.8,5.7c-1.6,2.6-3.5,5.3-6.7,11.7c-2.3,4.5-3,10.4-3.8,16c-0.9,6.3-1.3,13-1,20c0.3,4.1,0.8,7.3,1.7,9.5
				c0.6,1.5,1.2,2.5,2,3.1c3.3,1.8,6.9,2.8,10.7,3.1c2.7,0.1,5.7,0.2,9,0.3l9.4,0c2.2,0,4.3-0.1,6.4-0.1c2.2-0.1,4.4-0.2,6.6-0.3
				c3.9-0.3,7.1-1.1,9.6-2.3c2.8-1.3,4.9-3.2,6.2-5.5c0.2-1,0.3-2.1,0.4-3.1C93.6,88.4,91.2,91,88.8,92.7z"/>
		</g>
		<g>
			<path fill="#3F3B49" d="M79.9,43.4c-0.3,0-0.7-0.1-0.9-0.4c-0.5-0.5-0.5-1.4,0-1.9c7.6-7.8,5.8-19.6,5.1-23
				C82.5,11,81.7,8,78.2,5.9c-7.9-3-19-4.6-26.4-1.5C51,4.9,44,9.8,42.3,18c-1.1,5.8,0.6,11.9,5.1,18.3c0.4,0.6,0.3,1.5-0.3,1.9
				c-0.6,0.4-1.5,0.3-1.9-0.3c-5-7-6.8-13.9-5.5-20.4C41.6,7.6,50.1,2.3,50.4,2l0.2-0.1c8.1-3.5,20.2-1.8,28.6,1.4l0.2,0.1
				c4.8,2.8,5.7,7,7.2,14.1C89.8,32.4,83,40.8,80.8,43C80.6,43.3,80.2,43.4,79.9,43.4z"/>
		</g>
		<g>
			<path fill="#3F3B49" d="M56.5,98.8c-3.4-0.1-6.4-0.2-9.1-0.3c-4-0.3-7.7-1.3-11.2-3.1L36,95.2c-1-0.7-1.8-1.9-2.5-3.6
				c-0.9-2.3-1.5-5.5-1.8-9.7c-0.3-6.9,0.1-13.5,1-19.7c0.1-0.6,0.2-1.3,0.3-1.9c0.7-4.8,1.4-9.8,3.7-14.1c2-3.9,3.2-5.8,4.3-7.5
				c0.7-1.1,1.4-2.2,2.2-3.7l2.4,1.3c-0.8,1.6-1.5,2.7-2.3,3.8c-1.1,1.7-2.2,3.6-4.2,7.3c-2,3.9-2.7,8.4-3.4,13.2
				c-0.1,0.6-0.2,1.3-0.3,1.9c-0.9,6-1.2,12.5-1,19.1c0.3,3.8,0.8,6.8,1.6,8.8c0.4,1.1,0.9,1.9,1.5,2.3c3.1,1.6,6.5,2.5,10,2.8
				c2.6,0.1,5.7,0.2,9,0.3l9.3,0c2.2,0,4.3-0.1,6.4-0.1c2.2-0.1,4.4-0.2,6.5-0.2c3.6-0.3,6.7-1,9.1-2.1c2.5-1.1,4.3-2.6,5.4-4.6
				c1.4-8.9-5.7-30.2-12.9-47.2l2.6-1.1c3.6,8.5,15.2,37.2,13,49l0,0.2l-0.1,0.2c-1.4,2.6-3.7,4.6-6.8,6c-2.7,1.2-6.1,2-10.1,2.3
				c-2.2,0.1-4.4,0.2-6.6,0.3c-2.1,0.1-4.3,0.1-6.4,0.1L56.5,98.8z"/>
		</g>
	</g>
	<g>
		<path fill="#F2B643" d="M78.9,41.2l-2.2,0.7c-1.7-1.4-1.2-3.8-1.2-3.8l2.3-0.9L78.9,41.2z"/>
		<path fill="#D89932" d="M76.7,40.8c-1-0.5-1.2-2.7-1.2-2.7s-0.4,2.5,1.2,3.8l2.2-0.7l-0.3-1L76.7,40.8z"/>
		<polygon fill="#A24038" points="89,44.5 89.5,45.8 97.4,43.4 96.9,41.8 		"/>
		<path fill="#DF584C" d="M90.5,46.5c3.1,8.4,7.1,14.5,7.1,14.5l6.1-3c-4.1-6-6.6-13.6-6.6-13.6L90.5,46.5z"/>
		<polygon fill="#B9483E" points="104.7,59 98,62.6 97.3,61.1 104,57.7 		"/>
		<path fill="#D1D5D5" d="M123.7,49.2c-14.4-7.2-19.6-7.9-23.4-7.8c-3.8,0-8.6,2.5-8.6,2.5l-4.9-16.4c0,0,5.1-0.2,10.3-4
			c5.2-3.9,13.2-17.6,13.2-17.6L123.7,49.2z"/>
		<path fill="#DF584C" d="M91.7,43.8c0,0-11.7,4.6-14-5.3c-2.3-9.9,9.1-11,9.1-11L91.7,43.8z"/>
		<path fill="#C6CBCB" d="M100.9,36.7c4.9,0.1,12.3,2.8,12.3,2.8l8.5,3.5l1.9,6.2c-14.4-7.2-19.6-7.9-23.4-7.8
			c-3.8,0-8.6,2.5-8.6,2.5l-1.4-4.7C90.3,39.2,96,36.7,100.9,36.7z"/>
		<path fill="#B9483E" d="M84.9,39.2c3.4,0.6,5.4-0.1,5.4-0.1l1.4,4.7c0,0-11.7,4.6-14-5.3c-0.7-2.8-0.2-4.9,0.8-6.5
			C78.4,32,79.6,38.3,84.9,39.2z"/>
		<path fill="#E2E5E7" d="M97,25.5c3.7-2.3,6.3-5.8,7.7-8c1.3-2,6.2-9.8,6.2-9.8l-0.6-1.9c0,0-8,13.8-13.2,17.6
			c-5.2,3.9-10.3,4-10.3,4l0.4,1.2C91.9,28.1,95.6,26.4,97,25.5z"/>
		<path fill="#A24038" d="M110.6,5.7c-1.5,0.5,0.2,10.6,3.8,22.6c3.6,12,7.8,21.4,9.3,20.9c1.5-0.5-0.2-10.6-3.8-22.6
			C116.3,14.6,112.1,5.2,110.6,5.7z"/>
		<path fill="#DF584C" d="M122.8,46.4c-1.4-0.3-5.6-14.1-7.1-18.2c-1.5-4.1-5.1-19.7-4.3-20.1c0.8-0.4,2.1,1.5,2.1,1.5
			c-1.3-2.6-2.3-4-2.9-3.9c-1.5,0.5,0.2,10.6,3.8,22.6c3.6,12,7.8,21.4,9.3,20.9c0.9-0.3,0.6-4.1-0.5-9.7
			C123.2,39.5,124.2,46.7,122.8,46.4z"/>
		<path fill="#F2B643" d="M114.2,22.8c0,0,5-1.1,6.6,3.8c1.6,4.8-3.3,7-3.3,7C115.6,28.2,114.2,22.8,114.2,22.8z"/>
		<path fill="#E56761" d="M78,32.9c2.1-4.7,8.8-5.4,8.8-5.4l0.4,1.2C80,28.9,78,32.9,78,32.9z"/>
		<path fill="#D89932" d="M117.1,30.4c-1-1.9-2.3-7.6-2.3-7.6c-0.4,0-0.6,0.1-0.6,0.1s1.4,5.3,3.3,10.7c0,0,0.7-0.3,1.5-0.9
			C119,32.6,118.2,32.3,117.1,30.4z"/>
		<path opacity="0.37" fill="#B9483E" enable-background="new    " d="M100.1,56.5c0,0-1.8,1.4-2.8,0.1c-1.7-2.3-5.1-10.6-5.1-10.6
			l-1.7,0.5c3.1,8.4,7.1,14.5,7.1,14.5l6.1-3c-0.2-0.2-1.2-2-1.4-2.2L100.1,56.5z"/>
		<path opacity="0.47" fill="#B9483E" enable-background="new    " d="M103.7,58l-6.1,3c0,0-0.1-0.2-0.4-0.6l6-3.1
			C103.4,57.5,103.6,57.8,103.7,58z"/>
		<polygon fill="#B9483E" points="89.5,45.7 89.8,46.9 97.8,44.3 97.4,43.3 		"/>
	</g>
</g>
</svg>
