<?xml version="1.0" encoding="utf-8"?>
<!-- Generator: Adobe Illustrator 23.0.3, SVG Export Plug-In . SVG Version: 6.00 Build 0)  -->
<svg version="1.1" id="Calque_1" xmlns="http://www.w3.org/2000/svg" xmlns:xlink="http://www.w3.org/1999/xlink" x="0px" y="0px"
	 viewBox="0 0 28 28" enable-background="new 0 0 28 28" xml:space="preserve">
<circle id="Ellipse_176" fill="#B0C365" cx="14" cy="14" r="14"/>
<g id="facebook-placeholder-for-locate-places-on-maps" transform="translate(-58.904 5.096)">
	<path id="Facebook_Places" fill="#FFFFFF" d="M79.2,4.5C79.1,4.3,79,4,78.9,3.8c-1.3-3.2-5-4.7-8.2-3.3c-2.1,0.9-3.6,2.9-3.8,5.2
		v0.8c0,0,0,0.3,0,0.5c0.2,1.8,1.7,3.7,2.7,5.6c1.2,1.9,2.3,3.9,3.5,5.8c0.7-1.2,1.5-2.5,2.2-3.7c0.2-0.4,0.4-0.7,0.6-1.1
		c0.1-0.2,0.4-0.5,0.5-0.7c1.2-2.1,3-4.2,3-6.3V5.6C79.4,5.2,79.3,4.9,79.2,4.5z M73.2,8.4c-1,0-2.6-0.3-2.6-2.2
		c0-1.7,1.3-2.4,2.5-2.4c0,0,0.1,0,0.1,0c1.3,0,2.3,1,2.3,2.3c0,0,0,0,0,0C75.5,7.4,74.4,8.5,73.2,8.4z"/>
</g>
</svg>
