<?xml version="1.0" encoding="utf-8"?>
<!-- Generator: Adobe Illustrator 23.1.1, SVG Export Plug-In . SVG Version: 6.00 Build 0)  -->
<svg version="1.1" id="Calque_1" xmlns="http://www.w3.org/2000/svg" xmlns:xlink="http://www.w3.org/1999/xlink" x="0px" y="0px"
	 viewBox="0 0 707.5 145.9" style="enable-background:new 0 0 707.5 145.9;" xml:space="preserve">
<style type="text/css">
	.st0{fill:#E67855;}
	.st1{fill:#FFD7A3;}
	.st2{fill:#734A3E;}
	.st3{fill:#623F33;}
	.st4{fill:#FFE1B2;}
	.st5{fill:#E4B07B;}
	.st6{fill:#08124E;}
</style>
<path class="st0" d="M558.2,32.2c0-4.5,4-8.7,9.1-8.7c4.7,0,8.9,4.2,8.9,8.7c0,5.1-4.2,9.1-8.9,9.1
	C562.1,41.3,558.2,37.3,558.2,32.2z"/>
<path class="st0" d="M384.8,32.2c0-4.5,4-8.7,9.1-8.7c4.7,0,8.9,4.2,8.9,8.7c0,5.1-4.2,9.1-8.9,9.1
	C388.8,41.3,384.8,37.3,384.8,32.2z"/>
<g>
	<path class="st1" d="M98.3,138.9l17.9-7.5c9.3-3.9,15.4-13,15.4-23.1v-4.2c6.9,0,12.5-5.6,12.5-12.5c0-3.4-1.4-6.5-3.6-8.8
		l4.4-35.2c2.1-16.4-5.6-32.5-19.6-41.3C118.6,2.2,110.8,0,102.8,0c0,0-59.6,0-59.9,0c-8.7,0.4-16.3,5.3-20.4,12.5h-1.2
		C9,12.5-1.3,23,0.1,35.2c0,0.1,0,0.2,0,0.3L6,82.9c-2.2,2.3-3.6,5.4-3.6,8.8c0,6.9,5.6,12.5,12.5,12.5v4.2
		c0,10.1,6.1,19.2,15.4,23.1l18,7.5"/>
	<path class="st2" d="M125.3,6.5C118.6,2.2,110.8,0,102.8,0h-0.3v87.5H140l5-39.8C147,31.3,139.4,15.2,125.3,6.5z"/>
	<g>
		<path class="st3" d="M0.1,35.2c0,0.1,0,0.2,0,0.3l6.5,52h25v-75H21.3C9,12.5-1.3,23,0.1,35.2z"/>
	</g>
	<path class="st4" d="M131.7,79.2v-8.3c0-11.5-9.3-20.8-20.8-20.8h-75C24.3,50,15,59.3,15,70.8v8.3c-6.9,0-12.5,5.6-12.5,12.5
		s5.6,12.5,12.5,12.5v4.2c0,10.1,6.1,19.2,15.4,23.1l26.9,11.2c5.1,2.1,10.5,3.2,16,3.2l0,0c5.5,0,10.9-1.1,16-3.2l26.9-11.2
		c9.3-3.9,15.4-13,15.4-23.1v-4.2c6.9,0,12.5-5.6,12.5-12.5C144.2,84.8,138.6,79.2,131.7,79.2z"/>
	<g>
		<path class="st3" d="M44.2,95.8L44.2,95.8c-2.3,0-4.2-1.9-4.2-4.2v-4.2c0-2.3,1.9-4.2,4.2-4.2l0,0c2.3,0,4.2,1.9,4.2,4.2v4.2
			C48.3,94,46.5,95.8,44.2,95.8z"/>
	</g>
	<g>
		<path class="st3" d="M102.5,95.8L102.5,95.8c-2.3,0-4.2-1.9-4.2-4.2v-4.2c0-2.3,1.9-4.2,4.2-4.2l0,0c2.3,0,4.2,1.9,4.2,4.2v4.2
			C106.7,94,104.8,95.8,102.5,95.8z"/>
	</g>
	<g>
		<g>
			<path class="st5" d="M73.3,125.1c-7.4,0-14.3-1.8-19-5c-1.9-1.3-2.4-3.9-1.1-5.8c1.3-1.9,3.9-2.4,5.8-1.1
				c3.3,2.2,8.6,3.6,14.3,3.6s11-1.3,14.3-3.6c1.9-1.3,4.5-0.8,5.8,1.1s0.8,4.5-1.1,5.8C87.7,123.3,80.7,125.1,73.3,125.1z"/>
		</g>
	</g>
	<path class="st1" d="M110.8,50h-75c-1.4,0-2.8,0.1-4.2,0.4l0,0C22.2,52.4,15,60.8,15,70.8v8.3c-6.9,0-12.5,5.6-12.5,12.5
		s5.6,12.5,12.5,12.5v4.2c0,10.1,6.1,19.2,15.4,23.1l26.9,11.2c1.3,0.5,2.7,1,4,1.4c-11.9-8.7-19.8-16.3-24.5-21.3
		c-3.4-3.6-5.2-8.4-5.2-13.3V62.2c23.1,18.5,73,17,100,17v-8.3C131.7,59.3,122.3,50,110.8,50z"/>
	<path class="st2" d="M102.5,0H44.2c-13.8,0-25,11.2-25,25l0,0c0,24.1,22.9,38.7,41.7,45.8c0,0-2.1-3.8-4.9-9.5
		c16.6,5.6,42.3,9.5,77.3,9.5c0,0,0-9,0-12C133.2-1.9,102.5,0,102.5,0z"/>
	<path class="st0" d="M131.8,75h-21.3l0,0c-2.4-1.3-5.1-2.1-8-2.1c-7.7,0-14.2,5.2-16.1,12.3c-2.4-4.8-7.4-8.1-13.1-8.1
		s-10.7,3.3-13.1,8.1c-1.9-7.1-8.4-12.3-16.1-12.3c-2.9,0-5.6,0.8-8,2.1H15c-1.2,0-2.1,0.9-2.1,2.1s0.9,2.1,2.1,2.1h16.2
		c-2.3,2.9-3.7,6.5-3.7,10.4c0,9.2,7.5,16.7,16.7,16.7c7.8,0,14.3-5.4,16.2-12.6c0.2,0,0.3,0.1,0.5,0.1c1.2,0,2.1-0.9,2.1-2.1
		c0-5.7,4.7-10.4,10.4-10.4c5.7,0,10.4,4.7,10.4,10.4c0,1.2,0.9,2.1,2.1,2.1c0.2,0,0.3,0,0.5-0.1c1.8,7.2,8.4,12.6,16.2,12.6
		c9.2,0,16.7-7.5,16.7-16.7c0-3.9-1.4-7.6-3.7-10.4H132c1.2,0,2.1-0.9,2.1-2.1S133,75,131.8,75z M44.2,102.1
		c-6.9,0-12.5-5.6-12.5-12.5s5.6-12.5,12.5-12.5s12.5,5.6,12.5,12.5S51.1,102.1,44.2,102.1z M102.5,102.1c-6.9,0-12.5-5.6-12.5-12.5
		s5.6-12.5,12.5-12.5S115,82.7,115,89.6S109.4,102.1,102.5,102.1z"/>
</g>
<path class="st6" d="M186.4,141.5c-4.5,0-6.3-2.8-4.4-7l55.5-123.7c1.5-3,3.6-4.5,7-4.5h5.1c3.4,0,5.5,1.5,7,4.5l55.5,123.7
	c1.9,4.2,0,7-4.5,7h-2.3c-3.4,0-5.5-1.5-7-4.5l-22.2-49.3h-58.2l-22,49.3c-1.5,3-3.6,4.5-7,4.5H186.4z M247.3,22.9L224,74.4h46.4
	L247.3,22.9z"/>
<path class="st6" d="M341.4,69.5c5.5-6.3,13.1-10.8,22-12.1c4-0.8,6.3,1.7,6.3,5.7v0.4c0,4-2.1,5.7-5.9,6.4
	c-12.3,1.9-22.4,10.8-22.4,25.6v40c0,4-2.1,6.1-6.1,6.1h-0.6c-4,0-6.1-2.1-6.1-6.1V64.2c0-4,2.1-6.1,6.1-6.1h0.6
	c4,0,6.1,2.1,6.1,6.1V69.5z"/>
<path class="st6" d="M393.5,141.5c-4,0-6.1-2.1-6.1-6.1V64.2c0-4,2.1-6.1,6.1-6.1h1.1c4,0,6.1,2.1,6.1,6.1v71.2c0,4-2.1,6.1-6.1,6.1
	H393.5z"/>
<path class="st6" d="M468.9,74.3c-2.8-3.4-8.1-5.5-15.2-5.5c-10,0-17.1,4.7-17.1,11s5.5,9.9,19.1,12.5c21.4,4.4,29.9,11.7,29.9,25.6
	c0,14.6-11.2,25-32,25c-15.9,0-27.3-7.4-30.9-18.6c-1.3-4,1.3-6.4,5.5-6.4c3.4,0,4.9,1.7,6.8,4.5c3.2,4.9,10.2,8.5,18.6,8.5
	c12.3,0,20.5-5.5,20.5-13.1c0-8-5.3-10.6-20.5-13.6c-19.9-4-28.8-11.2-28.8-24.4c0-12.7,9.9-22.9,28.8-22.9
	c13.5,0,23.1,6.1,27.1,15.2c1.7,4-0.8,6.6-4.9,6.6C472.5,78.6,471,76.9,468.9,74.3z"/>
<path class="st6" d="M536.9,69.7h-12.7v65.8c0,4-2.1,6.1-6.1,6.1h-0.6c-4,0-6.1-2.1-6.1-6.1V69.7H505c-4,0-6.1-2.1-6.1-6.1
	c0-3.6,2.1-5.5,6.1-5.5h6.4V31.4c0-4,2.1-6.1,6.1-6.1h0.6c4,0,6.1,2.1,6.1,6.1v26.7h12.7c4,0,6.1,1.9,6.1,5.7S540.9,69.7,536.9,69.7
	z"/>
<path class="st6" d="M566.9,141.5c-4,0-6.1-2.1-6.1-6.1V64.2c0-4,2.1-6.1,6.1-6.1h1.1c4,0,6.1,2.1,6.1,6.1v71.2c0,4-2.1,6.1-6.1,6.1
	H566.9z"/>
<path class="st6" d="M608.8,141.5c-4,0-6.1-2.1-6.1-6.1V12.3c0-4,2.1-6.1,6.1-6.1h29.9c49.1,0,68.8,19.3,68.8,67.6
	s-19.7,67.6-68.8,67.6h-29.9V141.5z M638.7,128.3c38.8,0,54.4-15.5,54.4-54.4c0-38.8-15.5-54.4-54.4-54.4h-22.2v108.8H638.7z"/>
</svg>
