<?xml version="1.0" encoding="utf-8"?>
<!-- Generator: Adobe Illustrator 23.0.2, SVG Export Plug-In . SVG Version: 6.00 Build 0)  -->
<svg version="1.1" id="Calque_1" xmlns="http://www.w3.org/2000/svg" xmlns:xlink="http://www.w3.org/1999/xlink" x="0px" y="0px"
	 viewBox="0 0 195.8 157.8" enable-background="new 0 0 195.8 157.8" xml:space="preserve">
<title>maison-actu</title>
<polygon fill="#CC5227" points="142.9,60.3 142.6,8.6 148.7,8.1 148.7,0 110.9,2.5 110.9,11.6 118.9,11.3 120.3,40.4 "/>
<polygon fill="#A14225" points="148.7,0 148.7,5.3 117.9,6.7 114.6,2.2 "/>
<path fill="#B4CE5C" d="M180.6,151.2l3-10.3l-6-17.3c-3.5-10.2-14.7-15.6-24.9-12.1c-0.2,0.1-0.5,0.2-0.7,0.3l-12.8,5l-1.4,19
	l3.5,15.4H180.6z"/>
<polygon fill="#A4B45C" points="180.6,151.2 183.6,140.9 166.8,144.5 149.2,112.8 139.2,116.8 137.7,135.7 141.2,151.2 "/>
<polygon fill="#EFD99D" points="153.1,59.5 12.5,64.8 17.5,151.2 146.6,151.2 "/>
<polygon fill="#CC5227" points="160.6,66.5 6,75.6 47.5,10.1 97.9,4.5 "/>
<path fill="#A14225" d="M101.8,70c-25.4-8.7-51-17.1-77-24.1L6,75.6L101.8,70z"/>
<polygon fill="#7E6467" points="68.4,151.2 64.1,91.6 101.6,89.5 97.6,151.2 "/>
<polygon fill="#FBCB8D" points="71.5,151.2 67.7,94.8 97.9,93.1 94.5,151.2 "/>
<polygon fill="#F7B46E" points="94.5,151.2 74.9,135.1 72.9,94.5 67.7,94.8 71.5,151.2 "/>
<polygon fill="#7E6467" points="92.3,117 89.5,117 88.7,123.2 92.3,123.2 "/>
<polygon fill="#7E6467" points="160.6,66.5 160.6,75.6 7.3,82.9 6,75.6 "/>
<path fill="#FBCB8D" d="M22.2,93.4c0.1,0.7,1.8,34.2,1.8,34.2l28.7-2.4l3.1-31.8H22.2z"/>
<path fill="#7594AD" d="M26.5,124.8c-0.8-17-1.1-24.9-1.4-28.7h27.7l-2.4,26.5L26.5,124.8z"/>
<path fill="#92ABBE" d="M31.1,96.1c-1.8,2-3.8,3.9-5.7,5.7c0.1,1.7,0.2,3.7,0.3,6c3.5-3.8,7.1-7.6,10.5-11.8L31.1,96.1z"/>
<path fill="#92ABBE" d="M38.4,96.1c-4.1,5.3-8.3,10.5-12.5,15.7c0,0.7,0.1,1.3,0.1,2c4.7-5.7,9.2-11.8,14-17.7L38.4,96.1z"/>
<path fill="#92ABBE" d="M52.7,97.4c-8.6,8.8-17.4,17.4-26.3,25.1c0,0.8,0.1,1.5,0.1,2.3l1.3-0.1c8.3-7.2,16.4-15.3,24.5-23.2
	L52.7,97.4z"/>
<path fill="#92ABBE" d="M52,105.1c-6.5,7.1-13.5,12.7-20.1,19.2l3.5-0.3c5.8-4.7,11.2-9.7,16.3-15.2L52,105.1z"/>
<polygon fill="#FBCB8D" points="37.1,94.5 37.1,124.8 39.8,124.8 40.6,94.5 "/>
<polygon fill="#FBCB8D" points="52.5,107.8 25.2,107.8 25.2,110.6 52.5,111.4 "/>
<polygon fill="#7E6467" points="54.3,124.8 22.7,126.9 23.1,131.5 53.8,130 "/>
<path fill="#FBCB8D" d="M109.8,89.5c0.1,0.7,1.8,34.2,1.8,34.2l28.7-2.4l3.1-31.8H109.8z"/>
<path fill="#7594AD" d="M114.1,120.9c-0.8-17-1.2-24.9-1.4-28.7h27.7l-2.4,26.5L114.1,120.9z"/>
<path fill="#92ABBE" d="M118.7,92.2c-1.8,2-3.8,3.9-5.7,5.7c0.1,1.7,0.2,3.7,0.3,6c3.5-3.8,7.1-7.6,10.4-11.8L118.7,92.2z"/>
<path fill="#92ABBE" d="M126,92.2c-4.1,5.3-8.3,10.5-12.5,15.7c0,0.7,0.1,1.3,0.1,2c4.7-5.7,9.2-11.8,14-17.7L126,92.2z"/>
<path fill="#92ABBE" d="M140.3,93.5c-8.6,8.8-17.3,17.4-26.3,25.1c0,0.8,0.1,1.5,0.1,2.3l1.3-0.1c8.3-7.2,16.4-15.3,24.5-23.2
	L140.3,93.5z"/>
<path fill="#92ABBE" d="M139.6,101.2c-6.5,7.1-13.5,12.7-20.1,19.2l3.5-0.3c5.8-4.7,11.2-9.7,16.3-15.1L139.6,101.2z"/>
<polygon fill="#FBCB8D" points="124.7,90.6 124.7,120.9 127.3,120.9 128.2,90.6 "/>
<polygon fill="#FBCB8D" points="140.1,104 112.8,104 112.8,106.7 140.1,107.6 "/>
<polygon fill="#7E6467" points="141.9,120.9 110.2,123.1 110.7,127.6 141.3,126.1 "/>
<polygon fill="#B4CE5C" points="188.8,151.2 17.5,151.2 6,157.8 195.8,157.8 "/>
<polygon fill="#A4B45C" points="68.4,151.2 54.3,157.8 0,157.8 11.5,151.2 "/>
</svg>
