<?xml version="1.0" encoding="utf-8"?>
<!-- Generator: Adobe Illustrator 23.0.3, SVG Export Plug-In . SVG Version: 6.00 Build 0)  -->
<svg version="1.1" id="Calque_1" xmlns="http://www.w3.org/2000/svg" xmlns:xlink="http://www.w3.org/1999/xlink" x="0px" y="0px"
	 viewBox="0 0 253.9 162.8" enable-background="new 0 0 253.9 162.8" xml:space="preserve">
<path id="Tracé_4956" fill="#E2E8BE" enable-background="new    " d="M2.6,91.7C-2.2,34.9,33,11.4,79.3,2.7
	c60.4-11.5,73.7,17.5,120,23.4c44.9,5.7,76,63.7,23.5,104.1S10.9,188.9,2.6,91.7z"/>
<g id="Groupe_3271" transform="translate(-59.717 -573.862)">
	<g id="Groupe_2859" transform="translate(59.717 576.862)">
		<g id="Groupe_2858" transform="translate(8.656 0)">
			<g id="Groupe_2852" transform="translate(77.616)">
				<path id="Tracé_4359" fill="#D34738" d="M69.8,37.1l2.4-26.6h6.1V2.4l-38-1v9.2l8,0.5l4.3,27.4L69.8,37.1z"/>
				<path id="Tracé_4360" fill="#E75749" d="M78.3,2.4v5.3L47.4,6.3l-3.3-4.8L78.3,2.4z"/>
			</g>
			<g id="Groupe_2857" transform="translate(0 16.197)">
				<path id="Tracé_4361" fill="#E75749" d="M184.2,49l-19.6-37.5L23.9,13.7L5.7,52.5L184.2,49z"/>
				<path id="Tracé_4362" fill="#EFEFE7" d="M12.5,53.8l3.9,67.7h34.9c-8.1-22.7-17-45-23.5-68.2L12.5,53.8z"/>
				<path id="Tracé_4363" fill="#F7F4E2" d="M183.2,48.8L27.8,53.4c6.5,23.1,15.5,45.5,23.5,68.2h124.2L183.2,48.8z"/>
				<path id="Tracé_4364" fill="#CCCCBE" d="M83,121.5l4.7-70.8l1.6,3.9l-4.3,66.9L83,121.5z"/>
				<path id="Tracé_4365" fill="#6B5255" d="M187.5,52.3L4.1,55l0.2-4.8l183.5-3.7L187.5,52.3z"/>
				<g id="Groupe_2853" transform="translate(9.545)">
					<path id="Tracé_4366" fill="#F7F4E2" d="M18.8,121.6l-2.7-72l31.8-38.5l30.3,39.6l-4.7,70.8H18.8z"/>
					<path id="Tracé_4367" fill="#6B5255" d="M86.4,53.6L47.1,9L8.5,55l5.5,4.1l33.6-40.8l33.9,40.2L86.4,53.6z"/>
				</g>
				<g id="Groupe_2855" transform="translate(73.729 36.085)">
					<path id="Tracé_4368" fill="#FFBF7A" d="M38.5,25.9c0.2,0.7,2.7,34.7,2.7,34.7L86,58l4.8-32.2L38.5,25.9z"/>
					<path id="Tracé_4369" fill="#5F849F" d="M43.8,57.6c-1.3-17.2-1.9-25.2-2.3-29h46.1l-4,26.8L43.8,57.6z"/>
					<g id="Groupe_2854" transform="translate(2.384 1.866)">
						<path id="Tracé_4370" fill="#7F9DB2" d="M49.1,26.7c-3,2-6.3,3.9-9.5,5.8c0.1,1.7,0.3,3.7,0.5,6.1
							c5.9-3.9,11.8-7.7,17.4-11.9L49.1,26.7z"/>
						<path id="Tracé_4371" fill="#7F9DB2" d="M61.2,26.7c-6.8,5.4-13.8,10.6-20.8,15.9c0,0.7,0.1,1.3,0.2,2
							c7.8-5.8,15.4-12,23.3-17.9L61.2,26.7z"/>
						<path id="Tracé_4372" fill="#7F9DB2" d="M85.1,28c-14.4,9-28.9,17.6-43.8,25.4l0.2,2.3l2.2-0.1c13.8-7.3,27.2-15.5,40.8-23.5
							L85.1,28z"/>
						<path id="Tracé_4373" fill="#7F9DB2" d="M83.9,35.8C73.1,43,61.4,48.7,50.4,55.3l5.9-0.3c9.3-4.6,18.3-9.7,27.1-15.3
							L83.9,35.8z"/>
					</g>
					<path id="Tracé_4374" fill="#FFBF7A" d="M62.6,27v30.6h2.7L66.3,27H62.6z"/>
					<path id="Tracé_4375" fill="#FFBF7A" d="M87.2,40.5H41.7v2.7l45.4,0.9V40.5z"/>
					<path id="Tracé_4376" fill="#6B5255" d="M88.5,57.6l-49.3,2.2l0.7,4.6l47.7-1.5L88.5,57.6z"/>
				</g>
				<circle id="Ellipse_373" fill="#FFBF7A" cx="56.7" cy="42" r="8.1"/>
				<path id="Tracé_4377" fill="#5F849F" d="M62,42c0,2.9-2.3,5.2-5.2,5.2c-2.9,0-5.2-2.3-5.2-5.2c0-2.9,2.3-5.2,5.2-5.2
					c0,0,0,0,0,0C59.6,36.7,62,39.1,62,42C62,42,62,42,62,42z"/>
				<path id="Tracé_4378" fill="#7F9DB2" d="M58.9,37.2c-2.6-1.2-5.7-0.1-7,2.5c-0.5,1.1-0.6,2.3-0.4,3.4
					C54.1,41.2,56.5,39.2,58.9,37.2z"/>
				<path id="Tracé_4379" fill="#7F9DB2" d="M61,39c-2.7,2.2-5.4,4.5-8.1,6.6c0.6,0.6,1.3,1.1,2.1,1.4c2.3-1.8,4.7-3.5,7-5.2
					C61.9,40.7,61.6,39.8,61,39z"/>
				<g id="Groupe_2856" transform="translate(21.92 34.157)">
					<path id="Tracé_4380" fill="#6B5255" d="M18.7,87.4L14.3,27l38-2.1l-4,62.4H18.7z"/>
					<path id="Tracé_4381" fill="#FFBF7A" d="M21.9,87.4L18,30.3l30.6-1.7l-3.5,58.8H21.9z"/>
					<path id="Tracé_4382" fill="#FAA459" d="M18,30.3l25.5,13.9l-3.3,42.9l5.3,0.2l3.1-59L18,30.3z"/>
					<path id="Tracé_4383" fill="#6B5255" d="M42.9,52.8H40l-0.8,6.3h3.7L42.9,52.8z"/>
				</g>
			</g>
		</g>
		<path id="Tracé_4384" fill="#9DA747" d="M8.2,137.7L0,144.9h87.1c4-2.4,8.1-4.8,12.2-7.2H8.2z"/>
		<path id="Tracé_4385" fill="#B2C545" d="M139.8,144.9h61.9l-9.8-7.2H99.3c-4.1,2.3-8.2,4.7-12.2,7.2h22.3l10.3,6.4l-1.1-6.4
			l12.8,8.5l-3-8.5l12.9,6.1L139.8,144.9z"/>
	</g>
	<g id="Groupe_2861" transform="translate(121.687 605.777)">
		<path id="Tracé_4386" fill="#282120" d="M108.4,63.4l-6.7,45l-1.5,0.3l7.3-44.2L108.4,63.4z"/>
		<path id="Tracé_4387" fill="#402610" d="M89.3,108.7h10.9l8.2-49.4H97.4L89.3,108.7z"/>
		<path id="Tracé_4388" fill="#5F3328" d="M33.1,57l141.2,14.7L190,26.1L29,14.9L33.1,57z"/>
		<path id="Tracé_4389" fill="#3F1D18" d="M29,14.9h9.9L192,24.3l-1.9,1.8L29,14.9z"/>
		<path id="Tracé_4390" fill="#3E2523" d="M192,24.3l-15.5,46.5l-2.1,0.9L190,26.1L192,24.3z"/>
		<path id="Tracé_4391" opacity="0.65" fill="#282120" enable-background="new    " d="M95.9,68.5l10.5,2.3l1-6.3l-10.7-1.2
			L95.9,68.5z"/>
		<g id="Groupe_2860" transform="translate(6.653 3.086)">
			<path id="Tracé_4392" fill="#FFFFFF" d="M41.5,44.9c-1.2,0.1-2.3,0.2-3.5,0.4c-0.4,0.7-0.8,1.3-1.1,1.8
				c-0.3,0.6-0.6,1.1-0.9,1.7c-0.1,0.2-0.3,0.4-0.6,0.5c-0.3,0-0.6-0.1-0.9-0.2c-0.2-0.1-0.5-0.2-0.7-0.4c-0.3-0.1-0.5-0.3-0.8-0.4
				c-0.2-0.2-0.4-0.3-0.5-0.4c-0.3-0.2-0.5-0.6-0.4-0.9c0-0.3,0.1-0.6,0.2-0.9c0.5-1.2,1.2-2.5,2-4.1c0.8-1.6,1.7-3.2,2.6-4.9
				s1.8-3.3,2.8-4.9c0.9-1.6,1.8-3.1,2.7-4.3c0.3-0.4,0.7-0.8,1.1-1.1c0.6-0.3,1.3-0.4,1.9-0.2c0.7,0.1,1.3,0.2,1.9,0.3
				c0.6,0.1,1.1,0.3,1.5,0.4c0.5,0.1,0.9,0.3,1.3,0.4c0.4,0.2,0.8,0.3,1.2,0.4c0.4,0.1,0.8,0.4,1,0.8c0.1,0.4,0.1,0.8,0,1.2
				c-0.2,1.2-0.4,2.7-0.6,4.3c-0.2,1.6-0.4,3.3-0.6,5c-0.2,1.7-0.3,3.5-0.5,5.3c-0.1,1.8-0.3,3.4-0.4,4.9c0,0.2-0.1,0.5-0.2,0.6
				c-0.3,0.1-0.6,0.2-0.9,0.1c-0.5,0-0.9-0.1-1.3-0.1c-0.4-0.1-0.8-0.2-1.2-0.3c-0.3-0.1-0.6-0.3-0.8-0.5c-0.2-0.3-0.3-0.7-0.3-1.1
				c0-0.5,0-1.1-0.1-1.7c0-0.6,0-1.3,0-2C44.1,44.8,42.8,44.9,41.5,44.9z M41.7,17.5c0.2-0.3,0.5-0.6,0.8-0.7
				c0.5-0.3,1.1-0.4,1.6-0.4c0.4,0,0.8,0.2,1.1,0.4c1.1,1.1,2.4,2,3.7,2.9c1.4,0.9,2.8,1.8,4.1,2.5c0.3,0.2,0.4,0.4,0.5,0.6
				c0,0.2,0,0.4-0.1,0.5c-0.1,0.1-0.2,0.3-0.3,0.4c-0.1,0.1-0.2,0.1-0.2,0.1c-0.5,0.2-1,0.4-1.5,0.5c-0.4,0.1-0.8,0-1.2-0.2
				c-0.8-0.4-1.6-0.8-2.5-1.2c-0.8-0.5-1.7-0.9-2.5-1.4c-0.8-0.5-1.5-1-2.2-1.4s-1.3-0.9-1.7-1.3C41.4,18.3,41.5,17.9,41.7,17.5
				L41.7,17.5z M43.1,40.5c0.8,0,1.6,0,2.4,0c0.1-1.4,0.2-2.9,0.3-4.3c0.1-1.4,0.2-2.8,0.4-4.2c-0.8,1.2-1.7,2.6-2.6,4.1
				c-0.9,1.5-1.9,3-2.8,4.6C41.5,40.6,42.3,40.5,43.1,40.5L43.1,40.5z"/>
			<path id="Tracé_4393" fill="#FFFFFF" d="M81.1,36.2c-0.5,1-1,2-1.6,3.1c-0.6,1.1-1.2,2.2-1.8,3.4c-0.6,1.2-1.3,2.3-1.9,3.4
				c-0.6,1.1-1.2,2.1-1.8,3.1c-0.6,1-1.1,1.8-1.5,2.5c-0.2,0.3-0.5,0.6-0.9,0.7c-0.5,0.1-1,0-1.4-0.2c-0.6-0.2-1.2-0.4-1.7-0.7
				c-0.5-0.2-1.1-0.5-1.6-0.8c-0.6-0.3-1.1-0.8-1.4-1.3c-0.3-0.4-0.5-0.9-0.6-1.4c-0.4-2.4-0.8-5.2-1-8.2c-0.2-3-0.4-6.4-0.5-10
				c0-0.3,0-0.7,0.2-1c0.1-0.2,0.5-0.3,1-0.2c0.5,0,0.9,0.1,1.4,0.2c0.5,0.1,0.9,0.3,1.3,0.5c1,0.4,1.7,1.4,1.8,2.5
				c0,0.9,0.1,1.8,0.1,2.9s0.1,2.3,0.1,3.5c0,1.2,0.1,2.5,0.2,3.8c0.1,1.3,0.1,2.6,0.2,3.9c1.4-2.4,2.7-5,4-7.8
				c1.3-2.7,2.6-5.4,3.9-8.1c0.1-0.3,0.3-0.5,0.6-0.6c0.2-0.1,0.5-0.1,0.8,0c0.3,0.1,0.6,0.2,0.9,0.4c0.3,0.2,0.6,0.4,0.9,0.6
				c0.3,0.2,0.6,0.4,0.9,0.7c0.2,0.2,0.4,0.4,0.6,0.7c0.1,0.3,0.2,0.5,0.2,0.8c0,0.4-0.1,0.7-0.3,1C82,34.4,81.6,35.3,81.1,36.2z"/>
			<path id="Tracé_4394" fill="#FFFFFF" d="M86.1,31.2C87,31.1,88,31,89,30.9c1-0.1,2.1-0.2,3.1-0.2c1.1,0,2.1,0,3.2,0
				c0.8-0.1,1.6,0.5,1.8,1.3c0.2,0.4,0.3,0.8,0.4,1.2c0.1,0.3,0.1,0.7,0.2,1.1c0.1,0.3,0,0.6-0.2,0.9c-0.3,0.2-0.6,0.3-1,0.3
				c-1.1,0-2.2,0.1-3.3,0.1c-1.1,0-2.3,0.1-3.6,0.2c-0.3,0.8-0.6,1.6-0.9,2.4c-0.3,0.8-0.6,1.7-1,2.6c0.5,0,1.1,0,1.6,0
				c0.5,0,1.1,0,1.7,0.1c0.4,0,0.8,0.1,1.1,0.2c0.3,0.2,0.5,0.4,0.7,0.7c0.2,0.3,0.3,0.7,0.4,1.1c0.1,0.4,0.2,0.7,0.2,1.1
				c0.1,0.4,0.1,0.7,0,0.8c-0.3,0.2-0.6,0.3-0.9,0.3c-1.1,0.1-2.1,0.2-3.3,0.3c-1.1,0.1-2.2,0.2-3.2,0.3c-0.2,0.5-0.4,1.1-0.5,1.6
				s-0.3,1-0.5,1.5c0.8-0.1,1.6-0.1,2.4-0.2c0.8,0,1.6,0,2.4,0c0.4,0,0.8,0.1,1.1,0.2c0.3,0.2,0.5,0.4,0.6,0.7
				c0.2,0.3,0.3,0.7,0.4,1c0.1,0.3,0.2,0.6,0.3,1c0.1,0.2,0.1,0.5-0.1,0.7c-0.1,0.1-0.4,0.2-0.9,0.3c-1.1,0.1-2.3,0.3-3.5,0.4
				c-1.2,0.1-2.3,0.3-3.4,0.4c-0.5,0.1-1.1,0.1-1.6,0c-0.3-0.1-0.6-0.3-0.9-0.5c-0.3-0.2-0.6-0.4-0.8-0.7c-0.3-0.2-0.6-0.5-0.9-0.8
				c-0.3-0.3-0.5-0.6-0.6-0.9c-0.1-0.4-0.2-0.8-0.1-1.2l3.9-17.3C84.3,31.5,85.1,31.4,86.1,31.2z"/>
			<path id="Tracé_4395" fill="#FFFFFF" d="M108.7,39.2c0.7-2.2,1.4-4.2,2-6c0.1-0.4,0.4-0.7,0.7-0.9c0.4-0.1,0.9,0,1.3,0.1
				c0.3,0.1,0.5,0.2,0.7,0.2c0.2,0.1,0.4,0.2,0.6,0.3c0.2,0.1,0.4,0.2,0.6,0.4c0.2,0.1,0.5,0.3,0.8,0.5c0.4,0.2,0.7,0.6,0.8,1
				c0,0.4,0,0.8-0.2,1.2c-0.5,1.3-1,2.7-1.6,4.3c-0.6,1.6-1.1,3.2-1.7,4.9c-0.6,1.7-1.1,3.3-1.6,4.9c-0.5,1.6-1,3-1.3,4.2
				c-0.2,0.7-0.7,0.8-1.6,0.6c-0.8-0.2-1.6-0.5-2.4-0.9c-0.7-0.3-1.3-0.9-1.5-1.7c-0.2-0.6-0.4-1.2-0.6-1.9
				c-0.2-0.7-0.4-1.5-0.6-2.4c-0.2-0.9-0.4-1.7-0.6-2.7c-0.2-0.9-0.4-1.8-0.5-2.8c-0.3,1.1-0.6,2.1-0.8,3.2l-0.8,3.1
				c-0.3,1-0.5,1.9-0.7,2.7c-0.2,0.8-0.4,1.6-0.5,2.2c0,0.2-0.2,0.4-0.4,0.5c-0.3,0.1-0.6,0-0.9-0.1c-0.4-0.1-0.8-0.3-1.2-0.4
				c-0.4-0.2-0.8-0.4-1.2-0.6c-0.3-0.2-0.6-0.4-0.7-0.7c-0.1-0.3-0.1-0.7-0.1-1.1c0.1-0.5,0.2-1.1,0.3-2c0.1-0.9,0.3-1.9,0.5-3
				c0.2-1.1,0.5-2.3,0.7-3.5c0.3-1.3,0.5-2.5,0.8-3.8c0.3-1.2,0.6-2.4,0.9-3.6c0.3-1.2,0.6-2.2,0.8-3.1c0.1-0.4,0.4-0.8,0.7-0.9
				c0.4-0.1,0.9-0.1,1.3,0.1c0.6,0.2,1.2,0.5,1.8,0.7c0.6,0.3,1.3,0.6,1.9,0.9c0.4,0.2,0.8,0.5,1.1,0.9c0.2,0.5,0.4,1,0.4,1.5
				c0,0.5,0.1,1.2,0.2,2c0.1,0.8,0.2,1.7,0.3,2.6c0.1,0.9,0.2,1.9,0.3,2.9c0.1,1,0.2,1.9,0.4,2.8C107.4,43.6,108,41.4,108.7,39.2z"
				/>
			<path id="Tracé_4396" fill="#FFFFFF" d="M118.8,33.5c1-0.3,1.9-0.4,2.9-0.5c1-0.1,2.1-0.1,3.1,0.1c1,0.1,2.1,0.4,3,0.8
				c1,0.4,1.9,1.1,2.6,1.8c1.6,1.7,2.5,3.9,2.6,6.2c0,1.2-0.1,2.3-0.5,3.4c-0.4,1.2-0.9,2.4-1.6,3.4c-0.8,1.2-1.7,2.2-2.7,3.1
				c-1.2,1-2.4,1.8-3.8,2.5c-1.5,0.7-3.2,1.3-4.8,1.6c-1,0.2-2,0.1-2.8-0.5c-0.4-0.3-0.8-0.5-1.2-0.8c-0.3-0.3-0.7-0.6-1.2-1
				c-0.2-0.2-0.3-0.3-0.5-0.5c-0.1-0.2-0.3-0.3-0.4-0.5c-0.1-0.2-0.2-0.5-0.2-0.7c0-0.4,0-0.7,0.1-1.1l2.8-16.5
				C117.2,34,118,33.7,118.8,33.5z M122.2,50c1-0.7,1.9-1.5,2.6-2.4c0.7-0.8,1.2-1.6,1.6-2.6c0.4-0.8,0.6-1.6,0.7-2.4
				c0.2-0.8,0.1-1.7-0.2-2.5c-0.3-0.7-0.9-1.2-1.5-1.5c-0.9-0.4-1.9-0.4-2.9-0.1c-0.8,2.2-1.5,4.5-2.2,6.7c-0.6,2.2-1.3,4.4-1.9,6.6
				C119.9,51.4,121.1,50.8,122.2,50z"/>
			<path id="Tracé_4397" fill="#FFFFFF" d="M137.9,53.9c-0.3,1-0.5,1.9-0.8,2.8c-0.1,0.2-0.2,0.4-0.4,0.5c-0.3,0.1-0.6,0-0.8-0.1
				c-0.5-0.2-0.9-0.3-1.2-0.4c-0.4-0.1-0.7-0.2-1-0.4c-0.3-0.2-0.5-0.4-0.6-0.7c-0.1-0.4-0.1-0.7,0-1.1c0.1-0.4,0.2-0.9,0.3-1.6
				c0.1-0.7,0.3-1.5,0.4-2.4c0.2-0.9,0.3-1.8,0.5-2.8s0.4-2,0.6-3c0.2-1,0.4-2,0.7-2.9s0.5-1.8,0.7-2.5c0.2-0.6,0.4-1.2,0.7-1.8
				c0.1-0.4,0.4-0.7,0.7-0.9c1.1-0.4,2.3-0.8,3.5-1.2c1.2-0.4,2.4-0.6,3.6-0.7c1.1-0.1,2.2,0,3.3,0.2c1,0.2,1.9,0.8,2.6,1.6
				c0.6,0.7,1.1,1.5,1.5,2.3c0.5,0.9,0.8,1.9,0.9,2.9c0.2,1,0,2-0.5,2.9c-0.8,1.3-2,2.3-3.3,3.1c-1.7,1-3.4,1.8-5.3,2.4
				c0.4,0.5,0.8,1,1.2,1.5c0.4,0.5,0.9,1.1,1.4,1.6c0.5,0.5,0.9,1.1,1.4,1.6s0.9,1,1.3,1.3c0.3,0.3,0.5,0.6,0.4,0.7
				c-0.1,0.2-0.3,0.4-0.5,0.5c-0.2,0.2-0.5,0.3-0.8,0.4c-0.2,0-0.5,0.1-0.8,0.1c-0.4,0.1-0.9,0.1-1.3,0c-0.6-0.1-1.1-0.4-1.6-0.7
				c-0.4-0.3-0.8-0.7-1.3-1.2c-0.5-0.5-1-1-1.5-1.5c-0.5-0.6-1-1.1-1.6-1.7c-0.5-0.6-1-1.2-1.4-1.8
				C138.5,51.9,138.2,52.9,137.9,53.9z M141.4,43.2c-0.3,1-0.7,2.1-1.1,3.2c1.2-0.3,2.3-0.7,3.3-1.2c0.9-0.4,1.7-1,2.5-1.6
				c0.6-0.5,1.1-1,1.5-1.6c0.3-0.4,0.4-0.8,0.4-1.2c-0.2-0.5-0.8-0.8-1.8-0.9c-0.6,0-1.1,0-1.7,0c-0.7,0.1-1.4,0.3-2,0.5
				C142.1,41.3,141.8,42.2,141.4,43.2L141.4,43.2z"/>
			<path id="Tracé_4398" fill="#FFFFFF" d="M157.9,36.9c0.9-0.1,1.9-0.3,2.9-0.4s2.1-0.2,3.1-0.2c1.1,0,2.1,0,3.2,0
				c0.8-0.1,1.6,0.5,1.8,1.3c0.2,0.4,0.3,0.8,0.4,1.2c0.1,0.3,0.1,0.7,0.2,1.1c0.1,0.3,0,0.6-0.2,0.9c-0.3,0.2-0.6,0.3-1,0.3
				c-1.1,0-2.2,0.1-3.3,0.1c-1.1,0-2.3,0.1-3.6,0.2c-0.3,0.8-0.6,1.6-0.9,2.4c-0.3,0.8-0.6,1.7-1,2.6c0.5,0,1.1,0,1.6,0
				c0.5,0,1.1,0,1.7,0.1c0.4,0,0.8,0.1,1.1,0.2c0.3,0.2,0.5,0.4,0.7,0.7c0.2,0.3,0.3,0.7,0.4,1.1c0.1,0.4,0.2,0.7,0.2,1.1
				c0.1,0.4,0.1,0.7,0,0.8c-0.3,0.2-0.6,0.3-0.9,0.3c-1.1,0.1-2.2,0.2-3.3,0.3c-1.1,0.1-2.2,0.2-3.2,0.3c-0.2,0.5-0.4,1.1-0.5,1.6
				c-0.2,0.5-0.3,1-0.5,1.5c0.8-0.1,1.6-0.1,2.4-0.2c0.7,0,1.6,0,2.4,0c0.4,0,0.8,0.1,1.1,0.2c0.3,0.2,0.5,0.4,0.6,0.7
				c0.2,0.3,0.3,0.7,0.4,1c0.1,0.3,0.2,0.6,0.3,1c0.1,0.2,0.1,0.5-0.1,0.7c-0.1,0.1-0.4,0.2-0.9,0.3c-1.1,0.1-2.3,0.3-3.5,0.4
				c-1.2,0.1-2.3,0.3-3.4,0.4c-0.5,0.1-1.1,0.1-1.6,0c-0.3-0.1-0.6-0.3-0.9-0.5c-0.3-0.2-0.6-0.4-0.8-0.7c-0.3-0.2-0.6-0.5-0.9-0.9
				c-0.3-0.3-0.5-0.6-0.6-0.9c-0.1-0.4-0.2-0.8-0.1-1.2l3.9-17.3C156.1,37.1,157,37,157.9,36.9z"/>
		</g>
	</g>
</g>
</svg>
