<?xml version="1.0" encoding="utf-8"?>
<!-- Generator: Adobe Illustrator 23.0.2, SVG Export Plug-In . SVG Version: 6.00 Build 0)  -->
<svg version="1.1" id="Calque_1" xmlns="http://www.w3.org/2000/svg" xmlns:xlink="http://www.w3.org/1999/xlink" x="0px" y="0px"
	 viewBox="0 0 210.6 104.8" enable-background="new 0 0 210.6 104.8" xml:space="preserve">
<g>
	<g>
		<g>
			<polygon fill="#581C0C" points="49.3,87.4 51.2,102.8 54.3,102.8 56,88.5 			"/>
			<polygon fill="#581C0C" points="48,87.1 50,102.6 51.2,102.8 49.3,87.4 			"/>
		</g>
		<g>
			<polygon fill="#581C0C" points="14.6,89.3 15.7,102.8 17.1,102.6 17.4,88.1 			"/>
			
				<linearGradient id="SVGID_1_" gradientUnits="userSpaceOnUse" x1="179.9045" y1="102.7585" x2="179.9045" y2="88.387" gradientTransform="matrix(-1 0 0 1 192.4587 0)">
				<stop  offset="0" style="stop-color:#BE4B17"/>
				<stop  offset="0.9946" style="stop-color:#903014"/>
			</linearGradient>
			<polygon fill="url(#SVGID_1_)" points="9.4,88.4 12.7,102.6 15.7,102.8 15.4,89.4 			"/>
			<polygon fill="#581C0C" points="10.9,95.1 16.8,94.9 17.4,88.4 9.5,89 			"/>
		</g>
		<path fill="#8A1720" d="M16.5,90H8c-3.1-8.6-8-31.1-8-47.2l1.5-1.5l13.1-1.7L16.5,90z"/>
		<polygon fill="#63121D" points="19.5,90 16.5,90 13.4,40.5 14.6,39.5 58.7,40.9 58.7,90 		"/>
		<g>
			
				<linearGradient id="SVGID_2_" gradientUnits="userSpaceOnUse" x1="63.4541" y1="102.7585" x2="63.4541" y2="87.9613" gradientTransform="matrix(-1 0 0 1 192.4587 0)">
				<stop  offset="0" style="stop-color:#BE4B17"/>
				<stop  offset="0.9946" style="stop-color:#903014"/>
			</linearGradient>
			<polygon fill="url(#SVGID_2_)" points="132.4,88.3 129.1,102.8 125.9,102.5 125.6,88 			"/>
			<polygon fill="#581C0C" points="131.3,93.1 125.7,93.9 125.6,88.3 132.4,88.3 			"/>
			<polygon fill="#581C0C" points="133.6,88.2 130.3,102.5 129.1,102.8 132.4,88.3 			"/>
		</g>
		<g>
			<polygon fill="#581C0C" points="167.1,88.3 163.8,102.8 160.6,102.5 160.3,88 			"/>
			<polygon fill="#581C0C" points="168.3,88.2 165,102.5 163.8,102.8 167.1,88.3 			"/>
		</g>
		<path fill="#63121D" d="M165.9,43.4l1.2,0.3l9.3,2.6l1.2,0.3l1.2-2.8l0.5-1.1l0.5-1.2l9.3-22.2c0.4-3-0.6-10.6-10.8-13.7l0,0
			l-10.9,33.2l-0.9,2.6L165.9,43.4z"/>
		<path fill="#8A1720" d="M50.9,65.4l2.8,0l2.4,0l2.6,0l0.6,0l2.3,0l0.8,0l6.3,0l37.3-0.2l22.7-0.1h0.3l8.6,0l1.6,0l1.7,0h0.8l2.1,0
			l15.6-0.1l0.6-1.6l7.1-19.4l0.8-2.1l1-2.6l11.9-32.5c-0.8-0.3-1.6-0.6-2.4-0.9c-3.5-1.2-7.6-2.3-12.2-3.1h0
			c-15.9-2.8-37.5-3.1-57.3-1.8c0,0,0,0,0,0c0,0,0,0,0,0c0,0,0,0,0,0c-1,0.1-2,0.1-3,0.2c-2,0.1-3.9,0.3-5.9,0.5h0c0,0-0.1,0-0.1,0
			c-9.4,0.8-18.1,1.9-25.1,3.3C70,5.5,66,6.5,63,7.6l-1.2,1.3l-2.9,14.8l-1.1,5.6L57.7,30l-0.8,4.1l-0.1,0.7l0,0.2l-1,5l-0.1,0.7v0
			l-1,5.2l-0.1,0.8l-0.9,4.9l-0.1,0.8l-0.5,2.7l0,0.1l-0.1,0.3L52.7,56l-0.3,1.6l0,0.1l0,0l-1.2,6L50.9,65.4L50.9,65.4z"/>
		<path opacity="0.33" fill="#3A0C1C" d="M107.1,45.4l1.3,4.7l0.4,1.4l1,3.5l0.8,2.9l0.8,0l1.7,0.1l0.9,0l3.1,0.2l6.3,0.3l2.3,0.1
			l2.8,0.1l0.5,0h0l0.1,0l0.5,0l0.9,0.1h0l2.4,0.3l5.5,0.8l0.2,0l1.1,0.2l1.7,0.2l0.1,0h0l0.8,0.1l17.5,2.5h0l16.5-16.9l2.4-2.5l1-1
			l0.9-0.9c-0.3-0.1-0.6-0.2-0.9-0.3l9.3-22.2c0.4-3-0.6-10.6-10.8-13.7l0,0c-3.5-1.2-7.6-2.3-12.2-3.1h0l-22.5,21.7l0,0l-0.6,0.5
			l-3.1,3l-2.2,2.1l-0.6,0.6l-2.9,2.8l-1.9,1.8l-5.2,5l-2,1.9l-0.3,0.3l-0.2,0.2l-5.4,0.9l-1.9,0.3l-5.1,0.9l-1.6,0.3l-0.5,0.1v0
			l-0.2,0L107.1,45.4z"/>
		<polygon opacity="0.5" fill="#63121D" points="111.8,23.8 129.6,49.2 129.4,58 110.6,57.8 110.6,31.5 		"/>
		<polygon fill="#8A1720" points="23.3,90 20.1,74.7 138.8,74 135.8,91.3 		"/>
		<polygon fill="#8A1720" points="22.2,74.7 23.2,57.4 138.8,58.1 135.8,74 		"/>
		<polygon fill="#E95263" points="146,39.5 180.7,42.8 182.3,46.6 170.3,89.4 137,91.3 144.3,40.6 		"/>
		<polygon opacity="0.5" fill="#63121D" points="22.2,85.1 99.8,82.7 102.5,74.2 128.7,74 128.5,91.3 23.3,90 		"/>
		<polygon opacity="0.5" fill="#63121D" points="22.6,69 102.5,72.7 109.1,58 128.5,59.6 128.7,74 22.2,74.7 		"/>
		<g>
			<g>
				<path fill="#909639" d="M23.9,29c0,0.2,0,0.3,0,0.5c0,0.1,0,0.3,0,0.4c0,1.1,0,2.3,0.1,3.6c0,0.3,0,0.6,0.1,0.9
					c0.1,1.6,0.3,3.2,0.5,4.8c0,0.2,0.1,0.5,0.1,0.7c0.3,2,0.6,4,0.8,5.8c0,0.2,0.1,0.5,0.1,0.7c0.3,2.1,0.6,3.8,0.7,4.9
					c0,0.3,0,0.6,0,0.8c0,1.2-0.3,2.3-0.5,3.2c-0.1,0.3-0.2,0.5-0.2,0.8c-0.3,1.1-0.7,1.7-0.7,1.7l2.7,0c0,0,0,0,0,0l5.6,0l28.1,0.2
					l5,0c0,0-3.4-2.8-3.7-3.2c0,0,0,0,0-0.1c0-0.1-0.1-0.5,0-1c0-0.6,0-1.6,0.1-2.7c0-0.2,0-0.4,0-0.6c0-1.4,0.1-3,0.1-4.8
					c0-0.2,0-0.5,0-0.7l0,0c0-1.5,0-3-0.1-4.6c0-0.3,0-0.6-0.1-0.9c0-0.3-0.1-0.7-0.1-1c-0.1-1.2-0.3-2.4-0.4-3.5
					c0-0.2-0.1-0.3-0.1-0.5c0-0.3-0.1-0.5-0.1-0.8c-0.2-1.3-0.5-2.5-0.8-3.6c-0.1-0.3-0.1-0.5-0.2-0.8c-0.9-3.2-1.8-5.3-1.8-5.3
					s-2.8,1.3-11,2.3c-4.9,0.6-12.3,0.3-17.4,0c-3.5-0.2-6-0.5-6-0.5C24.1,26.4,23.9,27.6,23.9,29z"/>
				<path fill="#FDF6BE" d="M60.9,29.7c-2.1,0.3-6.9,0.8-15.5,1.2c-10.1,0.5-18.8-0.7-21.6-1.1c0-0.3,0-0.6,0-0.9
					c2.6,0.5,9.4,1.5,20.2,1.2c10-0.3,14.7-0.9,16.6-1.3C60.8,29.2,60.8,29.4,60.9,29.7z"/>
				<path fill="#FDF6BE" d="M61.9,34.1c-2,0.5-7.2,1.4-16.5,1.6c-10.6,0.1-19.2-1.1-21.4-1.4c0-0.3,0-0.6-0.1-0.9
					c2.2,0.4,10.8,1.9,21.7,1.7c9.2-0.2,14.1-1.2,16.2-1.8C61.8,33.5,61.8,33.8,61.9,34.1z"/>
				<path fill="#FDF6BE" d="M62.5,40.1c-2,0.3-7.4,1.1-16.6,1.2c-11.9,0.2-21.4-1.5-21.4-1.5c0-0.2-0.1-0.5-0.1-0.7
					c2.2,0.3,10.5,1.4,21.2,1.5c9.5,0.1,14.9-0.9,16.9-1.4C62.5,39.4,62.5,39.8,62.5,40.1z"/>
				<path fill="#FDF6BE" d="M62.6,44.7c0,0.2,0,0.5,0,0.7c-1.7,0.5-6.4,1.6-15.8,1.8c-10.6,0.1-19.2-0.7-21.4-0.9
					c0-0.2-0.1-0.5-0.1-0.7c2.1,0.2,11.3,1,21.3,0.9C55.5,46.4,60.8,45.2,62.6,44.7z"/>
				<path fill="#FDF6BE" d="M62.5,50.2c0,0.2,0,0.4,0,0.6c-1.7,0.5-6.7,1.7-15.6,2c-9.8,0.3-18.5-0.6-20.8-0.9v0c0-0.2,0-0.5,0-0.8
					c2.5,0.4,10.5,1.5,20.8,1C56.8,51.7,61,50.7,62.5,50.2z"/>
				<path fill="#FDF6BE" d="M62.5,54.6c-2.3,0.6-7.3,1.5-16.5,1.9c-12,0.5-18.8-0.3-20.5-0.5c0.1-0.2,0.2-0.5,0.2-0.8
					c2.6,0.3,11.2,1.2,21.6,0.5c8.5-0.5,13.1-1.5,15.2-2.1C62.4,54.1,62.4,54.4,62.5,54.6z"/>
			</g>
		</g>
		<g>
			<g>
				<path fill="#948A9C" d="M102.1,58.2l7,0.4l1,0.1l0,0L115,59l2,0.1l0,0l6.3,0.4l2.3,0.1l4.8,0.3l2.6,0.1l21.1,1.3l-2.2-3.3
					c0,0,0.5-5.3,0.7-12.2c0-2.2,0.1-4.6,0-7c-0.1-3.1-0.4-5.7-0.8-8c-1-5-2.4-7.8-2.4-7.8s-9.1,2.2-17.3,3.1l-1.9,0.2
					c-1.9,0.2-3.7,0.3-5.3,0.2c-0.2,0-0.4,0-0.7,0l-0.1,0c-1.6-0.1-3.1-0.3-4.6-0.5c-0.7-0.1-1.4-0.2-2-0.4
					c-1.3-0.2-2.4-0.5-3.5-0.8l-0.2-0.1c-0.5-0.1-1-0.3-1.4-0.4l-0.3-0.1c-2.2-0.6-3.5-1.2-3.5-1.2s-1.7,14-1.6,20.9
					c0,6.9-1,9.5-1,9.5L102.1,58.2z"/>
				<path fill="#776A97" d="M145.2,23.9c0,0,3.5,6.6,3.8,15.2c0.3,8.6-1.4,18.3-1.4,18.3l1.8,3.6l-3.5-0.2c0,0-0.8-3.3-0.9-3.7
					c-0.1-0.4,1.2-11.5,1.3-18.5c0-7-3.5-14.2-3.5-14.2L145.2,23.9z"/>
				<path fill="#776A97" d="M138.7,25.1c0,0,3.3,6.4,3,13.2c-0.3,6.9-1.6,17-1.4,18.4s1.2,3.8,1.2,3.8l-2.8-0.2c0,0-1.1-2.1-0.9-3.8
					c0.2-1.7,1.7-15.5,1.8-18.8c0.1-3.3-3.5-12.3-3.5-12.3L138.7,25.1z"/>
				<path fill="#776A97" d="M132.1,26.1c0,0,2.2,5.5,2.7,11.9c0.5,6.4-2,18.1-2,19.1c0,0.9,0.1,3,0.1,3l-2.6-0.2
					c0,0,0.4-2.5,0.6-5.5s2-13.1,1.6-17.3c-0.4-4.2-2.3-10.8-2.3-10.8L132.1,26.1z"/>
				<path fill="#776A97" d="M126.2,26.6c0,0,1.3,4.9,0.8,14.6c-0.5,9-1.4,18.5-1.4,18.5l-2.3-0.1c0,0,1.4-11.5,1.9-18.7
					c0.3-5.4-1-14.4-1-14.4L126.2,26.6z"/>
				<path fill="#776A97" d="M113.7,58.9l3.2,0.2c0,0,0,0,0,0l0,0c0.1-0.7,1.9-10.9,2.4-18.5c0.5-7.1,0.2-13.4,0.1-14.6
					c-0.7-0.1-1.4-0.2-2-0.4c0.2,1.5,0.8,8.9,0,16.3C116.6,50.2,113.7,58.9,113.7,58.9z"/>
				<path fill="#776A97" d="M105,58.4l3.1,0.2c0,0,2.1-3.1,3.6-10.8c1.4-7.7,2.3-23,2.3-23l-0.2-0.1l-1.4-0.4l-0.3-0.1
					c0,0-1.7,20.3-2.7,25.2C108.7,52.9,105.6,57.5,105,58.4z"/>
			</g>
			<path opacity="0.71" fill="#776A97" d="M110.1,58.7L110.1,58.7L115,59l2,0.1l0,0l6.3,0.4l2.3,0.1l4.8,0.3l2.6,0.1l21.1,1.3
				l-2.2-3.3c0,0,0.5-5.3,0.7-12.2c-3.4,2.6-9.2,5.6-19,6.7C115,54.6,110.1,58.7,110.1,58.7z"/>
		</g>
		<g>
			<path fill="#8A1720" d="M128.5,91.3c0,0,0-34.2,1.4-50.7l1.2-1.4l15,0.3l-9,51.7H128.5z"/>
			<path fill="#E95263" d="M144.3,40.6l-12.2-0.5c-3.1,3.3-3.3,26.6-3.3,26.6s-1.3-22.8,1.1-26.2l1.2-1.4c0,0,16.5-1,22.7-0.6
				L144.3,40.6z"/>
			<path fill="#63121D" d="M135.9,91.3h34.6l1.5-4.9l13-41.2l-1.4-2c-1-0.5-2-0.9-3-1.4c-0.3-0.1-0.6-0.2-0.9-0.3
				c-3.4-1.2-7.1-2-11-2.5c-0.5-0.1-0.9-0.1-1.4-0.2c-4.7-0.5-9.4-0.5-13.6-0.2c-0.4,0-0.8,0.1-1.2,0.1c-1.2,0.1-2.4,0.2-3.5,0.4
				c-1,0.1-1.9,0.3-2.8,0.4c-0.1,0-0.1,0-0.2,0l-1.7,1.1c-1,2.5-2,6.2-2.8,10.4c-0.4,1.9-0.8,3.9-1.1,6c-0.2,1.1-0.4,2.2-0.6,3.3
				c0,0,0,0.1,0,0.1c-0.1,0.6-0.2,1.3-0.3,1.9c-0.1,0.8-0.2,1.7-0.4,2.5c-0.5,3.1-0.9,6.2-1.3,9.2c-0.9,7-1.5,12.9-1.7,15.7
				C136,90.7,135.9,91.3,135.9,91.3z"/>
			<polygon opacity="0.33" fill="#3A0C1C" points="129,58.4 141.4,63.1 172,86.4 170.5,91.3 135.9,91.3 128.5,91.3 			"/>
		</g>
		<path opacity="0.33" fill="#3A0C1C" d="M108.8,0.7c0,0-3.9,0.2-5,13.7c-1.1,13.5-3.1,43.5-3.1,43.5L97.3,58c0,0,0.8-55.3,2.6-57
			C101.7-0.8,108.8,0.7,108.8,0.7z"/>
		<path fill="#948A9C" d="M18.9,103.7c0,0,13.5,0.9,25.4,1.1c8.7,0.2,16.5,0,17.6-1.1c0.6-0.6,0.9-2.5,1-5.2v0c0-0.3,0-0.5,0-0.8v0
			c0.1-2.7,0-5.9,0-9.4c0-0.5,0-0.9,0-1.4c-0.1-3.5-0.3-7.1-0.4-10.5c0-0.5,0-0.9,0-1.3v0c-0.1-3.5-0.2-6.6-0.1-8.9
			c0-0.5,0-0.9,0.1-1.3c0.1-0.8,0.1-1.4,0.2-1.8c0.3-1.2,0.7-2.1,1.2-2.9c0.8-1.4,1.7-2,2.4-2.2h0c0,0,0,0,0,0
			c0.4-0.1,0.7-0.2,0.8-0.2c0,0,0.1,0,0.1,0L97.3,58c0,0,0.1-0.8,0.2-2.2c0-0.3,0.1-0.5,0.1-0.9c0.2-2.2,0.5-5.6,0.8-9.5
			c0-0.4,0.1-0.8,0.1-1.3c0.3-3,0.5-6.2,0.8-9.5c0-0.4,0.1-0.9,0.1-1.3c0.6-7.2,1.3-14.6,1.9-20.4l0.1-1.4c0.5-5,0.9-8.6,1.1-9
			c0.8-2,6.2-1.8,6.2-1.8c-1.3-0.5-4.5-0.7-8.4-0.7c-9.6,0-23.6,1.4-24.8,2.5C75,3.1,74.6,4.3,74.3,6v0l-0.1,1
			c-0.2,1.8-0.4,3.9-0.5,6.4c-0.1,1.6-0.1,3.3-0.1,5.2l0,1.2c0,3.2,0,6.6,0.1,9.9c0,0.4,0,0.8,0,1.2c0.1,3.9,0.2,7.8,0.3,11.2
			c0,0.4,0,0.8,0,1.2v0c0.2,5.2,0.3,9.3,0.1,11v0c0,0.3-0.1,0.5-0.1,0.6c0,0.1-0.1,0.2-0.1,0.2c-0.1,0.1-0.2,0.1-0.3,0.1
			c0,0,0,0,0,0c-1,0.2-3.8,0.2-7.4,0.2c-1.2,0-2.5,0-3.8,0h-0.1c-7.1-0.1-15.9-0.2-21.8,0.3c-0.1,0-0.1,0-0.1,0
			c-3.4,0.3-5.8,0.9-6.2,1.9c-0.2,0.5-0.3,1.5-0.1,2.9c0,0.5,0.1,0.9,0.2,1.5c0.5,2.9,1.4,6.9,2.5,11.1v0c0.1,0.5,0.3,1,0.4,1.5v0
			c1.1,4,2.3,8.1,3.3,11.7c0.1,0.3,0.2,0.6,0.2,0.9c0.8,2.9,1.6,5.4,2,7.2c0,0.2,0.1,0.4,0.1,0.5c0.4,1.4,0.5,2.2,0.4,2.3
			c-0.2,0.2-1.7,0.2-3.9,0.2h0c-0.4,0-0.8,0-1.2,0h0C32.6,97.4,23.9,97,21.6,98C18.2,99.4,18.9,103.7,18.9,103.7z"/>
		<path opacity="0.71" fill="#776A97" d="M21.2,102.1c0,0,15.1,2.9,18.3,1.5c3.2-1.4-4.2-2.7-10.4-3.4c-6.3-0.7-7.2-1.2-7.8-0.6
			c-0.6,0.6-0.3,0.9-0.3,0.9s0.4-0.4,2.9-0.4c2.4,0,13.1,1.9,13.9,2.7C38.5,103.6,21.2,102.1,21.2,102.1z"/>
		<path opacity="0.71" fill="#776A97" d="M30.3,101.8c0,0-8.5-0.6-9.8-0.2c-1.3,0.4-1.1,2.1-1.1,2.1l-0.5,0c0,0-0.2-2.2,0.9-2.7
			C21,100.4,30.3,101.8,30.3,101.8z"/>
		<g opacity="0.9">
			<polygon fill="#FFFFFF" points="101.4,11.6 93.1,3.9 87.9,10.4 81.3,3.9 76.8,10.3 74.3,6 74.2,7 76.8,11.2 81.3,5.1 87.9,11.6 
				93.2,4.7 101.3,13 			"/>
			<polygon fill="#FFFFFF" points="73.6,19.7 75.6,23 80.2,16.9 86.8,23.4 92,16.5 100.1,24.8 100.3,23.4 91.9,15.7 86.8,22.2 
				80.2,15.7 75.7,22.1 73.6,18.5 			"/>
			<path fill="#FFFFFF" d="M73.7,29.6c0,0.4,0,0.8,0,1.2l1.9,3l4.5-6.1l6.6,6.5l5.3-6.8l7.2,7.4c0-0.4,0.1-0.9,0.1-1.3l-7.4-6.9
				l-5.2,6.6l-6.6-6.6l-4.5,6.4L73.7,29.6z"/>
			<path fill="#FFFFFF" d="M74.1,42c0,0.4,0,0.8,0,1.2v0l1.5,2.4l4.5-6.1l6.6,6.5l5.3-6.8l6.3,6.4c0-0.4,0.1-0.8,0.1-1.3l-6.5-6
				l-5.2,6.6l-6.6-6.6l-4.5,6.4L74.1,42z"/>
			<path fill="#FFFFFF" d="M34.1,60.6c0,0.5,0.1,0.9,0.2,1.5l4.9,3.6l4.5-6.1l6.6,6.5l5.3-6.8l6.7,6.8c0-0.5,0-0.9,0.1-1.3l-6.9-6.4
				l-5.2,6.6l-6.6-6.6l-4.7,6.3L34.1,60.6z"/>
			<path fill="#FFFFFF" d="M36.9,73.2c0.1,0.5,0.3,1,0.4,1.5v0l3.3,2.5l4.5-6.1l6.6,6.5l5.3-6.8l5.5,5.6c0-0.5,0-0.9,0-1.3v0
				l-5.5-5.1l-5.2,6.6l-6.6-6.6l-4.7,6.3L36.9,73.2z"/>
			<path fill="#FFFFFF" d="M40.6,86.4c0.1,0.3,0.2,0.6,0.2,0.9l3.8-5.2l6.6,6.5l5.3-6.8l6.4,6.5c0-0.5,0-0.9,0-1.4l-6.4-5.9
				l-5.2,6.6l-6.6-6.6L40.6,86.4z"/>
			<path fill="#FFFFFF" d="M42.9,94.5c0,0.2,0.1,0.4,0.1,0.5l0.7-0.5l6.2,2.8l5.6-3l7.4,4.1c0-0.3,0-0.5,0-0.8v0l-7.5-3.8l-5.5,2.7
				l-6.2-2.7L42.9,94.5z"/>
			<path fill="#FFFFFF" d="M74.2,54.2c0,0.3-0.1,0.5-0.1,0.6l4.1-3.3l6.6,3.9l5.3-4.1l7.4,4.6c0-0.3,0.1-0.5,0.1-0.9L90,50.8l-5.2,4
				l-6.5-4L74.2,54.2L74.2,54.2z"/>
			<path fill="#FFFFFF" d="M73.7,55.2L73.7,55.2L73.7,55.2C73.7,55.2,73.7,55.2,73.7,55.2z"/>
		</g>
		<path opacity="0.38" fill="#776A97" d="M67,57.6C67,57.6,67.1,57.6,67,57.6L97.3,58c0,0,4.4-53.5,5.3-55.5c0.8-2,6.2-1.8,6.2-1.8
			c-1.3-0.5-4.5-0.7-8.4-0.7c-0.2,0.3-0.3,0.6-0.4,1c-1.4,5.2-6.6,52-6.6,53.4c0,1.4-3,1.2-10.3,1.2C77,55.6,69.5,57.1,67,57.6z"/>
		<path opacity="0.38" fill="#776A97" d="M40.6,55.7c1.6-0.1,17.8-1,26.4,1.9c0,0,0.1,0,0.1,0L97.3,58c0,0-4.5-2.5-6.1-2.5
			c0,0-7.9-0.1-7.9-1.1c0-1,0-34.2,0-34.2s-2.1,32.6-2.8,33.3c-0.7,0.7-6.4,1.5-6.4,1.5c-0.4,0.4-3.4,0.4-7.8,0.4L65,55.5l-2.5-0.1
			h-0.1C55.3,55.3,46.5,55.1,40.6,55.7z"/>
		<path opacity="0.38" fill="#776A97" d="M37.7,64.8c0,0,4.9,15.2,8.5,18.3c3.1-2.3,7-5.1,7-11.3c0-8.8,2.8-13.3,2.8-9.4
			s2,33-1.9,34.3c-3.8,1.3-10.7,0.8-10.7,0.8s-0.6-6.3-2.1-12L37.7,64.8z"/>
		<path opacity="0.38" fill="#776A97" d="M44.3,104.8c8.7,0.2,16.5,0,17.6-1.1c0.6-0.6,0.9-2.5,1-5.2v0c0-0.3,0-0.5,0-0.8v0
			c0.1-2.7,0-5.9,0-9.4c0-0.5,0-0.9,0-1.4c-0.1-3.5-0.3-7.1-0.4-10.5c0-0.5,0-0.9,0-1.3v0c-0.1-3.5-0.2-6.6-0.1-8.9
			c0-0.5,0-0.9,0.1-1.3c0.1-0.8,0.1-1.4,0.2-1.8c0.3-1.2,0.7-2.1,1.2-2.9c0,0-4.5,1.8-4.5,4.8c0,3,1,25.6,1,30.1
			c0,4.5-7.3,4.8-10.5,5.9C46.6,101.8,44.3,104.8,44.3,104.8z"/>
	</g>
	<g>
		<polygon fill="#971824" points="153,48.1 153,54.3 185.1,53.7 186.1,47.4 		"/>
		<polygon fill="#971824" points="199,51.4 186.1,47.4 185.8,48.8 198.7,52 		"/>
		
			<linearGradient id="SVGID_3_" gradientUnits="userSpaceOnUse" x1="-6.5667" y1="53.2887" x2="7.385" y2="53.2887" gradientTransform="matrix(-1 0 0 1 192.4587 0)">
			<stop  offset="0" style="stop-color:#971824"/>
			<stop  offset="1" style="stop-color:#E51D44"/>
		</linearGradient>
		<polygon fill="url(#SVGID_3_)" points="185.1,52.9 199,52.9 199,53.4 188.9,53.5 185.1,53.7 		"/>
		<polygon fill="#D6CACA" points="198.1,51.9 198.1,52.9 185.1,52.9 185.8,48.8 		"/>
		<polygon opacity="0.5" fill="#AD8E94" points="198.1,52.5 187.4,50.4 187.2,51.5 194.8,52.5 187.4,52 187.2,53 185.1,52.9 
			185.8,48.8 198.1,51.9 		"/>
		<polygon fill="#FDF193" points="156.4,48.1 156.4,54.2 159.4,54.1 159.1,48 		"/>
		<polygon fill="#FDF193" points="180.5,47.5 180.5,53.8 178.1,53.8 178.1,47.6 		"/>
		<polygon opacity="0.5" fill="#801810" points="153,52.7 177.3,51.4 181.8,47.5 186.1,47.4 185.1,53.7 153,54.3 		"/>
	</g>
	<g>
		<polygon fill="#776A97" points="183,36.4 180.2,51.1 177.7,51.1 176.4,36.1 		"/>
		<polygon fill="#776A97" points="186.8,52.2 180.5,49.3 177.6,49.4 170.4,52.5 		"/>
		<polygon fill="#776A97" points="189,5.1 188.7,4.5 174.6,4.1 174,4.8 		"/>
		<g>
			<polygon fill="#F8F6D6" points="190.6,5.2 171.8,4.7 163.5,35.7 196.1,36.8 			"/>
			<polygon fill="#776A97" points="195.1,31.4 164.9,30.7 166.2,25.8 194.3,26.5 			"/>
			<polygon fill="#776A97" points="193.8,23.5 167,22.7 167.3,21.6 193.5,21.9 			"/>
			<polygon opacity="0.26" fill="#A11D16" points="179.1,4.9 176.8,34.2 180,36.2 163.5,35.7 171.8,4.7 			"/>
		</g>
	</g>
	<g>
		<g>
			<polygon fill="#581C0C" points="210.6,52.9 200.2,52.5 199.1,58 209.1,58 			"/>
			<polygon fill="#581C0C" points="190.2,96.5 200.2,96.5 207.9,58 195.1,57.9 			"/>
			<g>
				<polygon fill="#BE4B17" points="189.4,94.5 186.5,103.3 183.6,103.1 183.4,94.3 				"/>
				<polygon fill="#581C0C" points="188.4,97.4 183.4,97.9 183.4,94.5 189.4,94.5 				"/>
				<polygon fill="#581C0C" points="190.5,94.5 187.5,103.1 186.5,103.3 189.4,94.5 				"/>
			</g>
			<g>
				<polygon fill="#581C0C" points="198.6,94.2 195.7,103 192.9,102.8 192.6,94 				"/>
				<polygon fill="#581C0C" points="199.7,94.1 196.8,102.8 195.7,103 198.6,94.2 				"/>
			</g>
			<g>
				<polygon fill="#581C0C" points="168.4,93.3 170.1,102.7 172.9,102.7 174.4,93.9 				"/>
				<polygon fill="#581C0C" points="169,96.3 173.8,97.5 174.4,94.1 168.4,93.3 				"/>
				<polygon fill="#581C0C" points="167.4,93.1 169.1,102.6 170.1,102.7 168.4,93.3 				"/>
			</g>
			<g>
				<polygon fill="#581C0C" points="162.9,94.7 163.9,102.9 165.1,102.8 165.4,94 				"/>
				<polygon fill="#BE4B17" points="158.3,94.2 161.2,102.8 163.9,102.9 163.6,94.8 				"/>
				<polygon fill="#581C0C" points="159.6,98.2 164.8,98.1 165.4,94.2 158.4,94.5 				"/>
			</g>
			<polygon fill="#7B250F" points="200.2,52.5 147.2,51.5 148.7,56.8 199.1,58 			"/>
			<polygon fill="#D06314" points="195.1,57.9 190.2,96.5 157.1,96.2 150.4,56.8 			"/>
			<g>
				<polygon fill="#581C0C" points="156.8,69.8 156.5,67.4 158.8,68.2 161.9,85.5 158.7,84.7 				"/>
				<polygon fill="#948A9C" points="155.9,67 157.7,67.5 158.9,80.4 157.5,81.4 				"/>
			</g>
			<path fill="#581C0C" d="M152.9,58l5.5,37.1l30.7,0.4l4.4-36.8L152.9,58z M154,58.7l38.6,0.5l-4.4,35.7l-29.3-0.6L154,58.7z"/>
		</g>
		<polygon opacity="0.28" fill="#7E1A10" points="158.9,91.1 181.6,91.1 187,60.7 191.4,60.5 186.2,93.8 		"/>
		<polygon opacity="0.5" fill="#581C0C" points="150.4,56.8 151,59.1 193.9,67.4 195.1,57.9 		"/>
	</g>
</g>
</svg>
