<?xml version="1.0" encoding="utf-8"?>
<!-- Generator: Adobe Illustrator 23.0.2, SVG Export Plug-In . SVG Version: 6.00 Build 0)  -->
<svg version="1.1" id="Calque_1" xmlns="http://www.w3.org/2000/svg" xmlns:xlink="http://www.w3.org/1999/xlink" x="0px" y="0px"
	 viewBox="0 0 75.5 125.8" enable-background="new 0 0 75.5 125.8" xml:space="preserve">
<g>
	<polygon fill="#7C331F" points="12.5,125.8 12.5,0 75.5,2.7 73,125.8 66.2,125.8 64.9,125 20.8,125 19.9,125.8 	"/>
	<polygon fill="#EAC5A4" points="44.7,27.4 45.4,3.6 73.4,5.6 72.5,26.7 	"/>
	<defs>
		<filter id="Adobe_OpacityMaskFilter" filterUnits="userSpaceOnUse" x="44.7" y="3.6" width="28.7" height="23.7">
			<feFlood  style="flood-color:white;flood-opacity:1" result="back"/>
			<feBlend  in="SourceGraphic" in2="back" mode="normal"/>
		</filter>
	</defs>
	<mask maskUnits="userSpaceOnUse" x="44.7" y="3.6" width="28.7" height="23.7" id="SVGID_1_">
		<g filter="url(#Adobe_OpacityMaskFilter)">
			<defs>
				<filter id="Adobe_OpacityMaskFilter_1_" filterUnits="userSpaceOnUse" x="44.7" y="3.6" width="28.7" height="23.7">
					<feFlood  style="flood-color:white;flood-opacity:1" result="back"/>
					<feBlend  in="SourceGraphic" in2="back" mode="normal"/>
				</filter>
			</defs>
			<mask maskUnits="userSpaceOnUse" x="44.7" y="3.6" width="28.7" height="23.7" id="SVGID_1_">
				<g filter="url(#Adobe_OpacityMaskFilter_1_)">
				</g>
			</mask>
			<linearGradient id="SVGID_2_" gradientUnits="userSpaceOnUse" x1="60.1478" y1="18.4394" x2="50.0535" y2="0.9556">
				<stop  offset="0" style="stop-color:#000000"/>
				<stop  offset="1" style="stop-color:#FFFFFF"/>
			</linearGradient>
			<polygon mask="url(#SVGID_1_)" fill="url(#SVGID_2_)" points="44.7,27.4 45.4,3.6 73.4,5.6 50.6,7.5 			"/>
		</g>
	</mask>
	<linearGradient id="SVGID_3_" gradientUnits="userSpaceOnUse" x1="60.1478" y1="18.4394" x2="50.0535" y2="0.9556">
		<stop  offset="0" style="stop-color:#FFFFFF"/>
		<stop  offset="1" style="stop-color:#FFFFFF"/>
	</linearGradient>
	<polygon opacity="0.2" fill="url(#SVGID_3_)" points="44.7,27.4 45.4,3.6 73.4,5.6 50.6,7.5 	"/>
	<linearGradient id="SVGID_4_" gradientUnits="userSpaceOnUse" x1="72.2247" y1="26.8497" x2="55.4694" y2="-2.1713">
		<stop  offset="0" style="stop-color:#5E130F"/>
		<stop  offset="1" style="stop-color:#AE532F"/>
	</linearGradient>
	<polygon opacity="0.4" fill="url(#SVGID_4_)" points="72.5,6.2 45.4,3.6 73.4,5.6 72.5,26.7 	"/>
	<linearGradient id="SVGID_5_" gradientUnits="userSpaceOnUse" x1="66.8088" y1="29.9766" x2="57.4019" y2="13.6834">
		<stop  offset="0" style="stop-color:#5E130F"/>
		<stop  offset="1" style="stop-color:#AE532F"/>
	</linearGradient>
	<polygon opacity="0.1" fill="url(#SVGID_5_)" points="44.7,27.4 44.9,21.7 69.4,11.7 71.6,5.5 73.4,5.6 72.5,26.7 	"/>
	<linearGradient id="SVGID_6_" gradientUnits="userSpaceOnUse" x1="66.8088" y1="29.9766" x2="57.902" y2="14.5496">
		<stop  offset="0" style="stop-color:#5E130F"/>
		<stop  offset="1" style="stop-color:#AE532F"/>
	</linearGradient>
	<polygon fill="url(#SVGID_6_)" points="44.7,27.4 71.8,26 73.4,5.6 73.4,5.6 72.5,26.7 	"/>
	<polygon fill="#EAC5A4" points="14.9,28.1 16,2.5 44.2,3.4 43.8,27.4 	"/>
	<linearGradient id="SVGID_7_" gradientUnits="userSpaceOnUse" x1="41.7076" y1="28.5862" x2="31.4386" y2="10.7996">
		<stop  offset="0" style="stop-color:#5E130F"/>
		<stop  offset="1" style="stop-color:#AE532F"/>
	</linearGradient>
	<polygon opacity="0.1" fill="url(#SVGID_7_)" points="24.2,27.9 42.2,20.6 44.2,3.4 43.8,27.4 	"/>
	<linearGradient id="SVGID_8_" gradientUnits="userSpaceOnUse" x1="41.7076" y1="28.5862" x2="31.4386" y2="10.7996">
		<stop  offset="0" style="stop-color:#5E130F"/>
		<stop  offset="1" style="stop-color:#AE532F"/>
	</linearGradient>
	<polygon fill="url(#SVGID_8_)" points="24.2,27.9 43.3,26.7 44.2,3.4 43.8,27.4 	"/>
	<linearGradient id="SVGID_9_" gradientUnits="userSpaceOnUse" x1="43.9326" y1="27.3016" x2="25.4872" y2="-4.6468">
		<stop  offset="0" style="stop-color:#5E130F"/>
		<stop  offset="1" style="stop-color:#AE532F"/>
	</linearGradient>
	<polygon opacity="0.1" fill="url(#SVGID_9_)" points="42.5,4.5 14.9,1.5 44.2,3.4 43.8,27.4 	"/>
	<polygon fill="#EAC5A4" points="16.8,121.8 14.9,30.4 43.7,30.2 42.5,121.5 	"/>
	<defs>
		<filter id="Adobe_OpacityMaskFilter_2_" filterUnits="userSpaceOnUse" x="14.9" y="30.2" width="28.7" height="91.6">
			<feFlood  style="flood-color:white;flood-opacity:1" result="back"/>
			<feBlend  in="SourceGraphic" in2="back" mode="normal"/>
		</filter>
	</defs>
	<mask maskUnits="userSpaceOnUse" x="14.9" y="30.2" width="28.7" height="91.6" id="SVGID_10_">
		<g filter="url(#Adobe_OpacityMaskFilter_2_)">
			<defs>
				<filter id="Adobe_OpacityMaskFilter_3_" filterUnits="userSpaceOnUse" x="14.9" y="30.2" width="28.7" height="91.6">
					<feFlood  style="flood-color:white;flood-opacity:1" result="back"/>
					<feBlend  in="SourceGraphic" in2="back" mode="normal"/>
				</filter>
			</defs>
			<mask maskUnits="userSpaceOnUse" x="14.9" y="30.2" width="28.7" height="91.6" id="SVGID_10_">
				<g filter="url(#Adobe_OpacityMaskFilter_3_)">
				</g>
			</mask>
			<linearGradient id="SVGID_11_" gradientUnits="userSpaceOnUse" x1="47.4885" y1="105.8644" x2="6.6742" y2="35.172">
				<stop  offset="0" style="stop-color:#000000"/>
				<stop  offset="1" style="stop-color:#FFFFFF"/>
			</linearGradient>
			<polygon mask="url(#SVGID_10_)" fill="url(#SVGID_11_)" points="16.8,121.8 14.9,30.4 43.7,30.2 42.7,38.6 22.2,46.1 19.9,121.8 
							"/>
		</g>
	</mask>
	<linearGradient id="SVGID_12_" gradientUnits="userSpaceOnUse" x1="47.4885" y1="105.8644" x2="6.6742" y2="35.172">
		<stop  offset="0" style="stop-color:#FFFFFF"/>
		<stop  offset="1" style="stop-color:#FFFFFF"/>
	</linearGradient>
	<polygon opacity="0.2" fill="url(#SVGID_12_)" points="16.8,121.8 14.9,30.4 43.7,30.2 42.7,38.6 22.2,46.1 19.9,121.8 	"/>
	<linearGradient id="SVGID_13_" gradientUnits="userSpaceOnUse" x1="46.7153" y1="104.5252" x2="6.6742" y2="35.172">
		<stop  offset="0" style="stop-color:#5E130F"/>
		<stop  offset="1" style="stop-color:#AE532F"/>
	</linearGradient>
	<polygon opacity="0.3" fill="url(#SVGID_13_)" points="16.8,121.8 14.9,30.4 43.7,30.2 16,31.6 	"/>
	<linearGradient id="SVGID_14_" gradientUnits="userSpaceOnUse" x1="52.9917" y1="115.3962" x2="13.752" y2="47.4311">
		<stop  offset="0" style="stop-color:#5E130F"/>
		<stop  offset="1" style="stop-color:#AE532F"/>
	</linearGradient>
	<polygon opacity="0.1" fill="url(#SVGID_14_)" points="16.8,121.8 34,118.2 43.7,30.2 42.5,121.5 	"/>
	<linearGradient id="SVGID_15_" gradientUnits="userSpaceOnUse" x1="52.9917" y1="115.3962" x2="13.752" y2="47.4311">
		<stop  offset="0" style="stop-color:#5E130F"/>
		<stop  offset="1" style="stop-color:#AE532F"/>
	</linearGradient>
	<polygon opacity="0.3" fill="url(#SVGID_15_)" points="16.8,121.8 41.8,120.6 43.7,30.2 42.5,121.5 	"/>
	<polygon fill="#EAC5A4" points="69.4,120.7 72.5,29 44.4,30.1 44.1,121.5 	"/>
	<linearGradient id="SVGID_16_" gradientUnits="userSpaceOnUse" x1="80.7848" y1="114.1462" x2="41.077" y2="45.3702">
		<stop  offset="0" style="stop-color:#5E130F"/>
		<stop  offset="1" style="stop-color:#AE532F"/>
	</linearGradient>
	<polygon opacity="0.1" fill="url(#SVGID_16_)" points="69.4,120.7 72.5,29 69.4,29 63,109.4 44,116.8 44.1,121.5 	"/>
	<linearGradient id="SVGID_17_" gradientUnits="userSpaceOnUse" x1="80.7848" y1="114.1462" x2="41.8533" y2="46.7149">
		<stop  offset="0" style="stop-color:#5E130F"/>
		<stop  offset="1" style="stop-color:#AE532F"/>
	</linearGradient>
	<polygon opacity="0.3" fill="url(#SVGID_17_)" points="69.4,120.7 72.5,29 72.5,29 68.2,120 44.1,121.5 	"/>
	<defs>
		<filter id="Adobe_OpacityMaskFilter_4_" filterUnits="userSpaceOnUse" x="44.1" y="29" width="28.5" height="92.5">
			<feFlood  style="flood-color:white;flood-opacity:1" result="back"/>
			<feBlend  in="SourceGraphic" in2="back" mode="normal"/>
		</filter>
	</defs>
	<mask maskUnits="userSpaceOnUse" x="44.1" y="29" width="28.5" height="92.5" id="SVGID_18_">
		<g filter="url(#Adobe_OpacityMaskFilter_4_)">
			<defs>
				<filter id="Adobe_OpacityMaskFilter_5_" filterUnits="userSpaceOnUse" x="44.1" y="29" width="28.5" height="92.5">
					<feFlood  style="flood-color:white;flood-opacity:1" result="back"/>
					<feBlend  in="SourceGraphic" in2="back" mode="normal"/>
				</filter>
			</defs>
			<mask maskUnits="userSpaceOnUse" x="44.1" y="29" width="28.5" height="92.5" id="SVGID_18_">
				<g filter="url(#Adobe_OpacityMaskFilter_5_)">
				</g>
			</mask>
			<linearGradient id="SVGID_19_" gradientUnits="userSpaceOnUse" x1="74.7728" y1="103.7331" x2="35.3134" y2="35.3874">
				<stop  offset="0" style="stop-color:#000000"/>
				<stop  offset="1" style="stop-color:#FFFFFF"/>
			</linearGradient>
			<polygon mask="url(#SVGID_18_)" fill="url(#SVGID_19_)" points="50.9,36 72.5,29 44.4,30.1 44.1,121.5 			"/>
		</g>
	</mask>
	<linearGradient id="SVGID_20_" gradientUnits="userSpaceOnUse" x1="74.7728" y1="103.7331" x2="35.3134" y2="35.3874">
		<stop  offset="0" style="stop-color:#FFFFFF"/>
		<stop  offset="1" style="stop-color:#FFFFFF"/>
	</linearGradient>
	<polygon opacity="0.2" fill="url(#SVGID_20_)" points="50.9,36 72.5,29 44.4,30.1 44.1,121.5 	"/>
	<linearGradient id="SVGID_21_" gradientUnits="userSpaceOnUse" x1="58.3131" y1="28.9965" x2="58.3131" y2="121.4514">
		<stop  offset="0" style="stop-color:#5E130F"/>
		<stop  offset="1" style="stop-color:#AE532F"/>
	</linearGradient>
	<polygon opacity="0.3" fill="url(#SVGID_21_)" points="45,30.7 72.5,29 44.4,30.1 44.1,121.5 	"/>
	<polygon fill="#A34626" points="12.5,125.8 12.5,0 0,8.9 5.2,118.4 	"/>
	<defs>
		<filter id="Adobe_OpacityMaskFilter_6_" filterUnits="userSpaceOnUse" x="5.2" y="0" width="7.3" height="125.8">
			<feFlood  style="flood-color:white;flood-opacity:1" result="back"/>
			<feBlend  in="SourceGraphic" in2="back" mode="normal"/>
		</filter>
	</defs>
	<mask maskUnits="userSpaceOnUse" x="5.2" y="0" width="7.3" height="125.8" id="SVGID_22_">
		<g filter="url(#Adobe_OpacityMaskFilter_6_)">
			<defs>
				<filter id="Adobe_OpacityMaskFilter_7_" filterUnits="userSpaceOnUse" x="5.2" y="0" width="7.3" height="125.8">
					<feFlood  style="flood-color:white;flood-opacity:1" result="back"/>
					<feBlend  in="SourceGraphic" in2="back" mode="normal"/>
				</filter>
			</defs>
			<mask maskUnits="userSpaceOnUse" x="5.2" y="0" width="7.3" height="125.8" id="SVGID_22_">
				<g filter="url(#Adobe_OpacityMaskFilter_7_)">
				</g>
			</mask>
			<linearGradient id="SVGID_23_" gradientUnits="userSpaceOnUse" x1="39.765" y1="15.7204" x2="-14.6919" y2="110.0425">
				<stop  offset="0" style="stop-color:#000000"/>
				<stop  offset="1" style="stop-color:#FFFFFF"/>
			</linearGradient>
			<polygon mask="url(#SVGID_22_)" fill="url(#SVGID_23_)" points="12.5,125.8 12.5,0 8.9,120.1 5.2,118.4 			"/>
		</g>
	</mask>
	<linearGradient id="SVGID_24_" gradientUnits="userSpaceOnUse" x1="39.765" y1="15.7204" x2="-14.6919" y2="110.0425">
		<stop  offset="0" style="stop-color:#FFFFFF"/>
		<stop  offset="1" style="stop-color:#FFFFFF"/>
	</linearGradient>
	<polygon opacity="9.000000e-02" fill="url(#SVGID_24_)" points="12.5,125.8 12.5,0 8.9,120.1 5.2,118.4 	"/>
	<polygon opacity="0.2" points="42.6,87.3 41.7,87.7 39.9,86.9 41.4,60.5 44,61.6 	"/>
	<polygon fill="#AE532F" points="41.4,86.8 39.9,86.9 38.8,60.4 41.4,60.5 	"/>
	<polygon opacity="0.2" points="49.6,87.1 47.9,87.5 45.9,86.8 48.7,60.5 50,62.4 	"/>
	<polygon fill="#AE532F" points="47.4,86.9 45.9,86.8 46.1,60.3 48.7,60.5 	"/>
	<polygon opacity="0.2" points="43.1,21.6 42.3,22.4 40.9,22.1 42,10.8 43.7,11.3 	"/>
	<polygon fill="#AE532F" points="42,22 40.9,22.1 39.6,11.1 42,10.8 	"/>
	<polygon opacity="0.2" points="50.1,22.1 48.9,22.6 47,21.9 48.6,10.8 49.8,11.3 	"/>
	<polygon fill="#AE532F" points="48.9,22.3 47,21.9 47.3,10.9 48.6,10.8 	"/>
	<defs>
		<filter id="Adobe_OpacityMaskFilter_8_" filterUnits="userSpaceOnUse" x="14.9" y="2.5" width="29.3" height="25.6">
			<feFlood  style="flood-color:white;flood-opacity:1" result="back"/>
			<feBlend  in="SourceGraphic" in2="back" mode="normal"/>
		</filter>
	</defs>
	<mask maskUnits="userSpaceOnUse" x="14.9" y="2.5" width="29.3" height="25.6" id="SVGID_25_">
		<g filter="url(#Adobe_OpacityMaskFilter_8_)">
			<defs>
				<filter id="Adobe_OpacityMaskFilter_9_" filterUnits="userSpaceOnUse" x="14.9" y="2.5" width="29.3" height="25.6">
					<feFlood  style="flood-color:white;flood-opacity:1" result="back"/>
					<feBlend  in="SourceGraphic" in2="back" mode="normal"/>
				</filter>
			</defs>
			<mask maskUnits="userSpaceOnUse" x="14.9" y="2.5" width="29.3" height="25.6" id="SVGID_25_">
				<g filter="url(#Adobe_OpacityMaskFilter_9_)">
				</g>
			</mask>
			<linearGradient id="SVGID_26_" gradientUnits="userSpaceOnUse" x1="31.2554" y1="18.6649" x2="20.4359" y2="-7.496523e-02">
				<stop  offset="0" style="stop-color:#000000"/>
				<stop  offset="1" style="stop-color:#FFFFFF"/>
			</linearGradient>
			<polygon mask="url(#SVGID_25_)" fill="url(#SVGID_26_)" points="14.9,28.1 16,2.5 44.2,3.4 44.2,7.6 19.7,9.4 			"/>
		</g>
	</mask>
	<linearGradient id="SVGID_27_" gradientUnits="userSpaceOnUse" x1="31.2554" y1="18.6649" x2="20.4359" y2="-7.496523e-02">
		<stop  offset="0" style="stop-color:#FFFFFF"/>
		<stop  offset="1" style="stop-color:#FFFFFF"/>
	</linearGradient>
	<polygon opacity="0.2" fill="url(#SVGID_27_)" points="14.9,28.1 16,2.5 44.2,3.4 44.2,7.6 19.7,9.4 	"/>
	<linearGradient id="SVGID_28_" gradientUnits="userSpaceOnUse" x1="29.5754" y1="1.4551" x2="29.5754" y2="28.097">
		<stop  offset="0" style="stop-color:#5E130F"/>
		<stop  offset="1" style="stop-color:#AE532F"/>
	</linearGradient>
	<polygon opacity="0.8" fill="url(#SVGID_28_)" points="14.9,28.1 14.9,1.5 44.2,3.4 44.2,3.4 16,2.5 	"/>
</g>
</svg>
