<?xml version="1.0" encoding="utf-8"?>
<!-- Generator: Adobe Illustrator 23.0.2, SVG Export Plug-In . SVG Version: 6.00 Build 0)  -->
<svg version="1.1" id="Calque_1" xmlns="http://www.w3.org/2000/svg" xmlns:xlink="http://www.w3.org/1999/xlink" x="0px" y="0px"
	 viewBox="0 0 112.5 94.1" enable-background="new 0 0 112.5 94.1" xml:space="preserve">
<title>plus-10</title>
<path fill="#FFFFFF" d="M0,28.3V85c-0.1,4.9,3.8,9,8.8,9.1h94.8c5-0.1,8.9-4.2,8.8-9.1V28.3H0z"/>
<path fill="#E85228" d="M103.6,2.7H8.8C3.9,2.8-0.1,6.9,0,11.9v16.4h112.4V11.9C112.5,6.9,108.6,2.9,103.6,2.7z M14.1,21
	c-3-0.1-5.3-2.5-5.3-5.5c0,0,0,0,0,0c-0.1-3,2.3-5.4,5.2-5.5c0,0,0,0,0,0c3,0.1,5.3,2.5,5.3,5.5C19.4,18.4,17.1,20.9,14.1,21
	C14.1,21,14.1,21,14.1,21z M98.3,21c-3-0.1-5.3-2.5-5.3-5.5c-0.1-2.9,2.1-5.4,5-5.5c2.9-0.1,5.4,2.1,5.5,5c0,0.2,0,0.3,0,0.5
	C103.7,18.5,101.3,20.9,98.3,21C98.4,21,98.4,21,98.3,21z"/>
<path fill="#5D546A" d="M14.1,18.2c-1.5,0-2.7-1.2-2.6-2.7c0,0,0,0,0,0V2.7c0-1.5,1.2-2.6,2.6-2.6c1.5,0,2.6,1.2,2.6,2.6
	c0,0,0,0,0,0v12.8C16.7,17,15.6,18.2,14.1,18.2C14.1,18.2,14.1,18.2,14.1,18.2z"/>
<path fill="#5D546A" d="M98.3,18.2c-1.5,0-2.7-1.2-2.6-2.7c0,0,0,0,0,0V2.7c-0.1-1.5,1-2.7,2.5-2.8s2.7,1,2.8,2.5c0,0.1,0,0.2,0,0.3
	v12.8C101,17,99.8,18.2,98.3,18.2C98.4,18.2,98.4,18.2,98.3,18.2z"/>
<g opacity="0.27">
	<path fill="#5D546A" d="M50.2,2.7H8.8c-2.3,0-4.6,1-6.2,2.7C0.8,7-0.2,9.4,0,11.9v16.4c0,0,4.3-10.9,8.9-13.7
		c0.1-1.3,0.7-2.6,1.8-3.3c1.8-1.4,5.8-0.8,5.8-0.8l0.9,0.8C17.4,11.3,29.6,4.6,50.2,2.7z"/>
</g>
<g opacity="0.11">
	<path fill="#B1AEBA" d="M0,63.7c0,0,2.7,17.5,12.9,22.4s84.7,2.7,88.1,1.6s11.4-8.9,11.4-13.1V85c0,0,0.7,2.8-2.4,6.3
		s-6.3,2.8-6.3,2.8H8.8c0,0-1.8,0.5-5.6-2.1c-2.2-1.6-3.4-4.3-3.3-7V63.7z"/>
</g>
<path fill="#E85228" d="M8.9,58.5H5.4v-1.9h3.4v-3.4h1.9v3.4h3.4v1.9h-3.4v3.4H8.9V58.5z"/>
<path fill="#E85228" d="M24.1,64c-1.1,0-2.1-0.5-2.7-1.3c-0.7-1.1-1.1-2.4-1-3.7c-0.1-1.3,0.3-2.7,1-3.8c0.6-0.9,1.7-1.4,2.8-1.3
	c1.1,0,2.2,0.5,2.8,1.5h0.1c-0.1-0.7-0.2-1.3-0.2-2v-3.1h2.7v13.7h-2L27,62.6h-0.1C26.3,63.5,25.2,64.1,24.1,64z M25.1,61.9
	c0.6,0,1.1-0.2,1.5-0.6c0.4-0.6,0.6-1.3,0.5-2V59c0.1-0.8-0.1-1.6-0.5-2.3c-0.4-0.5-1-0.8-1.6-0.7c-0.6,0-1.1,0.3-1.4,0.8
	c-0.4,0.7-0.5,1.5-0.5,2.2c-0.1,0.8,0.1,1.5,0.5,2.2C24,61.6,24.5,61.9,25.1,61.9L25.1,61.9z"/>
<path fill="#E85228" d="M36.9,64c-1.4,0.1-2.7-0.4-3.7-1.3c-0.9-1-1.4-2.3-1.3-3.7c-0.1-1.4,0.4-2.8,1.2-3.8
	c0.9-0.9,2.1-1.4,3.4-1.3c1.2-0.1,2.4,0.3,3.2,1.2c0.8,0.9,1.2,2.1,1.2,3.3v1.3h-6.3c0,0.7,0.2,1.3,0.7,1.8c0.5,0.4,1.1,0.7,1.8,0.6
	c0.6,0,1.1-0.1,1.7-0.2c0.6-0.1,1.1-0.3,1.7-0.6v2.1c-0.5,0.2-1,0.4-1.5,0.5C38.2,64,37.5,64,36.9,64z M36.5,55.7
	c-0.5,0-1,0.2-1.3,0.5c-0.3,0.4-0.5,1-0.5,1.5h3.8c0-0.6-0.2-1.1-0.5-1.5C37.5,55.9,37,55.7,36.5,55.7L36.5,55.7z"/>
<path fill="#E85228" d="M53.8,63.9H51v-7.4v-1.2v-1.3c-0.5,0.5-0.8,0.8-0.9,0.9l-1.4,1.2l-1.3-1.6l4.1-3.3h2.2V63.9z"/>
<path fill="#E85228" d="M66.2,57.4c0.1,1.7-0.3,3.5-1.1,5c-0.8,1.1-2.1,1.7-3.4,1.6c-1.3,0.1-2.6-0.6-3.3-1.7
	c-0.9-1.5-1.2-3.2-1.1-4.9c-0.1-1.7,0.3-3.5,1.1-5c1.5-1.8,4.1-2.2,6-0.7c0.3,0.2,0.5,0.5,0.8,0.8C65.9,54,66.3,55.7,66.2,57.4z
	 M60,57.4c-0.1,1.1,0.1,2.3,0.4,3.4c0.2,0.6,0.7,1,1.4,1c0.6,0,1.2-0.4,1.4-1c0.3-1.1,0.5-2.2,0.4-3.4c0.1-1.2-0.1-2.3-0.4-3.4
	c-0.2-0.6-0.7-1-1.4-1c-0.6,0-1.2,0.4-1.4,1C60,55.1,59.9,56.3,60,57.4L60,57.4z"/>
<path fill="#E85228" d="M79.2,63.9l-0.5-1.3h-0.1c-0.4,0.5-0.8,0.9-1.4,1.2c-0.6,0.2-1.2,0.4-1.9,0.3c-0.8,0-1.6-0.2-2.2-0.8
	c-0.6-0.6-0.9-1.5-0.8-2.3c-0.1-0.9,0.4-1.8,1.1-2.3c1-0.6,2.1-0.9,3.3-0.8h1.7v-0.4c0.1-0.7-0.4-1.4-1.2-1.5c-0.1,0-0.3,0-0.4,0
	c-1,0-1.9,0.3-2.8,0.7l-0.9-1.8c1.2-0.6,2.5-0.9,3.8-0.9c1.1-0.1,2.1,0.2,3,0.9c0.7,0.7,1.1,1.6,1.1,2.6v6.5H79.2z M78.4,59.3h-1
	c-0.6,0-1.2,0.1-1.7,0.4c-0.4,0.3-0.6,0.7-0.6,1.2c0,0.8,0.4,1.1,1.3,1.1c0.5,0,1.1-0.2,1.5-0.5c0.4-0.4,0.6-0.9,0.6-1.4L78.4,59.3z
	"/>
<path fill="#E85228" d="M92.9,63.9h-2.7v-5.7c0-0.6-0.1-1.1-0.4-1.6c-0.3-0.4-0.7-0.6-1.2-0.5c-0.6-0.1-1.3,0.2-1.6,0.8
	c-0.4,0.8-0.6,1.6-0.5,2.5v4.6h-2.7V54h2l0.4,1.3h0.1c0.3-0.5,0.7-0.9,1.2-1.1c0.6-0.3,1.2-0.4,1.8-0.4c1-0.1,1.9,0.3,2.6,0.9
	c0.6,0.7,1,1.7,0.9,2.7L92.9,63.9z"/>
<path fill="#E85228" d="M102.5,60.9c0.1,0.9-0.3,1.8-1.1,2.3c-0.9,0.6-2,0.9-3.1,0.8c-0.6,0-1.2,0-1.8-0.1c-0.5-0.1-1-0.2-1.4-0.4
	v-2.2c0.5,0.2,1.1,0.4,1.7,0.6c0.5,0.1,1.1,0.2,1.7,0.2c1,0,1.5-0.3,1.5-0.8c0-0.2-0.1-0.4-0.2-0.5c-0.2-0.2-0.4-0.3-0.7-0.4
	c-0.3-0.2-0.7-0.4-1.3-0.6c-0.6-0.2-1.1-0.5-1.7-0.9c-0.3-0.2-0.6-0.6-0.8-0.9c-0.2-0.4-0.3-0.8-0.2-1.3c0-0.8,0.3-1.5,1-2
	c0.9-0.5,1.9-0.8,2.9-0.8c1.2,0,2.4,0.3,3.5,0.8l-0.8,1.9c-0.5-0.2-0.9-0.4-1.4-0.5c-0.4-0.1-0.9-0.2-1.3-0.2
	c-0.8,0-1.2,0.2-1.2,0.6c0,0.3,0.2,0.5,0.4,0.6c0.5,0.3,1.1,0.6,1.7,0.8c0.6,0.2,1.2,0.5,1.7,0.9c0.3,0.2,0.6,0.6,0.8,0.9
	C102.5,60.1,102.5,60.5,102.5,60.9z"/>
</svg>
