<?xml version="1.0" encoding="utf-8"?>
<!-- Generator: Adobe Illustrator 23.0.2, SVG Export Plug-In . SVG Version: 6.00 Build 0)  -->
<svg version="1.1" id="Calque_1" xmlns="http://www.w3.org/2000/svg" xmlns:xlink="http://www.w3.org/1999/xlink" x="0px" y="0px"
	 viewBox="0 0 112.5 94.1" enable-background="new 0 0 112.5 94.1" xml:space="preserve">
<g>
	<g>
		<g>
			<g>
				<path fill="#FFFFFF" d="M0,28.3V85c0,5,3.9,9.1,8.8,9.1h94.8c4.8,0,8.8-4.1,8.8-9.1V28.3H0z"/>
			</g>
		</g>
		<g>
			<g>
				<path fill="#E85228" d="M103.6,2.7H8.8C4,2.7,0,6.8,0,11.9v16.4h112.4V11.9C112.4,6.8,108.5,2.7,103.6,2.7z M14.1,21
					c-2.9,0-5.3-2.5-5.3-5.5s2.4-5.5,5.3-5.5s5.3,2.5,5.3,5.5S17,21,14.1,21z M98.4,21c-2.9,0-5.3-2.5-5.3-5.5s2.4-5.5,5.3-5.5
					s5.3,2.5,5.3,5.5S101.3,21,98.4,21z"/>
			</g>
		</g>
		<g>
			<g>
				<g>
					<path fill="#5D546A" d="M14.1,18.3c-1.5,0-2.6-1.2-2.6-2.7V2.7c0-1.5,1.2-2.7,2.6-2.7s2.6,1.2,2.6,2.7v12.8
						C16.7,17,15.5,18.3,14.1,18.3z"/>
				</g>
			</g>
		</g>
		<g>
			<g>
				<g>
					<path fill="#5D546A" d="M98.4,18.3c-1.5,0-2.6-1.2-2.6-2.7V2.7c0-1.5,1.2-2.7,2.6-2.7c1.5,0,2.6,1.2,2.6,2.7v12.8
						C101,17,99.8,18.3,98.4,18.3z"/>
				</g>
			</g>
		</g>
		<g opacity="0.27">
			<path fill="#5D546A" d="M50.2,2.7H8.8c0,0-3.1-0.2-6.2,2.7S0,11.9,0,11.9v16.4c0,0,4.3-10.9,8.9-13.7c0,0-0.1-1.9,1.8-3.3
				c1.8-1.4,5.8-0.8,5.8-0.8l0.9,0.7C17.4,11.3,29.6,4.6,50.2,2.7z"/>
		</g>
		<g opacity="0.11">
			<path fill="#B1AEBA" d="M0,63.7c0,0,2.6,17.5,12.8,22.4c10.2,4.9,84.7,2.7,88.1,1.6s11.4-8.9,11.4-13.1s0,10.4,0,10.4
				s0.7,2.8-2.4,6.3c-3.1,3.5-6.4,2.8-6.4,2.8H8.8c0,0-1.9,0.5-5.6-2.1S0,85,0,85V63.7z"/>
		</g>
	</g>
	<g>
		<path fill="#E85228" d="M9.5,59.9h-4v-2.2h4v-4h2.2v4h4v2.2h-4v3.9H9.5V59.9z"/>
		<path fill="#E85228" d="M27.4,66.3c-1.3,0-2.4-0.5-3.2-1.6c-0.8-1-1.2-2.5-1.2-4.3c0-1.9,0.4-3.3,1.2-4.4c0.8-1,1.9-1.6,3.2-1.6
			c1.4,0,2.5,0.6,3.3,1.7h0.1c-0.2-0.9-0.2-1.6-0.2-2.3v-3.7h3.1v16h-2.4l-0.6-1.5h-0.1C29.9,65.8,28.8,66.3,27.4,66.3z M28.5,63.8
			c0.8,0,1.4-0.2,1.8-0.7c0.4-0.5,0.6-1.3,0.6-2.4v-0.3c0-1.2-0.2-2.1-0.6-2.6c-0.4-0.5-1-0.8-1.9-0.8c-0.7,0-1.2,0.3-1.6,0.9
			c-0.4,0.6-0.6,1.5-0.6,2.6c0,1.1,0.2,2,0.6,2.5C27.2,63.6,27.8,63.8,28.5,63.8z"/>
		<path fill="#E85228" d="M42.2,66.3c-1.8,0-3.3-0.5-4.3-1.5c-1-1-1.6-2.5-1.6-4.3c0-1.9,0.5-3.4,1.4-4.5c1-1,2.3-1.6,4-1.6
			c1.6,0,2.9,0.5,3.8,1.4s1.4,2.2,1.4,3.8v1.5h-7.4c0,0.9,0.3,1.6,0.8,2.1s1.2,0.7,2.1,0.7c0.7,0,1.3-0.1,2-0.2s1.3-0.4,1.9-0.7v2.4
			c-0.5,0.3-1.1,0.5-1.8,0.6C43.9,66.3,43.1,66.3,42.2,66.3z M41.8,56.7c-0.7,0-1.2,0.2-1.6,0.6c-0.4,0.4-0.6,1-0.6,1.8H44
			c0-0.8-0.2-1.4-0.6-1.8C43,56.9,42.5,56.7,41.8,56.7z"/>
		<path fill="#E85228" d="M59.6,56.6c1.4,0,2.6,0.4,3.5,1.2c0.9,0.8,1.3,1.9,1.3,3.3c0,1.7-0.5,3-1.5,3.9s-2.5,1.4-4.4,1.4
			c-1.7,0-3-0.3-4-0.8v-2.7c0.5,0.3,1.2,0.5,1.9,0.7c0.7,0.2,1.4,0.3,2,0.3c1.9,0,2.9-0.8,2.9-2.4c0-1.5-1-2.3-3-2.3
			c-0.4,0-0.8,0-1.2,0.1c-0.4,0.1-0.8,0.1-1.1,0.2l-1.3-0.7l0.6-7.6h8.1v2.7h-5.4l-0.3,2.9l0.4-0.1C58.4,56.6,58.9,56.6,59.6,56.6z"
			/>
		<path fill="#E85228" d="M79.6,66.1L79,64.6h-0.1c-0.5,0.7-1.1,1.1-1.6,1.4c-0.6,0.3-1.3,0.4-2.2,0.4c-1.1,0-2-0.3-2.6-0.9
			c-0.6-0.6-0.9-1.5-0.9-2.7c0-1.2,0.4-2.1,1.3-2.7c0.9-0.6,2.1-0.9,3.9-1l2-0.1v-0.5c0-1.2-0.6-1.7-1.8-1.7c-0.9,0-2,0.3-3.2,0.8
			l-1-2.1c1.3-0.7,2.8-1,4.4-1c1.5,0,2.7,0.3,3.5,1c0.8,0.7,1.2,1.7,1.2,3.1v7.6H79.6z M78.7,60.8l-1.2,0c-0.9,0-1.6,0.2-2,0.5
			s-0.7,0.8-0.7,1.4c0,0.9,0.5,1.3,1.5,1.3c0.7,0,1.3-0.2,1.7-0.6c0.4-0.4,0.7-1,0.7-1.7V60.8z"/>
		<path fill="#E85228" d="M95.6,66.1h-3.1v-6.7c0-0.8-0.1-1.4-0.4-1.9c-0.3-0.4-0.8-0.6-1.4-0.6c-0.9,0-1.5,0.3-1.9,0.9
			c-0.4,0.6-0.6,1.6-0.6,2.9v5.4H85V54.7h2.4l0.4,1.5H88c0.3-0.6,0.8-1,1.4-1.3c0.6-0.3,1.3-0.4,2.1-0.4c1.3,0,2.3,0.4,3,1.1
			c0.7,0.7,1,1.8,1,3.1V66.1z"/>
		<path fill="#E85228" d="M106.8,62.7c0,1.2-0.4,2.1-1.2,2.7c-0.8,0.6-2,0.9-3.7,0.9c-0.8,0-1.5-0.1-2.1-0.2
			c-0.6-0.1-1.1-0.3-1.7-0.5v-2.6c0.6,0.3,1.2,0.5,2,0.7c0.7,0.2,1.4,0.3,1.9,0.3c1.1,0,1.7-0.3,1.7-1c0-0.2-0.1-0.4-0.2-0.6
			c-0.2-0.2-0.4-0.3-0.8-0.5c-0.4-0.2-0.9-0.4-1.5-0.7c-0.9-0.4-1.5-0.7-1.9-1c-0.4-0.3-0.7-0.7-0.9-1.1c-0.2-0.4-0.3-0.9-0.3-1.5
			c0-1,0.4-1.8,1.2-2.4c0.8-0.6,1.9-0.8,3.4-0.8c1.4,0,2.7,0.3,4,0.9l-0.9,2.3c-0.6-0.2-1.1-0.4-1.6-0.6c-0.5-0.2-1-0.2-1.5-0.2
			c-0.9,0-1.4,0.2-1.4,0.7c0,0.3,0.1,0.5,0.4,0.7c0.3,0.2,0.9,0.5,2,0.9c0.9,0.4,1.6,0.7,2,1s0.7,0.7,0.9,1.1
			C106.7,61.7,106.8,62.2,106.8,62.7z"/>
	</g>
</g>
</svg>
