<svg width="98" height="98" viewBox="0 0 98 98" fill="none" xmlns="http://www.w3.org/2000/svg">
<path d="M49 0C22 0 0 21.9 0 49C0 76.1 21.9 98 49 98C76.1 98 98 76.1 98 49C98 22 76.1 0.1 49 0ZM73.5 53.9H53.9V73.5H44.1V53.9H24.5V44.1H44.1V24.5H53.9V44.1H73.5V53.9Z" fill="#B0C364"/>
</svg>
