<?xml version="1.0" encoding="utf-8"?>
<!-- Generator: Adobe Illustrator 23.0.2, SVG Export Plug-In . SVG Version: 6.00 Build 0)  -->
<svg version="1.1" id="Calque_1" xmlns="http://www.w3.org/2000/svg" xmlns:xlink="http://www.w3.org/1999/xlink" x="0px" y="0px"
	 viewBox="0 0 511 511" style="enable-background:new 0 0 511 511;" xml:space="preserve">
<style type="text/css">
	.st0{fill:#FDD7BD;}
	.st1{fill:#87DBFF;}
	.st2{fill:#6FC7FF;}
	.st3{fill:#FAC5AA;}
</style>
<path class="st0" d="M451.4,429.9l-158.1-0.1c-11.3,0-22.1-4.2-30.4-11.9c-8.3-7.6-19.2-11.9-30.4-11.9l-21.2,0l-1.8-176l78.1-73.9
	c6.1-5.8,11.4-12.1,16-19c11.8-17.7,18.2-38.7,18.2-60.3c0-5.3,1.6-10.3,4.3-14.4c4.7-7.1,12.7-11.7,21.8-11.7
	c12.3,0,22.9,8.6,25.5,20.5l4.7,21.4c5.3,24.4,5.2,49.8-0.6,74.1l-5.6,23.8l105.1,0.2c16.8,0,30.3,13.9,29.9,30.8
	c-0.5,16.3-14.2,29-30.5,29c-0.2,0-0.3,0.1-0.3,0.3c0,0.2,0.1,0.3,0.3,0.4c3.6,0.8,7,2.3,10,4.3c4.8,3.2,8.6,7.7,10.9,13
	c1.6,3.7,2.5,7.7,2.5,11.9c0,8.2-3.3,15.6-8.7,21c-8.4,8.5-18.9,8.8-20.9,8.8c-0.3,0-0.6,0.3-0.6,0.7c0,0,0,0,0,0
	c0,0.3,0.3,0.6,0.6,0.6c2.3,0.8,4.5,2,6.5,3.3c4.9,3.3,8.9,8,11.4,13.4c1.6,3.7,2.5,7.7,2.5,12c0,16.5-13.4,29.9-29.9,29.9
	c-0.4,0-0.8,0-1.2,0c-0.2,0-0.4,0.2-0.4,0.4c0,0,0,0.1,0,0.2c0.1,0.2,0.3,0.3,0.5,0.3c8.7,2.3,15.8,8.6,19.3,16.7
	c1.7,3.8,2.6,7.9,2.5,12.3C481.3,416.5,467.9,429.9,451.4,429.9z"/>
<path class="st1" d="M37,200.6l92.2,0.1l68,0c7.8,0,14.2,6.4,14.2,14.2l-0.1,200.5c0,7.8-6.4,14.2-14.2,14.2l-66.7-0.1L37,429.5
	V200.6z"/>
<path class="st2" d="M197.1,429.7l-66.7-0.1l-1.1-228.9l68,0c7.8,0,14.2,6.4,14.2,14.2l-0.1,200.5
	C211.3,423.3,204.9,429.7,197.1,429.7z"/>
<g>
	<path class="st3" d="M497.2,268.4l-49.5-4.7c-7-0.7-12.5-6.4-12.8-13.4l41.2,0.5c0,0.2,0.1,0.3,0.3,0.4c3.6,0.8,7,2.3,10,4.3
		C491.1,258.6,494.9,263.1,497.2,268.4z"/>
	<path class="st3" d="M488,328.2l-48.4-4.6c-7-0.7-12.5-6.4-12.9-13.4l41.2,0.5l1.6,0.2c0,0.3,0.3,0.6,0.6,0.6
		c2.3,0.8,4.5,2,6.5,3.3C481.6,318.1,485.6,322.8,488,328.2z"/>
	<path class="st3" d="M478.8,387.7l-42.7-4c-7-0.7-12.5-6.4-12.8-13.4l35.7,0.4c0.1,0.2,0.3,0.3,0.5,0.3
		C468.2,373.2,475.2,379.5,478.8,387.7z"/>
</g>
</svg>
