<?xml version="1.0" encoding="utf-8"?>
<!-- Generator: Adobe Illustrator 23.0.2, SVG Export Plug-In . SVG Version: 6.00 Build 0)  -->
<svg version="1.1" id="Calque_1" xmlns="http://www.w3.org/2000/svg" xmlns:xlink="http://www.w3.org/1999/xlink" x="0px" y="0px"
	 viewBox="0 0 76.3 53" enable-background="new 0 0 76.3 53" xml:space="preserve">
<title>radiateur-electrique</title>
<path fill="#F2F8FC" d="M1,0h70.9c0.5,0,1,0.4,1,1v50.1c0,0.5-0.4,1-1,1H1c-0.5,0-1-0.4-1-1V1C0,0.4,0.4,0,1,0z"/>
<rect x="4.8" y="52" fill="#4A666D" width="6.2" height="1"/>
<rect x="61.8" y="52" fill="#4A666D" width="6.2" height="1"/>
<path fill="#4A666D" d="M67.9,2.1h-63C4,2.1,3.8,2.6,3.8,3.5H69C69,2.6,68.8,2.1,67.9,2.1z"/>
<path fill="#4A666D" d="M67.9,5.1h-63C4,5.1,3.8,5.6,3.8,6.5H69C69,5.6,68.8,5.1,67.9,5.1z"/>
<path fill="#4A666D" d="M67.9,8.1h-63C4,8.1,3.8,8.6,3.8,9.5H69C69,8.6,68.8,8.1,67.9,8.1z"/>
<path fill="#4A666D" d="M67.9,11.1h-63c-0.9,0-1.1,0.5-1.1,1.4H69C69,11.6,68.8,11.1,67.9,11.1z"/>
<path fill="#223137" d="M0.8,50.2h4.1l0,0v1.2l0,0H1.3c-0.3,0-0.6-0.3-0.6-0.6L0.8,50.2C0.8,50.2,0.8,50.2,0.8,50.2z"/>
<rect x="5.9" y="50.2" fill="#223137" width="4.1" height="1.2"/>
<rect x="11.1" y="50.2" fill="#223137" width="4.1" height="1.2"/>
<rect x="16.3" y="50.2" fill="#223137" width="4.1" height="1.2"/>
<rect x="21.4" y="50.2" fill="#223137" width="4.1" height="1.2"/>
<rect x="26.6" y="50.2" fill="#223137" width="4.1" height="1.2"/>
<rect x="31.8" y="50.2" fill="#223137" width="4.1" height="1.2"/>
<rect x="37" y="50.2" fill="#223137" width="4.1" height="1.2"/>
<rect x="42.1" y="50.2" fill="#223137" width="4.1" height="1.2"/>
<rect x="47.3" y="50.2" fill="#223137" width="4.1" height="1.2"/>
<rect x="52.5" y="50.2" fill="#223137" width="4.1" height="1.2"/>
<rect x="57.6" y="50.2" fill="#223137" width="4.1" height="1.2"/>
<rect x="62.8" y="50.2" fill="#223137" width="4.1" height="1.2"/>
<path fill="#223137" d="M72.1,50.5c0,0.4-0.4,0.8-0.8,0.8H68v-1.2h4.1L72.1,50.5z"/>
<path fill="#4A666D" d="M75,24.2c0,1.2-0.9,2.1-2.1,2.1c0,0,0,0,0,0V5.9C74,5.9,75,6.8,75,8V24.2z"/>
<path fill="#0F5FAF" d="M74.9,10.4h1c0.2,0,0.3,0.1,0.3,0.3c0,0,0,0,0,0v3.3c0,0.2-0.1,0.3-0.3,0.3l0,0h-1l0,0V10.4L74.9,10.4z"/>
<path fill="#D1132D" d="M74.9,17.9h1c0.2,0,0.3,0.1,0.3,0.3v0v3.3c0,0.2-0.1,0.3-0.3,0.3l0,0h-1l0,0V17.9L74.9,17.9z"/>
<path fill="#4A666D" d="M0,1.3v48.5l3.1-20.2V2.5L1.3,0C0.6,0,0,0.6,0,1.3z"/>
<path fill="#4A666D" d="M72.8,1.3v48.5l-3.1-20.2V2.5L71.5,0C72.2,0,72.8,0.6,72.8,1.3z"/>
</svg>
