<?xml version="1.0" encoding="utf-8"?>
<!-- Generator: Adobe Illustrator 23.0.2, SVG Export Plug-In . SVG Version: 6.00 Build 0)  -->
<svg version="1.1" id="Calque_1" xmlns="http://www.w3.org/2000/svg" xmlns:xlink="http://www.w3.org/1999/xlink" x="0px" y="0px"
	 viewBox="0 0 191 124.1" enable-background="new 0 0 191 124.1" xml:space="preserve">
<title>renovation-energetique</title>
<polygon fill="#8FAA25" points="119.3,49.7 121,31.4 125.2,31.4 125.2,25.8 99,25.1 99,31.5 104.6,31.8 107.5,50.7 "/>
<polygon fill="#7A8C28" points="125.2,25.8 125.2,29.5 103.9,28.5 101.6,25.2 "/>
<path fill="#7E6467" d="M19.2,85.2l-0.8,14.8L16,96.8c-0.2-0.3-0.7-0.4-1-0.1c-0.2,0.2-0.3,0.5-0.2,0.8l3.1,8.8l-0.5,12.9h6.1v-34
	L19.2,85.2z"/>
<path fill="#B4CE5C" d="M38.2,47L37,23.3l-4.2-2.7c-8.4-5.4-19.6-3-25.1,5.4c-1.2,1.9-2.1,4-2.5,6.2L0,57.6l13.6,34.5L32.2,87
	L38.2,47z"/>
<polygon fill="#A4B45C" points="37,23.3 28,18.5 11.3,63.4 0,57.6 13.6,92.1 32.2,87 38.2,47 "/>
<polygon fill="#8FAA25" points="144.7,69.1 131.1,43.2 34.2,44.8 21.6,71.5 "/>
<path fill="#7A8C28" d="M34.2,44.8L21.6,71.5l89.8-1.7C94,60.9,76,52.9,58.4,44.4L34.2,44.8z"/>
<path fill="#D4D5C9" d="M26.3,72.4l2.7,46.7h24c-5.5-15.6-11.8-31-16.2-47L26.3,72.4z"/>
<path fill="#EDECD7" d="M144,69L36.8,72.1c4.5,16,10.7,31.4,16.2,47h85.6L144,69z"/>
<polygon fill="#D4D5C9" points="74.9,119.1 78.2,70.3 80.4,75.7 81.7,119.1 "/>
<polygon fill="#7E6467" points="147,71.4 20.5,73.2 20.7,69.9 147.2,67.4 "/>
<polygon fill="#EDECD7" points="37.3,119.1 35.4,69.5 57.3,43 78.2,70.3 74.9,119.1 "/>
<polygon fill="#7E6467" points="83.8,72.3 56.7,41.5 30.2,73.2 34,76.1 57.1,48 80.4,75.7 "/>
<circle fill="#FBCB8D" cx="56.8" cy="64.3" r="5.6"/>
<path fill="#7594AD" d="M60.4,64.3c0,2-1.6,3.6-3.6,3.6s-3.6-1.6-3.6-3.6c0-2,1.6-3.6,3.6-3.6l0,0C58.8,60.6,60.4,62.3,60.4,64.3z"
	/>
<path fill="#92ABBE" d="M58.3,61c-0.5-0.2-1-0.3-1.5-0.3c-2,0-3.6,1.6-3.6,3.7c0,0.3,0,0.5,0.1,0.8C55,63.7,56.7,62.3,58.3,61z"/>
<path fill="#92ABBE" d="M59.8,62.2c-1.8,1.5-3.7,3.1-5.6,4.5c0.4,0.4,0.9,0.7,1.4,0.9c1.6-1.2,3.2-2.4,4.8-3.6
	C60.4,63.4,60.1,62.7,59.8,62.2z"/>
<polygon fill="#7E6467" points="45.7,119.1 42.7,77.5 68.8,76.1 66.1,119.1 "/>
<polygon fill="#FBCB8D" points="47.9,119.1 45.2,79.7 66.3,78.6 63.9,119.1 "/>
<polygon fill="#F7B46E" points="63.9,119.1 50.2,107.9 48.8,79.5 45.2,79.7 47.9,119.1 "/>
<polygon fill="#7E6467" points="62.4,95.3 60.4,95.3 59.8,99.6 62.4,99.6 "/>
<path fill="#7A8C28" d="M111.3,81.5c-4.5,0-8.8,2-11.7,5.5l-1.1-1.1c-0.2-0.3-0.6-0.3-0.9-0.2C97.3,85.8,97,86,97,86.4l-0.8,5.9
	c-0.1,0.7,0.7,1.1,1,1l5.8-0.8c0.3,0,0.6-0.3,0.7-0.6c0.1-0.3,0-0.7-0.2-0.9l-1.3-1.3c3.9-5,11.2-5.9,16.3-2c2.8,2.2,4.4,5.5,4.4,9
	l0,0c0,0.2,0,0.4,0,0.7c0,0.5,0.4,0.9,0.9,0.9c0,0,0.1,0,0.1,0l1.8-0.3c0.4-0.1,0.7-0.4,0.8-0.8c0-0.2,0-0.3,0-0.5
	C126.4,88.3,119.6,81.5,111.3,81.5z"/>
<path fill="#7A8C28" d="M125.4,99.9l-5.8,0.8c-0.3,0-0.6,0.3-0.7,0.6c-0.1,0.3,0,0.7,0.2,0.9l1.4,1.4c-3.9,5.1-11.2,6-16.2,2.2
	c-2.8-2.2-4.5-5.6-4.5-9.2c0-0.1,0-0.4,0-0.8c0.1-0.5-0.3-0.9-0.8-1c-0.1,0-0.2,0-0.2,0L96.9,95c-0.4,0.1-0.7,0.4-0.8,0.8
	c0,0.5,0,0.9,0,1.1c0.2,8.3,7.1,15,15.4,14.8c4.4-0.1,8.6-2.1,11.4-5.6l1,1c0.2,0.3,0.6,0.3,0.9,0.2c0.3-0.1,0.6-0.4,0.6-0.7
	l0.8-5.8C126.4,100.3,126,99.9,125.4,99.9C125.5,99.9,125.4,99.9,125.4,99.9z"/>
<path fill="#A4B45C" d="M13.2,119.1l-5.7,4.9h64.2c2.8-1.7,5.6-3.3,8.4-4.9H13.2z"/>
<path fill="#B4CE5C" d="M173.6,124.1l-6.8-4.9H80.2c-2.8,1.6-5.6,3.3-8.4,4.9H173.6z"/>
<polygon fill="#BDC2C7" points="148,102.6 149.2,44.8 153.1,44.8 154.2,102.6 155.6,119.1 154.2,119.1 148,119.1 146.7,119.1 "/>
<polygon fill="#7E8B8C" points="148,102.6 149.2,44.8 151.1,44.8 151.1,102.6 151.1,119.1 148,119.1 146.7,119.1 "/>
<path fill="#78A8C1" d="M150.2,0c-0.4,0-1.6,10.1-1.3,22.5c0.5,17.9,1.3,22.4,2.3,22.4s1.6-4.8,1.3-22.5C152.2,10,150.7,0,150.2,0z"
	/>
<path fill="#3A6070" d="M150.2,0c-0.4,0-1.6,10.1-1.3,22.5c0.5,17.9,1.3,22.4,2.3,22.4C151.1,35.5,150.4,9.4,150.2,0z"/>
<path fill="#78A8C1" d="M191,65.3c0.2-0.4-8.1-6.2-19.1-11.8c-16-8.1-20.3-9.5-20.8-8.7s3.4,3.7,19.1,11.9
	C181.2,62.4,190.8,65.8,191,65.3z"/>
<path fill="#3A6070" d="M191,65.3c0.2-0.4-8.1-6.2-19.1-11.8c-16-8.1-20.3-9.5-20.8-8.7C159.3,49.2,182.6,61,191,65.3z"/>
<path fill="#78A8C1" d="M114.1,70.1c0.2,0.4,9.3-4.1,19.5-11.2c14.8-10.2,18.1-13.3,17.5-14.1s-4.9,1.3-19.5,11.2
	C121.3,62.9,113.8,69.7,114.1,70.1z"/>
<path fill="#3A6070" d="M114.1,70.1c0.2,0.4,9.3-4.1,19.5-11.2c14.8-10.2,18.1-13.3,17.5-14.1C143.3,49.9,121.9,64.8,114.1,70.1z"/>
<path fill="#FFFFFF" d="M151.1,40.9c-2.2,0-4,1.8-4,4s1.8,4,4,4s4-1.8,4-4S153.3,40.9,151.1,40.9z"/>
<path fill="#49716B" d="M151.1,43c-1,0-1.8,0.8-1.8,1.8s0.8,1.8,1.8,1.8c1,0,1.8-0.8,1.8-1.8C152.9,43.8,152.1,43,151.1,43
	C151.1,43,151.1,43,151.1,43z"/>
<path fill="#FFFFFF" d="M151.1,43.9c-0.5,0-0.9,0.4-0.9,0.9c0,0.5,0.4,0.9,0.9,0.9c0.5,0,0.9-0.4,0.9-0.9
	C152,44.3,151.6,43.9,151.1,43.9C151.1,43.9,151.1,43.9,151.1,43.9z"/>
<path fill="#B4CE5C" d="M149.9,120.7c-2-0.5-3.5-2.2-3.7-4.3c0-0.3,0-0.7,0.1-1c0.4-0.7,1.1-1.1,1.9-1c0.7,0.1,1.5,0.3,2.1,0.7
	c-1.6-2.1-2.8-4.9-1.7-7.3c0.2-0.7,0.8-1.2,1.5-1.3c0.7,0,1.3,0.7,1.7,1.3c1,1.6,1.9,3.3,2.7,5c0.3-1.8,0.9-3.8,2.4-4.8
	c0.2-0.2,0.5-0.2,0.8-0.2c0.3,0,0.5,0.2,0.7,0.4c1.4,1.3,1.2,3.5,1,5.4c0.6-1.2,2-1.7,3.2-1.2c0,0,0,0,0.1,0c1.2,0.7,2,1.8,2.1,3.1
	c0.3,1,0.1,2.1-0.3,3.1c-0.5,0.9-1.5,2.1-2.6,2"/>
</svg>
