<?xml version="1.0" encoding="utf-8"?>
<!-- Generator: Adobe Illustrator 23.0.2, SVG Export Plug-In . SVG Version: 6.00 Build 0)  -->
<svg version="1.1" id="Capa_1" xmlns="http://www.w3.org/2000/svg" xmlns:xlink="http://www.w3.org/1999/xlink" x="0px" y="0px"
	 viewBox="0 0 666 666" style="enable-background:new 0 0 666 666;" xml:space="preserve">
<style type="text/css">
	.green-circle-svg{fill:#B0C365;}
	.white-icon-svg{fill:#FFFFFF;}
</style>
<circle class="green-circle-svg" cx="333" cy="333" r="333"/>
<path class="white-icon-svg" d="M536,510.8L433,403.7c26.5-31.5,41-71.1,41-112.4c0-96.3-78.3-174.8-174.8-174.8S124.4,195,124.4,291.4
	s78.4,174.8,174.8,174.8c36.1,0,70.6-10.9,100.1-31.6L503,542.4c4.3,4.5,10.1,7,16.4,7c5.9,0,11.5-2.2,15.7-6.4
	C544.4,534.3,544.7,519.8,536,510.8z M299.2,162.2c71.2,0,129.2,58,129.2,129.2s-58,129.2-129.2,129.2S170,362.6,170,291.4
	S228,162.2,299.2,162.2z"/>
</svg>
