<?xml version="1.0" encoding="utf-8"?>
<!-- Generator: Adobe Illustrator 23.0.2, SVG Export Plug-In . SVG Version: 6.00 Build 0)  -->
<svg version="1.1" id="Calque_1" xmlns="http://www.w3.org/2000/svg" xmlns:xlink="http://www.w3.org/1999/xlink" x="0px" y="0px"
	 viewBox="0 0 279.5 319" enable-background="new 0 0 279.5 319" xml:space="preserve">
<g>
	<path fill="#87562A" d="M214.7,94.4l2.6,48.5l0.6,37.2c0,0-62,28.4-81.4,22.7c-19.4-5.7-41.6-40.7-41.6-40.7s-3.5-0.4,0-16
		s5.4-29.9,5-34.7c-0.4-4.8,8.9-35,8.9-35L214.7,94.4z"/>
	<path fill="#935F2F" d="M116.3,66c-7.3-8.7-10.4-53.8,21.3-59.5c42.8-7.7,65.8,9.7,68.1,35.2c1,11.6-6,22.8-6,22.8L116.3,66z"/>
	<path opacity="0.2" fill="#97471F" d="M197.7,58.6c0,0-2-20.3-14-33s-23.4-14.8-23.4-14.8s15.2,12.9,21.7,26.8
		C188.5,51.6,197.7,58.6,197.7,58.6z"/>
	<path opacity="0.2" fill="#97471F" d="M123.6,68c0,0-7.5-15.4-4.5-30.6c3-15.2,10.1-22.6,10.1-22.6s-5.1,17-3.7,30.2
		C127,58.3,123.6,68,123.6,68z"/>
	<g>
		<g id="Layer0_1_FILL_245_">
			<g>
				<path fill="#3F3B49" d="M0,140c3.7,63.6,28.8,117.2,75.2,161c-2.2-6.1-3.7-14.9-4.5-26.3c-0.7-19.2,6-32.4,8.5-49.9
					c2.2-15.4,3.8-18.4,8.3-32.5c-3.2-21.6-12.1-54.6-18.3-65.1C37.8,115.2,14.8,119.4,0,140"/>
			</g>
		</g>
	</g>
	<g>
		<path fill="#B0C365" d="M206.2,175.1 M119.3,149l-15.1,0.9c-5.4,9.8-5,14.4-13.8,31.2c-6.5,12.2-10.7,26.1-12.9,40.2
			c-2.4,16-7.5,33.7-6.9,51.4c0.8,10.5,2.3,18.5,4.5,24.1c1.5,3.7,3.3,6.3,5.4,7.8c8.9,4.5,18.4,7.1,28.4,7.7
			c7.2,0.3,15.2,0.6,24,0.8l24.9-0.1c5.8,0,11.5-0.1,17.1-0.3c5.9-0.2,11.8-0.4,17.5-0.6c10.3-0.8,18.8-2.7,25.7-5.7
			c7.5-3.3,13-8,16.4-14c2.4-13.2-0.3-39.3-3.4-63.9c-2.2-17.4-12.4-47.8-18.3-62.4c-2.7-6.8-8.5-24.5-16.3-7.2"/>
	</g>
	<g>
		<g id="Layer0_1_1_STROKES_245_">
			<path fill="#D9CFC9" d="M53.6,247.9c-0.1,0-0.1,0-0.2,0c-0.7-0.1-1.2-0.8-1.1-1.5l5-31.4l-19.1-9.7c-0.7-0.3-0.9-1.2-0.6-1.8
				c0.3-0.7,1.2-0.9,1.8-0.6l18.3,9.3l4.2-26.3c0.1-0.7,0.8-1.2,1.5-1.1c0.7,0.1,1.2,0.8,1.1,1.5l-4.4,27.1l14.5,7.1
				c0.7,0.3,0.9,1.1,0.6,1.8c-0.3,0.7-1.1,0.9-1.8,0.6l-13.8-6.8L55,246.8C54.9,247.4,54.3,247.9,53.6,247.9z M29.9,179.8
				c-0.2,0-0.5-0.1-0.7-0.2c-0.6-0.4-0.8-1.2-0.4-1.9l12.9-21l-27-11.2c-0.7-0.3-1-1.1-0.7-1.8c0.3-0.7,1.1-1,1.8-0.7l27.4,11.4
				l13-21.3c0.4-0.6,1.2-0.8,1.9-0.4c0.6,0.4,0.8,1.2,0.4,1.9l-12.8,20.9l20.5,8.4c0.7,0.3,1,1.1,0.7,1.8c-0.3,0.7-1.1,1-1.8,0.7
				l-20.9-8.6L31,179.2C30.8,179.6,30.3,179.8,29.9,179.8z"/>
		</g>
	</g>
	<g opacity="0.4">
		<path fill="#221D1B" d="M77.8,148.7c2.2,7.7,8.1,33.5,9.7,43.6c-4.6,14-6.2,17.1-8.3,32.5c-2.4,17.5-9.2,30.6-8.5,49.9
			c0.8,11.4,2.3,20.2,4.5,26.3c-3.8-3.6-7.4-7.2-10.9-10.9C43.2,238.1,47.2,183.8,77.8,148.7z"/>
	</g>
	<g opacity="0.15">
		<path fill="#221D1B" d="M96.7,127.9c0.1-0.1,0.1-0.1,0.2-0.1c0.5-0.2,1-0.5,1.5-0.7l-1.5-3.7c3.7-12.7,10.9-22.3,21.5-28.8
			c0.1-0.1,0.2-0.1,0.2-0.1"/>
	</g>
	<g>
		<path fill="#B0C364" d="M123.8,162.2"/>
	</g>
	<g>
		<path fill="none" stroke="#3F3B49" stroke-width="7.9995" stroke-linecap="round" stroke-miterlimit="10" d="M123.8,162.2"/>
	</g>
	<g>
		<path fill="#B0C364" d="M110.1,159.8c0,0-7.6-9.9-9.7-25c-2.3-17.4-12.3-11-16.4-16c-5-6-3-10.9,8-10.4c4.9,0.2,4.7-13.2,5.9-16.2
			c3.5-8.4,13.5-20.5,13.5-20.5l8.6-4.9l20.1-7.2l20.5-0.5l22.6,5.2l14.1,8.5c0,0,11.9,12.1,12.5,26.5c0.1,1.9,0.7,4.4,0.9,7.3
			c0.1,2.3,17.6-0.5,17.2,7c-0.5,9.3-17,6.1-17.1,8.8c-0.2,7.6-0.7,13.8-0.7,13.8l-10.4,31.2l-11.3,2.6l-10.6-0.8"/>
	</g>
	<g>
		<path fill="#3F3B49" d="M93.6,125.9c-1.2,0-2.5-0.2-3.7-0.5c-4.3-1.3-7.8-4.7-9.8-9.5c-1.5-3.7-0.5-6.4,0.6-7.9
			c3.6-5.2,13.5-5.1,15.5-5c2,0.1,3.5,1.8,3.5,3.7c-0.1,2-1.8,3.5-3.7,3.5c-4-0.1-8.5,0.8-9.3,1.9c-0.1,0.1,0,0.5,0.2,1
			c1.5,3.6,3.6,4.9,5.2,5.3c1.8,0.5,3.3,0.1,3.9-0.3c1.6-1.1,3.9-0.7,5,0.9c1.1,1.6,0.7,3.9-0.9,5C98.2,125.3,95.9,125.9,93.6,125.9
			z"/>
	</g>
	<g>
		<path fill="#000100" d="M143.8,83.7c0.6,1.2,1.5,1.9,2.8,2.3s2.4,0.2,3.6-0.4c1.1-0.6,1.9-1.5,2.3-2.8c0.2-0.6,0.2-1.2,0.2-1.8
			c-0.1-0.6-0.2-1.2-0.6-1.8c-0.6-1.1-1.6-1.9-2.8-2.3c-0.6-0.2-1.2-0.2-1.8-0.1c-0.6,0.1-1.2,0.2-1.7,0.5c-1.2,0.6-1.9,1.6-2.3,2.8
			C143,81.4,143.2,82.6,143.8,83.7z"/>
	</g>
	<g opacity="0.15">
		<path fill="#221D1B" d="M218.8,300.9c-9.1,6.3-47.5,6.8-69.4,6.3c-21.9-0.5-41.5-5-52-22.7c-10.6-17.7,0.4-88.9,5.7-103.9
			c2.6-7.5,15.1-1.6,24.6-1c2.6,0.2,5,0,7-0.6c1.2-0.3,5.4,9.7,9.2,11.5c4,1.8,6.9,1.5,9.1,1.6c1.7,0,6.6,0.2,6.8-0.7
			c0.4-2.1,1-8.1,1.2-10.5c0.5-7.5-20-15.5-20.8-16.6c0,0-15,5-22.5-10.8c-4.5-5.5-11.5-30.6-10.6-43.4c1.1-14.3,5.1-37.8,20-44.1
			c15.1-6.4-11.3,2.3-11.3,2.3l-14.4,17.2l-6.2,22l3.3,23.1l6.7,19.7c-4.2,6.7-5.5,12.8-14,29.4c-6,11.7-10.6,26.6-13.6,41.6
			c-3.3,16.4-7.5,31.9-6.9,50.1c0.8,10.8,2.3,19.1,4.5,24.8c1.5,3.8,3.3,6.5,5.4,8c8.9,4.7,18.4,7.3,28.4,8c7.2,0.3,15.2,0.6,24,0.9
			l24.9-0.1c5.8-0.1,11.5-0.1,17.1-0.3c5.9-0.2,11.8-0.4,17.5-0.7c10.3-0.8,18.8-2.8,25.7-5.9c7.5-3.4,13-8.2,16.4-14.4
			c0.5-2.7,0.8-5.4,1.1-8.2C231.6,289.8,225.2,296.4,218.8,300.9z"/>
	</g>
	<g>
		<path fill="#3F3B49" d="M110.8,163.4c-1.3,0-2.5-0.7-3.1-1.9c-3.6-6.6-7-15-8.5-20.9c-5.6-21.8-5.7-39.6-0.4-53
			c4.8-12.1,13.1-18.3,17.6-21.6c8.1-6,21.6-9.4,38.1-9.4c2,0,3.6,1.6,3.6,3.6c0,2-1.6,3.6-3.6,3.6c-14.7,0-27,2.9-33.8,8
			c-9.3,6.9-26.5,19.8-14.5,67.2c1.3,5.2,4.6,13.2,7.9,19.2c0.9,1.7,0.3,3.9-1.4,4.8C112,163.2,111.4,163.4,110.8,163.4z"/>
	</g>
	<path fill="#EAC492" d="M245.1,311.3c0,0-26.8,3-32.6,2.4s14.6-14.6,14.6-14.6L245.1,311.3z"/>
	<path fill="#DDDDCE" d="M70.5,308c0,0,11.2,5.2,16.9,5s15.6,0,15.6,0l-17.9-10L70.5,308z"/>
	<g>
		<path fill="#3F3B49" d="M134.3,316.7L134.3,316.7c-8.9-0.2-17-0.5-24.2-0.9c-10.5-0.7-20.6-3.4-29.9-8.1l-0.5-0.3
			c-2.7-1.9-4.9-5-6.7-9.4c-2.4-6-3.9-14.2-4.7-25.2l0-0.3c0-59.4,22.8-106.9,32.6-124.5c1-1.8,3.2-2.4,5-1.4c1.8,1,2.4,3.2,1.4,5
			c-7.4,13.4-31.7,61.5-31.7,120.8c0.7,10,2.2,17.7,4.2,22.9c1.1,2.9,2.5,4.9,3.9,6c8.3,4.2,17.3,6.6,26.7,7.2
			c7,0.3,15.1,0.6,23.8,0.8l20-0.1c0,0,0,0,0,0c2,0,3.6,1.6,3.6,3.6c0,2-1.6,3.7-3.6,3.7L134.3,316.7z"/>
	</g>
	<g>
		<path fill="#3F3B49" d="M128,305.1l-13,1.1c-3.4,3-5.8,6.4-7.2,10.4c-0.3,0.8-0.5,1.6-0.7,2.4l31,0c-0.1-0.9-0.3-1.7-0.5-2.5
			C136.2,310.1,133,306.3,128,305.1"/>
	</g>
	<g>
		<path fill="#3F3B49" d="M191.5,305.1l-13,1.1c-3.4,3-5.8,6.4-7.2,10.4c-0.3,0.8-0.5,1.6-0.7,2.4l31,0c-0.1-0.9-0.3-1.7-0.5-2.5
			C199.7,310.1,196.5,306.3,191.5,305.1"/>
	</g>
	<g>
		<path fill="#3F3B49" d="M174.4,316.7L174.4,316.7l-20.1-0.1c-2,0-3.6-1.6-3.6-3.7c0-2,1.6-3.6,3.6-3.6c0,0,0,0,0,0l20,0.1
			c8.8-0.2,16.8-0.5,23.9-0.8c9.3-0.6,18.3-3,26.6-7.2c1.5-1.1,2.8-3.2,3.9-6c2.1-5.2,3.5-12.9,4.2-22.9
			c0-59.3-24.3-107.5-31.7-120.8c-1-1.8-0.3-4,1.4-5c1.8-1,4-0.3,5,1.4c9.8,17.6,32.6,65.1,32.6,124.5l0,0.3
			c-0.8,11-2.3,19.2-4.7,25.2c-1.7,4.4-3.9,7.5-6.7,9.4l-0.5,0.3c-9.3,4.7-19.3,7.5-29.8,8.1C191.4,316.2,183.3,316.4,174.4,316.7
			L174.4,316.7z"/>
	</g>
	<g>
		<ellipse fill="#EEEAEA" cx="154.5" cy="249.3" rx="41.4" ry="51.6"/>
	</g>
	<g>
		<path fill="#3F3B49" d="M216,125.9c-2.3,0-4.6-0.6-6.3-1.8c-1.6-1.1-2-3.4-0.9-5c1.1-1.6,3.4-2,5-0.9c0.6,0.4,2.1,0.8,3.9,0.3
			c1.6-0.5,3.7-1.8,5.2-5.3c0.2-0.5,0.3-0.9,0.2-1c-0.9-1.3-5.7-2.1-9.3-1.9c-2,0.1-3.7-1.5-3.7-3.5s1.5-3.7,3.5-3.7
			c2-0.1,11.9-0.2,15.5,5c1.1,1.6,2.1,4.2,0.6,7.9c-2,4.9-5.5,8.3-9.8,9.5C218.5,125.8,217.2,125.9,216,125.9z"/>
	</g>
	<g>
		<path fill="#3F3B49" d="M198.9,163.4c-0.6,0-1.2-0.1-1.7-0.4c-1.7-0.9-2.4-3.1-1.4-4.8c3.2-5.9,6.4-13.8,7.8-19.2
			c12.1-47.4-5.2-60.2-14.5-67.2c-6.8-5.1-19.1-8-33.8-8c-2,0-3.6-1.6-3.6-3.6c0-2,1.6-3.6,3.6-3.6c16.4,0,30,3.3,38.1,9.4
			c4.5,3.3,12.8,9.5,17.6,21.6c5.3,13.3,5.1,31.2-0.4,53c-1.5,6-5,14.5-8.4,20.9C201.4,162.7,200.1,163.4,198.9,163.4z"/>
	</g>
	<g>
		<path id="XMLID_251_" fill="#F2E5C0" d="M153.3,204.2c-33.9,1.2-72.4-9.2-72.4-9.2s-5.7,20.9-7.2,27.9c-1.6,7.4-5.2,30-5.2,30
			l83,13.3l87.2-22.6c0,0-1.6-19.8-3.1-26.3c-1.4-6-8.1-23.1-8.1-23.1L153.3,204.2z"/>
		<path id="XMLID_279_" fill="#EDD9AB" d="M161.9,256.9c0,0,61.9-17.9,76-17.9c14.1,0,56.2,55.6,26.1,68.5
			c-16.7,7.1-56.7-0.6-56.7-0.6s-24.4,10.8-45.5,10.8c-22.8,0-49.4-9.8-49.4-9.8s-44.4,8.4-61.6,2.3c-34.9-12.3,5.4-66.5,19.6-66.5
			S161.9,256.9,161.9,256.9L161.9,256.9z"/>
		<path id="XMLID_277_" fill="#F4CEA4" d="M164.3,255.9c0,0-34.7,62.4-95.5,59.5c-60.8-2.8-28.4-39.6-28.4-39.6s14.8,16.1,50.6,12.6
			C126.8,285.1,164.3,255.9,164.3,255.9z"/>
		<path id="XMLID_275_" fill="#EABC8F" d="M50,301.8c0,0,24.5,13.9,56.4,3.7c6.5-2.1,8-4.9,8-4.9S79,312.8,50,301.8z"/>
		<path id="XMLID_273_" fill="#EABC8F" d="M46.6,279.4c0,0-9.5,23.8,34,22.4c43.5-1.4,64.6-17,76-33.4c0,0-45.8,32.5-76,26.9
			C50.4,289.7,46.6,279.4,46.6,279.4z"/>
		<path id="XMLID_272_" fill="#F2E8D1" d="M34.3,278.7c0,0,10.7,20.9,59.9,18.8c49.2-2.1,72-41.4,72-41.4l-6.6-1.9
			c0,0-70.3,45.4-110.1,6.8C49.5,260.9,36.1,269.4,34.3,278.7z"/>
		<path id="XMLID_271_" fill="#F4CEA4" d="M64.3,291.6c0,0-12.8-5.6-9.8-20.5l0,0c-1.2,0.5-2.4,1.1-3.5,1.8
			C51,273.1,44.4,285.7,64.3,291.6z"/>
		<path id="XMLID_270_" fill="#F4CEA4" d="M61.3,273c0,0,6.5,21.3,42.4,15.5c35.9-5.7,55.9-31.8,55.9-31.8s-19.3,32-58.2,34.9
			C62.5,294.5,61.3,273,61.3,273z"/>
		<path id="XMLID_268_" fill="#F4CEA4" d="M160,260.8c0,0,30.5,55.1,86.1,52.6c55.7-2.5,24.9-40.2,24.9-40.2s-11.1,19.8-43.9,16.7
			C194.3,286.8,160,260.8,160,260.8z"/>
		<path id="XMLID_266_" fill="#EABC8F" d="M264.6,301.8c0,0-22.4,12.4-51.7,3.3c-5.9-1.8-7.3-4.4-7.3-4.4S238,311.6,264.6,301.8z"/>
		<path id="XMLID_264_" fill="#EABC8F" d="M267.6,281.7c0,0,8.7,21.3-31.1,20c-39.9-1.2-59.1-15.2-69.6-29.8
			c0,0,41.9,29.1,69.6,24.1C264.2,290.9,267.6,281.7,267.6,281.7z"/>
		<path id="XMLID_263_" fill="#F2E8D1" d="M273.2,272.7c0,0-4.1,27-49.1,25.2c-45-1.9-65.9-37-65.9-37l6.1-1.7
			c0,0,60.8,34.1,97.2-0.4C261.4,258.8,271.5,264.4,273.2,272.7z"/>
		<path id="XMLID_262_" fill="#F4CEA4" d="M251.4,292.7c0,0,11.7-5,9-18.3l0,0c1.1,0.4,2.2,1,3.2,1.6
			C263.6,276.1,269.6,287.4,251.4,292.7z"/>
		<path id="XMLID_261_" fill="#F4CEA4" d="M254.2,276c0,0-5.9,19-38.8,13.9c-32.9-5.1-51.1-28.4-51.1-28.4s17.7,28.6,53.3,31.2
			C253.1,295.3,254.2,276,254.2,276z"/>
		<g id="XMLID_137_">
			<path id="XMLID_141_" fill="#C2C1C1" d="M163.9,257.7c-0.6,2.4-3,3.8-5.3,3.2c-2.4-0.6-3.8-3-3.2-5.3c0.6-2.4,3-3.8,5.3-3.2
				C163,253,164.5,255.4,163.9,257.7z"/>
			<path id="XMLID_140_" fill="#E7E7E7" d="M163,256.3c-0.3,1.1-1.4,1.8-2.6,1.6c-1.1-0.3-1.8-1.4-1.6-2.6c0.3-1.1,1.4-1.8,2.6-1.6
				C162.6,254,163.3,255.2,163,256.3z"/>
		</g>
		<g id="XMLID_133_">
			<path id="XMLID_136_" fill="#C2C1C1" d="M170.5,258.6c-0.6,2.4-3,3.8-5.3,3.2c-2.4-0.6-3.8-3-3.2-5.3c0.6-2.4,3-3.8,5.3-3.2
				C169.6,253.8,171.1,256.2,170.5,258.6z"/>
			<path id="XMLID_134_" fill="#E7E7E7" d="M169.7,257.2c-0.3,1.1-1.4,1.8-2.6,1.6c-1.1-0.3-1.8-1.4-1.6-2.6
				c0.3-1.1,1.4-1.8,2.6-1.6C169.2,254.9,169.9,256,169.7,257.2z"/>
		</g>
		<g id="XMLID_79_">
			<path id="XMLID_131_" fill="#C2C1C1" d="M167.8,265.5c-0.7,3-3.8,4.8-6.8,4.1c-3-0.7-4.8-3.8-4.1-6.8c0.7-3,3.8-4.8,6.8-4.1
				C166.7,259.5,168.5,262.5,167.8,265.5z"/>
			<path id="XMLID_130_" fill="#E7E7E7" d="M166.7,263.7c-0.4,1.5-1.8,2.3-3.3,2c-1.5-0.4-2.3-1.8-2-3.3c0.4-1.5,1.8-2.3,3.3-2
				C166.2,260.8,167.1,262.3,166.7,263.7z"/>
		</g>
		<path id="XMLID_248_" fill="#F2E9D3" d="M78,195.7c0,0-5-3.3,3-11.7c0,0,44.3,12.8,74.9,12.8l0.2,16
			C156.1,212.8,95.5,208,78,195.7z"/>
		<path id="XMLID_245_" fill="#F2E9D3" d="M233.2,195.7c0,0,4.7-3.3-3.3-11.7c0,0-44.3,12.8-74.9,12.8l0.2,16
			C155.1,212.8,215.6,208,233.2,195.7z"/>
	</g>
	<g>
		<g>
			<path fill="#3F3B49" d="M91.3,218l17,21.1c0,0,9.9-1.1,13-2.7c1.8-4.6-6.4-25.7-6.4-25.7S110.3,217.9,91.3,218z"/>
		</g>
		<g>
			<path fill="#352B24" d="M121.1,240.2c-0.5,0.1-1.1-0.2-1.3-0.7l-3.4-6.7c-0.3-0.7-0.1-1.5,0.6-1.8c0.7-0.3,1.5-0.1,1.8,0.6
				l3.4,6.7c0.3,0.7,0.1,1.5-0.6,1.8C121.4,240.2,121.2,240.2,121.1,240.2z"/>
		</g>
		<g>
			<path fill="#352B24" d="M116,243.7c-0.5,0.1-1.1-0.2-1.3-0.7l-4.3-7.7c-0.4-0.7-0.1-1.5,0.5-1.8c0.7-0.4,1.5-0.1,1.8,0.5l4.3,7.7
				c0.4,0.7,0.1,1.5-0.5,1.8C116.3,243.6,116.1,243.7,116,243.7z"/>
		</g>
	</g>
	<g>
		<g>
			<path fill="#3F3B49" d="M215.5,219.8l-18.2,20.1c0,0-9.9-1.7-12.8-3.4c-1.6-4.7,7.9-25.3,7.9-25.3S196.6,218.6,215.5,219.8z"/>
		</g>
		<g>
			<path fill="#352B24" d="M184.5,240.3c-0.2,0-0.3-0.1-0.5-0.2c-0.6-0.4-0.9-1.2-0.5-1.8l3.8-6.5c0.4-0.6,1.2-0.9,1.8-0.5
				c0.6,0.4,0.9,1.2,0.5,1.8l-3.8,6.5C185.6,240.1,185.1,240.3,184.5,240.3z"/>
		</g>
		<g>
			<path fill="#352B24" d="M189.4,244c-0.2,0-0.3-0.1-0.5-0.2c-0.6-0.4-0.8-1.2-0.4-1.9l4.7-7.4c0.4-0.6,1.2-0.8,1.9-0.4
				c0.6,0.4,0.8,1.2,0.4,1.9l-4.7,7.4C190.5,243.9,190,244.1,189.4,244z"/>
		</g>
	</g>
	<path id="XMLID_249_" fill="#FFFFFF" d="M213.6,215c0,0,5.5,5.4,2.6,7.9c-2.9,2.5-6.8-0.5-6.8-0.5s0.2,5-5.9,3.8
		c-6.1-1.2-5.2-6-5.2-6s-5.1,4.3-10.1-0.1c-5-4.4,2.3-9.3,2.3-9.3L213.6,215z"/>
	<path id="XMLID_246_" fill="#FFFFFF" d="M88,214.8c0,0-3.1,4.7,0.2,7c3.3,2.4,7.2-1.2,7.2-1.2s0.3,5.3,6.6,3.5c6.3-1.8,5-6.8,5-6.8
		s5.8,4.1,10.7-1c4.9-5.1-2.2-8.1-2.2-8.1L88,214.8z"/>
	<g>
		<g>
			<path fill="#E9DDC5" d="M153.7,154.8c4.2-4.4,0.8-4.1,4.2-4.4c1.6,6.2,9.3,11.9,12.6,15.5c-0.1,7.2-1.1,11.2-2.7,16.6
				c-0.2,0.6-4.1,7.7-5.4,8.1l-15.4,0c-6.4-5.2-3.8-9.8-7-18C138.2,164.4,149.6,158.8,153.7,154.8z"/>
		</g>
	</g>
	<g>
		<g id="Layer0_2_1_STROKES_256_">
			<path fill="#3F3B49" d="M161.2,193.2h-13.3c-0.3,0-0.6-0.1-0.8-0.3c-5.7-4.6-7.2-13.3-8.4-20.3c-0.2-1.4-0.5-2.7-0.7-3.9
				c-0.1-0.7,0.3-1.4,1-1.6c0.7-0.1,1.4,0.3,1.6,1c0.2,1.2,0.5,2.5,0.7,4c1.1,6.4,2.4,14.3,7.1,18.4h12.3c3.4-3.3,8.7-15.4,8.8-22.2
				c0-0.7,0.6-1.3,1.3-1.3c0.7,0,1.3,0.6,1.3,1.3c-0.1,7.3-5.8,21-10.1,24.5C161.8,193.1,161.5,193.2,161.2,193.2z M154.6,182.9
				c-0.7,0-1.3-0.6-1.3-1.3v-30.7c0-0.7,0.6-1.3,1.3-1.3c0.7,0,1.3,0.6,1.3,1.3v30.7C155.9,182.3,155.4,182.9,154.6,182.9z"/>
		</g>
	</g>
	<g>
		<path fill="#3F3B49" d="M183.3,174.3c-1.7,0-2.9-0.3-3.4-0.5c-15.4-3.5-25.1-14.1-28-30.7l0-0.3l-0.1-9.3c0-1.9,1.5-3.4,3.3-3.4
			c0,0,0,0,0,0c1.8,0,3.4,1.5,3.4,3.3l0.1,8.7c2.5,13.8,10.2,22.2,22.9,25l0.4,0.1c0,0,2.7,0.8,6.4-1.4c3.8-2.2,9.4-7.9,14.2-22.5
			c0.6-1.8,2.5-2.7,4.3-2.1c1.8,0.6,2.7,2.5,2.1,4.3c-4.7,14.2-11,23.2-18.6,26.9C187.6,173.9,185.2,174.3,183.3,174.3z"/>
	</g>
	<g>
		<path fill="#3F3B49" d="M126.2,174.3c-1.9,0-4.3-0.4-7.1-1.7c-7.6-3.7-13.8-12.7-18.6-26.9c-0.6-1.8,0.4-3.7,2.1-4.3
			c1.8-0.6,3.7,0.4,4.3,2.1c5.1,15.4,11,21,15.1,23c3.2,1.6,5.5,0.9,5.5,0.9l0.4-0.1c8.2-1.8,14.3-6,18.3-12.4
			c9.6-15.5,3.8-39,3.7-39.3c-0.5-1.8,0.6-3.6,2.4-4.1c1.8-0.4,3.6,0.6,4.1,2.4c0.3,1.1,6.5,26.6-4.5,44.4
			c-4.9,8-12.5,13.1-22.4,15.4C129.1,174,127.9,174.3,126.2,174.3z"/>
	</g>
	<g>
		<g id="Layer0_6_FILL_258_">
			<g>
				<path fill="#000100" d="M169.4,111.5c-3,4.1-8.6,7.6-14.6,10c-11.7-3.7-15.8-10.2-20.3-19.4c11.6-5.3,22.2-6.8,31.5-4.4
					c3.2,0.8,6.2,2,9.1,3.7C173.5,105.1,171.6,108.5,169.4,111.5z"/>
			</g>
		</g>
	</g>
	<g>
		<path fill="#000100" d="M156.7,83.7c0.6,1.2,1.5,1.9,2.8,2.3s2.4,0.2,3.6-0.4c1.1-0.6,1.9-1.5,2.3-2.8c0.2-0.6,0.2-1.2,0.2-1.8
			c-0.1-0.6-0.2-1.2-0.6-1.8c-0.6-1.1-1.6-1.9-2.8-2.3c-0.6-0.2-1.2-0.2-1.8-0.1c-0.6,0.1-1.2,0.2-1.7,0.5c-1.2,0.6-1.9,1.6-2.3,2.8
			C155.9,81.4,156,82.6,156.7,83.7z"/>
	</g>
	<path fill="#000100" d="M164.4,78.9c0,0,3.7-0.7,4.7-1.4l-4,2.5L164.4,78.9z"/>
	<path fill="#000100" d="M165.3,80.7l2.9-1.3c-0.7,0.9-2.7,2-2.7,2L165.3,80.7z"/>
	<path fill="#000100" d="M144.4,78.9c0,0-3.7-0.7-4.7-1.4l4,2.5L144.4,78.9z"/>
	<path fill="#000100" d="M143.5,80.8l-2.9-1.3c0.7,0.9,2.7,2,2.7,2L143.5,80.8z"/>
	<path fill="#A06B35" d="M222.6,169.8c-9-17.1-1.6-7.3-4.2-33.7c-0.6-5.8-2.8-11.9-2.1-18c0.8-6.9,5.2-12.9,4.1-21.5
		c-0.6-4.9-1.9-16.3-5.8-24.1c-7.1-14.3-16-24.3-43.6-24.3c-2.7,0-5,0.4-6.9,0.9c-4.4,1.2-6.2-0.1-7.4,0.9c-1.2-1.1-4.7,0.3-9.1-0.9
		c-2-0.5-4.3-0.9-6.9-0.9c-27.5,0-36.9,13-44.1,27.3c-3.9,7.8-5.6,15.1-6.3,20c-1.1,7.5,2.9,15.9,3.6,24.1c0.4,4.7-1.1,9.3-1.6,13.7
		c-2.6,26.5,4.8,16.6-4.2,33.7c-9,17.1-10.2,31.2-7.5,35.7c2.7,4.6,7,4.2,7,4.2s-6.2-8.8-4.3-15.5c1.9-6.7,10.4-14.4,13.3-22.1
		c3-7.7,4-15.2,3-19c-1-3.8-2.1-15.2-1-19.4c0.5-1.7,1-10.4,1.4-20.6c2.4-10.5,6.9-23.4,16.4-29.8C124,75.5,146.2,66,155.9,66
		c13.1,0.1,37.5,9.6,43.9,18.9c6.4,9.4,9.2,21.1,10.8,29.6c0.4,9.6,0.9,17.6,1.3,19.2c1.2,4.2,0,15.6-1,19.4c-1,3.8,0.1,11.3,3,19
		c3,7.7,11.4,15.4,13.3,22.1c1.9,6.7-4.3,15.5-4.3,15.5s4.3,0.4,7-4.2C232.8,201,231.6,186.9,222.6,169.8z"/>
	<g>
		<g>
			<path fill="#83BCBB" d="M203.7,58.5c0.3,0.5,2.1,1.3,2.1,1.3c0-0.9,0-1.9-0.1-2.9c-0.7-0.6-1.4-1.1-2.2-1.7
				C203.5,56.9,203.6,58.3,203.7,58.5z"/>
			<path fill="#B0D2D2" d="M117.3,30.6c-0.3,6.2,0.7,12.5,0.6,18.8c0.7-0.3,1.4-0.6,2.1-0.9c-0.2-4.8-0.6-10.7-0.6-10.7l5.4,8.9
				c0.9-0.3,1.8-0.6,2.7-0.9C123.5,41.2,120,36,117.3,30.6z"/>
			<path fill="#83BCBB" d="M117.6,53.5c-0.8-1-1.6-1.9-2.4-2.8c-0.9,0.4-1.7,0.9-2.5,1.4l3.3,3.6c0,0,3.9-0.1,4.2-1
				c0.1-0.4,0-3-0.2-6.1c-0.7,0.3-1.4,0.6-2.1,0.9C117.8,50.8,117.8,52.1,117.6,53.5z"/>
			<path fill="#83BCBB" d="M107.8,59.8c0,0,1.8-0.8,2.1-1.3c0.2-0.2,0.2-2.5,0.1-4.8c-0.7,0.5-1.5,1.1-2.1,1.6
				C107.9,56.9,107.8,58.4,107.8,59.8z"/>
			<path fill="#B0D2D2" d="M108.6,42.7c-0.1,4-0.5,8.5-0.7,12.6c0.7-0.6,1.4-1.1,2.1-1.6c0-2.4-0.1-4.8-0.1-4.8l2.8,3.1
				c0.8-0.5,1.7-0.9,2.5-1.4C113.3,48.4,111.4,46.2,108.6,42.7z"/>
			<path fill="#B0D2D2" d="M134.9,23.6c-1.3,2.8-4.4,15.7-5.7,21.7c0.6-0.2,1.3-0.4,1.9-0.5c0.7-0.2,1.4-0.4,2-0.6l1.8-12.3
				l6.8,10.3c1-0.2,2.1-0.4,3.1-0.5C142.3,37.2,137.5,28.4,134.9,23.6z"/>
			<path fill="#83BCBB" d="M184.9,47.1c-0.1-0.5-0.2-1.1-0.4-1.8c-1.3-0.5-2.7-1-4-1.4l0.8,5.6l5.3,0.7l2-3.2
				c-0.9-0.4-1.8-0.7-2.7-1.1C185.6,46.3,185.3,46.7,184.9,47.1z"/>
			<path fill="#B0D2D2" d="M196.3,30.6c-2.7,5.4-6.2,10.7-10.3,15.3c0.9,0.3,1.8,0.7,2.7,1.1l5.6-9.2c0,0-0.4,6.5-0.7,11.5
				c0.7,0.4,1.5,0.7,2.2,1.1C195.6,43.8,196.6,37.1,196.3,30.6z"/>
			<path fill="#83BCBB" d="M196,53.5c-0.1-1-0.2-2.1-0.2-3.1c-0.7-0.4-1.5-0.8-2.2-1.1c-0.1,2.7-0.2,5-0.1,5.3c0.2,1,4.2,1,4.2,1
				l2.5-2.7c-0.8-0.5-1.6-1-2.4-1.4C197.1,52.1,196.6,52.8,196,53.5z"/>
			<path fill="#B0D2D2" d="M197.7,51.4c0.8,0.5,1.6,0.9,2.4,1.4l3.6-4c0,0-0.1,3.5-0.1,6.3c0.8,0.5,1.5,1.1,2.2,1.7
				c-0.2-4.6-0.6-9.6-0.8-14.2C201.9,46.6,199.8,48.9,197.7,51.4z"/>
			<path fill="#83BCBB" d="M145.9,43.7c-0.3-0.5-0.7-1.2-1.1-2c-1,0.2-2.1,0.3-3.1,0.5l3.1,4.7l3.9-0.5l1.6-5.4
				c-1.2,0.1-2.4,0.2-3.6,0.4C146.3,42.4,146.1,43.1,145.9,43.7z"/>
			<path fill="#B0D2D2" d="M178.8,23.6c-2.6,4.7-7.2,13.2-9.7,17.8c1.1,0.1,2.1,0.3,3.2,0.5l6.5-10l1.8,12c1.3,0.4,2.6,0.9,4,1.4
				C183.2,39.4,180.1,26.4,178.8,23.6z"/>
			<path fill="#83BCBB" d="M129.1,45.3c-0.2,0.7-0.3,1.4-0.4,1.8c-0.4-0.4-0.8-0.9-1.2-1.3c-0.9,0.3-1.8,0.6-2.7,0.9l2.2,3.5
				l5.3-0.7l0.8-5.4c-0.7,0.2-1.4,0.4-2,0.6C130.4,44.9,129.8,45.1,129.1,45.3z"/>
			<path fill="#B0D2D2" d="M156.8,7.6c0,0-7.1,24.8-10.2,33.9c1.2-0.2,2.4-0.3,3.6-0.4l6.6-21.9l6.5,21.7c1.2,0.1,2.4,0.2,3.6,0.3
				C163.8,31.9,156.8,7.6,156.8,7.6z"/>
			<path fill="#83BCBB" d="M167.8,43.7c-0.2-0.6-0.5-1.5-0.9-2.6c-1.2-0.1-2.4-0.2-3.6-0.3l1.7,5.6l3.9,0.5l3.3-5.1
				c-1.1-0.2-2.1-0.4-3.2-0.5C168.5,42.3,168.1,43.1,167.8,43.7z"/>
		</g>
		<path fill="#83BCBB" d="M132.9,45.2c0,0,0-0.2,0-0.6c0-0.4,0-0.9,0.1-1.5c0.1-1.3,0.3-2.9,0.5-4.6c0.2-1.7,0.6-3.3,0.9-4.5
			c0.1-0.6,0.3-1.1,0.4-1.5c0.1-0.4,0.2-0.6,0.2-0.6s0,0.2,0,0.6c0,0.4,0,0.9-0.1,1.5c-0.1,1.3-0.3,2.9-0.5,4.6
			c-0.2,1.7-0.6,3.3-0.9,4.5c-0.1,0.6-0.3,1.1-0.4,1.5C133,45,132.9,45.2,132.9,45.2z"/>
		<path fill="#83BCBB" d="M120.2,52.5c0,0,0-0.2-0.1-0.6c-0.1-0.4-0.2-1-0.2-1.7c-0.2-1.4-0.3-3.2-0.5-5c-0.1-1.8-0.1-3.7-0.1-5.1
			c0-0.7,0-1.3,0.1-1.7c0-0.4,0-0.6,0-0.6s0.1,0.2,0.1,0.6c0.1,0.4,0.2,1,0.3,1.7c0.2,1.4,0.4,3.2,0.5,5.1c0,0.9,0.1,1.8,0.1,2.7
			c0,0.9,0,1.7,0,2.4c0,0.7-0.1,1.3-0.1,1.7C120.2,52.3,120.2,52.5,120.2,52.5z"/>
		<path fill="#83BCBB" d="M109.9,58.5c0,0,0-0.2,0-0.4c0-0.3-0.1-0.6-0.1-1.1c-0.1-0.9-0.2-2.1-0.2-3.3c0-1.2,0-2.4,0.1-3.3
			c0.1-0.9,0.2-1.5,0.2-1.5s0.2,0.6,0.3,1.5c0.1,0.9,0.2,2.1,0.3,3.3c0,1.2,0,2.4-0.2,3.3c-0.1,0.5-0.1,0.8-0.2,1.1
			C110,58.4,109.9,58.5,109.9,58.5z"/>
		<path fill="#83BCBB" d="M117.6,53.5c0,0-0.2-0.1-0.4-0.4c-0.3-0.3-0.7-0.6-1.1-1.1c-0.9-0.9-2.1-2.2-3.2-3.6
			c-1.1-1.3-2.2-2.7-2.9-3.8c-0.4-0.5-0.7-1-0.9-1.3c-0.2-0.3-0.3-0.5-0.3-0.5s0.2,0.1,0.4,0.4c0.3,0.3,0.7,0.6,1.1,1.1
			c0.9,0.9,2.1,2.2,3.2,3.6c1.1,1.4,2.2,2.7,2.9,3.8c0.4,0.5,0.7,1,0.9,1.3C117.5,53.3,117.6,53.5,117.6,53.5z"/>
		<path fill="#83BCBB" d="M128.1,46.4c0,0-0.2-0.2-0.6-0.6c-0.4-0.4-0.9-0.9-1.5-1.6c-0.3-0.3-0.6-0.7-1-1.1c-0.3-0.4-0.7-0.8-1-1.2
			c-0.7-0.9-1.4-1.9-2.1-2.8c-0.4-0.5-0.6-1-1-1.5c-0.3-0.5-0.6-1-0.9-1.5c-0.3-0.5-0.6-1-0.8-1.4c-0.2-0.5-0.4-0.9-0.6-1.3
			c-0.4-0.8-0.7-1.5-0.9-2c-0.2-0.5-0.3-0.8-0.3-0.8s0.2,0.2,0.5,0.7c0.3,0.4,0.7,1.1,1.2,1.8c0.2,0.4,0.5,0.8,0.8,1.2
			c0.3,0.4,0.6,0.9,0.9,1.3c0.3,0.5,0.6,0.9,0.9,1.4c0.3,0.5,0.6,1,1,1.5c0.7,1,1.4,1.9,2,2.9c0.6,0.9,1.3,1.7,1.8,2.5
			c0.5,0.7,1,1.4,1.3,1.8C127.9,46.1,128.1,46.4,128.1,46.4z"/>
		<path fill="#83BCBB" d="M146.2,42.7c-0.1,0.3-0.2,0.7-0.3,1c0,0-0.1,0.1-0.1,0.1c0,0,0,0,0,0l0,0c-0.5-0.8-1.1-1.6-1.5-2.4
			l-1.5-2.5c-1-1.7-1.9-3.3-2.8-5c-0.9-1.7-1.8-3.4-2.7-5.1c-0.9-1.7-1.7-3.4-2.5-5.2c1.1,1.6,2,3.2,3,4.9c1,1.6,1.9,3.3,2.8,5
			c0.9,1.7,1.8,3.4,2.7,5.1c0.8,1.7,1.7,3.4,2.5,5.1l-0.1,0C145.9,43.3,146.1,43,146.2,42.7z"/>
		<path fill="#83BCBB" d="M156.8,7.6c0,0-0.1,0.6-0.4,1.5c-0.2,1-0.6,2.4-1,4c-0.4,1.7-0.9,3.6-1.5,5.7c-0.3,1-0.6,2.1-0.9,3.2
			c-0.3,1.1-0.7,2.2-1,3.3c-0.7,2.2-1.4,4.4-2,6.4c-0.7,2-1.3,3.9-1.9,5.6c-0.5,1.6-1,3-1.4,3.9c-0.2,0.5-0.3,0.8-0.4,1.1
			c-0.1,0.2-0.2,0.4-0.2,0.4s0.2-0.6,0.4-1.5c0.3-1,0.6-2.4,1.1-4c0.5-1.7,1-3.6,1.6-5.7c0.6-2.1,1.3-4.3,1.9-6.4
			c0.7-2.2,1.4-4.4,2-6.4c0.6-2.1,1.3-4,1.8-5.6c0.5-1.6,1-3,1.3-3.9C156.6,8.1,156.8,7.6,156.8,7.6z"/>
		<path fill="#83BCBB" d="M178.8,23.6c0,0-0.1,0.3-0.4,0.8c-0.2,0.5-0.6,1.3-1,2.2c-0.9,1.8-2.1,4.2-3.3,6.5
			c-1.3,2.3-2.6,4.6-3.7,6.3c-0.5,0.8-1,1.5-1.3,2c-0.3,0.5-0.5,0.8-0.5,0.8s0.5-1.2,1.4-3c0.9-1.8,2.1-4.2,3.3-6.5
			c1.3-2.3,2.6-4.6,3.7-6.3c0.5-0.8,1-1.5,1.3-2C178.6,23.9,178.8,23.6,178.8,23.6z"/>
		<path fill="#83BCBB" d="M196.3,30.6c0,0-0.1,0.3-0.3,0.8c-0.2,0.5-0.5,1.2-0.9,2.1c-0.2,0.4-0.4,0.9-0.7,1.4
			c-0.3,0.5-0.6,1-0.9,1.5c-0.3,0.5-0.6,1-0.9,1.6c-0.3,0.5-0.7,1.1-1,1.6c-0.7,1-1.5,2-2.2,3c-0.8,0.9-1.5,1.7-2.2,2.4
			c-0.6,0.7-1.2,1.3-1.6,1.6c-0.4,0.4-0.6,0.6-0.6,0.6s0.2-0.3,0.5-0.7c0.4-0.4,0.8-1.1,1.4-1.8c0.6-0.8,1.2-1.6,1.9-2.6
			c0.7-1,1.4-2,2.1-3c0.4-0.5,0.7-1,1.1-1.5c0.3-0.5,0.7-1,1-1.5c0.3-0.5,0.6-1,0.9-1.4c0.3-0.5,0.5-0.9,0.8-1.3
			c0.5-0.8,0.9-1.5,1.2-1.9C196.2,30.9,196.3,30.6,196.3,30.6z"/>
		<path fill="#83BCBB" d="M205,42.7c0,0-0.1,0.2-0.3,0.5c-0.2,0.3-0.5,0.7-0.8,1.2c-0.7,1-1.7,2.3-2.7,3.6c-1.1,1.2-2.2,2.4-3.1,3.3
			c-0.4,0.4-0.8,0.8-1.1,1c-0.3,0.2-0.4,0.4-0.4,0.4s0.1-0.2,0.3-0.5c0.2-0.3,0.5-0.7,0.8-1.2c0.7-1,1.7-2.3,2.8-3.5
			c0.5-0.6,1-1.3,1.6-1.8c0.5-0.6,1-1.1,1.4-1.5c0.4-0.4,0.8-0.8,1.1-1C204.8,42.8,205,42.7,205,42.7z"/>
		<path fill="#83BCBB" d="M203.7,48.9c0,0,0.1,0.5,0.2,1.3c0.1,0.8,0.1,1.9,0.1,2.9c0,0.5,0,1.1-0.1,1.6c0,0.2,0,0.5-0.1,0.7
			c0,0.2,0,0.4-0.1,0.6c-0.1,0.8-0.2,1.3-0.2,1.3s-0.1-0.5-0.3-1.3c0-0.2-0.1-0.4-0.1-0.6c0-0.2,0-0.5,0-0.7c0-0.5,0-1,0-1.6
			c0-1.1,0.1-2.1,0.2-2.9C203.5,49.4,203.7,48.9,203.7,48.9z"/>
		<path fill="#83BCBB" d="M194.3,37.8c0,0.9,0,1.8,0,2.7c0,0.9,0,1.8,0,2.7c0,1.8-0.1,3.5-0.2,5.3c-0.1,1.8-0.2,3.5-0.2,5.3
			c0,0.2,0,0.4,0,0.6l0,0.1l0,0v0c0,0-0.1-0.2,0-0.1l0,0l0,0l0,0.1c0,0,0,0.1,0,0.1l0,0c0,0,0,0,0,0c0.3,0.2,0.7,0.3,1.1,0.4
			c0.8,0.2,1.7,0.2,2.6,0.3l-0.3,0.1l3.1-3.3c0.5-0.5,1.1-1.1,1.6-1.6c0.5-0.5,1.1-1.1,1.6-1.6c-0.5,0.6-0.9,1.2-1.4,1.8
			c-0.5,0.6-0.9,1.2-1.4,1.7l-2.9,3.4c-0.1,0.1-0.2,0.1-0.3,0.1h0c-0.9,0-1.8-0.1-2.7-0.2c-0.5-0.1-0.9-0.2-1.4-0.5
			c-0.1-0.1-0.4-0.3-0.4-0.4l0-0.1l0,0l0,0c0,0.1,0-0.1,0-0.1l0,0l0,0l0-0.2c0-0.3,0-0.5,0-0.7c0-0.9,0-1.8,0.1-2.7
			c0-0.9,0.1-1.8,0.2-2.7c0.1-1.8,0.3-3.5,0.4-5.3c0.1-0.9,0.2-1.8,0.3-2.6C194.1,39.5,194.2,38.7,194.3,37.8z"/>
		<path fill="#83BCBB" d="M178.8,31.9c0,0,0.1,0.2,0.2,0.7c0.1,0.4,0.3,1,0.4,1.8c0.3,1.5,0.7,3.4,1,5.4c0.3,2,0.5,3.9,0.6,5.4
			c0.1,0.7,0.1,1.4,0.1,1.8c0,0.4,0,0.7,0,0.7s-0.1-0.2-0.2-0.7c-0.1-0.4-0.3-1-0.4-1.8c-0.3-1.5-0.7-3.4-1-5.4
			c-0.3-2-0.5-3.9-0.6-5.4c-0.1-0.7-0.1-1.4-0.1-1.8C178.8,32.2,178.8,31.9,178.8,31.9z"/>
		<path fill="#83BCBB" d="M156.8,19.1c0,0,0.1,0.4,0.4,1c0.2,0.6,0.6,1.5,0.9,2.6c0.4,1.1,0.8,2.4,1.3,3.7c0.4,1.4,0.9,2.8,1.3,4.3
			c0.4,1.5,0.9,2.9,1.2,4.3c0.4,1.4,0.7,2.7,1,3.8c0.3,1.1,0.5,2,0.6,2.7c0.1,0.7,0.2,1,0.2,1s-0.1-0.4-0.4-1
			c-0.2-0.6-0.6-1.5-0.9-2.6c-0.4-1.1-0.8-2.3-1.3-3.7c-0.4-1.4-0.9-2.8-1.3-4.3c-0.4-1.5-0.9-2.9-1.2-4.3c-0.4-1.4-0.7-2.7-1-3.8
			c-0.3-1.1-0.5-2-0.6-2.7C156.9,19.5,156.8,19.1,156.8,19.1z"/>
		<path fill="#B0D2D2" d="M211,65.5c-0.4-0.3-0.8-1.2-1-1.6c-1.1-1.4-2.3-2.8-3.5-4c-8.8-8.5-21-13-32.8-15.2
			c-19.6-3.6-42.1-1.4-59.2,9.5c-3.4,2.2-6.6,4.7-9.2,7.8c-0.8,0.9-1.6,2.8-2.6,3.5C131.7,43.9,186.7,46.7,211,65.5z"/>
		<path fill="#83BCBB" d="M102.6,65.5c0,0,0.4-0.3,1-0.8c0.7-0.5,1.7-1.2,3-2.1c1.3-0.9,3-1.8,4.9-2.9c1-0.5,2-1,3.1-1.5
			c1.1-0.5,2.3-1,3.5-1.5c2.5-1,5.2-2,8.2-2.8c3-0.9,6.1-1.6,9.4-2.2c3.3-0.6,6.8-1.1,10.3-1.4c3.5-0.3,7.1-0.5,10.7-0.5
			c3.6,0,7.2,0.2,10.7,0.5c3.5,0.3,7,0.8,10.3,1.4c3.3,0.6,6.5,1.3,9.4,2.2c1.5,0.4,2.9,0.9,4.3,1.3c1.4,0.5,2.7,0.9,3.9,1.4
			c1.2,0.5,2.4,1,3.6,1.5c0.6,0.3,1.1,0.5,1.6,0.7c0.5,0.3,1,0.5,1.5,0.8c0.5,0.3,1,0.5,1.4,0.7c0.4,0.3,0.9,0.5,1.3,0.7
			c0.8,0.5,1.6,0.9,2.2,1.4c0.7,0.4,1.2,0.8,1.7,1.2c0.5,0.4,0.9,0.7,1.2,0.9c0.7,0.5,1,0.8,1,0.8s-0.4-0.3-1.1-0.7
			c-0.3-0.2-0.8-0.5-1.3-0.9c-0.5-0.3-1.1-0.7-1.8-1.1c-0.7-0.4-1.4-0.8-2.2-1.3c-0.4-0.2-0.8-0.5-1.3-0.7c-0.5-0.2-0.9-0.5-1.4-0.7
			c-0.5-0.2-1-0.5-1.5-0.7c-0.5-0.2-1.1-0.5-1.6-0.7c-1.1-0.5-2.3-1-3.6-1.4c-1.2-0.5-2.6-0.9-3.9-1.4c-1.4-0.4-2.8-0.9-4.3-1.2
			c-3-0.8-6.1-1.5-9.4-2.1c-3.3-0.5-6.7-1.1-10.2-1.3c-3.5-0.3-7.1-0.5-10.6-0.5c-3.6,0-7.1,0.1-10.6,0.4c-3.5,0.3-6.9,0.8-10.2,1.3
			c-3.3,0.6-6.5,1.3-9.4,2.1c-3,0.8-5.7,1.7-8.2,2.7c-1.2,0.5-2.4,1-3.6,1.4c-1.1,0.5-2.2,1-3.1,1.5c-1.9,1-3.6,1.9-4.9,2.7
			c-1.4,0.8-2.4,1.5-3.1,2C103,65.3,102.6,65.5,102.6,65.5z"/>
		<path fill="#D0E2E0" d="M211,65.5c0,0-0.1-0.1-0.2-0.2c-0.1-0.2-0.3-0.5-0.5-0.9c-0.2-0.4-0.6-0.8-1-1.3c-0.4-0.5-0.9-1.1-1.5-1.7
			c-0.3-0.3-0.6-0.6-0.9-0.9c-0.2-0.2-0.3-0.3-0.5-0.5c-0.2-0.2-0.4-0.3-0.6-0.5c-0.8-0.6-1.6-1.4-2.5-2.1c-0.4-0.4-0.9-0.7-1.4-1.1
			c-0.5-0.3-1-0.7-1.6-1.1c-1-0.8-2.2-1.4-3.5-2.1c-0.6-0.3-1.2-0.7-1.9-1.1c-0.7-0.3-1.3-0.6-2-1c-0.7-0.3-1.4-0.7-2.1-1
			c-0.7-0.3-1.5-0.6-2.2-0.9c-0.8-0.3-1.5-0.6-2.3-0.9c-0.8-0.3-1.6-0.5-2.4-0.8c-1.6-0.6-3.3-0.9-5-1.4c-1.7-0.4-3.5-0.8-5.3-1.1
			c-1.8-0.3-3.6-0.6-5.5-0.8c-1.8-0.3-3.7-0.4-5.6-0.5c-1.9-0.1-3.8-0.2-5.7-0.2c-3.8-0.1-7.6,0.1-11.3,0.6
			c-3.7,0.4-7.3,1.1-10.8,1.9c-0.9,0.2-1.7,0.5-2.6,0.7c-0.8,0.2-1.7,0.5-2.5,0.8c-1.6,0.5-3.2,1.1-4.7,1.7
			c-0.8,0.3-1.5,0.6-2.2,0.9c-0.7,0.3-1.5,0.6-2.1,1c-1.4,0.7-2.7,1.3-3.9,2.1c-1.2,0.7-2.4,1.4-3.5,2.1c-1.1,0.7-2.1,1.4-3,2.1
			c-1.8,1.4-3.3,2.8-4.4,4c-0.6,0.6-1.1,1.2-1.4,1.7c-0.4,0.5-0.6,1-0.9,1.4c-0.3,0.4-0.5,0.6-0.7,0.8c-0.2,0.1-0.3,0.2-0.3,0.2
			s0.1-0.1,0.3-0.2c0.2-0.2,0.4-0.4,0.6-0.8c0.3-0.4,0.5-0.8,0.9-1.4c0.2-0.3,0.3-0.6,0.6-0.9c0.2-0.3,0.5-0.6,0.8-0.9
			c1.1-1.2,2.6-2.7,4.4-4.1c0.9-0.7,1.9-1.5,3-2.2c1-0.8,2.2-1.5,3.5-2.2c1.2-0.8,2.6-1.4,3.9-2.1c0.7-0.4,1.4-0.7,2.1-1
			c0.7-0.3,1.5-0.7,2.2-1c1.5-0.6,3.1-1.3,4.7-1.8c0.8-0.3,1.6-0.6,2.5-0.8c0.8-0.2,1.7-0.5,2.6-0.7c3.5-0.9,7.1-1.6,10.9-2
			c3.7-0.4,7.6-0.7,11.4-0.6c1.9,0,3.8,0.1,5.7,0.2c1.9,0.2,3.8,0.3,5.7,0.6c1.9,0.2,3.7,0.6,5.5,0.9c1.8,0.4,3.6,0.7,5.3,1.2
			c1.7,0.5,3.4,0.9,5.1,1.4c0.8,0.3,1.6,0.5,2.4,0.8c0.8,0.3,1.6,0.6,2.3,0.9c0.8,0.3,1.5,0.6,2.3,0.9c0.7,0.3,1.4,0.7,2.1,1
			c0.7,0.3,1.4,0.7,2,1c0.7,0.4,1.3,0.7,1.9,1.1c1.2,0.7,2.4,1.4,3.5,2.2c0.5,0.4,1,0.8,1.5,1.1c0.5,0.4,1,0.7,1.4,1.1
			c0.9,0.8,1.7,1.5,2.4,2.2c0.2,0.2,0.4,0.3,0.6,0.5c0.2,0.2,0.3,0.3,0.5,0.5c0.3,0.3,0.6,0.7,0.9,1c0.6,0.6,1,1.2,1.4,1.7
			c0.4,0.5,0.8,0.9,0.9,1.3c0.2,0.4,0.4,0.7,0.5,0.9C210.9,65.5,211,65.5,211,65.5z"/>
		<g>
			<path fill="#F2B0BB" d="M177.3,19.1c-1.6,1.4-1,4.9,2,4.8c0.1,0,0.3,0,0.4,0C178.4,22.6,177.4,20.6,177.3,19.1z"/>
			<path fill="#FDD1D7" d="M180.2,18.7c-0.2-0.1-0.3-0.1-0.5-0.1c-1-0.2-1.8,0.1-2.3,0.5c0.1,1.5,1.1,3.5,2.4,4.7
				C182.5,23.4,182.7,19.6,180.2,18.7z"/>
		</g>
		<g>
			<path fill="#F2B0BB" d="M196.7,27.4c-3,0.7-1.5,4.5,0.7,4.4C196.5,30.7,196.3,29,196.7,27.4z"/>
			<path fill="#FDD1D7" d="M199,31.1c1.2-1.1,0.5-2.9-0.8-3.5c-0.4-0.2-0.9-0.3-1.4-0.2c0,0,0,0-0.1,0c-0.4,1.6-0.2,3.3,0.7,4.4
				C197.9,31.8,198.4,31.6,199,31.1z"/>
		</g>
		<g>
			<path fill="#F2B0BB" d="M204.6,40c-1.9,0.8-0.8,3.9,1,3.9c0.6,0,1.1-0.2,1.4-0.5C205.3,43.1,203.9,41.9,204.6,40z"/>
			<path fill="#FDD1D7" d="M206.5,40.2c-0.5-0.3-1.1-0.5-1.7-0.3c-0.1,0-0.1,0.1-0.2,0.1c-0.7,2,0.7,3.1,2.4,3.5
				C207.9,42.6,207.6,40.9,206.5,40.2z"/>
		</g>
		<g>
			<path fill="#FDD1D7" d="M136.5,18.8c-0.5-0.6-1.3-0.9-2.5-0.8c-0.2,0-0.4,0.1-0.5,0.1c-2.2,0.7-2.4,3.8-0.5,4.9
				C134.8,22.7,136.2,20.7,136.5,18.8z"/>
			<path fill="#F2B0BB" d="M136.5,18.8c-0.3,1.9-1.8,3.9-3.5,4.2c0.3,0.2,0.7,0.3,1.2,0.3C137.2,23.5,137.9,20.3,136.5,18.8z"/>
		</g>
		<g>
			<path fill="#FDD1D7" d="M116,26.4c-0.2,0-0.5,0.1-0.7,0.2c-1.3,0.6-2.1,2.4-0.9,3.5c0.4,0.4,0.8,0.6,1.2,0.7
				C116.8,30.1,116.8,27.8,116,26.4z"/>
			<path fill="#F2B0BB" d="M116.7,26.4c-0.2-0.1-0.5-0.1-0.7-0.1c0.8,1.4,0.8,3.7-0.4,4.4C118.1,31.4,120,27.2,116.7,26.4z"/>
		</g>
		<g>
			<path fill="#FDD1D7" d="M108.3,38.7c-0.6-0.2-1.2-0.1-1.7,0.3c-1.1,0.7-1.4,2.2-0.7,3.1C107.7,41.8,108.5,40.3,108.3,38.7z"/>
			<path fill="#F2B0BB" d="M108.4,38.8C108.4,38.8,108.4,38.8,108.4,38.8c0.1,1.6-0.7,3.1-2.4,3.3c0.3,0.4,0.8,0.7,1.5,0.7
				C109.4,42.8,110.6,39.5,108.4,38.8z"/>
		</g>
		<g>
			<path fill="#F2B0BB" d="M155.8,5.4c-1.8-0.7-2.2-3.2-1.1-4.7c-0.1,0.1-0.2,0.1-0.3,0.2c-0.3,0.3-0.5,0.6-0.7,1
				c-2.5,5,4.3,6.5,6.3,3.6c-0.5-0.1-1-0.1-1.4-0.1C157.7,5.4,156.7,5.7,155.8,5.4z"/>
			<path fill="#FDD1D7" d="M160.6,3.3c-0.2-3-3.8-4.2-5.9-2.6c-1.1,1.4-0.7,4,1.1,4.7c0.9,0.3,2,0,2.8,0c0.4,0,0.9,0,1.4,0.1
				C160.5,5,160.7,4.2,160.6,3.3z"/>
		</g>
		<path fill="#FFE4E8" d="M157.2,1.5c-0.7,0.6-0.4,2.4,1.1,2.3c1.8-0.2,1.4-2.1-0.1-2.5C157.8,1.2,157.4,1.3,157.2,1.5z"/>
		<path fill="#FFE4E8" d="M179.6,21c0.1,0.1,0.2,0.3,0.3,0.3c0.9,0.5,1.6-0.9,0.8-1.5C180,19.3,179.3,20.3,179.6,21z"/>
		<path fill="#FFE4E8" d="M198.4,30.2c1.5-0.2-0.3-2.7-0.7-1c-0.1,0.3,0,0.5,0.1,0.7C197.9,30.1,198.1,30.2,198.4,30.2z"/>
		<path fill="#FFE4E8" d="M206,41.9c0.8,0.5,1.3-0.8,0.7-1.3C205.9,40.1,205.3,41.5,206,41.9z"/>
		<path fill="#FFE4E8" d="M133.3,19.3c-0.9,0.2-1.3,1.6,0.2,1.6c0.3-0.4,0.3-0.8,0-1.3L133.3,19.3z"/>
		<path fill="#FFE4E8" d="M115,27.7C115,27.8,114.9,27.8,115,27.7c-0.7,0.3-0.6,1.4,0.1,1.4C116,29.1,115.8,27.5,115,27.7z"/>
		<path fill="#FFE4E8" d="M106.4,41c0,0.2,1.3-0.4,1-1.1C107,38.8,106.3,40.4,106.4,41z"/>
	</g>
	<path opacity="0.2" fill="#97471F" d="M116.7,70.7c0,0,0.1-0.1,0.2-0.4c0.1-0.3,0.3-0.7,0.6-1.2c0.1-0.3,0.3-0.5,0.5-0.8
		c0.2-0.3,0.4-0.6,0.6-1c0.4-0.7,1-1.4,1.6-2.2c0.6-0.8,1.3-1.6,2.1-2.5c0.8-0.8,1.7-1.7,2.6-2.5c1-0.8,2-1.6,3.1-2.4
		c1.1-0.7,2.3-1.4,3.5-2c1.2-0.6,2.5-1.1,3.8-1.4c1.3-0.4,2.6-0.6,3.9-0.7c0.6-0.1,1.3,0,1.9,0c0.3,0,0.6,0,0.9,0.1
		c0.3,0,0.6,0,0.9,0.1c0.6,0.1,1.2,0.2,1.7,0.3c0.3,0.1,0.5,0.1,0.8,0.2c0.3,0.1,0.5,0.2,0.7,0.2c0.5,0.2,0.9,0.3,1.4,0.5
		c0.2,0.1,0.4,0.2,0.6,0.3c0.2,0.1,0.4,0.2,0.6,0.3c0.7,0.4,1.3,0.8,1.8,1.1c0.5,0.3,0.8,0.6,1.1,0.8c0.2,0.2,0.4,0.3,0.4,0.3
		s-0.1-0.1-0.4-0.2c-0.3-0.1-0.7-0.3-1.2-0.6c-0.5-0.2-1.2-0.5-1.9-0.8c-0.2-0.1-0.4-0.1-0.6-0.2c-0.2-0.1-0.4-0.1-0.6-0.2
		c-0.2-0.1-0.4-0.1-0.7-0.2c-0.2-0.1-0.5-0.1-0.7-0.2c-0.2,0-0.5-0.1-0.7-0.2c-0.2,0-0.5-0.1-0.8-0.1c-0.5-0.1-1-0.1-1.6-0.2
		c-0.3,0-0.5,0-0.8,0c-0.3,0-0.6,0-0.8,0c-0.6,0.1-1.2,0.1-1.7,0.1c-0.6,0.1-1.2,0.2-1.8,0.3c-0.3,0.1-0.6,0.1-0.9,0.2l-0.4,0.1
		l-0.4,0.1c-1.2,0.3-2.4,0.8-3.5,1.4c-1.2,0.5-2.3,1.2-3.4,1.8c-1.1,0.7-2.1,1.4-3.1,2.1c-1,0.7-1.9,1.5-2.7,2.2
		c-0.8,0.8-1.6,1.5-2.3,2.2c-0.2,0.2-0.3,0.3-0.5,0.5c-0.2,0.2-0.3,0.3-0.5,0.5c-0.3,0.3-0.6,0.6-0.9,0.9c-0.3,0.3-0.5,0.6-0.7,0.8
		c-0.2,0.3-0.4,0.5-0.6,0.7c-0.4,0.4-0.7,0.8-0.9,1C116.8,70.5,116.7,70.7,116.7,70.7z"/>
	<path opacity="0.2" fill="#97471F" d="M195.9,72.2c0,0-0.1-0.2-0.3-0.4c-0.2-0.3-0.5-0.7-0.9-1.2c-0.2-0.3-0.4-0.5-0.7-0.8
		c-0.3-0.3-0.5-0.6-0.9-1c-0.6-0.7-1.3-1.4-2.1-2.2c-0.8-0.8-1.7-1.6-2.7-2.4c-1-0.8-2-1.6-3.2-2.4c-1.1-0.8-2.3-1.5-3.6-2.1
		c-1.2-0.7-2.5-1.2-3.8-1.7c-1.3-0.5-2.6-0.8-3.9-1c-1.3-0.2-2.6-0.3-3.8-0.2c-0.6,0-1.2,0.1-1.7,0.2c-0.3,0.1-0.5,0.1-0.8,0.2
		c-0.3,0.1-0.5,0.1-0.8,0.2c-0.5,0.2-1,0.3-1.4,0.6c-0.2,0.1-0.4,0.2-0.7,0.3c-0.2,0.1-0.4,0.2-0.6,0.4c-0.4,0.2-0.8,0.5-1.1,0.8
		c-0.2,0.1-0.3,0.3-0.5,0.4c-0.1,0.1-0.3,0.3-0.4,0.4c-0.6,0.5-1,1-1.3,1.4c-0.3,0.4-0.6,0.8-0.7,1c-0.2,0.2-0.2,0.4-0.2,0.4
		s0.1-0.1,0.3-0.3c0.2-0.2,0.5-0.5,0.9-0.8c0.4-0.3,0.9-0.7,1.5-1.1c0.1-0.1,0.3-0.2,0.5-0.3c0.2-0.1,0.3-0.2,0.5-0.3
		c0.2-0.1,0.4-0.2,0.5-0.3c0.2-0.1,0.4-0.2,0.6-0.3c0.2-0.1,0.4-0.2,0.6-0.3c0.2-0.1,0.4-0.1,0.7-0.2c0.4-0.2,0.9-0.3,1.4-0.4
		c0.2-0.1,0.5-0.1,0.7-0.1c0.3,0,0.5-0.1,0.8-0.1c0.5,0,1.1-0.1,1.6-0.1c0.6,0,1.1,0,1.7,0.1c0.3,0,0.6,0.1,0.9,0.1l0.4,0.1l0.4,0.1
		c1.2,0.2,2.4,0.6,3.6,1c1.2,0.4,2.4,1,3.6,1.5c1.2,0.6,2.3,1.2,3.4,1.9c1.1,0.7,2.2,1.4,3.1,2.1c1,0.7,1.9,1.4,2.8,2.1
		c0.2,0.2,0.4,0.3,0.6,0.5c0.2,0.2,0.4,0.3,0.6,0.5c0.4,0.3,0.7,0.6,1.1,0.9c0.3,0.3,0.6,0.6,0.9,0.8c0.3,0.3,0.6,0.5,0.8,0.7
		c0.5,0.4,0.8,0.8,1.1,1C195.8,72.1,195.9,72.2,195.9,72.2z"/>
	<path opacity="0.2" fill="#97471F" d="M207,75.8c0,0-0.1-0.2-0.3-0.6c-0.2-0.4-0.4-1-0.8-1.7c-0.2-0.4-0.4-0.7-0.6-1.2
		c-0.2-0.4-0.5-0.9-0.8-1.3c-0.6-0.9-1.3-2-2.1-3.1c-0.8-1.1-1.7-2.3-2.8-3.4c-1.1-1.2-2.2-2.4-3.5-3.5c-1.3-1.2-2.7-2.3-4.2-3.3
		c-1.5-1-3.1-2-4.7-2.9c-1.7-0.8-3.4-1.6-5.2-2.1c-1.8-0.5-3.6-0.9-5.3-1.1c-0.9-0.1-1.7-0.1-2.6-0.1c-0.4,0-0.8,0-1.3,0.1
		c-0.4,0-0.8,0-1.2,0.1c-0.8,0.1-1.6,0.2-2.3,0.4c-0.4,0.1-0.7,0.2-1.1,0.2c-0.3,0.1-0.7,0.2-1,0.3c-0.7,0.2-1.3,0.4-1.9,0.7
		c-0.3,0.1-0.6,0.2-0.9,0.4c-0.3,0.1-0.5,0.3-0.8,0.4c-1,0.5-1.8,1-2.5,1.4c-0.7,0.4-1.2,0.8-1.5,1.1c-0.3,0.3-0.5,0.4-0.5,0.4
		s0.2-0.1,0.6-0.3c0.4-0.2,0.9-0.4,1.7-0.7c0.7-0.3,1.6-0.6,2.6-1c0.3-0.1,0.5-0.2,0.8-0.3c0.3-0.1,0.6-0.1,0.9-0.2
		c0.3-0.1,0.6-0.1,0.9-0.2c0.3-0.1,0.6-0.1,0.9-0.2c0.3-0.1,0.7-0.1,1-0.2c0.3,0,0.7-0.1,1-0.1c0.7-0.1,1.4-0.1,2.2-0.1
		c0.4,0,0.7,0,1.1,0c0.4,0,0.8,0,1.2,0c0.8,0.1,1.6,0.1,2.4,0.3c0.8,0.1,1.6,0.3,2.4,0.5c0.4,0.1,0.8,0.2,1.2,0.3l0.6,0.2l0.6,0.2
		c1.6,0.5,3.2,1.2,4.8,2c1.6,0.8,3,1.7,4.5,2.6c1.4,0.9,2.8,2,4.1,3c1.3,1,2.5,2.1,3.6,3.1c1.1,1.1,2.1,2.1,3,3
		c0.2,0.2,0.4,0.5,0.7,0.7c0.2,0.2,0.4,0.5,0.6,0.7c0.4,0.4,0.8,0.9,1.1,1.3c0.4,0.4,0.7,0.8,1,1.2c0.3,0.4,0.6,0.7,0.8,1
		c0.5,0.6,0.9,1.1,1.1,1.5C206.9,75.6,207,75.8,207,75.8z"/>
</g>
</svg>
