<svg width="294" height="189" viewBox="0 0 294 189" fill="none" xmlns="http://www.w3.org/2000/svg">
<g clip-path="url(#clip0)">
<path d="M26.6 182.4C17.5 182.4 11.4 181.8 6 177.3C3.7 175.4 1.1 173.5 0.3 170.7C-0.5 167.9 0.8 164.4 3.8 163.5C2 162.9 1.3 160.8 1.2 159C0.9 154.9 2.3 150.5 5.7 147.9C9.1 145.3 14.6 145.2 17.5 148.2C15.5 145.9 16.6 142.3 19 140.4C21.4 138.5 24.6 137.9 27.6 137.4C29.5 137 31.4 136.9 33.4 137C35.9 137.2 38.4 138.1 40.6 139.4C45.9 142.5 49.7 147.7 51.2 153.7C52.5 159.7 51.2 165.9 47.7 170.8C45.4 174 41.4 176.8 37.6 175.5" fill="#B0CE67"/>
<path d="M247.6 179.4C192.5 179.5 74 179.5 19.3 179.4C19.9 121.6 63.3 74.1 119.2 67.2C124.2 66.6 129.3 66.3 134.5 66.3C196.8 66.9 247 117.2 247.6 179.4Z" fill="#C2E4EE"/>
<path d="M117.1 67.5C117.1 67.5 77.3 74 54.5 98.1C31.7 122.2 19.8 147 19.3 179.5H70.7C70.7 179.4 44.6 107 117.1 67.5Z" fill="#98D8D8"/>
<path d="M226.9 114.9C226.9 114.9 209.4 112 186.9 113.6C186.9 113.6 188.9 102.8 181.5 94C170.6 81 150.7 67.3 147.5 67.1C142.1 66.8 193.4 67.7 226.9 114.9Z" fill="#98D8D8"/>
<path d="M212.8 151C210.8 140.1 207.5 129.5 202.9 119.3L204.7 118.5C209.3 128.8 212.7 139.6 214.7 150.6L212.8 151Z" fill="#35ACB3"/>
<path d="M181.5 87.7C167.5 73.6 150.8 66.5 133 66.3C133 66.3 145.6 65.9 156.9 68.7C165.1 70.7 174.9 78.3 182.9 86.3L181.5 87.7Z" fill="#35ACB3"/>
<path d="M23.5 149.8H240.9V151.8H22.9L23.5 149.8Z" fill="#35ACB3"/>
<path d="M38 117.9H231.4V119.9H36.7L38 117.9Z" fill="#35ACB3"/>
<path d="M69.3 86H197.6L200.5 88H66.6L69.3 86Z" fill="#35ACB3"/>
<path d="M233.4 179.4H231.4C231.4 169.9 230.4 160.4 228.3 151.1L230.3 150.7C232.4 160.1 233.4 169.7 233.4 179.4Z" fill="#35ACB3"/>
<path d="M215.7 118.5C209.4 106.7 201 96.2 190.9 87.5L192.2 86C202.5 94.9 211 105.6 217.5 117.6L215.7 118.5Z" fill="#35ACB3"/>
<path d="M38.7 151.1L36.7 150.7C39.2 139.5 43.2 128.7 48.7 118.5L50.5 119.5C45.1 129.4 41.1 140 38.7 151.1Z" fill="#35ACB3"/>
<path d="M64.3 119.3L62.5 118.5C67.8 106.6 75.1 95.6 84.2 86.3L85.6 87.7C76.7 96.9 69.5 107.6 64.3 119.3Z" fill="#35ACB3"/>
<path d="M51.9 179.4H49.9C49.9 169.8 50.8 160.2 52.5 150.7L54.5 151.1C52.8 160.4 51.9 169.9 51.9 179.4Z" fill="#35ACB3"/>
<path d="M196.3 179.4H194.3C194.3 169.9 193.7 160.4 192.4 151L194.4 150.7C195.7 160.2 196.3 169.8 196.3 179.4Z" fill="#35ACB3"/>
<path d="M185 119.3C180.8 106.9 175.4 96.3 169 87.7L170.6 86.5C177.1 95.3 182.6 106.1 186.9 118.7L185 119.3Z" fill="#35ACB3"/>
<path d="M97.9 87.6L96.3 86.4C103.2 77.1 111.4 70.5 119.6 67.1C121 66.5 132.2 66.3 132.2 66.3C119.4 66.3 108.3 73.6 97.9 87.6Z" fill="#35ACB3"/>
<path d="M74.6 151L72.6 150.7C74.1 139.8 76.6 129 80.1 118.6L82 119.3C78.5 129.6 76 140.2 74.6 151Z" fill="#35ACB3"/>
<path d="M170.8 150.9C169.9 140.2 168.3 129.6 166 119.1L168 118.7C170.2 129.3 171.8 139.9 172.8 150.7L170.8 150.9Z" fill="#35ACB3"/>
<path d="M155.8 87.5C149.2 73.6 141.5 66.3 133.5 66.3C133.5 66.3 141.5 66.5 142.1 66.8C148 69.7 153 76.9 157.6 86.7L155.8 87.5Z" fill="#35ACB3"/>
<path d="M100.9 119.2L98.9 118.8C101.6 106.2 105.1 95.4 109.3 86.7L111.1 87.5C107.1 96.1 103.6 106.7 100.9 119.2Z" fill="#35ACB3"/>
<path d="M95 179.4H93C93 169.7 93.4 160.1 94.2 150.8L96.2 151C95.4 160.2 95 169.7 95 179.4Z" fill="#35ACB3"/>
<path d="M150 179.4H148C148 169.7 147.8 160.2 147.5 150.9L149.5 150.8C149.9 160.1 150 169.7 150 179.4Z" fill="#35ACB3"/>
<path d="M145.7 119C144.6 106.5 143.3 95.8 141.7 87.2L143.7 86.8C145.3 95.5 146.7 106.3 147.8 118.8L145.7 119Z" fill="#35ACB3"/>
<path d="M125.3 87.2L123.3 86.8C125.6 74.6 127.9 68.9 129.9 66.4C129.9 66.4 133.1 66.3 133 66.3C131.6 66.6 128.6 70.1 125.3 87.2Z" fill="#35ACB3"/>
<path d="M119.4 150.9L117.4 150.8C117.8 139.5 118.4 128.8 119.3 118.8L121.3 119C120.4 128.9 119.8 139.6 119.4 150.9Z" fill="#35ACB3"/>
<path d="M164.4 143C164.4 147.3 164.6 174.1 164.4 179.4H214.8V113.8H193.5C177.5 113.9 164.4 126.9 164.4 143Z" fill="#C2E4EE"/>
<path d="M165.4 179.5L163.4 179.4C163.5 175.4 163.5 158.3 163.4 149.1C163.4 146.2 163.4 144 163.4 143C163.4 126.4 176.9 112.9 193.5 112.9H214.8V114.9H193.5C178 114.9 165.4 127.5 165.4 143C165.4 144 165.4 146.2 165.4 149.1C165.5 159 165.6 175.4 165.4 179.5Z" fill="#35ACB3"/>
<path d="M176.1 179.5L174.1 179.4C174.2 175.4 174.2 158.3 174.1 149.1C174.1 146.2 174.1 144 174.1 143C174.1 126.4 187.6 112.9 204.2 112.9V114.9C188.7 114.9 176.1 127.5 176.1 143C176.1 144 176.1 146.2 176.1 149.1C176.1 159 176.2 175.4 176.1 179.5Z" fill="#35ACB3"/>
<path d="M194.3 121.3H183.7V123.3H194.3V121.3Z" fill="#35ACB3"/>
<path d="M185.7 150H175.1V152H185.7V150Z" fill="#35ACB3"/>
<path d="M175.9 164.9H165.3V166.9H175.9V164.9Z" fill="#35ACB3"/>
<path d="M175.9 132.3H165.3V134.3H175.9V132.3Z" fill="#35ACB3"/>
<path d="M185.7 143C185.7 147.3 185.9 174.1 185.7 179.4H244V143C244 126.9 231 113.9 214.9 113.9C198.8 113.9 185.7 126.9 185.7 143Z" fill="#C2E4EE"/>
<path d="M234.4 142.1L244 141.7V143.7L234.4 144.1V142.1Z" fill="#35ACB3"/>
<path d="M192.5 123L193.9 121.6L202.1 129.6L200.6 131L192.5 123Z" fill="#35ACB3"/>
<path d="M184.7 144.5V142.5H196.2L196.1 144.5H184.7Z" fill="#35ACB3"/>
<path d="M223.3 126.8L228.9 116.4L230.6 117.4L225 127.7L223.3 126.8Z" fill="#35ACB3"/>
<path d="M244 164.9H185.7V166.9H244V164.9Z" fill="#35ACB3"/>
<path d="M186.7 179.5L184.7 179.4C184.8 175.4 184.8 158.3 184.7 149.1C184.7 146.2 184.7 144 184.7 143C184.7 126.3 198.2 112.8 214.8 112.8C231.4 112.8 245 126.3 245 143V179.4H243V143C243 127.5 230.4 114.9 214.9 114.9C199.4 114.9 186.8 127.5 186.8 143C186.8 144 186.8 146.2 186.8 149.1C186.8 159 186.8 175.4 186.7 179.5Z" fill="#35ACB3"/>
<path d="M259.3 121L257.8 147.4L253.6 141.9C253.2 141.4 252.4 141.2 251.9 141.7C251.5 142 251.3 142.6 251.5 143.1L257 158.8L256.1 181.8H267V121H259.3Z" fill="#7E6467"/>
<path d="M293.4 52.7L291.2 10.2L283.7 5.30001C268.7 -4.49999 248.6 -0.19999 238.8 14.8C236.6 18.2 235 22 234.2 26L225 71.6L249.4 133.3L282.6 124.2L293.4 52.7Z" fill="#B4CE5C"/>
<path d="M291.3 10.2L275 1.60001L245.2 82L225 71.6L249.4 133.3L282.6 124.2L293.4 52.7L291.3 10.2Z" fill="#A4B45C"/>
<path d="M9.8 179.4L0 188H133.5C138.3 185.1 143.2 182.2 148.1 179.4H9.8Z" fill="#A4B45C"/>
<path d="M285.7 188L274 179.4H148.1C143.2 182.2 138.3 185.1 133.5 188H285.7Z" fill="#B0CE67"/>
<path d="M234.4 179.5V145.6C234.4 145.6 234.8 138.7 231.1 133.3C227.4 127.9 223.3 124.6 214.8 124.6C204.3 124.6 199.7 131.8 199.7 131.8C199.7 131.8 195.9 135 195.3 144.4C194.7 153.8 195.3 179.3 195.3 179.3L234.4 179.5Z" fill="#247175"/>
</g>
<defs>
<clipPath id="clip0">
<rect width="293.4" height="188.1" fill="white"/>
</clipPath>
</defs>
</svg>
