<svg width="63" height="57" viewBox="0 0 63 57" fill="none" xmlns="http://www.w3.org/2000/svg">
<g clip-path="url(#clip0)">
<path d="M5.9 28.5C5.4 28.5 4.9 28.4 4.4 28.3C2.5 27.7 1.1 26.2 0.400004 24.4C-0.0999964 23.4 3.51667e-06 22.1 0.600004 21.1C2.1 19 6.2 19 7 19.1C7.8 19.1 8.5 19.8 8.4 20.7C8.3 21.6 7.7 22.2 6.8 22.1C5.2 22 3.4 22.4 3 22.9C3 22.9 3 23.1 3.1 23.3C3.4 24.3 4.2 25.1 5.2 25.5C5.7 25.7 6.3 25.6 6.8 25.4C7.4 24.9 8.4 25 8.9 25.6C9.4 26.2 9.3 27.2 8.7 27.7C8.6 27.7 8.6 27.8 8.5 27.8C7.8 28.3 6.8 28.6 5.9 28.5Z" fill="#3F3B49"/>
<path d="M29 11C28.8 10.5 28.3 10.2 27.8 10.1C27.6 10 27.3 10 27.1 10C26.8 10 26.6 10.1 26.4 10.2C25.9 10.4 25.6 10.8 25.4 11.4C25.3 11.6 26.3 10.9 27.2 10.8C27.8 10.8 28.4 10.9 29 11Z" fill="black"/>
<path d="M13 43.9C12.5 43.9 12 43.6 11.7 43.1C10.2 40.4 9.1 37.5 8.2 34.5C5.9 25.5 5.9 18.2 8 12.7C9.5 9.1 12 6 15.2 3.8C18.6 1.4 24.2 0 30.9 0C31.7 0.1 32.3 0.8 32.2 1.6C32.1 2.3 31.6 2.9 30.9 2.9C24.9 2.9 19.8 4.1 17 6.2C13.2 9.1 6.1 14.3 11 33.8C11.8 36.5 12.9 39.2 14.2 41.7C14.6 42.4 14.3 43.3 13.6 43.7C13.5 43.9 13.2 43.9 13 43.9Z" fill="#3F3B49"/>
<path d="M56.3 28.5C55.4 28.5 54.5 28.3 53.7 27.7C53 27.2 52.9 26.3 53.3 25.6C53.7 24.9 54.7 24.8 55.4 25.2C55.9 25.5 56.5 25.5 57 25.3C58 24.9 58.8 24.1 59.1 23.1C59.2 22.9 59.2 22.7 59.2 22.7C58.8 22.2 56.8 21.8 55.4 21.9C54.6 21.9 53.9 21.3 53.8 20.5C53.7 19.7 54.4 19 55.2 18.9C56 18.9 60.1 18.8 61.6 21C62.3 22 62.3 23.2 61.8 24.3C61.1 26.1 59.7 27.6 57.8 28.2C57.3 28.4 56.8 28.5 56.3 28.5Z" fill="#3F3B49"/>
<path d="M49.2 43.9C49 43.9 48.7 43.8 48.5 43.7C47.8 43.3 47.5 42.4 47.9 41.7C49.3 39.2 50.3 36.5 51.1 33.8C56.1 14.3 49 9 45.1 6.2C42.3 4.1 37.2 2.9 31.2 2.9C30.4 2.8 29.8 2.1 29.9 1.3C29.9 0.6 30.5 0 31.2 0C38 0 43.5 1.4 46.9 3.8C50.1 6 52.7 9.1 54.1 12.7C56.3 18.2 56.2 25.5 53.9 34.5C53.1 37.5 51.9 40.4 50.4 43.1C50.2 43.6 49.8 43.9 49.2 43.9Z" fill="#3F3B49"/>
<path d="M33.7 56.2H28.2C28.1 56.2 28 56.2 27.9 56.1C25.6 54.2 24.9 50.6 24.5 47.7C24.4 47.1 24.3 46.6 24.2 46.1C24.1 45.8 24.3 45.5 24.6 45.5C24.9 45.4 25.2 45.6 25.2 45.9C25.3 46.4 25.4 46.9 25.5 47.5C26 50.1 26.5 53.4 28.4 55.1H33.5C34.9 53.7 37.1 48.7 37.1 46C37.1 45.7 37.4 45.5 37.6 45.5C37.9 45.5 38.1 45.7 38.1 46C38.1 49 35.7 54.6 33.9 56.1C34 56.1 33.8 56.2 33.7 56.2ZM31 52C30.7 52 30.5 51.7 30.5 51.5V38.8C30.5 38.5 30.7 38.3 31 38.3C31.3 38.3 31.5 38.5 31.5 38.8V51.4C31.6 51.7 31.3 52 31 52Z" fill="#3F3B49"/>
<path d="M42.8 48.4C42.3 48.4 41.8 48.3 41.4 48.2C35.1 46.8 31.1 42.4 29.9 35.6V35.5V31.7C29.9 30.9 30.5 30.3 31.3 30.3C32.1 30.3 32.7 30.9 32.7 31.7V35.3C33.7 41 36.9 44.4 42.1 45.6H42.3C43.2 45.8 44.2 45.6 44.9 45C46.5 44.1 48.7 41.8 50.7 35.7C51 35 51.8 34.7 52.5 34.9C53.1 35.2 53.5 35.9 53.3 36.5C51.4 42.3 48.8 46.1 45.7 47.6C44.9 48.2 43.9 48.4 42.8 48.4Z" fill="#3F3B49"/>
<path d="M19.3 48.4C18.3 48.4 17.3 48.2 16.4 47.7C13.3 46.2 10.7 42.5 8.8 36.6C8.6 35.9 9 35.1 9.7 34.8C10.4 34.5 11.2 35 11.5 35.7C13.6 42.1 16 44.3 17.7 45.2C18.4 45.6 19.2 45.7 20 45.6H20.2C23.3 45 26 43.2 27.7 40.5C31.6 34.1 29.3 24.4 29.2 24.4C29.1 23.6 29.6 22.9 30.3 22.8C31 22.7 31.7 23.1 31.9 23.7C32 24.2 34.6 34.6 30 42C27.9 45.3 24.6 47.6 20.8 48.3C20.3 48.4 19.8 48.4 19.3 48.4Z" fill="#3F3B49"/>
<path d="M37.1 22.6C35.5 24.5 33.4 25.9 31.1 26.7C26.3 25.2 24.6 22.5 22.7 18.7C27.5 16.5 31.8 15.9 35.7 16.9C37 17.2 38.3 17.7 39.5 18.4C38.8 19.9 38 21.3 37.1 22.6Z" fill="black"/>
<path d="M31.9 11.1C32.1 11.6 32.5 11.9 33 12C33.5 12.2 34 12.1 34.5 11.8C35 11.6 35.3 11.1 35.4 10.7C35.5 10.5 35.5 10.2 35.5 9.90001C35.5 9.60001 35.4 9.40001 35.3 9.20001C35 8.70001 34.6 8.40001 34.1 8.30001C33.9 8.20001 33.6 8.20001 33.3 8.20001C33.1 8.20001 32.8 8.30001 32.6 8.40001C32.1 8.60001 31.8 9.10001 31.6 9.60001C31.5 10.2 31.6 10.7 31.9 11.1Z" fill="black"/>
</g>
<defs>
<clipPath id="clip0">
<rect width="62.2" height="56.2" fill="white"/>
</clipPath>
</defs>
</svg>
