<?xml version="1.0" encoding="utf-8"?>
<!-- Generator: Adobe Illustrator 23.0.3, SVG Export Plug-In . SVG Version: 6.00 Build 0)  -->
<svg version="1.1" id="Calque_1" xmlns="http://www.w3.org/2000/svg" xmlns:xlink="http://www.w3.org/1999/xlink" x="0px" y="0px"
	 viewBox="0 0 28 28" enable-background="new 0 0 28 28" xml:space="preserve">
<ellipse id="Ellipse_178" fill="#B0C365" cx="14" cy="14" rx="14" ry="14"/>
<g id="home-button_1_" transform="translate(5.077 -34.479)">
	<path id="Tracé_923" fill="#FFFFFF" d="M17.8,47.5L9.7,41l-0.4-0.4c-0.2-0.1-0.4-0.1-0.6,0l-2.3,1.9v-0.8c0-0.3-0.2-0.5-0.5-0.5h0
		H4.2c-0.3,0-0.5,0.2-0.5,0.5l0,0v3l-3.5,2.9c-0.2,0.2-0.2,0.4-0.1,0.6c0.2,0.2,0.4,0.2,0.6,0.1l1.4-1.1v7.6c0,0.3,0.2,0.5,0.5,0.5
		c0,0,0,0,0,0h4.9c0.3,0,0.5-0.2,0.5-0.5l0,0v-3.5h2.1v3.5c0,0.3,0.2,0.5,0.5,0.5c0,0,0,0,0,0h4.9c0.3,0,0.5-0.2,0.5-0.5l0,0v-7.7
		l1.4,1.1c0.2,0.2,0.5,0.1,0.6-0.1C18,48,18,47.7,17.8,47.5L17.8,47.5z M4.6,42.2h0.8v1.1L4.6,44V42.2z M14.9,46.5v7.8h-4v-3.5
		c0-0.3-0.2-0.5-0.5-0.5c0,0,0,0,0,0h-3c-0.3,0-0.5,0.2-0.5,0.5l0,0v3.5H3v-7.8L4.8,45c0,0,4.2-3.4,4.2-3.5L14.9,46.5z"/>
</g>
</svg>
