<?xml version="1.0" encoding="utf-8"?>
<!-- Generator: Adobe Illustrator 23.0.2, SVG Export Plug-In . SVG Version: 6.00 Build 0)  -->
<svg version="1.1" id="Calque_1" xmlns="http://www.w3.org/2000/svg" xmlns:xlink="http://www.w3.org/1999/xlink" x="0px" y="0px"
	 viewBox="0 0 59.9 62.8" enable-background="new 0 0 59.9 62.8" xml:space="preserve">
<g>
	<g>
		<g>
			<g>
				<g>
					<path fill="#E8DCC4" d="M0,52.4C0.1,52.3,0,52.5,0,52.4L0,52.4z"/>
				</g>
			</g>
		</g>
		<g opacity="0.15">
			<g>
				<path fill="#211C1A" d="M49.7,38.2C49.6,38.1,49.6,38.1,49.7,38.2c-0.2-0.1-0.4-0.2-0.6-0.3l0.6-1.4c-1.4-4.8-4.1-8.4-8.1-10.8
					c0,0-0.1,0-0.1-0.1"/>
			</g>
		</g>
		<g>
			<g>
				<path fill="#B0C264" d="M39.5,51"/>
			</g>
		</g>
		<g>
			<g>
				<path fill="none" stroke="#3F3B49" stroke-width="2.7108" stroke-linecap="round" stroke-miterlimit="10" d="M39.5,51"/>
			</g>
		</g>
		<g>
			<g>
				<path fill="#B0C264" d="M48.8,47.7c0,0,1.3-0.6,2-6.7c0.6-5.3,4.5-4.8,6.2-6.7c2-2.3,1.3-4.1-3.1-3.9c-2,0.1-3.7-4.4-4.2-5.5
					c-1.3-3.1-6.1-7.6-6.1-7.6l-3.4-1.8L32,13.8l-7.9,0.9l-8.7,1.5l-4.8,2.6L7.1,30.5L7,43l3.6,8l1.5,3.9l3.4-2.9l6.7,2.6l11.5,0.7
					l4.5-1.8C38.2,53.4,47.8,49.7,48.8,47.7"/>
			</g>
		</g>
		<g>
			<g>
				<path fill="#3F3B49" d="M12.8,55.9c0.2,0,0.5-0.1,0.7-0.2c8.1-4.6,7.4-14.1,7.4-14.5c-0.1-0.7-0.7-1.3-1.5-1.2
					c-0.7,0.1-1.3,0.7-1.2,1.5c0,0.4,0.5,8.2-6,11.9c-0.7,0.4-0.9,1.2-0.5,1.8C11.8,55.6,12.3,55.9,12.8,55.9z"/>
			</g>
		</g>
		<g>
			<g>
				<path fill="#3F3B49" d="M54.6,37.4c0.5,0,0.9-0.1,1.4-0.2c1.6-0.5,2.9-1.7,3.7-3.6c0.6-1.4,0.2-2.4-0.2-3
					c-1.4-2-5.1-1.9-5.8-1.9c-0.7,0-1.3,0.7-1.3,1.4c0,0.7,0.7,1.4,1.4,1.3c1.5-0.1,3.2,0.3,3.5,0.7c0,0,0,0.2-0.1,0.4
					c-0.6,1.3-1.4,1.8-1.9,2c-0.7,0.2-1.2,0-1.5-0.1c-0.6-0.4-1.5-0.3-1.9,0.3c-0.4,0.6-0.3,1.5,0.3,1.9
					C52.8,37.2,53.7,37.4,54.6,37.4z"/>
			</g>
		</g>
		<g>
			<g>
				<g>
					<path fill="#E8DCC4" d="M17.1,51.6C17.1,51.5,17.1,51.8,17.1,51.6L17.1,51.6z"/>
				</g>
			</g>
			<g>
				<g>
					<path fill="#E8DCC4" d="M23.1,51.3c-1.4-1.6-2.7-2.7-3.1-4.7c-0.6,2.3-1.8,4-2.9,5.4c0,2.7,0.4,4.7,0.9,6.7
						c0.1,0.2,0.1,0.4,0.2,0.6c0,0,0,0.1,0,0.1c0,0,0,0.1,0,0.1c0.2,0.6,0.7,2.4,0.9,3l3.3,0c2.2-2,3.8-4.5,4.9-7.5
						C25.9,54,24.5,52.8,23.1,51.3z"/>
				</g>
			</g>
		</g>
		<g>
			<g id="Layer0_2_1_STROKES_241_">
				<g>
					<path fill="#3F3B49" d="M18.7,62.5c-0.2-0.3-0.4-1.2-0.7-2.2c-0.1-0.4-0.2-0.7-0.3-0.9l0-0.1c0-0.1-0.1-0.1-0.1-0.2
						c-0.1-0.2-0.1-0.4-0.2-0.6c-0.6-2.1-0.9-4-1-6.7c0-0.3,0.2-0.5,0.5-0.5c0.3,0,0.5,0.2,0.5,0.5c0,2.6,0.4,4.4,0.9,6.5
						c0.1,0.2,0.1,0.4,0.2,0.6c0,0,0,0,0,0.1c0,0,0,0.1,0,0.1l0,0.1c0.1,0.2,0.2,0.5,0.3,0.9c0.2,0.6,0.4,1.3,0.5,1.8l2.8-0.1
						c2.2-2,3.4-3.9,4.4-6.6c0.1-0.3,0.4-0.4,0.6-0.3c0.3,0.1,0.4,0.4,0.3,0.6c-1,3-2.4,5-4.8,7.1c-0.1,0.1-0.2,0.1-0.3,0.1
						l-3.3,0.1c0,0,0,0,0,0C18.9,62.8,18.8,62.7,18.7,62.5z M20,58.3l-0.1-1.4c-0.3-3.5-0.4-6-0.2-10.2c0-0.3,0.2-0.5,0.5-0.5
						c0.3,0,0.5,0.3,0.5,0.5c-0.3,4.2-0.1,6.7,0.2,10.1l0.1,1.4c0,0.3-0.2,0.5-0.5,0.5c0,0,0,0,0,0C20.2,58.7,20,58.5,20,58.3z"/>
				</g>
			</g>
		</g>
		<g>
			<g>
				<path fill="#3F3B49" d="M33.2,56.3c2.6,0,7.5-1.4,11-11.1c0.3-0.7-0.1-1.5-0.8-1.7s-1.5,0.1-1.7,0.8c-4,10.8-9.1,9.3-9.4,9.2
					l-0.2,0c-4.3-0.9-7.4-2.9-9.3-6c-3.8-6.1-1.6-14.6-1.5-14.7c0.2-0.7-0.2-1.5-1-1.7c-0.7-0.2-1.5,0.2-1.7,1
					c-0.1,0.4-2.6,9.7,1.8,16.8c2.3,3.7,6,6.2,11,7.2C31.8,56.2,32.4,56.3,33.2,56.3z"/>
			</g>
		</g>
		<g>
			<g id="Layer0_6_FILL_243_">
				<g>
					<g>
						<path d="M16.2,29c1,1.4,2.3,2.6,3.7,3.5c4-1.3,6.8-3.5,8.4-6.7c-4-1.8-7.7-2.3-10.9-1.5c-1.1,0.3-2.1,0.7-3.1,1.3
							C14.7,26.8,15.4,27.9,16.2,29z"/>
					</g>
				</g>
			</g>
		</g>
		<g>
			<g>
				<path d="M26.1,20c0,0.3,0.2,0.5,0.4,0.7c0.2,0.2,0.5,0.2,0.8,0.2c0.3,0,0.5-0.2,0.7-0.4c0.1-0.1,0.2-0.2,0.2-0.4
					c0-0.1,0-0.3,0-0.4c0-0.3-0.2-0.5-0.4-0.7c-0.1-0.1-0.2-0.1-0.4-0.2c-0.1,0-0.3,0-0.4,0c-0.3,0-0.5,0.2-0.7,0.4
					C26.1,19.4,26,19.7,26.1,20 M33.2,20.7c-0.1-0.5-0.3-0.9-0.7-1.2c-0.2-0.1-0.4-0.2-0.6-0.3c-0.2-0.1-0.4-0.1-0.7,0
					c-0.5,0.1-0.9,0.3-1.2,0.7c-0.1,0.2-0.2,0.4-0.3,0.6c0,0.2-0.1,0.5,0,0.7c0.1,0.5,0.3,0.9,0.7,1.1c0.4,0.3,0.9,0.4,1.3,0.3
					s0.9-0.3,1.1-0.7C33.1,21.6,33.2,21.1,33.2,20.7z"/>
			</g>
		</g>
		<g>
			<g>
				<path fill="#3F3B49" d="M12.8,55.9c0.3,0,0.7-0.1,0.9-0.4c0.5-0.5,0.5-1.4,0-1.9c-7.6-7.8-5.8-19.6-5.1-23
					c1.5-7.1,2.3-10.1,5.8-12.2c7.9-3,19-4.6,26.4-1.5c0.8,0.5,7.8,5.4,9.5,13.6c1.1,5.8-0.6,11.9-5.1,18.3
					c-0.4,0.6-0.3,1.5,0.3,1.9c0.6,0.4,1.5,0.3,1.9-0.3c5-7,6.8-13.9,5.5-20.4c-2-9.8-10.4-15.2-10.8-15.4L42,14.4
					c-8.1-3.5-20.2-1.8-28.6,1.4l-0.2,0.1C8.4,18.7,7.5,23,6,30c-3.2,14.9,3.6,23.3,5.8,25.5C12,55.7,12.4,55.9,12.8,55.9z"/>
			</g>
		</g>
	</g>
	<g>
		<path fill="#48342F" d="M46.9,31.6c-1.5-2.5-2.8-4.6-2.2-11.3c0,0-15.1-1-21.6-1.7c-7.8-0.9-25.4-5-17.7-17.1c0,0-0.9,5.4,3,4.9
			C12.2,5.7,22.2-2.1,34,0.5c11.6,2.6,13.4,8.2,13.4,8.2s8.4,1.5,9.8,6.1c1.8,5.8-4.6,26.2-4.6,26.2S48.3,33.9,46.9,31.6z"/>
	</g>
</g>
</svg>
