<?xml version="1.0" encoding="utf-8"?>
<!-- Generator: Adobe Illustrator 23.0.2, SVG Export Plug-In . SVG Version: 6.00 Build 0)  -->
<svg version="1.1" id="Calque_1" xmlns="http://www.w3.org/2000/svg" xmlns:xlink="http://www.w3.org/1999/xlink" x="0px" y="0px"
	 viewBox="0 0 242.6 257.3" enable-background="new 0 0 242.6 257.3" xml:space="preserve">
<g>
	<path fill="#F4E3D0" d="M48.8,216c-57.3,8.4-66.9,34.6-14.1,39.4s108.6-6.3,142.2,0s71.3-3.5,65-19.1S189.3,195.5,48.8,216z"/>
	<g>
		<polygon fill="#7E6467" points="65.2,233.2 48.8,7.8 190.6,0 175.8,233.2 		"/>
		<polygon fill="#FBCB8D" points="77.1,233.2 62.5,19.8 176.9,13.6 163.8,233.2 		"/>
		<polygon fill="#F7B46E" points="163.8,233.2 89.8,172.5 82.2,18.7 62.5,19.8 77.1,233.2 		"/>
		<polygon fill="#7E6467" points="155.7,104.1 144.9,104.1 141.8,127.5 155.7,127.5 		"/>
	</g>
</g>
</svg>
