<?xml version="1.0" encoding="utf-8"?>
<!-- Generator: Adobe Illustrator 23.0.3, SVG Export Plug-In . SVG Version: 6.00 Build 0)  -->
<svg version="1.1" id="Calque_1" xmlns="http://www.w3.org/2000/svg" xmlns:xlink="http://www.w3.org/1999/xlink" x="0px" y="0px"
	 viewBox="0 0 25.4 15.8" enable-background="new 0 0 25.4 15.8" xml:space="preserve">
<g id="Groupe_102" transform="translate(0 0)">
	<path id="Tracé_828" fill="#3F3B49" d="M25.3,8.3c0.1-0.2,0.1-0.5,0-0.8C21.5,0.5,12.8-2,5.9,1.7C3.4,3.1,1.4,5.1,0.1,7.5
		C0,7.7,0,8,0.1,8.3c3.8,7,12.5,9.5,19.4,5.8C22,12.7,24,10.7,25.3,8.3z M12.7,14c-3.3,0-6.1-2.7-6.1-6.1c0-3.3,2.7-6.1,6.1-6.1
		s6.1,2.7,6.1,6.1S16,14,12.7,14C12.7,14,12.7,14,12.7,14z"/>
	<path id="Tracé_829" fill="#3F3B49" d="M12.7,4.8c-0.2,0-0.5,0-0.7,0.1c0.6,0.7,0.5,1.7-0.2,2.3c-0.6,0.5-1.5,0.5-2.1,0
		c-0.4,1.7,0.6,3.3,2.3,3.7c1.7,0.4,3.3-0.6,3.7-2.3c0.4-1.7-0.6-3.3-2.3-3.7C13.2,4.8,12.9,4.8,12.7,4.8L12.7,4.8z"/>
</g>
</svg>
